599892
294854
305009
29804
2406
400
1249
2022
506
2256
1606
1251
1050
3756
1201
250
2406
956
151
250
1106
3801
1645
200
1006
201
400
856
306
1156
1106
1056
506
651
150
601
650
356
4451
745
1400
156
1256
1006
956
351
1700
206
551
600
806
506
1751
4100
3501
550
3906
806
2856
251
100
56
856
256
1756
656
56
456
856
156
1756
1451
650
506
56
656
556
701
1500
1106
1506
356
2156
1000
3155
756
1006
56
356
806
1050
649
449
605
150
1305
1401
1344
449
2055
156
506
301
1250
206
1956
100
355
251
250
1051
1350
406
806
806
256
101
1100
756
4106
806
151
750
1606
2351
400
356
906
701
1400
506
506
351
794
550
550
706
306
1456
1056
951
900
2106
1156
56
156
306
856
1206
1806
2056
150
1050
3494
1455
506
800
355
856
806
1056
1206
1601
700
656
406
406
256
1106
506
3006
56
951
595
800
506
1656
506
651
1800
1701
300
706
1506
1101
200
156
2351
1600
2006
806
2501
450
606
1106
1150
1305
556
856
256
206
706
4556
451
450
250
1450
850
1000
1705
650
949
1650
200
3000
1705
1106
851
300
200
1555
1150
605
56
2250
150
750
656
301
1094
155
556
506
650
249
155
2706
951
1345
1100
556
351
150
1751
650
2151
250
1356
306
301
700
2756
406
2656
201
100
256
556
656
1950
405
250
155
1251
650
301
1550
756
256
150
349
105
1006
651
1545
1300
351
650
351
245
245
600
106
2201
1345
1250
306
351
550
600
349
955
206
3050
155
756
651
645
500
906
106
1100
205
356
501
1250
956
806
1050
805
306
256
1051
800
301
700
1450
355
306
1256
750
2400
1000
456
356
2406
756
451
800
1651
444
149
905
56
650
455
806
701
1650
356
1606
2656
651
2095
500
2351
800
656
156
506
2306
506
206
1351
150
106
1406
450
650
150
3356
1350
1050
1150
306
206
106
1506
106
201
1394
705
250
655
201
1600
856
2656
2151
900
1006
1001
350
1556
1151
1400
506
2156
756
1106
156
556
3156
906
356
1556
556
1106
3456
156
1001
1250
901
3594
1600
1744
2250
200
156
1451
350
456
206
256
1106
106
1451
2200
956
1406
1056
101
650
1501
1745
800
400
705
1700
905
306
1706
101
350
306
401
344
105
206
56
1400
1055
806
1056
656
1356
2401
400
4506
1406
251
250
900
205
901
200
56
356
451
645
600
550
2055
656
601
545
1050
1206
356
1256
551
795
1450
2106
1206
1051
2450
1656
206
106
1256
1056
1706
1456
201
600
556
206
2856
406
1600
1500
895
795
1644
3255
206
306
56
356
956
56
1001
200
306
501
700
256
950
450
800
3001
1400
1406
706
906
406
106
850
2050
650
1756
506
56
651
1100
151
1100
156
1806
2406
256
1651
400
651
1250
1306
706
1056
1606
551
750
56
856
201
2750
1206
901
300
751
344
149
605
151
800
2051
4950
2506
606
601
1850
406
156
56
3156
201
900
201
2244
199
705
1106
1456
356
356
651
394
2550
300
450
1099
99
949
949
591
599972
599892
31053
253
693
1654
2807
1500
200
1396
350
907
200
897
954
2403
2100
1957
207
1257
100
554
907
107
1607
357
2907
1557
557
600
700
446
150
357
207
157
2107
457
407
457
1607
107
2557
457
1157
200
2347
1150
1150
250
904
257
753
1343
1354
1557
200
554
1307
757
757
1203
300
2853
2393
1304
1107
107
750
1104
3453
300
453
1050
307
1357
607
1957
903
2800
3353
900
3107
1407
2907
57
1353
1500
807
357
907
107
250
704
500
154
1607
2257
1357
557
257
457
1253
500
300
1354
157
3207
453
2900
57
2103
300
653
1300
407
2307
1007
457
203
193
697
254
500
404
800
104
3553
1200
300
1954
450
1754
307
1003
1800
357
1657
450
147
504
2050
1004
157
257
757
357
207
153
496
1900
257
507
1357
257
900
554
1057
357
1107
1057
2607
257
1253
1146
96
750
753
1600
1257
1357
703
650
857
2503
500
157
307
253
150
2657
1307
307
357
107
507
357
657
657
1153
293
847
654
1207
100
1954
253
446
150
207
1100
104
900
304
157
1707
307
353
350
503
250
907
1307
503
296
1500
1007
157
650
304
507
457
857
457
1057
107
2157
1657
707
307
907
1400
2654
557
107
1803
943
704
553
1800
807
153
1100
607
700
1097
2354
1707
1757
1003
550
1807
2207
1700
104
753
1146
350
1357
57
1957
157
1300
1000
143
2454
1707
1107
150
154
3207
103
900
107
607
507
1853
1950
1707
857
757
1007
2057
757
357
157
707
1253
1100
107
357
1157
753
1350
157
1357
557
253
2696
750
1203
450
957
207
3107
353
650
1157
157
1307
107
3207
257
1657
900
354
253
950
1053
2393
1504
2753
743
204
2507
803
450
457
407
357
303
393
2504
757
807
853
593
754
757
103
100
757
607
57
407
200
597
454
2950
704
407
1603
650
107
207
257
457
207
1203
96
450
1403
393
250
2543
2054
257
957
200
4400
4000
157
350
850
400
57
1800
454
553
500
153
100
503
1900
907
1900
804
257
1657
203
1000
507
2007
1557
103
550
1707
300
1454
557
350
2604
250
704
853
393
550
1350
257
857
1307
757
703
250
57
2307
907
600
897
354
1057
457
1607
1807
1707
657
1057
207
807
1553
1293
1647
1004
507
403
700
257
157
550
850
1150
257
557
757
407
1007
653
200
1807
257
1707
307
100
2804
103
550
407
2453
300
407
353
3300
257
1103
750
457
1600
1647
304
657
4257
107
1603
246
100
1957
307
1557
400
500
1346
500
1457
157
807
457
157
103
350
757
2557
153
750
807
557
207
1557
407
407
1857
1157
307
2257
150
704
350
904
107
707
1253
343
4554
57
1307
2450
147
804
307
853
950
107
457
257
4357
757
1453
293
2050
1450
407
457
600
1554
1303
1743
254
1150
654
957
107
107
853
550
450
454
707
907
157
1007
1353
1346
2200
1550
900
2296
300
957
407
607
250
1550
1400
707
157
607
1003
350
3003
1000
857
453
1300
1107
707
407
1103
546
300
107
107
407
1507
157
157
553
100
1307
707
353
950
157
953
350
457
257
2757
807
2407
657
550
1393
599892
599892
599892
599892
599892
599893
599891
599890
30598
552
154
54
752
2450
702
450
3004
204
2000
498
148
1352
650
1352
104
104
104
1004
1350
352
150
802
1004
2304
1754
900
3002
504
354
650
802
350
400
750
304
1304
602
2550
200
2102
504
1052
150
300
902
502
100
1952
498
1650
500
2652
1102
1446
1002
300
1852
254
2950
1452
204
754
2100
302
254
554
854
1502
146
1200
500
1602
450
54
1004
350
202
204
554
100
902
1554
450
3252
700
702
2354
900
402
952
446
1252
400
1102
354
854
4904
300
252
104
354
154
904
400
3552
1404
304
904
1554
354
204
204
354
254
154
952
100
1600
1198
148
398
400
1050
1854
1002
1050
1054
304
654
204
1454
204
202
650
754
702
700
1250
550
3800
400
5952
1204
154
504
554
154
1204
1452
1400
154
900
402
1504
100
2552
1700
2752
504
954
854
304
1654
354
1904
554
950
1152
1154
102
646
398
1852
804
254
654
1704
2854
1200
402
1700
1052
504
604
604
654
904
3450
902
1152
200
254
804
354
1554
1150
552
700
250
100
1654
3204
4000
898
3502
250
598
452
700
802
754
654
104
954
1450
452
1500
2902
154
250
1202
204
800
998
2602
1850
1152
254
804
1654
1300
298
198
752
652
1550
704
552
4296
1652
402
450
604
54
354
904
500
402
1254
1354
304
254
152
650
404
1104
452
2250
1504
1100
752
604
102
300
750
552
1154
1104
804
104
304
750
498
1248
252
2804
204
602
350
204
204
1304
1554
300
102
654
1204
1454
1154
550
648
350
1700
202
400
354
354
3204
952
296
2352
3704
854
252
1496
2502
750
2148
998
102
704
500
202
154
3704
2252
196
702
1954
304
854
54
104
3000
502
952
750
204
102
748
100
1350
252
1102
100
1404
304
1502
1450
2300
352
154
804
454
3454
452
200
1200
552
1154
1852
1500
454
2154
5054
3152
1600
104
1252
900
1354
2054
154
404
204
1502
350
454
154
1254
504
104
104
304
1954
3452
950
1400
502
1054
854
2900
1252
200
550
596
498
702
1600
898
2652
404
1304
1054
302
396
1502
354
200
200
2500
2104
302
400
1104
200
1802
2700
1602
952
650
3452
650
904
1354
1404
502
1700
554
1102
396
502
804
1300
248
752
502
1200
1304
200
448
2152
704
1104
104
704
954
154
404
250
1402
854
1400
452
700
1498
1302
154
754
2204
454
104
352
946
502
754
150
1152
802
900
252
948
1500
354
1054
54
850
452
900
602
1554
554
604
1552
2250
252
1946
1852
604
904
754
150
102
204
654
3204
1404
404
54
402
346
752
154
6150
202
604
754
1004
600
352
254
904
1354
354
2354
500
798
252
654
2954
950
1150
2250
554
754
254
204
104
1100
852
554
2704
2504
104
154
454
2700
1650
1596
1398
650
400
1502
900
154
904
854
454
2100
3002
502
1050
300
352
804
254
1154
252
550
554
204
1854
350
852
604
950
3300
250
1504
804
1654
804
302
600
1004
2054
802
1092
599892
494368
105497
599891
599892
162713
437164
599892
599868
599869
30204
3053
400
404
704
1954
454
254
754
653
1450
1150
104
650
801
654
350
401
153
100
51
353
451
3
400
150
1
150
2
850
300
1
104
3
398
50
298
100
50
947
1252
54
154
554
554
152
200
354
150
102
652
253
1196
200
846
702
202
46
2
303
100
2
104
52
49
204
1154
54
249
2350
103
704
100
204
204
854
653
202
150
652
1304
204
504
200
200
402
900
100
250
552
504
1950
552
253
200
100
152
50
654
350
702
154
2
1896
1050
46
198
250
248
754
154
254
202
102
302
204
454
150
100
500
698
102
152
98
952
100
303
1048
650
104
54
2852
100
150
102
548
952
1004
154
254
604
54
154
1104
1104
752
102
50
54
52
100
2
1604
1104
554
1253
400
704
252
102
204
102
250
552
600
400
50
54
654
154
102
402
1104
199
204
254
150
150
550
904
150
1150
100
500
198
1798
750
54
600
2
104
2
946
402
354
104
102
52
1402
704
302
452
800
902
452
150
604
300
2202
700
750
54
104
54
102
202
648
450
202
454
1302
102
354
904
1354
350
202
204
304
154
202
348
2204
54
1552
100
154
754
550
352
152
1148
46
2
1404
500
200
98
2
104
102
152
902
250
100
2
150
752
1104
100
200
200
102
200
400
102
204
148
250
98
198
600
802
150
550
400
1100
302
400
150
452
54
102
550
104
704
454
404
102
200
902
54
352
100
54
50
102
102
104
654
250
404
154
52
202
1198
54
52
102
152
198
2
252
148
602
54
54
154
200
354
100
104
454
248
300
1650
98
800
304
2
46
152
454
702
900
254
704
454
152
250
750
650
52
52
2054
554
1704
402
704
1204
104
500
400
1548
648
248
2
204
202
98
950
250
554
1754
102
1148
52
52
200
352
400
100
104
898
2
102
98
2
152
54
150
2
252
452
202
300
200
1404
404
1702
148
248
2
350
152
404
1104
354
200
52
54
504
254
202
502
152
650
754
302
252
302
802
304
154
502
252
454
254
754
502
252
54
154
600
1102
354
1004
502
350
251
751
1102
2350
850
50
552
102
202
52
54
152
98
548
146
150
152
52
102
154
1352
1148
1500
654
600
102
704
304
302
246
202
704
704
702
1448
498
350
202
452
1048
100
148
2
452
52
152
600
904
154
452
600
452
150
200
200
252
502
502
54
102
46
2
204
950
100
754
52
152
298
400
454
304
1352
46
150
52
204
104
204
1154
500
2
2
198
196
550
2
152
448
153
98
302
54
752
102
198
54
703
1746
448
248
250
300
154
300
102
552
404
1902
52
52
400
1100
104
254
54
500
1502
54
154
402
151
148
150
46
150
102
54
52
254
1150
150
52
1452
404
1704
954
1000
196
2
254
804
52
98
52
552
1000
902
1902
604
1602
46
52
202
252
852
100
198
2
252
1454
454
202
498
100
50
152
54
2
148
254
850
150
204
548
2
154
2
250
504
104
804
904
154
504
100
152
104
400
52
252
2
1250
1054
502
196
102
500
850
1500
250
154
754
304
202
1448
848
402
400
704
54
152
246
100
202
304
100
302
100
650
200
104
150
252
150
2
152
402
902
202
500
354
54
400
4004
550
148
200
102
102
302
252
450
150
102
352
104
1250
2
200
204
1152
100
354
198
102
554
704
54
202
150
150
50
54
102
150
902
54
354
100
147
104
148
146
202
854
554
1700
102
1004
600
202
452
54
354
200
600
254
154
654
1404
452
50
252
152
2
250
104
252
202
804
304
100
204
152
800
202
152
100
350
46
100
300
2
2
1498
304
1804
498
402
150
654
954
1352
100
204
350
100
152
254
54
204
2204
102
154
202
154
204
304
504
102
298
2
52
102
102
250
298
1550
596
96
302
150
1502
152
104
202
298
200
1902
852
148
50
352
248
50
200
2
100
1796
752
154
150
152
204
554
100
702
502
404
1154
304
104
2
396
2
1704
404
104
98
204
52
102
1700
600
250
102
102
204
104
2
200
202
1104
300
2
248
1154
54
1800
652
100
1
154
254
654
350
2
54
50
254
354
604
204
1654
1604
652
54
554
2650
350
498
550
202
100
104
2402
1504
150
152
102
454
254
302
548
998
52
550
598
100
54
504
1402
250
54
204
254
752
300
150
752
250
404
1252
1100
804
52
98
2
102
150
198
254
150
152
2
1098
152
254
54
1552
204
204
150
52
800
354
254
1000
898
498
152
202
552
750
2
100
100
152
202
104
52
52
254
654
554
104
304
154
702
200
402
296
1152
250
150
302
52
352
452
154
700
52
404
804
302
998
700
550
152
104
1804
1002
352
154
754
54
1652
148
1350
300
352
104
252
498
102
304
850
98
154
604
104
198
152
52
2
250
52
252
102
348
2
104
250
750
2500
252
254
302
650
502
150
302
300
254
402
248
2
104
52
50
96
600
1002
198
2
54
154
50
454
304
704
152
548
304
2
46
52
352
46
2
52
400
648
646
502
700
152
604
102
750
404
102
204
100
1600
348
98
2
154
2
46
102
452
50
604
450
950
600
550
196
50
952
1202
1450
354
452
300
204
902
204
54
200
450
250
52
402
254
1102
200
504
554
454
152
52
150
198
202
154
1254
254
804
1052
296
2
52
652
2754
152
298
600
504
104
954
854
700
298
54
504
54
1454
250
2402
700
254
304
1054
204
200
200
52
454
100
150
454
150
196
2
404
202
750
454
404
250
2
252
500
554
450
602
1554
602
200
102
650
2
52
202
1654
302
700
1402
152
552
202
502
50
98
102
204
2
100
454
704
354
654
3454
154
152
100
454
1202
1702
448
500
754
704
550
746
452
152
2354
152
450
354
252
100
302
554
352
200
1500
102
302
252
202
204
904
150
54
352
98
98
252
154
502
352
52
154
954
1854
1400
150
50
50
1104
452
50
302
198
2
2
848
1150
854
1204
754
954
104
554
1354
100
102
50
204
2
596
852
500
98
50
550
54
92
599892
599915
30000
614
64
1514
264
964
914
1214
964
264
214
514
714
1564
164
214
164
314
164
1064
814
664
214
214
214
1614
364
114
564
64
664
214
564
114
564
2364
364
3264
1064
814
164
764
314
114
614
1464
264
764
2414
314
964
564
414
564
3114
514
364
2164
964
764
214
264
464
614
1464
264
214
1314
1014
64
164
1264
1114
464
364
2464
664
864
1364
414
1864
414
464
110
2514
1264
514
764
1264
314
964
914
214
214
714
914
114
264
214
364
1464
1464
864
214
914
364
64
964
164
1264
1814
414
914
1364
64
364
214
564
1314
214
364
1764
64
364
2664
464
4314
1014
1164
1914
1164
114
814
114
264
414
114
264
714
2164
814
164
964
1164
714
64
214
114
264
2414
1064
464
214
64
814
514
1464
164
364
1564
714
514
364
1064
164
714
1614
664
1814
264
164
614
1814
464
64
514
564
1464
64
1964
464
364
214
964
214
214
514
414
64
264
64
564
164
114
1164
2114
764
564
364
264
914
64
714
314
414
414
814
614
2264
1314
464
3464
164
164
364
564
2214
564
364
1264
814
564
914
214
314
2014
1414
764
314
664
64
1614
1114
564
614
1514
2114
314
664
214
764
214
1914
1514
414
114
664
464
364
214
714
1814
2114
1514
264
64
2314
614
214
114
314
2564
814
1164
714
1264
314
3764
64
764
3614
814
814
964
64
564
114
514
364
1164
664
3314
914
1114
1114
2064
764
414
364
114
1064
764
314
64
514
314
1264
814
1114
214
314
1214
214
1064
614
814
414
64
614
1264
2414
514
1364
64
2614
664
514
1814
314
664
364
1864
314
664
64
164
614
714
114
1414
314
64
64
514
1814
514
2364
214
614
764
664
1414
564
414
314
314
464
1564
164
564
764
864
64
314
414
4764
64
864
864
764
1064
464
214
1114
1464
764
364
1364
364
314
1614
214
164
764
64
114
264
564
164
914
2614
564
664
64
264
164
714
264
114
1114
64
264
3364
964
1164
1614
64
364
1264
314
364
764
1114
914
1264
1114
164
614
914
1164
664
214
514
314
64
164
64
364
214
164
914
664
164
1064
214
664
614
514
714
864
214
214
1314
864
414
414
414
464
664
164
2514
414
1314
1214
614
1014
164
114
914
214
964
164
2064
114
64
864
214
3214
164
2264
964
614
914
1914
2164
3364
1914
1564
214
864
164
1114
264
464
264
464
1012
164
264
614
164
414
514
614
1764
114
264
214
564
164
464
314
764
114
1964
214
414
414
1714
1014
264
464
364
964
664
2464
64
1014
214
764
114
564
414
364
614
514
714
1714
264
4064
464
864
664
114
364
2364
314
214
364
64
614
914
314
1014
214
564
2614
1064
1414
714
264
364
1364
1614
264
464
64
1464
414
514
514
64
264
714
564
2264
464
64
564
214
314
214
464
664
2614
314
514
514
164
314
2264
664
114
3064
364
114
664
114
164
114
1114
314
414
714
314
614
1114
314
2414
264
1264
114
564
64
2414
64
964
314
2264
914
414
964
514
214
414
364
614
464
814
564
2714
1864
514
264
114
214
114
164
214
964
564
764
564
1564
514
64
1514
2814
664
214
114
714
514
1014
564
714
1114
214
314
1014
214
664
764
414
464
164
614
1614
464
464
314
1464
1764
314
64
614
164
2914
264
164
1214
464
114
514
414
164
1114
514
564
314
164
114
864
214
464
1064
2114
1364
1264
764
1464
64
564
564
114
1414
264
114
614
2164
64
814
1614
814
614
2364
114
164
214
364
164
1214
614
214
1414
564
864
464
214
464
464
264
864
664
314
214
2064
1464
214
1764
36
33667
2217
1667
1667
1767
2117
1417
767
1417
4917
617
567
1067
517
167
367
267
317
1317
3067
567
4017
667
917
467
467
217
2117
2017
267
2267
2417
3267
317
1367
1917
867
467
1167
7517
2017
67
1217
517
3767
2517
2667
267
1817
2717
1117
667
267
2967
2217
3267
1317
2067
67
3167
4867
2267
117
717
1667
1267
1067
1717
117
2817
317
617
1117
3017
167
3467
2217
3117
817
417
2167
3017
2417
567
3117
367
317
3267
1167
967
467
1317
117
4117
2367
817
117
367
617
117
217
1467
4067
567
1667
1017
317
417
2967
417
2667
3717
2317
117
3117
967
1117
2367
4717
517
717
4067
67
1267
917
67
817
1317
3117
967
817
3867
4817
417
117
1917
117
1517
2167
1217
1117
417
567
1417
6667
517
1417
2267
1117
1367
3967
3917
267
717
167
667
67
467
517
267
6067
267
67
1217
417
617
3917
3667
567
367
367
917
717
367
767
2567
1067
2017
3567
1467
2717
767
3017
3467
3517
417
517
5367
3317
317
3117
217
367
467
2267
317
2067
1117
917
217
417
3167
1767
367
1367
2167
767
67
1667
517
1367
4417
667
2317
1967
217
1017
817
6167
717
2017
2767
2817
317
1017
367
717
417
1367
167
1117
617
1317
1217
767
1067
2267
1817
417
817
2567
3117
167
3117
1067
1567
4717
2767
5867
1067
117
5867
1667
367
1017
117
4917
467
717
167
167
2617
717
4317
367
217
2517
417
1517
2217
367
2917
417
3567
2867
1317
4617
4167
2467
3717
117
667
2267
2067
117
2267
5567
467
1467
2117
217
417
1317
1067
617
2467
917
3517
267
1817
2167
1267
267
1517
1517
4517
4367
3717
2917
3817
4917
217
4867
217
567
2517
1467
3367
2767
1067
217
267
1367
1417
767
2067
1317
6317
1267
1067
1217
1917
567
1417
1767
1067
667
1267
792
599911
599907
30908
358
6358
4908
758
208
3408
558
758
108
1408
1858
4608
708
2808
208
58
1558
358
458
2058
3058
2258
358
958
1358
1008
208
2058
4058
1608
3758
2308
2208
1058
1458
558
108
1408
4258
1358
658
4208
208
858
958
208
558
1158
1408
1458
1211
1158
1758
3058
108
808
2958
1208
2158
208
258
108
1408
708
1158
2158
258
2658
1058
1908
58
1608
2458
808
208
2708
808
1608
1858
2158
3358
1508
708
808
408
1958
3208
3358
408
208
558
3908
358
5908
2508
308
1808
1908
408
1258
808
3758
1161
3958
358
4558
108
1758
6858
1308
158
908
3858
1408
708
1258
2858
958
2308
308
408
2308
758
2558
3358
1408
1058
908
1108
2808
3108
408
3958
458
508
1058
408
208
2408
1658
1008
58
258
658
3608
3008
2908
1908
2008
908
2158
58
5608
1758
1108
1008
1108
108
208
808
1208
658
908
2608
1658
108
908
708
858
1258
58
1808
4808
3008
2508
2358
6058
958
3208
408
358
1958
2008
1708
1558
258
5108
808
4808
358
308
558
2558
1608
758
908
1708
3108
108
2408
508
908
608
1158
508
1258
158
1708
1158
158
1958
858
1158
558
1958
558
4458
5958
1858
358
1058
258
908
808
1858
3258
458
1058
158
1358
958
1458
6708
158
458
3058
1758
2558
258
2808
2658
1208
1108
558
3008
258
1158
958
2158
1258
408
1158
3558
458
1758
608
1758
458
258
608
258
108
1558
5708
258
308
10108
58
158
2258
4808
408
2758
708
1208
258
708
708
1758
258
258
7708
1908
58
1058
2958
2758
5508
3058
8858
3158
158
158
508
1258
1858
1658
1108
258
58
1108
958
1508
758
758
258
1208
508
208
108
258
2508
308
2658
58
1008
3208
1708
958
1908
258
458
208
908
1208
3658
4358
958
908
958
2958
808
1158
208
2158
158
458
708
358
3058
408
808
2558
158
708
1008
458
108
1308
5308
2208
58
608
358
208
808
295
30367
67
167
3317
3067
2567
467
3067
3467
1317
367
117
467
2917
1717
67
3117
1967
2417
1267
1967
867
1417
4717
917
3067
417
3217
1767
1367
2817
317
1767
1217
2917
517
467
467
3217
1867
8717
3867
617
2917
4367
767
5667
2417
2417
1567
1917
1867
67
667
117
1617
267
4167
667
917
3217
3117
1267
1417
717
267
267
2167
817
2317
317
567
1767
2117
817
2017
667
2917
417
4717
767
867
617
267
167
217
3567
967
1667
867
1067
4117
417
5517
2217
717
2217
1917
3417
4067
1567
117
317
617
2017
517
317
2367
1567
3667
2167
217
217
117
367
667
3967
517
267
967
117
1017
117
167
3417
2567
2217
1167
167
317
217
3317
1067
567
1317
2217
517
1467
2117
4867
617
2067
1317
1167
1217
917
1617
317
767
67
2067
867
267
1117
867
217
167
2217
2167
1267
1067
1217
1317
267
2517
767
117
1367
467
3317
567
5717
1817
2767
767
1217
2067
867
417
1217
1717
1617
1567
717
267
967
817
317
2417
5017
1717
817
367
1967
167
867
967
2667
3867
417
1067
1517
367
467
567
1517
617
767
2567
617
517
717
2467
117
267
1167
1917
517
2717
1567
817
67
1917
3567
767
5067
1017
1167
2967
1117
967
267
317
1767
1367
1767
467
367
4967
3817
317
467
117
167
4767
517
3217
267
617
717
1117
467
567
1967
117
167
3117
467
117
467
2067
917
367
2617
167
217
967
9117
67
717
1967
2417
267
1817
5117
567
1517
4667
317
767
1317
1067
617
417
1767
917
3417
1417
1217
2267
2917
1067
467
7367
867
1567
317
5967
317
2717
2367
2167
1367
217
217
117
2017
1367
617
367
2517
1417
2517
5417
567
917
2267
2117
2517
4317
917
4317
1117
1817
1967
4517
2917
2517
2217
567
1017
2117
617
1117
1817
5717
1367
567
67
817
567
967
617
117
3967
2817
4217
1617
317
1617
1167
717
1167
1410
30602
3310
4560
410
1060
3860
1510
910
4410
1010
60
110
2410
860
1160
1310
2310
660
60
1560
310
210
3610
110
3210
2860
310
960
610
2410
710
2160
4460
110
60
360
460
3860
2310
1210
2860
60
610
410
210
1210
2360
160
110
2310
810
2610
2160
960
910
3010
1360
960
3160
360
510
360
3360
4060
460
160
4160
660
60
1910
3460
560
2010
1410
510
2910
1560
4060
110
2360
260
660
2710
510
860
110
3710
260
1610
2260
1310
460
3210
1210
960
2710
510
310
60
2810
5760
210
760
160
2160
510
3460
960
60
1010
160
510
1860
60
1760
760
360
1060
4360
2360
3110
360
60
160
260
3960
2860
710
860
860
1460
4310
510
860
910
360
2610
4160
60
1260
1260
210
2560
1510
3510
560
310
1310
1110
2960
1960
3760
3560
710
1160
860
610
910
410
360
1460
310
960
210
1760
1760
410
310
1560
960
1210
2160
2560
510
160
2060
1610
60
2260
3610
60
60
1760
1560
410
110
410
2860
160
610
3510
1310
3260
1410
810
910
1710
410
460
5510
4210
60
1260
4010
210
360
610
1510
310
910
2660
3010
110
1110
310
510
510
960
1060
310
4410
7460
60
510
3460
2810
1010
860
1910
1560
3610
1860
210
560
1610
5560
760
1460
4560
460
1560
560
3560
860
2310
560
60
260
160
410
1510
2860
1060
460
1310
1610
910
3510
310
1010
460
410
360
4060
1410
1360
910
660
710
160
4260
3510
1010
5260
310
410
710
910
360
460
1460
310
860
110
460
560
3410
210
260
560
2060
6560
3760
10610
1560
2610
60
410
1310
110
760
3360
2510
1710
2210
3410
110
2810
1760
210
1410
260
2660
2110
560
160
1660
360
1010
660
1460
660
1210
1210
4810
260
2360
3510
860
2760
910
810
2510
1560
1910
460
310
260
160
3910
1810
810
610
360
6710
210
1560
1660
360
710
7360
2510
410
760
2710
960
1510
1960
60
2360
460
1960
560
1010
2860
1260
110
468
39059
59
2459
1659
10259
2159
1059
3359
1309
1259
59
509
359
59
1809
3359
2309
1959
10959
309
3409
309
159
3359
709
2959
2909
2559
2609
59
309
2009
409
1659
59
59
159
109
20759
459
309
309
109
6409
109
11959
1059
11659
8659
159
509
409
759
1159
2409
559
359
13609
2509
2559
6609
3959
209
1859
759
6209
8459
559
1009
3609
909
509
6209
1409
59
659
2009
7209
5659
7309
1509
7209
5059
6509
13059
109
59
259
5809
609
1409
159
2859
8109
2059
3309
1359
1259
1809
59
5609
7459
359
309
909
1909
3309
3509
59
59
12109
3359
7009
9509
1509
2709
59
1009
3109
59
7459
12509
459
10609
159
959
3659
509
1309
309
15559
59
2059
10059
359
8309
209
809
5509
559
59
59
9059
4209
159
59
309
559
1859
559
7409
159
109
609
7309
1459
709
4309
209
309
1659
659
509
4009
559
309
1759
8959
809
5409
109
59
209
7659
8709
1309
909
459
109
3259
2159
7459
3909
6809
559
3109
309
5909
7002
599899
599894
599892
34868
2707
1007
2107
1107
4557
1557
1057
2307
557
1407
1507
1657
6157
2057
2057
257
157
957
4307
907
407
307
1657
357
507
1207
357
557
157
1857
3007
657
2357
2657
1307
4357
8357
557
2307
2257
1457
1057
1007
57
757
157
157
707
1857
507
1807
3757
407
1307
57
357
457
2707
557
507
757
4607
1507
457
407
2257
1007
2707
2057
907
6657
657
2357
1357
1257
2507
457
8407
857
1957
2607
107
157
807
757
507
1407
507
6657
257
4007
2607
1757
1707
607
457
1607
157
157
107
1757
1157
2057
1207
4507
57
757
2007
1107
2157
757
1507
1457
6057
3907
2657
507
57
5057
1557
1557
1857
657
857
2457
907
407
1157
707
757
2557
907
4307
457
3557
2357
657
307
1107
1157
707
1057
907
1907
2307
457
1107
3757
1807
1957
2207
57
557
1907
557
207
1957
4407
4307
2357
1057
807
2407
907
1257
2907
757
1107
557
2107
207
2557
1057
1257
507
557
5457
4407
1507
257
257
507
157
2307
107
2657
607
2907
357
2107
2657
57
2007
257
3157
2707
2607
1607
1807
157
1307
207
5657
357
607
1607
207
2557
1707
1807
4207
457
1457
3057
5407
907
957
457
2607
157
3157
10257
757
6307
2107
1607
507
307
2907
1457
557
2057
807
157
5457
2707
2957
557
757
2407
2607
707
957
807
457
2007
2557
57
4207
5907
507
1707
357
757
3807
257
157
1257
1557
207
1357
1657
857
1057
1157
1107
507
707
107
1157
5307
1607
1257
2157
3857
457
207
1657
2157
2007
1107
757
257
6307
357
457
2907
2707
407
2157
14007
707
557
407
1357
1357
1057
1757
2057
1707
207
2007
3057
1107
2707
307
1857
1707
1157
2607
357
1557
2157
1807
307
2207
57
1407
1007
5157
207
3307
441
599899
52199
615
109265
65
191465
33465
86065
39265
47265
39907
33009
159
2359
3759
209
10559
7409
9659
1259
3959
259
3359
1359
59
5509
159
33309
4359
109
2059
1359
1359
709
4859
2509
5809
459
259
259
15109
2109
309
19209
4709
3909
5859
1609
3309
59
2809
159
4809
6559
1709
4009
6209
109
359
509
409
59
1059
1859
1109
1209
3959
2259
159
1609
3359
9159
259
459
8159
1959
109
2609
4159
2109
7509
2959
1159
359
209
959
1959
309
209
8359
1009
10909
559
259
259
1259
2909
1859
1659
659
3759
809
59
4609
259
259
409
3509
2409
2459
609
6359
59
2209
8159
859
4609
3059
409
9109
5609
2259
259
409
9059
159
3109
359
1459
5409
8109
309
809
109
509
1259
5559
9559
409
9009
159
509
109
17659
5659
6809
3459
17009
3559
1009
9309
1809
59
159
509
309
1309
2309
1209
109
3000
200
5709
909
4009
109
3959
159
459
209
3559
2059
359
2159
309
109
309
109
59
559
1509
3509
9209
4659
7809
459
2809
1259
359
359
459
12209
9359
4192
599908
31099
3260
2059
410
2709
2059
409
609
660
60
310
1410
1910
559
509
4160
359
1360
109
3760
2410
59
859
1110
559
1559
259
1009
409
209
3559
910
809
509
760
359
259
1309
959
659
3509
359
1159
1759
2209
109
809
459
709
259
6959
960
5209
4160
3359
59
609
159
4109
2259
309
1159
709
409
5859
1059
1359
909
60
2459
1359
1459
409
1559
909
409
209
3459
1360
3759
209
1760
3459
759
459
2859
2059
609
760
310
210
2859
1809
10659
709
309
59
3259
1109
2259
160
2209
59
1059
1759
459
3309
6859
59
2109
3709
109
2259
59
1559
2459
209
809
1841
2459
759
909
1160
6609
809
1859
1759
6009
409
759
1009
609
2859
559
1809
159
3209
1309
459
4109
2209
959
659
409
2209
3709
2559
1159
1309
1160
159
409
809
2959
3909
1209
1109
709
1609
5209
1059
609
3509
1959
909
4009
59
2809
1659
959
1909
2709
1709
8959
3809
259
509
1809
3259
509
2009
2209
1059
1509
1109
659
2709
409
659
2309
209
2009
1909
3259
1909
3159
759
909
1259
259
2159
2209
1009
409
1609
1359
2059
1809
709
309
359
2459
309
109
3309
1109
3659
2509
1659
1509
2159
5359
1409
1059
4359
1309
1759
2209
1259
409
259
1509
2409
3309
1159
2709
1809
7309
5509
259
4759
809
1009
359
1759
2609
2209
709
709
1359
209
3509
459
1109
2209
759
1259
1359
1059
59
1309
559
159
759
1909
2359
559
909
809
2559
859
959
1059
1159
1059
1009
209
709
759
3709
1259
659
309
1909
2509
709
3359
709
1659
1859
3509
4659
7159
1009
109
759
2209
1509
1059
809
59
409
909
4009
1459
309
909
1209
2009
2559
1209
2309
1209
2709
759
159
2609
2559
1409
1159
559
6059
1809
409
359
659
1159
3559
1559
1459
809
559
4410
709
310
1959
709
1009
1047
599892
599892
599906
245514
354347
29906
706
1506
1306
406
2356
406
456
400
103
453
150
2353
1300
2700
2353
256
806
1256
103
2250
1056
306
1506
106
156
1603
100
2803
800
156
306
150
753
1603
1600
456
606
153
100
1206
553
650
1056
803
2000
150
950
347
400
406
556
956
500
803
656
56
406
1553
1750
1506
306
206
1006
506
106
256
606
856
1303
950
256
403
1850
153
200
456
356
103
1250
806
3056
2756
856
106
256
2106
856
156
653
347
297
100
106
2956
1856
1853
750
650
2153
106
153
1144
103
403
2250
106
1106
656
1056
453
3700
453
500
553
647
700
206
156
453
1000
706
706
1003
800
1050
303
256
253
750
206
106
750
2047
203
153
400
506
400
753
403
1147
200
2556
1856
106
56
106
1106
806
506
156
1806
103
900
150
947
1853
3106
956
1106
456
2456
356
606
56
150
1153
353
400
600
550
1647
5400
1806
2253
1450
256
2206
250
103
256
1406
1800
103
450
1047
503
1006
1106
303
250
456
156
106
156
1156
706
706
1306
2956
250
253
200
847
1400
544
553
353
5200
106
456
1356
1053
400
656
1906
2506
1506
2756
406
1556
106
650
397
2003
506
56
606
550
403
1453
294
103
2853
200
1703
447
950
556
856
106
1100
197
103
156
106
1206
256
1550
1553
406
906
1256
156
1103
1350
1706
303
100
450
1403
2706
456
1656
1006
2503
747
350
2856
1053
150
206
100
1153
853
850
606
1650
403
706
153
300
306
2106
2356
2906
2856
1953
2747
950
3156
356
1103
2244
353
306
1056
506
56
1106
506
606
850
400
347
1500
2106
1306
303
2400
1106
356
206
606
1003
297
394
803
556
506
656
656
656
856
200
100
500
406
1156
750
747
253
56
106
303
1497
2300
356
1650
1550
300
256
306
2006
1106
1056
300
1300
2294
747
153
1406
1653
800
606
953
397
2094
400
800
1056
956
503
547
500
2256
606
206
1106
756
356
456
706
753
144
2353
256
2006
1456
753
744
1403
1200
2953
56
356
2706
2156
1456
356
356
156
556
1400
703
2850
953
106
206
1406
103
900
306
456
200
203
1103
250
156
1206
456
1656
356
1056
303
1294
550
100
1006
956
803
2300
456
4153
150
1350
203
1006
406
56
903
850
106
903
150
1506
206
400
1503
1603
1000
156
356
453
350
103
350
850
253
256
150
950
1600
556
1506
1403
650
803
700
1356
106
1406
756
656
650
853
606
853
250
1256
553
950
456
306
356
56
206
606
153
300
906
1100
1800
100
806
653
744
553
956
1703
1350
650
1103
103
4100
806
456
903
797
650
56
106
600
450
400
306
2406
356
556
806
106
1056
1706
556
56
300
453
106
1606
906
2803
600
150
1550
2350
906
153
300
1406
153
1100
806
506
753
350
356
203
2197
200
406
356
853
1000
1856
953
144
303
3156
1556
1256
3156
150
1353
906
56
306
4756
406
206
1553
4950
1153
200
1456
300
1203
106
206
1100
2553
403
1400
3153
500
256
156
456
1706
650
203
1156
756
656
256
306
1953
4650
106
1856
1053
750
2300
503
1906
2200
853
206
406
2156
706
856
2306
256
1353
1700
1903
147
392
599892
554263
45591
599937
599892
599892
599905
599891
599892
599897
599892
599898
599915
