=============================================================================================================== 
LARREA_VANILLA_LG_CONSENSUS_RATE.result	          <->	          LARREA_EPOCH_LG_CONSENSUS_RATE.result
=============================================================================================================== 

LARREA_VANILLA_LG_CONSENSUS_RATE.result mean: 4.92 
LARREA_EPOCH_LG_CONSENSUS_RATE.result mean: 5.32 

Observed difference of two means: 0.40 
26955 out of 100000 experiments had a difference of two means greater than or equal to 0.40.
The chance of getting a difference of two means greater than or equal to 0.40 is 0.26955.

=============================================================================================================== 
LARREA_VANILLA_LG_CONSENSUS_RATE.result	          <->	          AGUILERA_LG_CONSENSUS_RATE.result
=============================================================================================================== 

LARREA_VANILLA_LG_CONSENSUS_RATE.result mean: 4.92 
AGUILERA_LG_CONSENSUS_RATE.result mean: 9.06 

Observed difference of two means: 4.14 
0 out of 100000 experiments had a difference of two means greater than or equal to 4.14.
The chance of getting a difference of two means greater than or equal to 4.14 is 0.0.

=============================================================================================================== 
LARREA_VANILLA_LG_CONSENSUS_RATE.result	          <->	          CHEN_LG_CONSENSUS_RATE.result
=============================================================================================================== 

LARREA_VANILLA_LG_CONSENSUS_RATE.result mean: 4.92 
CHEN_LG_CONSENSUS_RATE.result mean: 12.36 

Observed difference of two means: 7.44 
0 out of 100000 experiments had a difference of two means greater than or equal to 7.44.
The chance of getting a difference of two means greater than or equal to 7.44 is 0.0.

=============================================================================================================== 
LARREA_EPOCH_LG_CONSENSUS_RATE.result	          <->	          AGUILERA_LG_CONSENSUS_RATE.result
=============================================================================================================== 

LARREA_EPOCH_LG_CONSENSUS_RATE.result mean: 5.32 
AGUILERA_LG_CONSENSUS_RATE.result mean: 9.06 

Observed difference of two means: 3.73 
0 out of 100000 experiments had a difference of two means greater than or equal to 3.73.
The chance of getting a difference of two means greater than or equal to 3.73 is 0.0.

=============================================================================================================== 
LARREA_EPOCH_LG_CONSENSUS_RATE.result	          <->	          CHEN_LG_CONSENSUS_RATE.result
=============================================================================================================== 

LARREA_EPOCH_LG_CONSENSUS_RATE.result mean: 5.32 
CHEN_LG_CONSENSUS_RATE.result mean: 12.36 

Observed difference of two means: 7.04 
0 out of 100000 experiments had a difference of two means greater than or equal to 7.04.
The chance of getting a difference of two means greater than or equal to 7.04 is 0.0.

=============================================================================================================== 
AGUILERA_LG_CONSENSUS_RATE.result	          <->	          CHEN_LG_CONSENSUS_RATE.result
=============================================================================================================== 

AGUILERA_LG_CONSENSUS_RATE.result mean: 9.06 
CHEN_LG_CONSENSUS_RATE.result mean: 12.36 

Observed difference of two means: 3.31 
0 out of 100000 experiments had a difference of two means greater than or equal to 3.31.
The chance of getting a difference of two means greater than or equal to 3.31 is 0.0.

=============================================================================================================== 
LARREA_VANILLA_FD_AVG_MISTAKE_RATE.result	          <->	          LARREA_EPOCH_FD_AVG_MISTAKE_RATE.result
=============================================================================================================== 

LARREA_VANILLA_FD_AVG_MISTAKE_RATE.result mean: 0.07 
LARREA_EPOCH_FD_AVG_MISTAKE_RATE.result mean: 0.11 

Observed difference of two means: 0.04 
21121 out of 100000 experiments had a difference of two means greater than or equal to 0.04.
The chance of getting a difference of two means greater than or equal to 0.04 is 0.21121.

=============================================================================================================== 
LARREA_VANILLA_FD_AVG_MISTAKE_RATE.result	          <->	          AGUILERA_FD_AVG_MISTAKE_RATE.result
=============================================================================================================== 

LARREA_VANILLA_FD_AVG_MISTAKE_RATE.result mean: 0.07 
AGUILERA_FD_AVG_MISTAKE_RATE.result mean: 0.19 

Observed difference of two means: 0.12 
2719 out of 100000 experiments had a difference of two means greater than or equal to 0.12.
The chance of getting a difference of two means greater than or equal to 0.12 is 0.02719.

=============================================================================================================== 
LARREA_VANILLA_FD_AVG_MISTAKE_RATE.result	          <->	          CHEN_FD_AVG_MISTAKE_RATE.result
=============================================================================================================== 

LARREA_VANILLA_FD_AVG_MISTAKE_RATE.result mean: 0.07 
CHEN_FD_AVG_MISTAKE_RATE.result mean: 0.00 

Observed difference of two means: -0.07 
132 out of 100000 experiments had a difference of two means less than or equal to -0.07.
The chance of getting a difference of two means less than or equal to -0.07 is 0.00132.

=============================================================================================================== 
LARREA_EPOCH_FD_AVG_MISTAKE_RATE.result	          <->	          AGUILERA_FD_AVG_MISTAKE_RATE.result
=============================================================================================================== 

LARREA_EPOCH_FD_AVG_MISTAKE_RATE.result mean: 0.11 
AGUILERA_FD_AVG_MISTAKE_RATE.result mean: 0.19 

Observed difference of two means: 0.08 
12804 out of 100000 experiments had a difference of two means greater than or equal to 0.08.
The chance of getting a difference of two means greater than or equal to 0.08 is 0.12804.

=============================================================================================================== 
LARREA_EPOCH_FD_AVG_MISTAKE_RATE.result	          <->	          CHEN_FD_AVG_MISTAKE_RATE.result
=============================================================================================================== 

LARREA_EPOCH_FD_AVG_MISTAKE_RATE.result mean: 0.11 
CHEN_FD_AVG_MISTAKE_RATE.result mean: 0.00 

Observed difference of two means: -0.11 
29 out of 100000 experiments had a difference of two means less than or equal to -0.11.
The chance of getting a difference of two means less than or equal to -0.11 is 0.00029.

=============================================================================================================== 
AGUILERA_FD_AVG_MISTAKE_RATE.result	          <->	          CHEN_FD_AVG_MISTAKE_RATE.result
=============================================================================================================== 

AGUILERA_FD_AVG_MISTAKE_RATE.result mean: 0.19 
CHEN_FD_AVG_MISTAKE_RATE.result mean: 0.00 

Observed difference of two means: -0.19 
0 out of 100000 experiments had a difference of two means less than or equal to -0.19.
The chance of getting a difference of two means less than or equal to -0.19 is 0.0.

=============================================================================================================== 
LARREA_VANILLA_FD_TG_SUM.result	          <->	          LARREA_EPOCH_FD_TG_SUM.result
=============================================================================================================== 

LARREA_VANILLA_FD_TG_SUM.result mean: 599635.00 
LARREA_EPOCH_FD_TG_SUM.result mean: 599615.03 

Observed difference of two means: -19.97 
45547 out of 100000 experiments had a difference of two means less than or equal to -19.97.
The chance of getting a difference of two means less than or equal to -19.97 is 0.45547.

=============================================================================================================== 
LARREA_VANILLA_FD_TG_SUM.result	          <->	          AGUILERA_FD_TG_SUM.result
=============================================================================================================== 

LARREA_VANILLA_FD_TG_SUM.result mean: 599635.00 
AGUILERA_FD_TG_SUM.result mean: 595893.17 

Observed difference of two means: -3741.83 
5 out of 100000 experiments had a difference of two means less than or equal to -3741.83.
The chance of getting a difference of two means less than or equal to -3741.83 is 5e-05.

=============================================================================================================== 
LARREA_VANILLA_FD_TG_SUM.result	          <->	          CHEN_FD_TG_SUM.result
=============================================================================================================== 

LARREA_VANILLA_FD_TG_SUM.result mean: 599635.00 
CHEN_FD_TG_SUM.result mean: 599893.90 

Observed difference of two means: 258.90 
1375 out of 100000 experiments had a difference of two means greater than or equal to 258.90.
The chance of getting a difference of two means greater than or equal to 258.90 is 0.01375.

=============================================================================================================== 
LARREA_EPOCH_FD_TG_SUM.result	          <->	          AGUILERA_FD_TG_SUM.result
=============================================================================================================== 

LARREA_EPOCH_FD_TG_SUM.result mean: 599615.03 
AGUILERA_FD_TG_SUM.result mean: 595893.17 

Observed difference of two means: -3721.87 
12 out of 100000 experiments had a difference of two means less than or equal to -3721.87.
The chance of getting a difference of two means less than or equal to -3721.87 is 0.00012.

=============================================================================================================== 
LARREA_EPOCH_FD_TG_SUM.result	          <->	          CHEN_FD_TG_SUM.result
=============================================================================================================== 

LARREA_EPOCH_FD_TG_SUM.result mean: 599615.03 
CHEN_FD_TG_SUM.result mean: 599893.90 

Observed difference of two means: 278.87 
352 out of 100000 experiments had a difference of two means greater than or equal to 278.87.
The chance of getting a difference of two means greater than or equal to 278.87 is 0.00352.

=============================================================================================================== 
AGUILERA_FD_TG_SUM.result	          <->	          CHEN_FD_TG_SUM.result
=============================================================================================================== 

AGUILERA_FD_TG_SUM.result mean: 595893.17 
CHEN_FD_TG_SUM.result mean: 599893.90 

Observed difference of two means: 4000.73 
0 out of 100000 experiments had a difference of two means greater than or equal to 4000.73.
The chance of getting a difference of two means greater than or equal to 4000.73 is 0.0.

