599930
599920
599925
599908
599921
599951
599922
599922
599910
599939
599953
599921
30136
10
188
189
99
499
539
910
2699
88
1501
89
151
1389
89
1399
1049
1099
289
449
149
2349
439
1849
2349
249
4651
1939
239
149
1799
1999
149
2949
189
3239
149
99
2151
841
1839
601
89
489
149
299
199
399
449
439
239
849
699
799
149
799
99
1301
139
1649
99
1049
949
289
4939
2449
99
189
389
899
599
349
189
2549
1049
99
2049
149
89
449
189
299
299
249
249
2999
351
1289
89
199
199
489
249
149
99
89
1249
99
2451
139
149
1489
4549
749
989
149
1049
2099
139
89
1449
1151
189
99
191
1839
1039
199
199
99
299
149
499
249
99
151
241
89
599
1749
649
89
99
199
649
899
949
99
701
1789
949
149
89
2349
299
99
2199
999
1449
149
1849
1099
699
1149
99
551
639
551
89
441
339
1051
1789
1399
3189
249
851
239
1839
199
349
499
99
1199
99
451
789
449
1551
189
1499
149
99
89
799
99
149
2139
189
139
599
801
139
499
549
1049
99
99
299
799
749
199
89
349
289
3941
1791
139
1399
699
89
149
949
99
249
139
2399
149
89
149
149
249
1499
299
199
1649
149
1349
289
549
949
2949
99
199
199
789
2299
199
249
1049
1249
1389
149
2249
149
651
1089
99
1301
89
199
139
99
399
189
2099
699
591
5039
149
99
389
1499
389
249
249
589
339
149
699
599
899
3699
649
299
249
149
2049
849
899
249
251
489
999
99
499
1399
949
399
99
99
349
199
449
149
549
139
249
1499
149
499
349
99
549
1039
3349
499
99
99
149
99
89
1489
949
1099
1999
549
749
299
799
99
2399
1199
399
89
599
999
139
601
139
89
849
1249
99
639
501
689
2039
139
89
1349
4549
749
249
1899
499
1699
601
189
149
801
189
99
999
139
399
849
549
3101
1289
599
1799
449
399
1449
2049
89
999
139
349
299
139
139
199
5449
1799
299
1399
249
1049
249
2249
299
149
149
2049
2039
149
2249
1599
849
89
1149
751
89
649
839
299
999
1199
349
201
139
1589
699
2249
939
599
99
1039
99
799
1839
249
749
1689
199
549
99
149
849
1051
1239
3549
89
441
989
1049
299
99
139
199
149
99
239
649
349
89
89
2389
349
299
89
149
99
899
2039
1199
349
149
289
1101
139
199
99
549
249
449
99
1799
139
139
249
1489
439
199
389
189
189
199
249
3701
139
749
149
99
139
1589
99
249
2439
3599
949
1449
299
1699
849
89
289
189
789
999
149
639
199
301
839
1699
499
249
239
1849
539
149
1601
139
149
1149
149
1899
99
1649
1599
139
449
599
549
449
199
1699
1589
99
2249
4789
199
1899
3199
1599
1249
189
289
151
389
1839
999
99
1399
2139
849
249
1349
139
199
199
449
99
1349
449
199
1199
649
649
949
189
2501
189
351
189
189
499
99
139
949
3549
249
691
389
349
589
2299
249
1151
2139
399
1839
699
399
149
99
349
451
239
1699
399
89
139
99
199
949
199
99
99
89
1389
599
199
899
499
1599
249
589
139
149
1599
99
2249
499
601
139
2249
449
2151
189
449
1241
189
1099
99
399
551
2589
139
149
399
149
2149
299
1301
689
699
99
551
3539
999
1199
2599
139
3049
299
3599
149
799
349
1649
349
289
139
449
499
1449
2039
1999
199
99
189
299
151
189
149
149
1049
149
99
449
399
149
689
1649
99
499
801
89
1649
189
249
99
99
4099
89
449
699
2499
89
2439
2549
999
901
89
89
251
89
89
149
549
449
1399
789
1449
149
1089
99
2301
89
649
249
2099
1699
749
2299
1549
139
549
851
89
249
249
199
299
649
149
949
149
89
139
199
89
701
589
149
1451
589
189
189
99
789
839
99
239
699
3299
293
599915
599921
599918
599920
599927
29785
97
298
98
4100
1739
649
98
299
12509
1089
1898
98
2599
2049
88
148
4399
238
2099
148
88
138
499
98
2298
1609
3499
3989
188
299
7054
88
5359
2489
2749
34354
138
148
12309
188
5509
5894
88
748
4609
4238
12448
88
7338
598
3004
9644
188
22859
138
88
1359
138
709
138
5198
98
398
848
98
138
198
5394
138
36398
12609
288
18459
11894
138
15159
24238
5898
3948
7954
2944
25388
20298
98
248
31054
1838
11448
11404
188
309
1099
88
3709
2938
3409
7838
7504
188
204
188
188
98
248
348
22194
8649
88
2404
15099
88
248
209
9899
1888
98
88
138
598
9244
288
98
4198
19341
599921
599917
599919
599920
599915
599920
599933
44007
4747
7147
143
3397
343
48997
347
93
13647
447
93
2097
597
93
93
42997
143
193
22997
243
67047
93
243
143
193
143
193
93
143
93
93
93
297
143
93
93
143
37947
27897
12747
393
93
143
897
143
3397
13797
18347
4997
18997
347
243
243
35397
193
4697
93
93
347
10447
497
147
143
3097
28197
62747
193
193
20897
15447
143
143
1447
243
6347
193
5363
599932
599913
599955
599932
599916
599922
30395
184
9899
2699
5699
4399
392
2999
134
94
442
7792
3099
3499
134
144
3052
84
252
749
3299
84
2942
749
84
3452
84
152
1099
392
842
84
134
194
84
134
502
1649
792
3242
742
249
134
94
94
559
134
2409
234
1809
134
1409
134
942
899
1042
599
1642
234
94
134
94
102
1492
234
3399
6692
5699
3099
84
202
892
184
352
84
1992
134
759
392
2699
384
1109
2692
3542
84
959
184
234
609
134
1559
84
2092
392
84
94
234
184
2092
84
84
2142
84
1052
84
134
1302
134
5859
284
749
134
359
234
459
1492
134
2902
134
144
284
244
3309
392
184
144
84
2442
234
602
134
84
402
184
1652
3049
84
94
3502
84
94
1852
2442
1042
3542
134
759
234
84
94
84
592
134
194
4302
184
642
84
209
799
2849
184
892
249
442
134
242
792
9199
84
2192
3049
84
84
144
94
194
1352
3849
134
84
959
134
1952
1442
84
7652
349
1142
184
709
1892
234
359
342
6092
1199
184
459
292
892
134
94
84
202
134
952
184
702
84
2952
292
542
84
84
4159
1549
234
184
752
184
144
84
342
184
402
284
5459
134
3159
2542
5249
4492
3792
749
9092
184
2192
249
84
1092
184
5892
234
7749
2692
6592
5842
3249
2342
234
6759
84
2902
1049
84
144
359
84
134
134
8349
184
2152
134
194
2152
84
134
84
3852
342
134
5509
234
2452
4349
449
134
502
134
94
202
742
184
4842
234
499
4299
2892
749
234
952
184
809
3749
3942
84
94
94
134
194
159
84
94
702
134
252
234
1149
134
949
84
134
1309
1592
134
8202
184
2652
134
1952
592
1249
1399
549
134
3752
184
2752
234
252
134
3059
1392
199
292
5049
1399
134
652
134
559
2292
499
134
452
134
84
2859
1699
1899
184
3459
84
502
4492
84
202
134
84
2309
184
2492
1749
542
184
4649
1142
334
144
952
134
3252
184
652
299
184
2759
84
144
2509
5299
84
202
134
1602
899
249
1092
2942
84
184
1052
642
184
1852
699
134
244
259
84
4542
2942
134
94
94
3059
1942
4692
5392
184
542
184
1052
3799
3499
499
1142
234
94
184
2542
134
6209
84
144
942
134
4859
234
409
1192
3599
949
1599
84
144
802
184
94
742
134
194
134
1302
184
1049
184
2302
84
902
234
2649
284
1609
1978
599922
33633
93
9143
6293
3093
1893
2443
4393
11793
643
7243
2693
293
1093
193
843
6293
3493
93
993
143
543
2643
2143
143
443
193
12043
2693
5843
243
93
5443
1793
93
10893
993
1093
7043
5043
1693
93
7593
143
5893
8643
93
7743
143
93
8393
643
193
243
193
1393
12293
1893
93
6943
11293
243
7093
22393
143
9293
93
143
10943
293
3143
4543
693
3643
443
1843
13793
143
93
643
393
1093
93
143
2193
3243
12293
243
8443
4543
3593
343
3143
243
1443
5493
543
4693
3093
3893
6393
93
793
143
3293
893
6043
193
193
1393
1343
343
243
1643
4743
12893
3393
93
3193
93
293
6043
93
7343
2243
243
1293
9643
2493
93
193
443
743
143
2243
9293
243
93
3293
12643
1093
143
1443
2693
2393
143
2843
93
2693
2193
443
443
1643
643
93
2993
6693
4343
3493
5743
1843
1243
3243
93
4243
1543
393
193
2593
14343
643
793
93
3543
2193
343
93
93
93
4093
1493
6393
4293
10593
243
2993
3693
93
1143
993
143
5336
599917
599922
599915
599925
599910
599889
599927
599919
599918
599924
30436
599
249
649
99
99
1449
599
1849
599
899
149
149
1549
249
399
99
149
1349
2299
449
199
299
249
799
99
849
499
1849
299
1099
2598
1149
3099
749
2849
399
1299
99
99
249
149
249
149
2999
99
499
899
149
199
649
99
299
3199
849
99
699
799
149
2799
99
499
3349
799
1049
549
249
199
449
199
1099
249
549
1349
149
499
199
499
99
449
149
149
449
149
249
249
199
249
99
199
99
1149
399
149
3449
99
449
99
99
299
2199
899
199
199
499
449
99
399
549
1449
199
149
699
1749
449
2399
1549
549
99
99
799
199
1799
249
249
2949
799
199
1649
649
99
149
799
299
299
299
399
149
99
349
349
1449
1999
649
99
249
99
699
849
99
299
99
299
99
299
549
299
849
149
99
399
1249
299
299
1049
199
99
299
1049
3499
749
149
99
649
2149
1599
99
199
99
549
149
648
199
799
198
599
399
299
99
199
399
899
699
199
599
99
1249
299
149
99
1099
399
499
99
99
99
299
199
349
349
249
199
749
99
1949
99
99
399
99
699
299
249
99
149
99
399
149
1599
99
1349
99
449
149
99
2099
99
99
149
2299
449
299
149
149
99
799
199
149
149
299
299
1049
1449
349
1399
99
299
98
349
99
299
249
649
399
99
99
199
199
749
199
199
399
349
99
549
149
449
499
99
149
148
899
2099
249
149
399
249
99
99
3049
149
2449
149
949
99
99
499
149
699
149
1099
99
399
2199
1149
99
799
299
149
949
149
99
2099
2649
99
2899
299
99
149
999
399
199
1499
399
1099
99
699
199
399
299
499
3299
1799
949
849
349
249
598
1749
1399
149
799
349
499
549
249
99
3149
249
1899
99
149
499
1949
149
1349
349
449
2149
3349
99
299
899
449
749
1049
149
1599
99
2049
249
549
149
1249
399
99
1649
149
648
1849
149
1549
99
2199
149
199
199
199
449
449
399
199
199
949
199
99
549
799
99
599
99
199
2399
199
1799
99
249
2949
299
249
899
499
99
549
199
1949
299
399
299
148
249
199
149
99
1699
149
399
649
99
249
299
649
499
1999
649
699
249
99
849
549
4349
2249
449
99
149
99
99
249
149
149
2199
249
199
99
99
99
299
449
349
1749
249
1649
199
149
1049
99
149
549
1249
349
99
1199
549
1499
99
99
499
299
299
1049
799
699
349
149
3099
149
149
149
99
98
748
99
249
1699
1049
249
349
1099
1199
649
199
99
399
749
2149
5049
1399
1399
149
1149
1449
149
249
1099
149
299
99
99
499
299
649
249
2049
199
299
899
399
749
349
299
549
749
1199
149
749
1749
249
149
199
1749
349
849
99
2399
149
599
99
499
98
299
99
599
1649
1749
99
98
1599
149
3499
6699
299
99
99
199
349
299
99
599
99
249
199
99
199
1199
1999
249
149
1399
899
599
99
299
99
349
199
1799
199
4449
2999
99
799
449
99
99
1149
449
249
1349
299
899
149
199
99
2549
199
99
199
149
249
949
449
749
499
149
149
2299
1849
199
998
99
149
849
499
99
549
2099
149
99
99
99
149
149
899
399
199
149
149
849
399
99
249
99
1599
249
1549
299
1049
99
999
149
649
499
249
649
899
149
249
499
149
1999
99
249
399
349
249
199
249
149
549
3149
249
399
99
99
449
199
2349
649
149
349
2249
2849
149
749
199
499
1449
149
149
999
249
899
449
1599
849
649
1149
1199
449
99
349
399
99
349
749
449
349
199
299
299
399
449
149
149
1148
149
249
349
699
149
299
149
149
299
499
1649
399
899
149
99
99
199
249
149
99
249
249
199
399
349
99
149
599
249
2749
6599
399
348
399
149
1149
149
99
899
149
99
149
899
99
99
249
449
3449
399
999
149
499
449
1999
149
1649
2899
799
449
249
249
199
8149
99
1099
149
449
149
98
1299
99
399
1099
149
2849
199
849
449
99
649
249
299
249
99
199
899
249
1949
199
1249
1849
199
149
449
649
799
299
99
449
99
149
148
549
1199
99
99
1949
99
149
149
1099
299
99
699
849
349
599
399
1899
649
3949
1999
249
149
449
249
199
2649
599
349
749
349
249
149
199
249
99
99
149
99
299
599
1999
249
1099
1999
1099
799
149
2849
449
1499
149
2649
99
749
99
199
149
691
35161
142
1242
92
1442
4092
342
3842
542
3092
3992
1042
192
142
8192
142
1742
192
92
2442
2792
1092
1992
142
492
392
2042
2242
92
792
1492
1092
4692
1592
2042
92
692
2692
142
242
192
4892
3742
5642
242
2742
1692
142
942
142
1942
92
542
3642
1092
242
92
292
142
4042
1792
592
2642
192
342
142
2342
492
342
642
242
92
142
92
5342
3592
92
3592
4142
5342
1842
4892
92
4892
92
192
92
2692
92
542
142
92
6142
242
1342
3392
642
442
192
92
5892
142
342
92
142
92
242
242
1692
7942
5142
942
1192
542
992
7642
92
2692
92
2592
1192
92
92
92
242
92
2042
9942
4642
242
142
5042
342
192
2092
592
9092
9292
142
142
1192
242
1192
92
2242
442
142
142
2542
1992
942
1192
842
92
2442
592
92
4892
592
2892
342
92
4092
92
1142
492
292
292
92
792
1942
292
392
92
1442
2492
142
2192
6192
392
3442
1642
2542
442
342
3642
142
1742
12542
792
6992
542
1342
142
142
1692
5042
642
1392
142
192
1542
192
2942
242
92
1092
292
192
4192
92
92
142
1242
3692
2242
192
2892
742
192
442
1242
642
1192
392
992
692
2092
6292
3192
3242
3392
692
4242
692
342
3142
942
392
92
4392
792
1892
92
242
542
242
392
342
92
392
992
542
92
142
142
2242
5142
92
6942
92
1892
192
192
1942
2392
92
1692
92
1442
242
92
2792
92
2092
92
1792
642
3342
1592
1792
5642
92
242
2092
1042
6292
142
4342
142
142
542
1392
3542
5142
292
3392
1242
392
3342
1592
3092
1642
492
1892
2692
3892
292
142
92
6992
1842
142
4992
292
592
92
3392
242
2242
142
142
92
2092
242
92
4842
1542
3242
642
3942
142
92
292
392
8442
192
5992
142
92
4192
4242
142
2592
242
3392
92
92
403
599915
599918
30092
1344
394
94
144
1996
346
2094
594
144
544
1794
246
3443
4043
394
2996
1246
144
746
1244
194
4494
2297
93
93
2346
396
94
1746
593
794
94
2446
446
3646
696
94
94
193
2046
244
144
94
2346
4046
343
2596
1393
896
3746
143
1596
94
4596
143
494
244
446
1244
1846
2346
93
496
3194
2546
293
896
144
744
6146
2693
3194
544
1344
3696
1046
93
93
4743
146
1143
3196
496
94
746
1746
3794
2996
93
144
446
2096
144
93
94
1046
2644
494
3046
144
344
1546
3946
1796
1896
2046
144
2693
646
546
6646
244
546
194
2346
1944
1396
746
94
1996
5146
1596
193
94
3496
1794
4346
944
2544
894
1093
93
693
643
93
2444
1793
93
643
896
446
1096
2443
1143
143
93
1543
3546
1246
144
93
3743
93
1093
696
244
194
3196
193
1146
296
996
396
3096
144
2046
3096
6643
143
293
1346
1443
1996
2446
143
596
143
446
1044
443
3743
94
2446
744
1296
6344
1346
8144
1896
143
2444
794
293
6244
1544
896
196
1893
2596
194
2496
93
143
4796
543
4746
144
846
194
643
93
194
93
346
93
696
343
546
394
93
196
243
143
1643
2046
193
1546
93
93
693
146
1446
293
93
2746
143
143
1746
294
94
93
696
2796
5196
2844
1596
3296
143
94
3046
944
194
296
5746
1096
2196
346
2093
244
1046
5194
394
2643
596
1243
196
144
1146
144
243
1143
5346
8696
796
94
94
1444
94
196
144
2846
93
393
1743
896
94
746
546
1493
196
2144
6346
193
93
144
1646
5546
2046
343
4393
946
2596
243
296
1296
1696
94
2444
4544
246
3943
344
1696
1143
2346
546
94
1294
6896
193
193
1646
143
93
144
496
144
146
94
1893
93
143
3796
2396
93
93
2344
94
2343
144
1396
646
2194
4896
3546
2793
3393
244
2796
94
144
2643
546
1243
93
94
194
2644
1244
94
94
5793
1446
3296
293
2643
543
94
643
4196
294
1546
7996
1696
244
2096
1496
94
93
494
194
1094
144
94
4396
1095
4396
3696
93
2446
294
4094
7496
4146
3987
29993
569931
599935
599940
31795
2146
4796
246
10046
4946
4196
3546
3646
2496
1196
496
146
5596
96
196
3396
546
196
1146
6396
10346
146
5446
146
4296
196
1946
1246
246
4646
146
1346
1246
96
9746
146
10996
846
496
96
6096
8296
1596
2646
7696
4346
96
5446
246
96
7496
196
1946
196
246
646
96
2196
196
9846
1896
96
146
296
1346
4196
5546
96
546
7596
2446
146
196
96
446
246
746
346
96
596
96
1846
396
4546
5996
3846
196
3796
5796
96
296
96
146
1496
10396
96
96
4796
6746
5146
496
696
146
1746
146
96
1046
246
146
12846
1596
3896
96
146
96
596
746
196
4146
196
146
7946
6196
246
5046
3746
2246
10096
3096
2246
1196
646
1346
3396
996
146
4046
1746
2396
446
3046
7196
146
146
4046
7196
146
6246
246
1346
446
3796
846
2596
446
96
8346
8846
1246
246
96
2046
8696
7796
2246
146
96
11346
1096
696
196
4596
346
4096
3146
1546
3896
96
796
146
2146
346
196
2946
4646
9596
5046
96
6296
4696
5646
96
896
296
5646
96
10696
5046
96
16996
196
4646
1046
96
396
96
8046
497
96
1396
1846
2246
146
196
96
3446
3446
2346
96
96
3596
796
196
2237
599928
599920
599917
30488
743
92
343
192
92
643
92
142
142
843
843
294
344
394
344
144
2794
843
94
443
92
644
1344
142
142
94
143
1144
1794
944
1494
1143
92
3193
344
643
243
594
94
1344
94
244
92
3343
594
192
542
294
192
1193
294
494
144
2694
194
7094
844
1594
1894
2344
394
1044
444
344
694
194
2444
143
1993
92
944
594
394
644
293
142
442
144
3394
244
3694
244
93
343
444
93
1144
794
94
94
1494
144
944
194
1944
1944
244
1344
594
344
1294
294
344
2294
844
194
94
1594
144
1394
1044
343
143
1294
594
94
194
144
744
144
242
192
92
142
494
3994
494
993
142
94
344
1244
93
142
3742
894
1344
644
244
594
644
1444
2194
4694
1694
1944
144
143
1444
294
94
644
644
744
1893
2594
244
143
243
192
1444
944
394
694
244
3693
1494
2593
2244
244
94
544
144
243
594
394
2094
243
444
2294
194
1744
1444
644
294
93
1243
2894
844
1594
594
2394
93
1294
94
594
2694
144
994
344
144
944
544
1244
694
4444
343
294
1844
3544
93
743
1944
394
344
2494
1543
2293
1044
3444
143
194
194
594
544
1744
2294
2194
294
194
643
1894
1044
194
394
2144
1594
194
1144
1643
943
242
393
1894
2644
1894
192
494
194
94
2844
544
1444
92
4843
394
694
1244
194
694
94
1194
1194
94
1494
594
794
644
594
4144
94
494
294
94
244
244
294
844
794
1144
894
794
244
143
93
192
142
2743
1194
894
194
294
1144
344
1444
144
294
244
1394
744
894
94
794
394
1144
1044
394
1044
994
594
344
1194
594
794
294
2544
94
793
794
694
244
144
494
2044
93
893
594
94
443
1344
2844
1094
694
1994
844
2644
194
4844
394
394
294
343
193
1744
1444
244
1394
244
344
1144
144
544
244
1744
394
1344
144
94
294
1044
1344
1094
344
92
393
894
2594
194
94
394
744
94
93
743
594
594
2344
1343
2094
744
244
1844
494
2294
344
294
93
243
543
1144
394
994
4444
144
594
444
2394
144
194
144
93
794
1694
544
93
94
1244
344
1194
92
94
94
694
1044
1644
944
194
844
94
1644
94
243
344
644
1744
143
442
244
744
93
93
244
494
1194
644
1794
94
594
4294
93
544
643
94
444
194
444
844
1944
444
444
242
143
344
2294
444
494
94
1594
4744
1494
1194
1244
294
294
2194
394
344
1394
144
144
1244
4244
1144
1494
1044
894
544
844
694
94
93
193
144
144
894
644
294
294
394
1944
694
244
1294
94
444
144
94
894
2294
143
194
744
1344
1944
444
894
3244
544
743
1894
244
2044
244
544
1294
594
544
94
394
194
1144
643
1494
1143
543
194
443
494
94
5494
144
694
1744
3244
744
244
894
394
1894
1294
1844
844
344
544
144
1944
443
92
1693
1843
193
242
144
194
1744
744
944
144
194
1194
1644
1344
542
344
294
2544
1294
1894
2794
1994
994
1494
94
194
1144
2494
244
1694
544
494
292
142
194
894
2144
494
94
294
142
443
3043
144
4144
694
2344
1794
1944
1144
394
344
2794
1094
2044
944
2594
5194
1094
294
2244
1494
244
244
894
444
594
3094
93
3435
599947
