=============================================================================================================== 
LARREA_VANILLA_LG_CONSENSUS_RATE.result	          <->	          LARREA_EPOCH_LG_CONSENSUS_RATE.result
=============================================================================================================== 

LARREA_VANILLA_LG_CONSENSUS_RATE.result mean: 0.08 
LARREA_EPOCH_LG_CONSENSUS_RATE.result mean: 0.09 

Observed difference of two means: 0.01 
28719 out of 100000 experiments had a difference of two means greater than or equal to 0.01.
The chance of getting a difference of two means greater than or equal to 0.01 is 0.28719.

=============================================================================================================== 
LARREA_VANILLA_LG_CONSENSUS_RATE.result	          <->	          AGUILERA_LG_CONSENSUS_RATE.result
=============================================================================================================== 

LARREA_VANILLA_LG_CONSENSUS_RATE.result mean: 0.08 
AGUILERA_LG_CONSENSUS_RATE.result mean: 0.01 

Observed difference of two means: -0.06 
329 out of 100000 experiments had a difference of two means less than or equal to -0.06.
The chance of getting a difference of two means less than or equal to -0.06 is 0.00329.

=============================================================================================================== 
LARREA_VANILLA_LG_CONSENSUS_RATE.result	          <->	          CHEN_LG_CONSENSUS_RATE.result
=============================================================================================================== 

LARREA_VANILLA_LG_CONSENSUS_RATE.result mean: 0.08 
CHEN_LG_CONSENSUS_RATE.result mean: 0.04 

Observed difference of two means: -0.04 
1048 out of 100000 experiments had a difference of two means less than or equal to -0.04.
The chance of getting a difference of two means less than or equal to -0.04 is 0.01048.

=============================================================================================================== 
LARREA_EPOCH_LG_CONSENSUS_RATE.result	          <->	          AGUILERA_LG_CONSENSUS_RATE.result
=============================================================================================================== 

LARREA_EPOCH_LG_CONSENSUS_RATE.result mean: 0.09 
AGUILERA_LG_CONSENSUS_RATE.result mean: 0.01 

Observed difference of two means: -0.07 
190 out of 100000 experiments had a difference of two means less than or equal to -0.07.
The chance of getting a difference of two means less than or equal to -0.07 is 0.0019.

=============================================================================================================== 
LARREA_EPOCH_LG_CONSENSUS_RATE.result	          <->	          CHEN_LG_CONSENSUS_RATE.result
=============================================================================================================== 

LARREA_EPOCH_LG_CONSENSUS_RATE.result mean: 0.09 
CHEN_LG_CONSENSUS_RATE.result mean: 0.04 

Observed difference of two means: -0.05 
171 out of 100000 experiments had a difference of two means less than or equal to -0.05.
The chance of getting a difference of two means less than or equal to -0.05 is 0.00171.

=============================================================================================================== 
AGUILERA_LG_CONSENSUS_RATE.result	          <->	          CHEN_LG_CONSENSUS_RATE.result
=============================================================================================================== 

AGUILERA_LG_CONSENSUS_RATE.result mean: 0.01 
CHEN_LG_CONSENSUS_RATE.result mean: 0.04 

Observed difference of two means: 0.02 
400 out of 100000 experiments had a difference of two means greater than or equal to 0.02.
The chance of getting a difference of two means greater than or equal to 0.02 is 0.004.

=============================================================================================================== 
LARREA_VANILLA_FD_AVG_MISTAKE_RATE.result	          <->	          LARREA_EPOCH_FD_AVG_MISTAKE_RATE.result
=============================================================================================================== 

LARREA_VANILLA_FD_AVG_MISTAKE_RATE.result mean: 0.56 
LARREA_EPOCH_FD_AVG_MISTAKE_RATE.result mean: 0.57 

Observed difference of two means: 0.01 
23018 out of 100000 experiments had a difference of two means greater than or equal to 0.01.
The chance of getting a difference of two means greater than or equal to 0.01 is 0.23018.

=============================================================================================================== 
LARREA_VANILLA_FD_AVG_MISTAKE_RATE.result	          <->	          AGUILERA_FD_AVG_MISTAKE_RATE.result
=============================================================================================================== 

LARREA_VANILLA_FD_AVG_MISTAKE_RATE.result mean: 0.56 
AGUILERA_FD_AVG_MISTAKE_RATE.result mean: 0.80 

Observed difference of two means: 0.24 
371 out of 100000 experiments had a difference of two means greater than or equal to 0.24.
The chance of getting a difference of two means greater than or equal to 0.24 is 0.00371.

=============================================================================================================== 
LARREA_VANILLA_FD_AVG_MISTAKE_RATE.result	          <->	          CHEN_FD_AVG_MISTAKE_RATE.result
=============================================================================================================== 

LARREA_VANILLA_FD_AVG_MISTAKE_RATE.result mean: 0.56 
CHEN_FD_AVG_MISTAKE_RATE.result mean: 0.00 

Observed difference of two means: -0.56 
176 out of 100000 experiments had a difference of two means less than or equal to -0.56.
The chance of getting a difference of two means less than or equal to -0.56 is 0.00176.

=============================================================================================================== 
LARREA_EPOCH_FD_AVG_MISTAKE_RATE.result	          <->	          AGUILERA_FD_AVG_MISTAKE_RATE.result
=============================================================================================================== 

LARREA_EPOCH_FD_AVG_MISTAKE_RATE.result mean: 0.57 
AGUILERA_FD_AVG_MISTAKE_RATE.result mean: 0.80 

Observed difference of two means: 0.24 
310 out of 100000 experiments had a difference of two means greater than or equal to 0.24.
The chance of getting a difference of two means greater than or equal to 0.24 is 0.0031.

=============================================================================================================== 
LARREA_EPOCH_FD_AVG_MISTAKE_RATE.result	          <->	          CHEN_FD_AVG_MISTAKE_RATE.result
=============================================================================================================== 

LARREA_EPOCH_FD_AVG_MISTAKE_RATE.result mean: 0.57 
CHEN_FD_AVG_MISTAKE_RATE.result mean: 0.00 

Observed difference of two means: -0.56 
371 out of 100000 experiments had a difference of two means less than or equal to -0.56.
The chance of getting a difference of two means less than or equal to -0.56 is 0.00371.

=============================================================================================================== 
AGUILERA_FD_AVG_MISTAKE_RATE.result	          <->	          CHEN_FD_AVG_MISTAKE_RATE.result
=============================================================================================================== 

AGUILERA_FD_AVG_MISTAKE_RATE.result mean: 0.80 
CHEN_FD_AVG_MISTAKE_RATE.result mean: 0.00 

Observed difference of two means: -0.80 
340 out of 100000 experiments had a difference of two means less than or equal to -0.80.
The chance of getting a difference of two means less than or equal to -0.80 is 0.0034.

=============================================================================================================== 
LARREA_VANILLA_FD_TG_SUM.result	          <->	          LARREA_EPOCH_FD_TG_SUM.result
=============================================================================================================== 

LARREA_VANILLA_FD_TG_SUM.result mean: 486491.60 
LARREA_EPOCH_FD_TG_SUM.result mean: 493141.40 

Observed difference of two means: 6649.80 
23147 out of 100000 experiments had a difference of two means greater than or equal to 6649.80.
The chance of getting a difference of two means greater than or equal to 6649.80 is 0.23147.

=============================================================================================================== 
LARREA_VANILLA_FD_TG_SUM.result	          <->	          AGUILERA_FD_TG_SUM.result
=============================================================================================================== 

LARREA_VANILLA_FD_TG_SUM.result mean: 486491.60 
AGUILERA_FD_TG_SUM.result mean: 441153.20 

Observed difference of two means: -45338.40 
421 out of 100000 experiments had a difference of two means less than or equal to -45338.40.
The chance of getting a difference of two means less than or equal to -45338.40 is 0.00421.

=============================================================================================================== 
LARREA_VANILLA_FD_TG_SUM.result	          <->	          CHEN_FD_TG_SUM.result
=============================================================================================================== 

LARREA_VANILLA_FD_TG_SUM.result mean: 486491.60 
CHEN_FD_TG_SUM.result mean: 29717.40 

Observed difference of two means: -456774.20 
374 out of 100000 experiments had a difference of two means less than or equal to -456774.20.
The chance of getting a difference of two means less than or equal to -456774.20 is 0.00374.

=============================================================================================================== 
LARREA_EPOCH_FD_TG_SUM.result	          <->	          AGUILERA_FD_TG_SUM.result
=============================================================================================================== 

LARREA_EPOCH_FD_TG_SUM.result mean: 493141.40 
AGUILERA_FD_TG_SUM.result mean: 441153.20 

Observed difference of two means: -51988.20 
390 out of 100000 experiments had a difference of two means less than or equal to -51988.20.
The chance of getting a difference of two means less than or equal to -51988.20 is 0.0039.

=============================================================================================================== 
LARREA_EPOCH_FD_TG_SUM.result	          <->	          CHEN_FD_TG_SUM.result
=============================================================================================================== 

LARREA_EPOCH_FD_TG_SUM.result mean: 493141.40 
CHEN_FD_TG_SUM.result mean: 29717.40 

Observed difference of two means: -463424.00 
416 out of 100000 experiments had a difference of two means less than or equal to -463424.00.
The chance of getting a difference of two means less than or equal to -463424.00 is 0.00416.

=============================================================================================================== 
AGUILERA_FD_TG_SUM.result	          <->	          CHEN_FD_TG_SUM.result
=============================================================================================================== 

AGUILERA_FD_TG_SUM.result mean: 441153.20 
CHEN_FD_TG_SUM.result mean: 29717.40 

Observed difference of two means: -411435.80 
374 out of 100000 experiments had a difference of two means less than or equal to -411435.80.
The chance of getting a difference of two means less than or equal to -411435.80 is 0.00374.

