=============================================================================================================== 
LARREA_VANILLA_LG_CONSENSUS_RATE.result	          <->	          LARREA_EPOCH_LG_CONSENSUS_RATE.result
=============================================================================================================== 

LARREA_VANILLA_LG_CONSENSUS_RATE.result mean: 0.01 
LARREA_EPOCH_LG_CONSENSUS_RATE.result mean: 0.19 

Observed difference of two means: 0.19 
1977 out of 100000 experiments had a difference of two means greater than or equal to 0.19.
The chance of getting a difference of two means greater than or equal to 0.19 is 0.01977.

=============================================================================================================== 
LARREA_VANILLA_LG_CONSENSUS_RATE.result	          <->	          AGUILERA_LG_CONSENSUS_RATE.result
=============================================================================================================== 

LARREA_VANILLA_LG_CONSENSUS_RATE.result mean: 0.01 
AGUILERA_LG_CONSENSUS_RATE.result mean: 0.75 

Observed difference of two means: 0.75 
403 out of 100000 experiments had a difference of two means greater than or equal to 0.75.
The chance of getting a difference of two means greater than or equal to 0.75 is 0.00403.

=============================================================================================================== 
LARREA_VANILLA_LG_CONSENSUS_RATE.result	          <->	          CHEN_LG_CONSENSUS_RATE.result
=============================================================================================================== 

LARREA_VANILLA_LG_CONSENSUS_RATE.result mean: 0.01 
CHEN_LG_CONSENSUS_RATE.result mean: 0.17 

Observed difference of two means: 0.16 
408 out of 100000 experiments had a difference of two means greater than or equal to 0.16.
The chance of getting a difference of two means greater than or equal to 0.16 is 0.00408.

=============================================================================================================== 
LARREA_EPOCH_LG_CONSENSUS_RATE.result	          <->	          AGUILERA_LG_CONSENSUS_RATE.result
=============================================================================================================== 

LARREA_EPOCH_LG_CONSENSUS_RATE.result mean: 0.19 
AGUILERA_LG_CONSENSUS_RATE.result mean: 0.75 

Observed difference of two means: 0.56 
812 out of 100000 experiments had a difference of two means greater than or equal to 0.56.
The chance of getting a difference of two means greater than or equal to 0.56 is 0.00812.

=============================================================================================================== 
LARREA_EPOCH_LG_CONSENSUS_RATE.result	          <->	          CHEN_LG_CONSENSUS_RATE.result
=============================================================================================================== 

LARREA_EPOCH_LG_CONSENSUS_RATE.result mean: 0.19 
CHEN_LG_CONSENSUS_RATE.result mean: 0.17 

Observed difference of two means: -0.03 
47342 out of 100000 experiments had a difference of two means less than or equal to -0.03.
The chance of getting a difference of two means less than or equal to -0.03 is 0.47342.

=============================================================================================================== 
AGUILERA_LG_CONSENSUS_RATE.result	          <->	          CHEN_LG_CONSENSUS_RATE.result
=============================================================================================================== 

AGUILERA_LG_CONSENSUS_RATE.result mean: 0.75 
CHEN_LG_CONSENSUS_RATE.result mean: 0.17 

Observed difference of two means: -0.58 
86 out of 100000 experiments had a difference of two means less than or equal to -0.58.
The chance of getting a difference of two means less than or equal to -0.58 is 0.00086.

=============================================================================================================== 
LARREA_VANILLA_FD_AVG_MISTAKE_RATE.result	          <->	          LARREA_EPOCH_FD_AVG_MISTAKE_RATE.result
=============================================================================================================== 

LARREA_VANILLA_FD_AVG_MISTAKE_RATE.result mean: 0.08 
LARREA_EPOCH_FD_AVG_MISTAKE_RATE.result mean: 0.04 

Observed difference of two means: -0.04 
12613 out of 100000 experiments had a difference of two means less than or equal to -0.04.
The chance of getting a difference of two means less than or equal to -0.04 is 0.12613.

=============================================================================================================== 
LARREA_VANILLA_FD_AVG_MISTAKE_RATE.result	          <->	          AGUILERA_FD_AVG_MISTAKE_RATE.result
=============================================================================================================== 

LARREA_VANILLA_FD_AVG_MISTAKE_RATE.result mean: 0.08 
AGUILERA_FD_AVG_MISTAKE_RATE.result mean: 0.06 

Observed difference of two means: -0.03 
22108 out of 100000 experiments had a difference of two means less than or equal to -0.03.
The chance of getting a difference of two means less than or equal to -0.03 is 0.22108.

=============================================================================================================== 
LARREA_VANILLA_FD_AVG_MISTAKE_RATE.result	          <->	          CHEN_FD_AVG_MISTAKE_RATE.result
=============================================================================================================== 

LARREA_VANILLA_FD_AVG_MISTAKE_RATE.result mean: 0.08 
CHEN_FD_AVG_MISTAKE_RATE.result mean: 0.00 

Observed difference of two means: -0.08 
330 out of 100000 experiments had a difference of two means less than or equal to -0.08.
The chance of getting a difference of two means less than or equal to -0.08 is 0.0033.

=============================================================================================================== 
LARREA_EPOCH_FD_AVG_MISTAKE_RATE.result	          <->	          AGUILERA_FD_AVG_MISTAKE_RATE.result
=============================================================================================================== 

LARREA_EPOCH_FD_AVG_MISTAKE_RATE.result mean: 0.04 
AGUILERA_FD_AVG_MISTAKE_RATE.result mean: 0.06 

Observed difference of two means: 0.02 
10377 out of 100000 experiments had a difference of two means greater than or equal to 0.02.
The chance of getting a difference of two means greater than or equal to 0.02 is 0.10377.

=============================================================================================================== 
LARREA_EPOCH_FD_AVG_MISTAKE_RATE.result	          <->	          CHEN_FD_AVG_MISTAKE_RATE.result
=============================================================================================================== 

LARREA_EPOCH_FD_AVG_MISTAKE_RATE.result mean: 0.04 
CHEN_FD_AVG_MISTAKE_RATE.result mean: 0.00 

Observed difference of two means: -0.04 
435 out of 100000 experiments had a difference of two means less than or equal to -0.04.
The chance of getting a difference of two means less than or equal to -0.04 is 0.00435.

=============================================================================================================== 
AGUILERA_FD_AVG_MISTAKE_RATE.result	          <->	          CHEN_FD_AVG_MISTAKE_RATE.result
=============================================================================================================== 

AGUILERA_FD_AVG_MISTAKE_RATE.result mean: 0.06 
CHEN_FD_AVG_MISTAKE_RATE.result mean: 0.00 

Observed difference of two means: -0.06 
399 out of 100000 experiments had a difference of two means less than or equal to -0.06.
The chance of getting a difference of two means less than or equal to -0.06 is 0.00399.

=============================================================================================================== 
LARREA_VANILLA_FD_TG_SUM.result	          <->	          LARREA_EPOCH_FD_TG_SUM.result
=============================================================================================================== 

LARREA_VANILLA_FD_TG_SUM.result mean: 599389.60 
LARREA_EPOCH_FD_TG_SUM.result mean: 599565.40 

Observed difference of two means: 175.80 
15914 out of 100000 experiments had a difference of two means greater than or equal to 175.80.
The chance of getting a difference of two means greater than or equal to 175.80 is 0.15914.

=============================================================================================================== 
LARREA_VANILLA_FD_TG_SUM.result	          <->	          AGUILERA_FD_TG_SUM.result
=============================================================================================================== 

LARREA_VANILLA_FD_TG_SUM.result mean: 599389.60 
AGUILERA_FD_TG_SUM.result mean: 597358.80 

Observed difference of two means: -2030.80 
408 out of 100000 experiments had a difference of two means less than or equal to -2030.80.
The chance of getting a difference of two means less than or equal to -2030.80 is 0.00408.

=============================================================================================================== 
LARREA_VANILLA_FD_TG_SUM.result	          <->	          CHEN_FD_TG_SUM.result
=============================================================================================================== 

LARREA_VANILLA_FD_TG_SUM.result mean: 599389.60 
CHEN_FD_TG_SUM.result mean: 29823.00 

Observed difference of two means: -569566.60 
365 out of 100000 experiments had a difference of two means less than or equal to -569566.60.
The chance of getting a difference of two means less than or equal to -569566.60 is 0.00365.

=============================================================================================================== 
LARREA_EPOCH_FD_TG_SUM.result	          <->	          AGUILERA_FD_TG_SUM.result
=============================================================================================================== 

LARREA_EPOCH_FD_TG_SUM.result mean: 599565.40 
AGUILERA_FD_TG_SUM.result mean: 597358.80 

Observed difference of two means: -2206.60 
350 out of 100000 experiments had a difference of two means less than or equal to -2206.60.
The chance of getting a difference of two means less than or equal to -2206.60 is 0.0035.

=============================================================================================================== 
LARREA_EPOCH_FD_TG_SUM.result	          <->	          CHEN_FD_TG_SUM.result
=============================================================================================================== 

LARREA_EPOCH_FD_TG_SUM.result mean: 599565.40 
CHEN_FD_TG_SUM.result mean: 29823.00 

Observed difference of two means: -569742.40 
387 out of 100000 experiments had a difference of two means less than or equal to -569742.40.
The chance of getting a difference of two means less than or equal to -569742.40 is 0.00387.

=============================================================================================================== 
AGUILERA_FD_TG_SUM.result	          <->	          CHEN_FD_TG_SUM.result
=============================================================================================================== 

AGUILERA_FD_TG_SUM.result mean: 597358.80 
CHEN_FD_TG_SUM.result mean: 29823.00 

Observed difference of two means: -567535.80 
397 out of 100000 experiments had a difference of two means less than or equal to -567535.80.
The chance of getting a difference of two means less than or equal to -567535.80 is 0.00397.

