=============================================================================================================== 
LARREA_VANILLA_LG_CONSENSUS_RATE.result	          <->	          LARREA_EPOCH_LG_CONSENSUS_RATE.result
=============================================================================================================== 

LARREA_VANILLA_LG_CONSENSUS_RATE.result mean: 0.36 
LARREA_EPOCH_LG_CONSENSUS_RATE.result mean: 0.40 

Observed difference of two means: 0.03 
18912 out of 100000 experiments had a difference of two means greater than or equal to 0.03.
The chance of getting a difference of two means greater than or equal to 0.03 is 0.18912.

=============================================================================================================== 
LARREA_VANILLA_LG_CONSENSUS_RATE.result	          <->	          AGUILERA_LG_CONSENSUS_RATE.result
=============================================================================================================== 

LARREA_VANILLA_LG_CONSENSUS_RATE.result mean: 0.36 
AGUILERA_LG_CONSENSUS_RATE.result mean: 0.10 

Observed difference of two means: -0.26 
417 out of 100000 experiments had a difference of two means less than or equal to -0.26.
The chance of getting a difference of two means less than or equal to -0.26 is 0.00417.

=============================================================================================================== 
LARREA_VANILLA_LG_CONSENSUS_RATE.result	          <->	          CHEN_LG_CONSENSUS_RATE.result
=============================================================================================================== 

LARREA_VANILLA_LG_CONSENSUS_RATE.result mean: 0.36 
CHEN_LG_CONSENSUS_RATE.result mean: 0.08 

Observed difference of two means: -0.28 
394 out of 100000 experiments had a difference of two means less than or equal to -0.28.
The chance of getting a difference of two means less than or equal to -0.28 is 0.00394.

=============================================================================================================== 
LARREA_EPOCH_LG_CONSENSUS_RATE.result	          <->	          AGUILERA_LG_CONSENSUS_RATE.result
=============================================================================================================== 

LARREA_EPOCH_LG_CONSENSUS_RATE.result mean: 0.40 
AGUILERA_LG_CONSENSUS_RATE.result mean: 0.10 

Observed difference of two means: -0.30 
290 out of 100000 experiments had a difference of two means less than or equal to -0.30.
The chance of getting a difference of two means less than or equal to -0.30 is 0.0029.

=============================================================================================================== 
LARREA_EPOCH_LG_CONSENSUS_RATE.result	          <->	          CHEN_LG_CONSENSUS_RATE.result
=============================================================================================================== 

LARREA_EPOCH_LG_CONSENSUS_RATE.result mean: 0.40 
CHEN_LG_CONSENSUS_RATE.result mean: 0.08 

Observed difference of two means: -0.31 
298 out of 100000 experiments had a difference of two means less than or equal to -0.31.
The chance of getting a difference of two means less than or equal to -0.31 is 0.00298.

=============================================================================================================== 
AGUILERA_LG_CONSENSUS_RATE.result	          <->	          CHEN_LG_CONSENSUS_RATE.result
=============================================================================================================== 

AGUILERA_LG_CONSENSUS_RATE.result mean: 0.10 
CHEN_LG_CONSENSUS_RATE.result mean: 0.08 

Observed difference of two means: -0.02 
23628 out of 100000 experiments had a difference of two means less than or equal to -0.02.
The chance of getting a difference of two means less than or equal to -0.02 is 0.23628.

=============================================================================================================== 
LARREA_VANILLA_FD_AVG_MISTAKE_RATE.result	          <->	          LARREA_EPOCH_FD_AVG_MISTAKE_RATE.result
=============================================================================================================== 

LARREA_VANILLA_FD_AVG_MISTAKE_RATE.result mean: 0.30 
LARREA_EPOCH_FD_AVG_MISTAKE_RATE.result mean: 0.29 

Observed difference of two means: -0.01 
13839 out of 100000 experiments had a difference of two means less than or equal to -0.01.
The chance of getting a difference of two means less than or equal to -0.01 is 0.13839.

=============================================================================================================== 
LARREA_VANILLA_FD_AVG_MISTAKE_RATE.result	          <->	          AGUILERA_FD_AVG_MISTAKE_RATE.result
=============================================================================================================== 

LARREA_VANILLA_FD_AVG_MISTAKE_RATE.result mean: 0.30 
AGUILERA_FD_AVG_MISTAKE_RATE.result mean: 0.43 

Observed difference of two means: 0.13 
394 out of 100000 experiments had a difference of two means greater than or equal to 0.13.
The chance of getting a difference of two means greater than or equal to 0.13 is 0.00394.

=============================================================================================================== 
LARREA_VANILLA_FD_AVG_MISTAKE_RATE.result	          <->	          CHEN_FD_AVG_MISTAKE_RATE.result
=============================================================================================================== 

LARREA_VANILLA_FD_AVG_MISTAKE_RATE.result mean: 0.30 
CHEN_FD_AVG_MISTAKE_RATE.result mean: 0.00 

Observed difference of two means: -0.30 
409 out of 100000 experiments had a difference of two means less than or equal to -0.30.
The chance of getting a difference of two means less than or equal to -0.30 is 0.00409.

=============================================================================================================== 
LARREA_EPOCH_FD_AVG_MISTAKE_RATE.result	          <->	          AGUILERA_FD_AVG_MISTAKE_RATE.result
=============================================================================================================== 

LARREA_EPOCH_FD_AVG_MISTAKE_RATE.result mean: 0.29 
AGUILERA_FD_AVG_MISTAKE_RATE.result mean: 0.43 

Observed difference of two means: 0.14 
363 out of 100000 experiments had a difference of two means greater than or equal to 0.14.
The chance of getting a difference of two means greater than or equal to 0.14 is 0.00363.

=============================================================================================================== 
LARREA_EPOCH_FD_AVG_MISTAKE_RATE.result	          <->	          CHEN_FD_AVG_MISTAKE_RATE.result
=============================================================================================================== 

LARREA_EPOCH_FD_AVG_MISTAKE_RATE.result mean: 0.29 
CHEN_FD_AVG_MISTAKE_RATE.result mean: 0.00 

Observed difference of two means: -0.29 
392 out of 100000 experiments had a difference of two means less than or equal to -0.29.
The chance of getting a difference of two means less than or equal to -0.29 is 0.00392.

=============================================================================================================== 
AGUILERA_FD_AVG_MISTAKE_RATE.result	          <->	          CHEN_FD_AVG_MISTAKE_RATE.result
=============================================================================================================== 

AGUILERA_FD_AVG_MISTAKE_RATE.result mean: 0.43 
CHEN_FD_AVG_MISTAKE_RATE.result mean: 0.00 

Observed difference of two means: -0.43 
399 out of 100000 experiments had a difference of two means less than or equal to -0.43.
The chance of getting a difference of two means less than or equal to -0.43 is 0.00399.

=============================================================================================================== 
LARREA_VANILLA_FD_TG_SUM.result	          <->	          LARREA_EPOCH_FD_TG_SUM.result
=============================================================================================================== 

LARREA_VANILLA_FD_TG_SUM.result mean: 549025.60 
LARREA_EPOCH_FD_TG_SUM.result mean: 532873.40 

Observed difference of two means: -16152.20 
4752 out of 100000 experiments had a difference of two means less than or equal to -16152.20.
The chance of getting a difference of two means less than or equal to -16152.20 is 0.04752.

=============================================================================================================== 
LARREA_VANILLA_FD_TG_SUM.result	          <->	          AGUILERA_FD_TG_SUM.result
=============================================================================================================== 

LARREA_VANILLA_FD_TG_SUM.result mean: 549025.60 
AGUILERA_FD_TG_SUM.result mean: 527476.60 

Observed difference of two means: -21549.00 
1590 out of 100000 experiments had a difference of two means less than or equal to -21549.00.
The chance of getting a difference of two means less than or equal to -21549.00 is 0.0159.

=============================================================================================================== 
LARREA_VANILLA_FD_TG_SUM.result	          <->	          CHEN_FD_TG_SUM.result
=============================================================================================================== 

LARREA_VANILLA_FD_TG_SUM.result mean: 549025.60 
CHEN_FD_TG_SUM.result mean: 29818.40 

Observed difference of two means: -519207.20 
437 out of 100000 experiments had a difference of two means less than or equal to -519207.20.
The chance of getting a difference of two means less than or equal to -519207.20 is 0.00437.

=============================================================================================================== 
LARREA_EPOCH_FD_TG_SUM.result	          <->	          AGUILERA_FD_TG_SUM.result
=============================================================================================================== 

LARREA_EPOCH_FD_TG_SUM.result mean: 532873.40 
AGUILERA_FD_TG_SUM.result mean: 527476.60 

Observed difference of two means: -5396.80 
6781 out of 100000 experiments had a difference of two means less than or equal to -5396.80.
The chance of getting a difference of two means less than or equal to -5396.80 is 0.06781.

=============================================================================================================== 
LARREA_EPOCH_FD_TG_SUM.result	          <->	          CHEN_FD_TG_SUM.result
=============================================================================================================== 

LARREA_EPOCH_FD_TG_SUM.result mean: 532873.40 
CHEN_FD_TG_SUM.result mean: 29818.40 

Observed difference of two means: -503055.00 
387 out of 100000 experiments had a difference of two means less than or equal to -503055.00.
The chance of getting a difference of two means less than or equal to -503055.00 is 0.00387.

=============================================================================================================== 
AGUILERA_FD_TG_SUM.result	          <->	          CHEN_FD_TG_SUM.result
=============================================================================================================== 

AGUILERA_FD_TG_SUM.result mean: 527476.60 
CHEN_FD_TG_SUM.result mean: 29818.40 

Observed difference of two means: -497658.20 
381 out of 100000 experiments had a difference of two means less than or equal to -497658.20.
The chance of getting a difference of two means less than or equal to -497658.20 is 0.00381.

