=============================================================================================================== 
LARREA_VANILLA_LG_CONSENSUS_RATE.result	          <->	          LARREA_EPOCH_LG_CONSENSUS_RATE.result
=============================================================================================================== 

LARREA_VANILLA_LG_CONSENSUS_RATE.result mean: 0.02 
LARREA_EPOCH_LG_CONSENSUS_RATE.result mean: 0.02 

Observed difference of two means: 0.00 
59389 out of 100000 experiments had a difference of two means greater than or equal to 0.00.
The chance of getting a difference of two means greater than or equal to 0.00 is 0.59389.

=============================================================================================================== 
LARREA_VANILLA_LG_CONSENSUS_RATE.result	          <->	          AGUILERA_LG_CONSENSUS_RATE.result
=============================================================================================================== 

LARREA_VANILLA_LG_CONSENSUS_RATE.result mean: 0.02 
AGUILERA_LG_CONSENSUS_RATE.result mean: 0.01 

Observed difference of two means: -0.01 
5122 out of 100000 experiments had a difference of two means less than or equal to -0.01.
The chance of getting a difference of two means less than or equal to -0.01 is 0.05122.

=============================================================================================================== 
LARREA_VANILLA_LG_CONSENSUS_RATE.result	          <->	          CHEN_LG_CONSENSUS_RATE.result
=============================================================================================================== 

LARREA_VANILLA_LG_CONSENSUS_RATE.result mean: 0.02 
CHEN_LG_CONSENSUS_RATE.result mean: 0.09 

Observed difference of two means: 0.06 
374 out of 100000 experiments had a difference of two means greater than or equal to 0.06.
The chance of getting a difference of two means greater than or equal to 0.06 is 0.00374.

=============================================================================================================== 
LARREA_EPOCH_LG_CONSENSUS_RATE.result	          <->	          AGUILERA_LG_CONSENSUS_RATE.result
=============================================================================================================== 

LARREA_EPOCH_LG_CONSENSUS_RATE.result mean: 0.02 
AGUILERA_LG_CONSENSUS_RATE.result mean: 0.01 

Observed difference of two means: -0.01 
10384 out of 100000 experiments had a difference of two means less than or equal to -0.01.
The chance of getting a difference of two means less than or equal to -0.01 is 0.10384.

=============================================================================================================== 
LARREA_EPOCH_LG_CONSENSUS_RATE.result	          <->	          CHEN_LG_CONSENSUS_RATE.result
=============================================================================================================== 

LARREA_EPOCH_LG_CONSENSUS_RATE.result mean: 0.02 
CHEN_LG_CONSENSUS_RATE.result mean: 0.09 

Observed difference of two means: 0.06 
435 out of 100000 experiments had a difference of two means greater than or equal to 0.06.
The chance of getting a difference of two means greater than or equal to 0.06 is 0.00435.

=============================================================================================================== 
AGUILERA_LG_CONSENSUS_RATE.result	          <->	          CHEN_LG_CONSENSUS_RATE.result
=============================================================================================================== 

AGUILERA_LG_CONSENSUS_RATE.result mean: 0.01 
CHEN_LG_CONSENSUS_RATE.result mean: 0.09 

Observed difference of two means: 0.08 
301 out of 100000 experiments had a difference of two means greater than or equal to 0.08.
The chance of getting a difference of two means greater than or equal to 0.08 is 0.00301.

=============================================================================================================== 
LARREA_VANILLA_FD_AVG_MISTAKE_RATE.result	          <->	          LARREA_EPOCH_FD_AVG_MISTAKE_RATE.result
=============================================================================================================== 

LARREA_VANILLA_FD_AVG_MISTAKE_RATE.result mean: 0.98 
LARREA_EPOCH_FD_AVG_MISTAKE_RATE.result mean: 0.97 

Observed difference of two means: -0.01 
45137 out of 100000 experiments had a difference of two means less than or equal to -0.01.
The chance of getting a difference of two means less than or equal to -0.01 is 0.45137.

=============================================================================================================== 
LARREA_VANILLA_FD_AVG_MISTAKE_RATE.result	          <->	          AGUILERA_FD_AVG_MISTAKE_RATE.result
=============================================================================================================== 

LARREA_VANILLA_FD_AVG_MISTAKE_RATE.result mean: 0.98 
AGUILERA_FD_AVG_MISTAKE_RATE.result mean: 1.46 

Observed difference of two means: 0.48 
332 out of 100000 experiments had a difference of two means greater than or equal to 0.48.
The chance of getting a difference of two means greater than or equal to 0.48 is 0.00332.

=============================================================================================================== 
LARREA_VANILLA_FD_AVG_MISTAKE_RATE.result	          <->	          CHEN_FD_AVG_MISTAKE_RATE.result
=============================================================================================================== 

LARREA_VANILLA_FD_AVG_MISTAKE_RATE.result mean: 0.98 
CHEN_FD_AVG_MISTAKE_RATE.result mean: 0.00 

Observed difference of two means: -0.98 
359 out of 100000 experiments had a difference of two means less than or equal to -0.98.
The chance of getting a difference of two means less than or equal to -0.98 is 0.00359.

=============================================================================================================== 
LARREA_EPOCH_FD_AVG_MISTAKE_RATE.result	          <->	          AGUILERA_FD_AVG_MISTAKE_RATE.result
=============================================================================================================== 

LARREA_EPOCH_FD_AVG_MISTAKE_RATE.result mean: 0.97 
AGUILERA_FD_AVG_MISTAKE_RATE.result mean: 1.46 

Observed difference of two means: 0.49 
376 out of 100000 experiments had a difference of two means greater than or equal to 0.49.
The chance of getting a difference of two means greater than or equal to 0.49 is 0.00376.

=============================================================================================================== 
LARREA_EPOCH_FD_AVG_MISTAKE_RATE.result	          <->	          CHEN_FD_AVG_MISTAKE_RATE.result
=============================================================================================================== 

LARREA_EPOCH_FD_AVG_MISTAKE_RATE.result mean: 0.97 
CHEN_FD_AVG_MISTAKE_RATE.result mean: 0.00 

Observed difference of two means: -0.97 
369 out of 100000 experiments had a difference of two means less than or equal to -0.97.
The chance of getting a difference of two means less than or equal to -0.97 is 0.00369.

=============================================================================================================== 
AGUILERA_FD_AVG_MISTAKE_RATE.result	          <->	          CHEN_FD_AVG_MISTAKE_RATE.result
=============================================================================================================== 

AGUILERA_FD_AVG_MISTAKE_RATE.result mean: 1.46 
CHEN_FD_AVG_MISTAKE_RATE.result mean: 0.00 

Observed difference of two means: -1.46 
415 out of 100000 experiments had a difference of two means less than or equal to -1.46.
The chance of getting a difference of two means less than or equal to -1.46 is 0.00415.

=============================================================================================================== 
LARREA_VANILLA_FD_TG_SUM.result	          <->	          LARREA_EPOCH_FD_TG_SUM.result
=============================================================================================================== 

LARREA_VANILLA_FD_TG_SUM.result mean: 522074.00 
LARREA_EPOCH_FD_TG_SUM.result mean: 528455.60 

Observed difference of two means: 6381.60 
17056 out of 100000 experiments had a difference of two means greater than or equal to 6381.60.
The chance of getting a difference of two means greater than or equal to 6381.60 is 0.17056.

=============================================================================================================== 
LARREA_VANILLA_FD_TG_SUM.result	          <->	          AGUILERA_FD_TG_SUM.result
=============================================================================================================== 

LARREA_VANILLA_FD_TG_SUM.result mean: 522074.00 
AGUILERA_FD_TG_SUM.result mean: 406413.20 

Observed difference of two means: -115660.80 
417 out of 100000 experiments had a difference of two means less than or equal to -115660.80.
The chance of getting a difference of two means less than or equal to -115660.80 is 0.00417.

=============================================================================================================== 
LARREA_VANILLA_FD_TG_SUM.result	          <->	          CHEN_FD_TG_SUM.result
=============================================================================================================== 

LARREA_VANILLA_FD_TG_SUM.result mean: 522074.00 
CHEN_FD_TG_SUM.result mean: 29826.20 

Observed difference of two means: -492247.80 
378 out of 100000 experiments had a difference of two means less than or equal to -492247.80.
The chance of getting a difference of two means less than or equal to -492247.80 is 0.00378.

=============================================================================================================== 
LARREA_EPOCH_FD_TG_SUM.result	          <->	          AGUILERA_FD_TG_SUM.result
=============================================================================================================== 

LARREA_EPOCH_FD_TG_SUM.result mean: 528455.60 
AGUILERA_FD_TG_SUM.result mean: 406413.20 

Observed difference of two means: -122042.40 
396 out of 100000 experiments had a difference of two means less than or equal to -122042.40.
The chance of getting a difference of two means less than or equal to -122042.40 is 0.00396.

=============================================================================================================== 
LARREA_EPOCH_FD_TG_SUM.result	          <->	          CHEN_FD_TG_SUM.result
=============================================================================================================== 

LARREA_EPOCH_FD_TG_SUM.result mean: 528455.60 
CHEN_FD_TG_SUM.result mean: 29826.20 

Observed difference of two means: -498629.40 
399 out of 100000 experiments had a difference of two means less than or equal to -498629.40.
The chance of getting a difference of two means less than or equal to -498629.40 is 0.00399.

=============================================================================================================== 
AGUILERA_FD_TG_SUM.result	          <->	          CHEN_FD_TG_SUM.result
=============================================================================================================== 

AGUILERA_FD_TG_SUM.result mean: 406413.20 
CHEN_FD_TG_SUM.result mean: 29826.20 

Observed difference of two means: -376587.00 
385 out of 100000 experiments had a difference of two means less than or equal to -376587.00.
The chance of getting a difference of two means less than or equal to -376587.00 is 0.00385.

