=============================================================================================================== 
LARREA_VANILLA_LG_CONSENSUS_RATE.result	          <->	          LARREA_EPOCH_LG_CONSENSUS_RATE.result
=============================================================================================================== 

LARREA_VANILLA_LG_CONSENSUS_RATE.result mean: 0.36 
LARREA_EPOCH_LG_CONSENSUS_RATE.result mean: 0.52 

Observed difference of two means: 0.15 
15572 out of 100000 experiments had a difference of two means greater than or equal to 0.15.
The chance of getting a difference of two means greater than or equal to 0.15 is 0.15572.

=============================================================================================================== 
LARREA_VANILLA_LG_CONSENSUS_RATE.result	          <->	          AGUILERA_LG_CONSENSUS_RATE.result
=============================================================================================================== 

LARREA_VANILLA_LG_CONSENSUS_RATE.result mean: 0.36 
AGUILERA_LG_CONSENSUS_RATE.result mean: 1.14 

Observed difference of two means: 0.78 
400 out of 100000 experiments had a difference of two means greater than or equal to 0.78.
The chance of getting a difference of two means greater than or equal to 0.78 is 0.004.

=============================================================================================================== 
LARREA_VANILLA_LG_CONSENSUS_RATE.result	          <->	          CHEN_LG_CONSENSUS_RATE.result
=============================================================================================================== 

LARREA_VANILLA_LG_CONSENSUS_RATE.result mean: 0.36 
CHEN_LG_CONSENSUS_RATE.result mean: 0.26 

Observed difference of two means: -0.10 
28159 out of 100000 experiments had a difference of two means less than or equal to -0.10.
The chance of getting a difference of two means less than or equal to -0.10 is 0.28159.

=============================================================================================================== 
LARREA_EPOCH_LG_CONSENSUS_RATE.result	          <->	          AGUILERA_LG_CONSENSUS_RATE.result
=============================================================================================================== 

LARREA_EPOCH_LG_CONSENSUS_RATE.result mean: 0.52 
AGUILERA_LG_CONSENSUS_RATE.result mean: 1.14 

Observed difference of two means: 0.62 
398 out of 100000 experiments had a difference of two means greater than or equal to 0.62.
The chance of getting a difference of two means greater than or equal to 0.62 is 0.00398.

=============================================================================================================== 
LARREA_EPOCH_LG_CONSENSUS_RATE.result	          <->	          CHEN_LG_CONSENSUS_RATE.result
=============================================================================================================== 

LARREA_EPOCH_LG_CONSENSUS_RATE.result mean: 0.52 
CHEN_LG_CONSENSUS_RATE.result mean: 0.26 

Observed difference of two means: -0.26 
2229 out of 100000 experiments had a difference of two means less than or equal to -0.26.
The chance of getting a difference of two means less than or equal to -0.26 is 0.02229.

=============================================================================================================== 
AGUILERA_LG_CONSENSUS_RATE.result	          <->	          CHEN_LG_CONSENSUS_RATE.result
=============================================================================================================== 

AGUILERA_LG_CONSENSUS_RATE.result mean: 1.14 
CHEN_LG_CONSENSUS_RATE.result mean: 0.26 

Observed difference of two means: -0.88 
376 out of 100000 experiments had a difference of two means less than or equal to -0.88.
The chance of getting a difference of two means less than or equal to -0.88 is 0.00376.

=============================================================================================================== 
LARREA_VANILLA_FD_AVG_MISTAKE_RATE.result	          <->	          LARREA_EPOCH_FD_AVG_MISTAKE_RATE.result
=============================================================================================================== 

LARREA_VANILLA_FD_AVG_MISTAKE_RATE.result mean: 0.01 
LARREA_EPOCH_FD_AVG_MISTAKE_RATE.result mean: 0.01 

Observed difference of two means: -0.00 
43960 out of 100000 experiments had a difference of two means less than or equal to -0.00.
The chance of getting a difference of two means less than or equal to -0.00 is 0.4396.

=============================================================================================================== 
LARREA_VANILLA_FD_AVG_MISTAKE_RATE.result	          <->	          AGUILERA_FD_AVG_MISTAKE_RATE.result
=============================================================================================================== 

LARREA_VANILLA_FD_AVG_MISTAKE_RATE.result mean: 0.01 
AGUILERA_FD_AVG_MISTAKE_RATE.result mean: 0.02 

Observed difference of two means: 0.01 
29458 out of 100000 experiments had a difference of two means greater than or equal to 0.01.
The chance of getting a difference of two means greater than or equal to 0.01 is 0.29458.

=============================================================================================================== 
LARREA_VANILLA_FD_AVG_MISTAKE_RATE.result	          <->	          CHEN_FD_AVG_MISTAKE_RATE.result
=============================================================================================================== 

LARREA_VANILLA_FD_AVG_MISTAKE_RATE.result mean: 0.01 
CHEN_FD_AVG_MISTAKE_RATE.result mean: 0.00 

Observed difference of two means: -0.01 
22141 out of 100000 experiments had a difference of two means less than or equal to -0.01.
The chance of getting a difference of two means less than or equal to -0.01 is 0.22141.

=============================================================================================================== 
LARREA_EPOCH_FD_AVG_MISTAKE_RATE.result	          <->	          AGUILERA_FD_AVG_MISTAKE_RATE.result
=============================================================================================================== 

LARREA_EPOCH_FD_AVG_MISTAKE_RATE.result mean: 0.01 
AGUILERA_FD_AVG_MISTAKE_RATE.result mean: 0.02 

Observed difference of two means: 0.02 
28178 out of 100000 experiments had a difference of two means greater than or equal to 0.02.
The chance of getting a difference of two means greater than or equal to 0.02 is 0.28178.

=============================================================================================================== 
LARREA_EPOCH_FD_AVG_MISTAKE_RATE.result	          <->	          CHEN_FD_AVG_MISTAKE_RATE.result
=============================================================================================================== 

LARREA_EPOCH_FD_AVG_MISTAKE_RATE.result mean: 0.01 
CHEN_FD_AVG_MISTAKE_RATE.result mean: 0.00 

Observed difference of two means: -0.00 
22252 out of 100000 experiments had a difference of two means less than or equal to -0.00.
The chance of getting a difference of two means less than or equal to -0.00 is 0.22252.

=============================================================================================================== 
AGUILERA_FD_AVG_MISTAKE_RATE.result	          <->	          CHEN_FD_AVG_MISTAKE_RATE.result
=============================================================================================================== 

AGUILERA_FD_AVG_MISTAKE_RATE.result mean: 0.02 
CHEN_FD_AVG_MISTAKE_RATE.result mean: 0.00 

Observed difference of two means: -0.02 
8470 out of 100000 experiments had a difference of two means less than or equal to -0.02.
The chance of getting a difference of two means less than or equal to -0.02 is 0.0847.

=============================================================================================================== 
LARREA_VANILLA_FD_TG_SUM.result	          <->	          LARREA_EPOCH_FD_TG_SUM.result
=============================================================================================================== 

LARREA_VANILLA_FD_TG_SUM.result mean: 593637.80 
LARREA_EPOCH_FD_TG_SUM.result mean: 599614.20 

Observed difference of two means: 5976.40 
19901 out of 100000 experiments had a difference of two means greater than or equal to 5976.40.
The chance of getting a difference of two means greater than or equal to 5976.40 is 0.19901.

=============================================================================================================== 
LARREA_VANILLA_FD_TG_SUM.result	          <->	          AGUILERA_FD_TG_SUM.result
=============================================================================================================== 

LARREA_VANILLA_FD_TG_SUM.result mean: 593637.80 
AGUILERA_FD_TG_SUM.result mean: 597425.00 

Observed difference of two means: 3787.20 
50047 out of 100000 experiments had a difference of two means greater than or equal to 3787.20.
The chance of getting a difference of two means greater than or equal to 3787.20 is 0.50047.

=============================================================================================================== 
LARREA_VANILLA_FD_TG_SUM.result	          <->	          CHEN_FD_TG_SUM.result
=============================================================================================================== 

LARREA_VANILLA_FD_TG_SUM.result mean: 593637.80 
CHEN_FD_TG_SUM.result mean: 29817.80 

Observed difference of two means: -563820.00 
383 out of 100000 experiments had a difference of two means less than or equal to -563820.00.
The chance of getting a difference of two means less than or equal to -563820.00 is 0.00383.

=============================================================================================================== 
LARREA_EPOCH_FD_TG_SUM.result	          <->	          AGUILERA_FD_TG_SUM.result
=============================================================================================================== 

LARREA_EPOCH_FD_TG_SUM.result mean: 599614.20 
AGUILERA_FD_TG_SUM.result mean: 597425.00 

Observed difference of two means: -2189.20 
396 out of 100000 experiments had a difference of two means less than or equal to -2189.20.
The chance of getting a difference of two means less than or equal to -2189.20 is 0.00396.

=============================================================================================================== 
LARREA_EPOCH_FD_TG_SUM.result	          <->	          CHEN_FD_TG_SUM.result
=============================================================================================================== 

LARREA_EPOCH_FD_TG_SUM.result mean: 599614.20 
CHEN_FD_TG_SUM.result mean: 29817.80 

Observed difference of two means: -569796.40 
366 out of 100000 experiments had a difference of two means less than or equal to -569796.40.
The chance of getting a difference of two means less than or equal to -569796.40 is 0.00366.

=============================================================================================================== 
AGUILERA_FD_TG_SUM.result	          <->	          CHEN_FD_TG_SUM.result
=============================================================================================================== 

AGUILERA_FD_TG_SUM.result mean: 597425.00 
CHEN_FD_TG_SUM.result mean: 29817.80 

Observed difference of two means: -567607.20 
396 out of 100000 experiments had a difference of two means less than or equal to -567607.20.
The chance of getting a difference of two means less than or equal to -567607.20 is 0.00396.

