=============================================================================================================== 
LARREA_VANILLA_LG_CONSENSUS_RATE.result	          <->	          LARREA_EPOCH_LG_CONSENSUS_RATE.result
=============================================================================================================== 

LARREA_VANILLA_LG_CONSENSUS_RATE.result mean: 0.30 
LARREA_EPOCH_LG_CONSENSUS_RATE.result mean: 0.29 

Observed difference of two means: -0.01 
46560 out of 100000 experiments had a difference of two means less than or equal to -0.01.
The chance of getting a difference of two means less than or equal to -0.01 is 0.4656.

=============================================================================================================== 
LARREA_VANILLA_LG_CONSENSUS_RATE.result	          <->	          AGUILERA_LG_CONSENSUS_RATE.result
=============================================================================================================== 

LARREA_VANILLA_LG_CONSENSUS_RATE.result mean: 0.30 
AGUILERA_LG_CONSENSUS_RATE.result mean: 0.81 

Observed difference of two means: 0.51 
837 out of 100000 experiments had a difference of two means greater than or equal to 0.51.
The chance of getting a difference of two means greater than or equal to 0.51 is 0.00837.

=============================================================================================================== 
LARREA_VANILLA_LG_CONSENSUS_RATE.result	          <->	          CHEN_LG_CONSENSUS_RATE.result
=============================================================================================================== 

LARREA_VANILLA_LG_CONSENSUS_RATE.result mean: 0.30 
CHEN_LG_CONSENSUS_RATE.result mean: 0.18 

Observed difference of two means: -0.12 
2978 out of 100000 experiments had a difference of two means less than or equal to -0.12.
The chance of getting a difference of two means less than or equal to -0.12 is 0.02978.

=============================================================================================================== 
LARREA_EPOCH_LG_CONSENSUS_RATE.result	          <->	          AGUILERA_LG_CONSENSUS_RATE.result
=============================================================================================================== 

LARREA_EPOCH_LG_CONSENSUS_RATE.result mean: 0.29 
AGUILERA_LG_CONSENSUS_RATE.result mean: 0.81 

Observed difference of two means: 0.51 
802 out of 100000 experiments had a difference of two means greater than or equal to 0.51.
The chance of getting a difference of two means greater than or equal to 0.51 is 0.00802.

=============================================================================================================== 
LARREA_EPOCH_LG_CONSENSUS_RATE.result	          <->	          CHEN_LG_CONSENSUS_RATE.result
=============================================================================================================== 

LARREA_EPOCH_LG_CONSENSUS_RATE.result mean: 0.29 
CHEN_LG_CONSENSUS_RATE.result mean: 0.18 

Observed difference of two means: -0.11 
3536 out of 100000 experiments had a difference of two means less than or equal to -0.11.
The chance of getting a difference of two means less than or equal to -0.11 is 0.03536.

=============================================================================================================== 
AGUILERA_LG_CONSENSUS_RATE.result	          <->	          CHEN_LG_CONSENSUS_RATE.result
=============================================================================================================== 

AGUILERA_LG_CONSENSUS_RATE.result mean: 0.81 
CHEN_LG_CONSENSUS_RATE.result mean: 0.18 

Observed difference of two means: -0.62 
399 out of 100000 experiments had a difference of two means less than or equal to -0.62.
The chance of getting a difference of two means less than or equal to -0.62 is 0.00399.

=============================================================================================================== 
LARREA_VANILLA_FD_AVG_MISTAKE_RATE.result	          <->	          LARREA_EPOCH_FD_AVG_MISTAKE_RATE.result
=============================================================================================================== 

LARREA_VANILLA_FD_AVG_MISTAKE_RATE.result mean: 0.09 
LARREA_EPOCH_FD_AVG_MISTAKE_RATE.result mean: 0.14 

Observed difference of two means: 0.05 
35262 out of 100000 experiments had a difference of two means greater than or equal to 0.05.
The chance of getting a difference of two means greater than or equal to 0.05 is 0.35262.

=============================================================================================================== 
LARREA_VANILLA_FD_AVG_MISTAKE_RATE.result	          <->	          AGUILERA_FD_AVG_MISTAKE_RATE.result
=============================================================================================================== 

LARREA_VANILLA_FD_AVG_MISTAKE_RATE.result mean: 0.09 
AGUILERA_FD_AVG_MISTAKE_RATE.result mean: 0.28 

Observed difference of two means: 0.19 
1918 out of 100000 experiments had a difference of two means greater than or equal to 0.19.
The chance of getting a difference of two means greater than or equal to 0.19 is 0.01918.

=============================================================================================================== 
LARREA_VANILLA_FD_AVG_MISTAKE_RATE.result	          <->	          CHEN_FD_AVG_MISTAKE_RATE.result
=============================================================================================================== 

LARREA_VANILLA_FD_AVG_MISTAKE_RATE.result mean: 0.09 
CHEN_FD_AVG_MISTAKE_RATE.result mean: 0.00 

Observed difference of two means: -0.09 
389 out of 100000 experiments had a difference of two means less than or equal to -0.09.
The chance of getting a difference of two means less than or equal to -0.09 is 0.00389.

=============================================================================================================== 
LARREA_EPOCH_FD_AVG_MISTAKE_RATE.result	          <->	          AGUILERA_FD_AVG_MISTAKE_RATE.result
=============================================================================================================== 

LARREA_EPOCH_FD_AVG_MISTAKE_RATE.result mean: 0.14 
AGUILERA_FD_AVG_MISTAKE_RATE.result mean: 0.28 

Observed difference of two means: 0.14 
9896 out of 100000 experiments had a difference of two means greater than or equal to 0.14.
The chance of getting a difference of two means greater than or equal to 0.14 is 0.09896.

=============================================================================================================== 
LARREA_EPOCH_FD_AVG_MISTAKE_RATE.result	          <->	          CHEN_FD_AVG_MISTAKE_RATE.result
=============================================================================================================== 

LARREA_EPOCH_FD_AVG_MISTAKE_RATE.result mean: 0.14 
CHEN_FD_AVG_MISTAKE_RATE.result mean: 0.00 

Observed difference of two means: -0.14 
153 out of 100000 experiments had a difference of two means less than or equal to -0.14.
The chance of getting a difference of two means less than or equal to -0.14 is 0.00153.

=============================================================================================================== 
AGUILERA_FD_AVG_MISTAKE_RATE.result	          <->	          CHEN_FD_AVG_MISTAKE_RATE.result
=============================================================================================================== 

AGUILERA_FD_AVG_MISTAKE_RATE.result mean: 0.28 
CHEN_FD_AVG_MISTAKE_RATE.result mean: 0.00 

Observed difference of two means: -0.28 
341 out of 100000 experiments had a difference of two means less than or equal to -0.28.
The chance of getting a difference of two means less than or equal to -0.28 is 0.00341.

=============================================================================================================== 
LARREA_VANILLA_FD_TG_SUM.result	          <->	          LARREA_EPOCH_FD_TG_SUM.result
=============================================================================================================== 

LARREA_VANILLA_FD_TG_SUM.result mean: 592855.40 
LARREA_EPOCH_FD_TG_SUM.result mean: 592519.40 

Observed difference of two means: -336.00 
47235 out of 100000 experiments had a difference of two means less than or equal to -336.00.
The chance of getting a difference of two means less than or equal to -336.00 is 0.47235.

=============================================================================================================== 
LARREA_VANILLA_FD_TG_SUM.result	          <->	          AGUILERA_FD_TG_SUM.result
=============================================================================================================== 

LARREA_VANILLA_FD_TG_SUM.result mean: 592855.40 
AGUILERA_FD_TG_SUM.result mean: 575918.40 

Observed difference of two means: -16937.00 
3519 out of 100000 experiments had a difference of two means less than or equal to -16937.00.
The chance of getting a difference of two means less than or equal to -16937.00 is 0.03519.

=============================================================================================================== 
LARREA_VANILLA_FD_TG_SUM.result	          <->	          CHEN_FD_TG_SUM.result
=============================================================================================================== 

LARREA_VANILLA_FD_TG_SUM.result mean: 592855.40 
CHEN_FD_TG_SUM.result mean: 29821.20 

Observed difference of two means: -563034.20 
448 out of 100000 experiments had a difference of two means less than or equal to -563034.20.
The chance of getting a difference of two means less than or equal to -563034.20 is 0.00448.

=============================================================================================================== 
LARREA_EPOCH_FD_TG_SUM.result	          <->	          AGUILERA_FD_TG_SUM.result
=============================================================================================================== 

LARREA_EPOCH_FD_TG_SUM.result mean: 592519.40 
AGUILERA_FD_TG_SUM.result mean: 575918.40 

Observed difference of two means: -16601.00 
3602 out of 100000 experiments had a difference of two means less than or equal to -16601.00.
The chance of getting a difference of two means less than or equal to -16601.00 is 0.03602.

=============================================================================================================== 
LARREA_EPOCH_FD_TG_SUM.result	          <->	          CHEN_FD_TG_SUM.result
=============================================================================================================== 

LARREA_EPOCH_FD_TG_SUM.result mean: 592519.40 
CHEN_FD_TG_SUM.result mean: 29821.20 

Observed difference of two means: -562698.20 
395 out of 100000 experiments had a difference of two means less than or equal to -562698.20.
The chance of getting a difference of two means less than or equal to -562698.20 is 0.00395.

=============================================================================================================== 
AGUILERA_FD_TG_SUM.result	          <->	          CHEN_FD_TG_SUM.result
=============================================================================================================== 

AGUILERA_FD_TG_SUM.result mean: 575918.40 
CHEN_FD_TG_SUM.result mean: 29821.20 

Observed difference of two means: -546097.20 
398 out of 100000 experiments had a difference of two means less than or equal to -546097.20.
The chance of getting a difference of two means less than or equal to -546097.20 is 0.00398.

