=============================================================================================================== 
LARREA_VANILLA_LG_CONSENSUS_RATE.result	          <->	          LARREA_EPOCH_LG_CONSENSUS_RATE.result
=============================================================================================================== 

LARREA_VANILLA_LG_CONSENSUS_RATE.result mean: 0.01 
LARREA_EPOCH_LG_CONSENSUS_RATE.result mean: 0.02 

Observed difference of two means: 0.01 
39441 out of 100000 experiments had a difference of two means greater than or equal to 0.01.
The chance of getting a difference of two means greater than or equal to 0.01 is 0.39441.

=============================================================================================================== 
LARREA_VANILLA_LG_CONSENSUS_RATE.result	          <->	          AGUILERA_LG_CONSENSUS_RATE.result
=============================================================================================================== 

LARREA_VANILLA_LG_CONSENSUS_RATE.result mean: 0.01 
AGUILERA_LG_CONSENSUS_RATE.result mean: 0.13 

Observed difference of two means: 0.12 
7457 out of 100000 experiments had a difference of two means greater than or equal to 0.12.
The chance of getting a difference of two means greater than or equal to 0.12 is 0.07457.

=============================================================================================================== 
LARREA_VANILLA_LG_CONSENSUS_RATE.result	          <->	          CHEN_LG_CONSENSUS_RATE.result
=============================================================================================================== 

LARREA_VANILLA_LG_CONSENSUS_RATE.result mean: 0.01 
CHEN_LG_CONSENSUS_RATE.result mean: 0.19 

Observed difference of two means: 0.18 
389 out of 100000 experiments had a difference of two means greater than or equal to 0.18.
The chance of getting a difference of two means greater than or equal to 0.18 is 0.00389.

=============================================================================================================== 
LARREA_EPOCH_LG_CONSENSUS_RATE.result	          <->	          AGUILERA_LG_CONSENSUS_RATE.result
=============================================================================================================== 

LARREA_EPOCH_LG_CONSENSUS_RATE.result mean: 0.02 
AGUILERA_LG_CONSENSUS_RATE.result mean: 0.13 

Observed difference of two means: 0.12 
7935 out of 100000 experiments had a difference of two means greater than or equal to 0.12.
The chance of getting a difference of two means greater than or equal to 0.12 is 0.07935.

=============================================================================================================== 
LARREA_EPOCH_LG_CONSENSUS_RATE.result	          <->	          CHEN_LG_CONSENSUS_RATE.result
=============================================================================================================== 

LARREA_EPOCH_LG_CONSENSUS_RATE.result mean: 0.02 
CHEN_LG_CONSENSUS_RATE.result mean: 0.19 

Observed difference of two means: 0.18 
400 out of 100000 experiments had a difference of two means greater than or equal to 0.18.
The chance of getting a difference of two means greater than or equal to 0.18 is 0.004.

=============================================================================================================== 
AGUILERA_LG_CONSENSUS_RATE.result	          <->	          CHEN_LG_CONSENSUS_RATE.result
=============================================================================================================== 

AGUILERA_LG_CONSENSUS_RATE.result mean: 0.13 
CHEN_LG_CONSENSUS_RATE.result mean: 0.19 

Observed difference of two means: 0.06 
19191 out of 100000 experiments had a difference of two means greater than or equal to 0.06.
The chance of getting a difference of two means greater than or equal to 0.06 is 0.19191.

=============================================================================================================== 
LARREA_VANILLA_FD_AVG_MISTAKE_RATE.result	          <->	          LARREA_EPOCH_FD_AVG_MISTAKE_RATE.result
=============================================================================================================== 

LARREA_VANILLA_FD_AVG_MISTAKE_RATE.result mean: 0.59 
LARREA_EPOCH_FD_AVG_MISTAKE_RATE.result mean: 0.56 

Observed difference of two means: -0.02 
37077 out of 100000 experiments had a difference of two means less than or equal to -0.02.
The chance of getting a difference of two means less than or equal to -0.02 is 0.37077.

=============================================================================================================== 
LARREA_VANILLA_FD_AVG_MISTAKE_RATE.result	          <->	          AGUILERA_FD_AVG_MISTAKE_RATE.result
=============================================================================================================== 

LARREA_VANILLA_FD_AVG_MISTAKE_RATE.result mean: 0.59 
AGUILERA_FD_AVG_MISTAKE_RATE.result mean: 0.87 

Observed difference of two means: 0.28 
112 out of 100000 experiments had a difference of two means greater than or equal to 0.28.
The chance of getting a difference of two means greater than or equal to 0.28 is 0.00112.

=============================================================================================================== 
LARREA_VANILLA_FD_AVG_MISTAKE_RATE.result	          <->	          CHEN_FD_AVG_MISTAKE_RATE.result
=============================================================================================================== 

LARREA_VANILLA_FD_AVG_MISTAKE_RATE.result mean: 0.59 
CHEN_FD_AVG_MISTAKE_RATE.result mean: 0.00 

Observed difference of two means: -0.59 
395 out of 100000 experiments had a difference of two means less than or equal to -0.59.
The chance of getting a difference of two means less than or equal to -0.59 is 0.00395.

=============================================================================================================== 
LARREA_EPOCH_FD_AVG_MISTAKE_RATE.result	          <->	          AGUILERA_FD_AVG_MISTAKE_RATE.result
=============================================================================================================== 

LARREA_EPOCH_FD_AVG_MISTAKE_RATE.result mean: 0.56 
AGUILERA_FD_AVG_MISTAKE_RATE.result mean: 0.87 

Observed difference of two means: 0.31 
301 out of 100000 experiments had a difference of two means greater than or equal to 0.31.
The chance of getting a difference of two means greater than or equal to 0.31 is 0.00301.

=============================================================================================================== 
LARREA_EPOCH_FD_AVG_MISTAKE_RATE.result	          <->	          CHEN_FD_AVG_MISTAKE_RATE.result
=============================================================================================================== 

LARREA_EPOCH_FD_AVG_MISTAKE_RATE.result mean: 0.56 
CHEN_FD_AVG_MISTAKE_RATE.result mean: 0.00 

Observed difference of two means: -0.56 
375 out of 100000 experiments had a difference of two means less than or equal to -0.56.
The chance of getting a difference of two means less than or equal to -0.56 is 0.00375.

=============================================================================================================== 
AGUILERA_FD_AVG_MISTAKE_RATE.result	          <->	          CHEN_FD_AVG_MISTAKE_RATE.result
=============================================================================================================== 

AGUILERA_FD_AVG_MISTAKE_RATE.result mean: 0.87 
CHEN_FD_AVG_MISTAKE_RATE.result mean: 0.00 

Observed difference of two means: -0.87 
309 out of 100000 experiments had a difference of two means less than or equal to -0.87.
The chance of getting a difference of two means less than or equal to -0.87 is 0.00309.

=============================================================================================================== 
LARREA_VANILLA_FD_TG_SUM.result	          <->	          LARREA_EPOCH_FD_TG_SUM.result
=============================================================================================================== 

LARREA_VANILLA_FD_TG_SUM.result mean: 585716.00 
LARREA_EPOCH_FD_TG_SUM.result mean: 586636.00 

Observed difference of two means: 920.00 
32033 out of 100000 experiments had a difference of two means greater than or equal to 920.00.
The chance of getting a difference of two means greater than or equal to 920.00 is 0.32033.

=============================================================================================================== 
LARREA_VANILLA_FD_TG_SUM.result	          <->	          AGUILERA_FD_TG_SUM.result
=============================================================================================================== 

LARREA_VANILLA_FD_TG_SUM.result mean: 585716.00 
AGUILERA_FD_TG_SUM.result mean: 557283.40 

Observed difference of two means: -28432.60 
410 out of 100000 experiments had a difference of two means less than or equal to -28432.60.
The chance of getting a difference of two means less than or equal to -28432.60 is 0.0041.

=============================================================================================================== 
LARREA_VANILLA_FD_TG_SUM.result	          <->	          CHEN_FD_TG_SUM.result
=============================================================================================================== 

LARREA_VANILLA_FD_TG_SUM.result mean: 585716.00 
CHEN_FD_TG_SUM.result mean: 29810.80 

Observed difference of two means: -555905.20 
355 out of 100000 experiments had a difference of two means less than or equal to -555905.20.
The chance of getting a difference of two means less than or equal to -555905.20 is 0.00355.

=============================================================================================================== 
LARREA_EPOCH_FD_TG_SUM.result	          <->	          AGUILERA_FD_TG_SUM.result
=============================================================================================================== 

LARREA_EPOCH_FD_TG_SUM.result mean: 586636.00 
AGUILERA_FD_TG_SUM.result mean: 557283.40 

Observed difference of two means: -29352.60 
379 out of 100000 experiments had a difference of two means less than or equal to -29352.60.
The chance of getting a difference of two means less than or equal to -29352.60 is 0.00379.

=============================================================================================================== 
LARREA_EPOCH_FD_TG_SUM.result	          <->	          CHEN_FD_TG_SUM.result
=============================================================================================================== 

LARREA_EPOCH_FD_TG_SUM.result mean: 586636.00 
CHEN_FD_TG_SUM.result mean: 29810.80 

Observed difference of two means: -556825.20 
374 out of 100000 experiments had a difference of two means less than or equal to -556825.20.
The chance of getting a difference of two means less than or equal to -556825.20 is 0.00374.

=============================================================================================================== 
AGUILERA_FD_TG_SUM.result	          <->	          CHEN_FD_TG_SUM.result
=============================================================================================================== 

AGUILERA_FD_TG_SUM.result mean: 557283.40 
CHEN_FD_TG_SUM.result mean: 29810.80 

Observed difference of two means: -527472.60 
437 out of 100000 experiments had a difference of two means less than or equal to -527472.60.
The chance of getting a difference of two means less than or equal to -527472.60 is 0.00437.

