=============================================================================================================== 
LARREA_VANILLA_LG_CONSENSUS_RATE.result	          <->	          LARREA_EPOCH_LG_CONSENSUS_RATE.result
=============================================================================================================== 

LARREA_VANILLA_LG_CONSENSUS_RATE.result mean: 0.07 
LARREA_EPOCH_LG_CONSENSUS_RATE.result mean: 0.09 

Observed difference of two means: 0.01 
25406 out of 100000 experiments had a difference of two means greater than or equal to 0.01.
The chance of getting a difference of two means greater than or equal to 0.01 is 0.25406.

=============================================================================================================== 
LARREA_VANILLA_LG_CONSENSUS_RATE.result	          <->	          AGUILERA_LG_CONSENSUS_RATE.result
=============================================================================================================== 

LARREA_VANILLA_LG_CONSENSUS_RATE.result mean: 0.07 
AGUILERA_LG_CONSENSUS_RATE.result mean: 0.16 

Observed difference of two means: 0.09 
2076 out of 100000 experiments had a difference of two means greater than or equal to 0.09.
The chance of getting a difference of two means greater than or equal to 0.09 is 0.02076.

=============================================================================================================== 
LARREA_VANILLA_LG_CONSENSUS_RATE.result	          <->	          CHEN_LG_CONSENSUS_RATE.result
=============================================================================================================== 

LARREA_VANILLA_LG_CONSENSUS_RATE.result mean: 0.07 
CHEN_LG_CONSENSUS_RATE.result mean: 0.22 

Observed difference of two means: 0.15 
195 out of 100000 experiments had a difference of two means greater than or equal to 0.15.
The chance of getting a difference of two means greater than or equal to 0.15 is 0.00195.

=============================================================================================================== 
LARREA_EPOCH_LG_CONSENSUS_RATE.result	          <->	          AGUILERA_LG_CONSENSUS_RATE.result
=============================================================================================================== 

LARREA_EPOCH_LG_CONSENSUS_RATE.result mean: 0.09 
AGUILERA_LG_CONSENSUS_RATE.result mean: 0.16 

Observed difference of two means: 0.07 
2722 out of 100000 experiments had a difference of two means greater than or equal to 0.07.
The chance of getting a difference of two means greater than or equal to 0.07 is 0.02722.

=============================================================================================================== 
LARREA_EPOCH_LG_CONSENSUS_RATE.result	          <->	          CHEN_LG_CONSENSUS_RATE.result
=============================================================================================================== 

LARREA_EPOCH_LG_CONSENSUS_RATE.result mean: 0.09 
CHEN_LG_CONSENSUS_RATE.result mean: 0.22 

Observed difference of two means: 0.14 
112 out of 100000 experiments had a difference of two means greater than or equal to 0.14.
The chance of getting a difference of two means greater than or equal to 0.14 is 0.00112.

=============================================================================================================== 
AGUILERA_LG_CONSENSUS_RATE.result	          <->	          CHEN_LG_CONSENSUS_RATE.result
=============================================================================================================== 

AGUILERA_LG_CONSENSUS_RATE.result mean: 0.16 
CHEN_LG_CONSENSUS_RATE.result mean: 0.22 

Observed difference of two means: 0.07 
7217 out of 100000 experiments had a difference of two means greater than or equal to 0.07.
The chance of getting a difference of two means greater than or equal to 0.07 is 0.07217.

=============================================================================================================== 
LARREA_VANILLA_FD_AVG_MISTAKE_RATE.result	          <->	          LARREA_EPOCH_FD_AVG_MISTAKE_RATE.result
=============================================================================================================== 

LARREA_VANILLA_FD_AVG_MISTAKE_RATE.result mean: 0.55 
LARREA_EPOCH_FD_AVG_MISTAKE_RATE.result mean: 0.51 

Observed difference of two means: -0.03 
13307 out of 100000 experiments had a difference of two means less than or equal to -0.03.
The chance of getting a difference of two means less than or equal to -0.03 is 0.13307.

=============================================================================================================== 
LARREA_VANILLA_FD_AVG_MISTAKE_RATE.result	          <->	          AGUILERA_FD_AVG_MISTAKE_RATE.result
=============================================================================================================== 

LARREA_VANILLA_FD_AVG_MISTAKE_RATE.result mean: 0.55 
AGUILERA_FD_AVG_MISTAKE_RATE.result mean: 0.91 

Observed difference of two means: 0.36 
429 out of 100000 experiments had a difference of two means greater than or equal to 0.36.
The chance of getting a difference of two means greater than or equal to 0.36 is 0.00429.

=============================================================================================================== 
LARREA_VANILLA_FD_AVG_MISTAKE_RATE.result	          <->	          CHEN_FD_AVG_MISTAKE_RATE.result
=============================================================================================================== 

LARREA_VANILLA_FD_AVG_MISTAKE_RATE.result mean: 0.55 
CHEN_FD_AVG_MISTAKE_RATE.result mean: 0.00 

Observed difference of two means: -0.54 
410 out of 100000 experiments had a difference of two means less than or equal to -0.54.
The chance of getting a difference of two means less than or equal to -0.54 is 0.0041.

=============================================================================================================== 
LARREA_EPOCH_FD_AVG_MISTAKE_RATE.result	          <->	          AGUILERA_FD_AVG_MISTAKE_RATE.result
=============================================================================================================== 

LARREA_EPOCH_FD_AVG_MISTAKE_RATE.result mean: 0.51 
AGUILERA_FD_AVG_MISTAKE_RATE.result mean: 0.91 

Observed difference of two means: 0.40 
361 out of 100000 experiments had a difference of two means greater than or equal to 0.40.
The chance of getting a difference of two means greater than or equal to 0.40 is 0.00361.

=============================================================================================================== 
LARREA_EPOCH_FD_AVG_MISTAKE_RATE.result	          <->	          CHEN_FD_AVG_MISTAKE_RATE.result
=============================================================================================================== 

LARREA_EPOCH_FD_AVG_MISTAKE_RATE.result mean: 0.51 
CHEN_FD_AVG_MISTAKE_RATE.result mean: 0.00 

Observed difference of two means: -0.51 
449 out of 100000 experiments had a difference of two means less than or equal to -0.51.
The chance of getting a difference of two means less than or equal to -0.51 is 0.00449.

=============================================================================================================== 
AGUILERA_FD_AVG_MISTAKE_RATE.result	          <->	          CHEN_FD_AVG_MISTAKE_RATE.result
=============================================================================================================== 

AGUILERA_FD_AVG_MISTAKE_RATE.result mean: 0.91 
CHEN_FD_AVG_MISTAKE_RATE.result mean: 0.00 

Observed difference of two means: -0.91 
420 out of 100000 experiments had a difference of two means less than or equal to -0.91.
The chance of getting a difference of two means less than or equal to -0.91 is 0.0042.

=============================================================================================================== 
LARREA_VANILLA_FD_TG_SUM.result	          <->	          LARREA_EPOCH_FD_TG_SUM.result
=============================================================================================================== 

LARREA_VANILLA_FD_TG_SUM.result mean: 563950.00 
LARREA_EPOCH_FD_TG_SUM.result mean: 574394.60 

Observed difference of two means: 10444.60 
1205 out of 100000 experiments had a difference of two means greater than or equal to 10444.60.
The chance of getting a difference of two means greater than or equal to 10444.60 is 0.01205.

=============================================================================================================== 
LARREA_VANILLA_FD_TG_SUM.result	          <->	          AGUILERA_FD_TG_SUM.result
=============================================================================================================== 

LARREA_VANILLA_FD_TG_SUM.result mean: 563950.00 
AGUILERA_FD_TG_SUM.result mean: 503984.80 

Observed difference of two means: -59965.20 
426 out of 100000 experiments had a difference of two means less than or equal to -59965.20.
The chance of getting a difference of two means less than or equal to -59965.20 is 0.00426.

=============================================================================================================== 
LARREA_VANILLA_FD_TG_SUM.result	          <->	          CHEN_FD_TG_SUM.result
=============================================================================================================== 

LARREA_VANILLA_FD_TG_SUM.result mean: 563950.00 
CHEN_FD_TG_SUM.result mean: 29819.00 

Observed difference of two means: -534131.00 
399 out of 100000 experiments had a difference of two means less than or equal to -534131.00.
The chance of getting a difference of two means less than or equal to -534131.00 is 0.00399.

=============================================================================================================== 
LARREA_EPOCH_FD_TG_SUM.result	          <->	          AGUILERA_FD_TG_SUM.result
=============================================================================================================== 

LARREA_EPOCH_FD_TG_SUM.result mean: 574394.60 
AGUILERA_FD_TG_SUM.result mean: 503984.80 

Observed difference of two means: -70409.80 
427 out of 100000 experiments had a difference of two means less than or equal to -70409.80.
The chance of getting a difference of two means less than or equal to -70409.80 is 0.00427.

=============================================================================================================== 
LARREA_EPOCH_FD_TG_SUM.result	          <->	          CHEN_FD_TG_SUM.result
=============================================================================================================== 

LARREA_EPOCH_FD_TG_SUM.result mean: 574394.60 
CHEN_FD_TG_SUM.result mean: 29819.00 

Observed difference of two means: -544575.60 
398 out of 100000 experiments had a difference of two means less than or equal to -544575.60.
The chance of getting a difference of two means less than or equal to -544575.60 is 0.00398.

=============================================================================================================== 
AGUILERA_FD_TG_SUM.result	          <->	          CHEN_FD_TG_SUM.result
=============================================================================================================== 

AGUILERA_FD_TG_SUM.result mean: 503984.80 
CHEN_FD_TG_SUM.result mean: 29819.00 

Observed difference of two means: -474165.80 
416 out of 100000 experiments had a difference of two means less than or equal to -474165.80.
The chance of getting a difference of two means less than or equal to -474165.80 is 0.00416.

