=============================================================================================================== 
LARREA_VANILLA_LG_CONSENSUS_RATE.result	          <->	          LARREA_EPOCH_LG_CONSENSUS_RATE.result
=============================================================================================================== 

LARREA_VANILLA_LG_CONSENSUS_RATE.result mean: 0.00 
LARREA_EPOCH_LG_CONSENSUS_RATE.result mean: 0.00 

Observed difference of two means: 0.00 
100000 out of 100000 experiments had a difference of two means greater than or equal to 0.00.
The chance of getting a difference of two means greater than or equal to 0.00 is 1.0.

=============================================================================================================== 
LARREA_VANILLA_LG_CONSENSUS_RATE.result	          <->	          AGUILERA_LG_CONSENSUS_RATE.result
=============================================================================================================== 

LARREA_VANILLA_LG_CONSENSUS_RATE.result mean: 0.00 
AGUILERA_LG_CONSENSUS_RATE.result mean: 0.00 

Observed difference of two means: 0.00 
100000 out of 100000 experiments had a difference of two means greater than or equal to 0.00.
The chance of getting a difference of two means greater than or equal to 0.00 is 1.0.

=============================================================================================================== 
LARREA_VANILLA_LG_CONSENSUS_RATE.result	          <->	          CHEN_LG_CONSENSUS_RATE.result
=============================================================================================================== 

LARREA_VANILLA_LG_CONSENSUS_RATE.result mean: 0.00 
CHEN_LG_CONSENSUS_RATE.result mean: 0.09 

Observed difference of two means: 0.09 
31 out of 100000 experiments had a difference of two means greater than or equal to 0.09.
The chance of getting a difference of two means greater than or equal to 0.09 is 0.00031.

=============================================================================================================== 
LARREA_EPOCH_LG_CONSENSUS_RATE.result	          <->	          AGUILERA_LG_CONSENSUS_RATE.result
=============================================================================================================== 

LARREA_EPOCH_LG_CONSENSUS_RATE.result mean: 0.00 
AGUILERA_LG_CONSENSUS_RATE.result mean: 0.00 

Observed difference of two means: 0.00 
100000 out of 100000 experiments had a difference of two means greater than or equal to 0.00.
The chance of getting a difference of two means greater than or equal to 0.00 is 1.0.

=============================================================================================================== 
LARREA_EPOCH_LG_CONSENSUS_RATE.result	          <->	          CHEN_LG_CONSENSUS_RATE.result
=============================================================================================================== 

LARREA_EPOCH_LG_CONSENSUS_RATE.result mean: 0.00 
CHEN_LG_CONSENSUS_RATE.result mean: 0.09 

Observed difference of two means: 0.09 
23 out of 100000 experiments had a difference of two means greater than or equal to 0.09.
The chance of getting a difference of two means greater than or equal to 0.09 is 0.00023.

=============================================================================================================== 
AGUILERA_LG_CONSENSUS_RATE.result	          <->	          CHEN_LG_CONSENSUS_RATE.result
=============================================================================================================== 

AGUILERA_LG_CONSENSUS_RATE.result mean: 0.00 
CHEN_LG_CONSENSUS_RATE.result mean: 0.09 

Observed difference of two means: 0.09 
34 out of 100000 experiments had a difference of two means greater than or equal to 0.09.
The chance of getting a difference of two means greater than or equal to 0.09 is 0.00034.

=============================================================================================================== 
LARREA_VANILLA_FD_AVG_MISTAKE_RATE.result	          <->	          LARREA_EPOCH_FD_AVG_MISTAKE_RATE.result
=============================================================================================================== 

LARREA_VANILLA_FD_AVG_MISTAKE_RATE.result mean: 3.85 
LARREA_EPOCH_FD_AVG_MISTAKE_RATE.result mean: 3.83 

Observed difference of two means: -0.03 
38269 out of 100000 experiments had a difference of two means less than or equal to -0.03.
The chance of getting a difference of two means less than or equal to -0.03 is 0.38269.

=============================================================================================================== 
LARREA_VANILLA_FD_AVG_MISTAKE_RATE.result	          <->	          AGUILERA_FD_AVG_MISTAKE_RATE.result
=============================================================================================================== 

LARREA_VANILLA_FD_AVG_MISTAKE_RATE.result mean: 3.85 
AGUILERA_FD_AVG_MISTAKE_RATE.result mean: 6.50 

Observed difference of two means: 2.65 
5 out of 100000 experiments had a difference of two means greater than or equal to 2.65.
The chance of getting a difference of two means greater than or equal to 2.65 is 5e-05.

=============================================================================================================== 
LARREA_VANILLA_FD_AVG_MISTAKE_RATE.result	          <->	          CHEN_FD_AVG_MISTAKE_RATE.result
=============================================================================================================== 

LARREA_VANILLA_FD_AVG_MISTAKE_RATE.result mean: 3.85 
CHEN_FD_AVG_MISTAKE_RATE.result mean: 0.00 

Observed difference of two means: -3.85 
32 out of 100000 experiments had a difference of two means less than or equal to -3.85.
The chance of getting a difference of two means less than or equal to -3.85 is 0.00032.

=============================================================================================================== 
LARREA_EPOCH_FD_AVG_MISTAKE_RATE.result	          <->	          AGUILERA_FD_AVG_MISTAKE_RATE.result
=============================================================================================================== 

LARREA_EPOCH_FD_AVG_MISTAKE_RATE.result mean: 3.83 
AGUILERA_FD_AVG_MISTAKE_RATE.result mean: 6.50 

Observed difference of two means: 2.68 
27 out of 100000 experiments had a difference of two means greater than or equal to 2.68.
The chance of getting a difference of two means greater than or equal to 2.68 is 0.00027.

=============================================================================================================== 
LARREA_EPOCH_FD_AVG_MISTAKE_RATE.result	          <->	          CHEN_FD_AVG_MISTAKE_RATE.result
=============================================================================================================== 

LARREA_EPOCH_FD_AVG_MISTAKE_RATE.result mean: 3.83 
CHEN_FD_AVG_MISTAKE_RATE.result mean: 0.00 

Observed difference of two means: -3.82 
10 out of 100000 experiments had a difference of two means less than or equal to -3.82.
The chance of getting a difference of two means less than or equal to -3.82 is 0.0001.

=============================================================================================================== 
AGUILERA_FD_AVG_MISTAKE_RATE.result	          <->	          CHEN_FD_AVG_MISTAKE_RATE.result
=============================================================================================================== 

AGUILERA_FD_AVG_MISTAKE_RATE.result mean: 6.50 
CHEN_FD_AVG_MISTAKE_RATE.result mean: 0.00 

Observed difference of two means: -6.50 
21 out of 100000 experiments had a difference of two means less than or equal to -6.50.
The chance of getting a difference of two means less than or equal to -6.50 is 0.00021.

=============================================================================================================== 
LARREA_VANILLA_FD_TG_SUM.result	          <->	          LARREA_EPOCH_FD_TG_SUM.result
=============================================================================================================== 

LARREA_VANILLA_FD_TG_SUM.result mean: 521079.86 
LARREA_EPOCH_FD_TG_SUM.result mean: 519944.71 

Observed difference of two means: -1135.14 
27718 out of 100000 experiments had a difference of two means less than or equal to -1135.14.
The chance of getting a difference of two means less than or equal to -1135.14 is 0.27718.

=============================================================================================================== 
LARREA_VANILLA_FD_TG_SUM.result	          <->	          AGUILERA_FD_TG_SUM.result
=============================================================================================================== 

LARREA_VANILLA_FD_TG_SUM.result mean: 521079.86 
AGUILERA_FD_TG_SUM.result mean: 395959.57 

Observed difference of two means: -125120.29 
29 out of 100000 experiments had a difference of two means less than or equal to -125120.29.
The chance of getting a difference of two means less than or equal to -125120.29 is 0.00029.

=============================================================================================================== 
LARREA_VANILLA_FD_TG_SUM.result	          <->	          CHEN_FD_TG_SUM.result
=============================================================================================================== 

LARREA_VANILLA_FD_TG_SUM.result mean: 521079.86 
CHEN_FD_TG_SUM.result mean: 29839.14 

Observed difference of two means: -491240.71 
20 out of 100000 experiments had a difference of two means less than or equal to -491240.71.
The chance of getting a difference of two means less than or equal to -491240.71 is 0.0002.

=============================================================================================================== 
LARREA_EPOCH_FD_TG_SUM.result	          <->	          AGUILERA_FD_TG_SUM.result
=============================================================================================================== 

LARREA_EPOCH_FD_TG_SUM.result mean: 519944.71 
AGUILERA_FD_TG_SUM.result mean: 395959.57 

Observed difference of two means: -123985.14 
26 out of 100000 experiments had a difference of two means less than or equal to -123985.14.
The chance of getting a difference of two means less than or equal to -123985.14 is 0.00026.

=============================================================================================================== 
LARREA_EPOCH_FD_TG_SUM.result	          <->	          CHEN_FD_TG_SUM.result
=============================================================================================================== 

LARREA_EPOCH_FD_TG_SUM.result mean: 519944.71 
CHEN_FD_TG_SUM.result mean: 29839.14 

Observed difference of two means: -490105.57 
32 out of 100000 experiments had a difference of two means less than or equal to -490105.57.
The chance of getting a difference of two means less than or equal to -490105.57 is 0.00032.

=============================================================================================================== 
AGUILERA_FD_TG_SUM.result	          <->	          CHEN_FD_TG_SUM.result
=============================================================================================================== 

AGUILERA_FD_TG_SUM.result mean: 395959.57 
CHEN_FD_TG_SUM.result mean: 29839.14 

Observed difference of two means: -366120.43 
42 out of 100000 experiments had a difference of two means less than or equal to -366120.43.
The chance of getting a difference of two means less than or equal to -366120.43 is 0.00042.

