=============================================================================================================== 
LARREA_VANILLA_LG_CONSENSUS_RATE.result	          <->	          LARREA_EPOCH_LG_CONSENSUS_RATE.result
=============================================================================================================== 

LARREA_VANILLA_LG_CONSENSUS_RATE.result mean: 0.00 
LARREA_EPOCH_LG_CONSENSUS_RATE.result mean: 0.00 

Observed difference of two means: 0.00 
100000 out of 100000 experiments had a difference of two means greater than or equal to 0.00.
The chance of getting a difference of two means greater than or equal to 0.00 is 1.0.

=============================================================================================================== 
LARREA_VANILLA_LG_CONSENSUS_RATE.result	          <->	          AGUILERA_LG_CONSENSUS_RATE.result
=============================================================================================================== 

LARREA_VANILLA_LG_CONSENSUS_RATE.result mean: 0.00 
AGUILERA_LG_CONSENSUS_RATE.result mean: 0.01 

Observed difference of two means: 0.01 
2365 out of 100000 experiments had a difference of two means greater than or equal to 0.01.
The chance of getting a difference of two means greater than or equal to 0.01 is 0.02365.

=============================================================================================================== 
LARREA_VANILLA_LG_CONSENSUS_RATE.result	          <->	          CHEN_LG_CONSENSUS_RATE.result
=============================================================================================================== 

LARREA_VANILLA_LG_CONSENSUS_RATE.result mean: 0.00 
CHEN_LG_CONSENSUS_RATE.result mean: 0.19 

Observed difference of two means: 0.19 
392 out of 100000 experiments had a difference of two means greater than or equal to 0.19.
The chance of getting a difference of two means greater than or equal to 0.19 is 0.00392.

=============================================================================================================== 
LARREA_EPOCH_LG_CONSENSUS_RATE.result	          <->	          AGUILERA_LG_CONSENSUS_RATE.result
=============================================================================================================== 

LARREA_EPOCH_LG_CONSENSUS_RATE.result mean: 0.00 
AGUILERA_LG_CONSENSUS_RATE.result mean: 0.01 

Observed difference of two means: 0.01 
2243 out of 100000 experiments had a difference of two means greater than or equal to 0.01.
The chance of getting a difference of two means greater than or equal to 0.01 is 0.02243.

=============================================================================================================== 
LARREA_EPOCH_LG_CONSENSUS_RATE.result	          <->	          CHEN_LG_CONSENSUS_RATE.result
=============================================================================================================== 

LARREA_EPOCH_LG_CONSENSUS_RATE.result mean: 0.00 
CHEN_LG_CONSENSUS_RATE.result mean: 0.19 

Observed difference of two means: 0.19 
375 out of 100000 experiments had a difference of two means greater than or equal to 0.19.
The chance of getting a difference of two means greater than or equal to 0.19 is 0.00375.

=============================================================================================================== 
AGUILERA_LG_CONSENSUS_RATE.result	          <->	          CHEN_LG_CONSENSUS_RATE.result
=============================================================================================================== 

AGUILERA_LG_CONSENSUS_RATE.result mean: 0.01 
CHEN_LG_CONSENSUS_RATE.result mean: 0.19 

Observed difference of two means: 0.18 
393 out of 100000 experiments had a difference of two means greater than or equal to 0.18.
The chance of getting a difference of two means greater than or equal to 0.18 is 0.00393.

=============================================================================================================== 
LARREA_VANILLA_FD_AVG_MISTAKE_RATE.result	          <->	          LARREA_EPOCH_FD_AVG_MISTAKE_RATE.result
=============================================================================================================== 

LARREA_VANILLA_FD_AVG_MISTAKE_RATE.result mean: 1.10 
LARREA_EPOCH_FD_AVG_MISTAKE_RATE.result mean: 1.16 

Observed difference of two means: 0.06 
15979 out of 100000 experiments had a difference of two means greater than or equal to 0.06.
The chance of getting a difference of two means greater than or equal to 0.06 is 0.15979.

=============================================================================================================== 
LARREA_VANILLA_FD_AVG_MISTAKE_RATE.result	          <->	          AGUILERA_FD_AVG_MISTAKE_RATE.result
=============================================================================================================== 

LARREA_VANILLA_FD_AVG_MISTAKE_RATE.result mean: 1.10 
AGUILERA_FD_AVG_MISTAKE_RATE.result mean: 2.31 

Observed difference of two means: 1.22 
370 out of 100000 experiments had a difference of two means greater than or equal to 1.22.
The chance of getting a difference of two means greater than or equal to 1.22 is 0.0037.

=============================================================================================================== 
LARREA_VANILLA_FD_AVG_MISTAKE_RATE.result	          <->	          CHEN_FD_AVG_MISTAKE_RATE.result
=============================================================================================================== 

LARREA_VANILLA_FD_AVG_MISTAKE_RATE.result mean: 1.10 
CHEN_FD_AVG_MISTAKE_RATE.result mean: 0.00 

Observed difference of two means: -1.10 
157 out of 100000 experiments had a difference of two means less than or equal to -1.10.
The chance of getting a difference of two means less than or equal to -1.10 is 0.00157.

=============================================================================================================== 
LARREA_EPOCH_FD_AVG_MISTAKE_RATE.result	          <->	          AGUILERA_FD_AVG_MISTAKE_RATE.result
=============================================================================================================== 

LARREA_EPOCH_FD_AVG_MISTAKE_RATE.result mean: 1.16 
AGUILERA_FD_AVG_MISTAKE_RATE.result mean: 2.31 

Observed difference of two means: 1.15 
253 out of 100000 experiments had a difference of two means greater than or equal to 1.15.
The chance of getting a difference of two means greater than or equal to 1.15 is 0.00253.

=============================================================================================================== 
LARREA_EPOCH_FD_AVG_MISTAKE_RATE.result	          <->	          CHEN_FD_AVG_MISTAKE_RATE.result
=============================================================================================================== 

LARREA_EPOCH_FD_AVG_MISTAKE_RATE.result mean: 1.16 
CHEN_FD_AVG_MISTAKE_RATE.result mean: 0.00 

Observed difference of two means: -1.16 
355 out of 100000 experiments had a difference of two means less than or equal to -1.16.
The chance of getting a difference of two means less than or equal to -1.16 is 0.00355.

=============================================================================================================== 
AGUILERA_FD_AVG_MISTAKE_RATE.result	          <->	          CHEN_FD_AVG_MISTAKE_RATE.result
=============================================================================================================== 

AGUILERA_FD_AVG_MISTAKE_RATE.result mean: 2.31 
CHEN_FD_AVG_MISTAKE_RATE.result mean: 0.00 

Observed difference of two means: -2.31 
387 out of 100000 experiments had a difference of two means less than or equal to -2.31.
The chance of getting a difference of two means less than or equal to -2.31 is 0.00387.

=============================================================================================================== 
LARREA_VANILLA_FD_TG_SUM.result	          <->	          LARREA_EPOCH_FD_TG_SUM.result
=============================================================================================================== 

LARREA_VANILLA_FD_TG_SUM.result mean: 568975.00 
LARREA_EPOCH_FD_TG_SUM.result mean: 566577.40 

Observed difference of two means: -2397.60 
4367 out of 100000 experiments had a difference of two means less than or equal to -2397.60.
The chance of getting a difference of two means less than or equal to -2397.60 is 0.04367.

=============================================================================================================== 
LARREA_VANILLA_FD_TG_SUM.result	          <->	          AGUILERA_FD_TG_SUM.result
=============================================================================================================== 

LARREA_VANILLA_FD_TG_SUM.result mean: 568975.00 
AGUILERA_FD_TG_SUM.result mean: 488748.20 

Observed difference of two means: -80226.80 
376 out of 100000 experiments had a difference of two means less than or equal to -80226.80.
The chance of getting a difference of two means less than or equal to -80226.80 is 0.00376.

=============================================================================================================== 
LARREA_VANILLA_FD_TG_SUM.result	          <->	          CHEN_FD_TG_SUM.result
=============================================================================================================== 

LARREA_VANILLA_FD_TG_SUM.result mean: 568975.00 
CHEN_FD_TG_SUM.result mean: 257847.00 

Observed difference of two means: -311128.00 
8363 out of 100000 experiments had a difference of two means less than or equal to -311128.00.
The chance of getting a difference of two means less than or equal to -311128.00 is 0.08363.

=============================================================================================================== 
LARREA_EPOCH_FD_TG_SUM.result	          <->	          AGUILERA_FD_TG_SUM.result
=============================================================================================================== 

LARREA_EPOCH_FD_TG_SUM.result mean: 566577.40 
AGUILERA_FD_TG_SUM.result mean: 488748.20 

Observed difference of two means: -77829.20 
393 out of 100000 experiments had a difference of two means less than or equal to -77829.20.
The chance of getting a difference of two means less than or equal to -77829.20 is 0.00393.

=============================================================================================================== 
LARREA_EPOCH_FD_TG_SUM.result	          <->	          CHEN_FD_TG_SUM.result
=============================================================================================================== 

LARREA_EPOCH_FD_TG_SUM.result mean: 566577.40 
CHEN_FD_TG_SUM.result mean: 257847.00 

Observed difference of two means: -308730.40 
8378 out of 100000 experiments had a difference of two means less than or equal to -308730.40.
The chance of getting a difference of two means less than or equal to -308730.40 is 0.08378.

=============================================================================================================== 
AGUILERA_FD_TG_SUM.result	          <->	          CHEN_FD_TG_SUM.result
=============================================================================================================== 

AGUILERA_FD_TG_SUM.result mean: 488748.20 
CHEN_FD_TG_SUM.result mean: 257847.00 

Observed difference of two means: -230901.20 
8249 out of 100000 experiments had a difference of two means less than or equal to -230901.20.
The chance of getting a difference of two means less than or equal to -230901.20 is 0.08249.

