=============================================================================================================== 
LARREA_VANILLA_LG_CONSENSUS_RATE.result	          <->	          LARREA_EPOCH_LG_CONSENSUS_RATE.result
=============================================================================================================== 

LARREA_VANILLA_LG_CONSENSUS_RATE.result mean: 0.76 
LARREA_EPOCH_LG_CONSENSUS_RATE.result mean: 0.84 

Observed difference of two means: 0.08 
5128 out of 100000 experiments had a difference of two means greater than or equal to 0.08.
The chance of getting a difference of two means greater than or equal to 0.08 is 0.05128.

=============================================================================================================== 
LARREA_VANILLA_LG_CONSENSUS_RATE.result	          <->	          AGUILERA_LG_CONSENSUS_RATE.result
=============================================================================================================== 

LARREA_VANILLA_LG_CONSENSUS_RATE.result mean: 0.76 
AGUILERA_LG_CONSENSUS_RATE.result mean: 0.30 

Observed difference of two means: -0.47 
70 out of 100000 experiments had a difference of two means less than or equal to -0.47.
The chance of getting a difference of two means less than or equal to -0.47 is 0.0007.

=============================================================================================================== 
LARREA_VANILLA_LG_CONSENSUS_RATE.result	          <->	          CHEN_LG_CONSENSUS_RATE.result
=============================================================================================================== 

LARREA_VANILLA_LG_CONSENSUS_RATE.result mean: 0.76 
CHEN_LG_CONSENSUS_RATE.result mean: 0.12 

Observed difference of two means: -0.64 
394 out of 100000 experiments had a difference of two means less than or equal to -0.64.
The chance of getting a difference of two means less than or equal to -0.64 is 0.00394.

=============================================================================================================== 
LARREA_EPOCH_LG_CONSENSUS_RATE.result	          <->	          AGUILERA_LG_CONSENSUS_RATE.result
=============================================================================================================== 

LARREA_EPOCH_LG_CONSENSUS_RATE.result mean: 0.84 
AGUILERA_LG_CONSENSUS_RATE.result mean: 0.30 

Observed difference of two means: -0.54 
330 out of 100000 experiments had a difference of two means less than or equal to -0.54.
The chance of getting a difference of two means less than or equal to -0.54 is 0.0033.

=============================================================================================================== 
LARREA_EPOCH_LG_CONSENSUS_RATE.result	          <->	          CHEN_LG_CONSENSUS_RATE.result
=============================================================================================================== 

LARREA_EPOCH_LG_CONSENSUS_RATE.result mean: 0.84 
CHEN_LG_CONSENSUS_RATE.result mean: 0.12 

Observed difference of two means: -0.72 
389 out of 100000 experiments had a difference of two means less than or equal to -0.72.
The chance of getting a difference of two means less than or equal to -0.72 is 0.00389.

=============================================================================================================== 
AGUILERA_LG_CONSENSUS_RATE.result	          <->	          CHEN_LG_CONSENSUS_RATE.result
=============================================================================================================== 

AGUILERA_LG_CONSENSUS_RATE.result mean: 0.30 
CHEN_LG_CONSENSUS_RATE.result mean: 0.12 

Observed difference of two means: -0.18 
2362 out of 100000 experiments had a difference of two means less than or equal to -0.18.
The chance of getting a difference of two means less than or equal to -0.18 is 0.02362.

=============================================================================================================== 
LARREA_VANILLA_FD_AVG_MISTAKE_RATE.result	          <->	          LARREA_EPOCH_FD_AVG_MISTAKE_RATE.result
=============================================================================================================== 

LARREA_VANILLA_FD_AVG_MISTAKE_RATE.result mean: 0.15 
LARREA_EPOCH_FD_AVG_MISTAKE_RATE.result mean: 0.15 

Observed difference of two means: 0.01 
23130 out of 100000 experiments had a difference of two means greater than or equal to 0.01.
The chance of getting a difference of two means greater than or equal to 0.01 is 0.2313.

=============================================================================================================== 
LARREA_VANILLA_FD_AVG_MISTAKE_RATE.result	          <->	          AGUILERA_FD_AVG_MISTAKE_RATE.result
=============================================================================================================== 

LARREA_VANILLA_FD_AVG_MISTAKE_RATE.result mean: 0.15 
AGUILERA_FD_AVG_MISTAKE_RATE.result mean: 0.20 

Observed difference of two means: 0.06 
395 out of 100000 experiments had a difference of two means greater than or equal to 0.06.
The chance of getting a difference of two means greater than or equal to 0.06 is 0.00395.

=============================================================================================================== 
LARREA_VANILLA_FD_AVG_MISTAKE_RATE.result	          <->	          CHEN_FD_AVG_MISTAKE_RATE.result
=============================================================================================================== 

LARREA_VANILLA_FD_AVG_MISTAKE_RATE.result mean: 0.15 
CHEN_FD_AVG_MISTAKE_RATE.result mean: 0.00 

Observed difference of two means: -0.15 
106 out of 100000 experiments had a difference of two means less than or equal to -0.15.
The chance of getting a difference of two means less than or equal to -0.15 is 0.00106.

=============================================================================================================== 
LARREA_EPOCH_FD_AVG_MISTAKE_RATE.result	          <->	          AGUILERA_FD_AVG_MISTAKE_RATE.result
=============================================================================================================== 

LARREA_EPOCH_FD_AVG_MISTAKE_RATE.result mean: 0.15 
AGUILERA_FD_AVG_MISTAKE_RATE.result mean: 0.20 

Observed difference of two means: 0.05 
205 out of 100000 experiments had a difference of two means greater than or equal to 0.05.
The chance of getting a difference of two means greater than or equal to 0.05 is 0.00205.

=============================================================================================================== 
LARREA_EPOCH_FD_AVG_MISTAKE_RATE.result	          <->	          CHEN_FD_AVG_MISTAKE_RATE.result
=============================================================================================================== 

LARREA_EPOCH_FD_AVG_MISTAKE_RATE.result mean: 0.15 
CHEN_FD_AVG_MISTAKE_RATE.result mean: 0.00 

Observed difference of two means: -0.15 
408 out of 100000 experiments had a difference of two means less than or equal to -0.15.
The chance of getting a difference of two means less than or equal to -0.15 is 0.00408.

=============================================================================================================== 
AGUILERA_FD_AVG_MISTAKE_RATE.result	          <->	          CHEN_FD_AVG_MISTAKE_RATE.result
=============================================================================================================== 

AGUILERA_FD_AVG_MISTAKE_RATE.result mean: 0.20 
CHEN_FD_AVG_MISTAKE_RATE.result mean: 0.00 

Observed difference of two means: -0.20 
401 out of 100000 experiments had a difference of two means less than or equal to -0.20.
The chance of getting a difference of two means less than or equal to -0.20 is 0.00401.

=============================================================================================================== 
LARREA_VANILLA_FD_TG_SUM.result	          <->	          LARREA_EPOCH_FD_TG_SUM.result
=============================================================================================================== 

LARREA_VANILLA_FD_TG_SUM.result mean: 565391.20 
LARREA_EPOCH_FD_TG_SUM.result mean: 551981.80 

Observed difference of two means: -13409.40 
7873 out of 100000 experiments had a difference of two means less than or equal to -13409.40.
The chance of getting a difference of two means less than or equal to -13409.40 is 0.07873.

=============================================================================================================== 
LARREA_VANILLA_FD_TG_SUM.result	          <->	          AGUILERA_FD_TG_SUM.result
=============================================================================================================== 

LARREA_VANILLA_FD_TG_SUM.result mean: 565391.20 
AGUILERA_FD_TG_SUM.result mean: 565311.60 

Observed difference of two means: -79.60 
49549 out of 100000 experiments had a difference of two means less than or equal to -79.60.
The chance of getting a difference of two means less than or equal to -79.60 is 0.49549.

=============================================================================================================== 
LARREA_VANILLA_FD_TG_SUM.result	          <->	          CHEN_FD_TG_SUM.result
=============================================================================================================== 

LARREA_VANILLA_FD_TG_SUM.result mean: 565391.20 
CHEN_FD_TG_SUM.result mean: 29726.40 

Observed difference of two means: -535664.80 
415 out of 100000 experiments had a difference of two means less than or equal to -535664.80.
The chance of getting a difference of two means less than or equal to -535664.80 is 0.00415.

=============================================================================================================== 
LARREA_EPOCH_FD_TG_SUM.result	          <->	          AGUILERA_FD_TG_SUM.result
=============================================================================================================== 

LARREA_EPOCH_FD_TG_SUM.result mean: 551981.80 
AGUILERA_FD_TG_SUM.result mean: 565311.60 

Observed difference of two means: 13329.80 
394 out of 100000 experiments had a difference of two means greater than or equal to 13329.80.
The chance of getting a difference of two means greater than or equal to 13329.80 is 0.00394.

=============================================================================================================== 
LARREA_EPOCH_FD_TG_SUM.result	          <->	          CHEN_FD_TG_SUM.result
=============================================================================================================== 

LARREA_EPOCH_FD_TG_SUM.result mean: 551981.80 
CHEN_FD_TG_SUM.result mean: 29726.40 

Observed difference of two means: -522255.40 
390 out of 100000 experiments had a difference of two means less than or equal to -522255.40.
The chance of getting a difference of two means less than or equal to -522255.40 is 0.0039.

=============================================================================================================== 
AGUILERA_FD_TG_SUM.result	          <->	          CHEN_FD_TG_SUM.result
=============================================================================================================== 

AGUILERA_FD_TG_SUM.result mean: 565311.60 
CHEN_FD_TG_SUM.result mean: 29726.40 

Observed difference of two means: -535585.20 
406 out of 100000 experiments had a difference of two means less than or equal to -535585.20.
The chance of getting a difference of two means less than or equal to -535585.20 is 0.00406.

