=============================================================================================================== 
LARREA_VANILLA_LG_CONSENSUS_RATE.result	          <->	          LARREA_EPOCH_LG_CONSENSUS_RATE.result
=============================================================================================================== 

LARREA_VANILLA_LG_CONSENSUS_RATE.result mean: 0.10 
LARREA_EPOCH_LG_CONSENSUS_RATE.result mean: 0.09 

Observed difference of two means: -0.02 
11378 out of 100000 experiments had a difference of two means less than or equal to -0.02.
The chance of getting a difference of two means less than or equal to -0.02 is 0.11378.

=============================================================================================================== 
LARREA_VANILLA_LG_CONSENSUS_RATE.result	          <->	          AGUILERA_LG_CONSENSUS_RATE.result
=============================================================================================================== 

LARREA_VANILLA_LG_CONSENSUS_RATE.result mean: 0.10 
AGUILERA_LG_CONSENSUS_RATE.result mean: 0.01 

Observed difference of two means: -0.09 
356 out of 100000 experiments had a difference of two means less than or equal to -0.09.
The chance of getting a difference of two means less than or equal to -0.09 is 0.00356.

=============================================================================================================== 
LARREA_VANILLA_LG_CONSENSUS_RATE.result	          <->	          CHEN_LG_CONSENSUS_RATE.result
=============================================================================================================== 

LARREA_VANILLA_LG_CONSENSUS_RATE.result mean: 0.10 
CHEN_LG_CONSENSUS_RATE.result mean: 0.03 

Observed difference of two means: -0.08 
377 out of 100000 experiments had a difference of two means less than or equal to -0.08.
The chance of getting a difference of two means less than or equal to -0.08 is 0.00377.

=============================================================================================================== 
LARREA_EPOCH_LG_CONSENSUS_RATE.result	          <->	          AGUILERA_LG_CONSENSUS_RATE.result
=============================================================================================================== 

LARREA_EPOCH_LG_CONSENSUS_RATE.result mean: 0.09 
AGUILERA_LG_CONSENSUS_RATE.result mean: 0.01 

Observed difference of two means: -0.08 
390 out of 100000 experiments had a difference of two means less than or equal to -0.08.
The chance of getting a difference of two means less than or equal to -0.08 is 0.0039.

=============================================================================================================== 
LARREA_EPOCH_LG_CONSENSUS_RATE.result	          <->	          CHEN_LG_CONSENSUS_RATE.result
=============================================================================================================== 

LARREA_EPOCH_LG_CONSENSUS_RATE.result mean: 0.09 
CHEN_LG_CONSENSUS_RATE.result mean: 0.03 

Observed difference of two means: -0.06 
403 out of 100000 experiments had a difference of two means less than or equal to -0.06.
The chance of getting a difference of two means less than or equal to -0.06 is 0.00403.

=============================================================================================================== 
AGUILERA_LG_CONSENSUS_RATE.result	          <->	          CHEN_LG_CONSENSUS_RATE.result
=============================================================================================================== 

AGUILERA_LG_CONSENSUS_RATE.result mean: 0.01 
CHEN_LG_CONSENSUS_RATE.result mean: 0.03 

Observed difference of two means: 0.02 
1950 out of 100000 experiments had a difference of two means greater than or equal to 0.02.
The chance of getting a difference of two means greater than or equal to 0.02 is 0.0195.

=============================================================================================================== 
LARREA_VANILLA_FD_AVG_MISTAKE_RATE.result	          <->	          LARREA_EPOCH_FD_AVG_MISTAKE_RATE.result
=============================================================================================================== 

LARREA_VANILLA_FD_AVG_MISTAKE_RATE.result mean: 0.56 
LARREA_EPOCH_FD_AVG_MISTAKE_RATE.result mean: 0.57 

Observed difference of two means: 0.01 
17716 out of 100000 experiments had a difference of two means greater than or equal to 0.01.
The chance of getting a difference of two means greater than or equal to 0.01 is 0.17716.

=============================================================================================================== 
LARREA_VANILLA_FD_AVG_MISTAKE_RATE.result	          <->	          AGUILERA_FD_AVG_MISTAKE_RATE.result
=============================================================================================================== 

LARREA_VANILLA_FD_AVG_MISTAKE_RATE.result mean: 0.56 
AGUILERA_FD_AVG_MISTAKE_RATE.result mean: 0.85 

Observed difference of two means: 0.29 
361 out of 100000 experiments had a difference of two means greater than or equal to 0.29.
The chance of getting a difference of two means greater than or equal to 0.29 is 0.00361.

=============================================================================================================== 
LARREA_VANILLA_FD_AVG_MISTAKE_RATE.result	          <->	          CHEN_FD_AVG_MISTAKE_RATE.result
=============================================================================================================== 

LARREA_VANILLA_FD_AVG_MISTAKE_RATE.result mean: 0.56 
CHEN_FD_AVG_MISTAKE_RATE.result mean: 0.00 

Observed difference of two means: -0.56 
368 out of 100000 experiments had a difference of two means less than or equal to -0.56.
The chance of getting a difference of two means less than or equal to -0.56 is 0.00368.

=============================================================================================================== 
LARREA_EPOCH_FD_AVG_MISTAKE_RATE.result	          <->	          AGUILERA_FD_AVG_MISTAKE_RATE.result
=============================================================================================================== 

LARREA_EPOCH_FD_AVG_MISTAKE_RATE.result mean: 0.57 
AGUILERA_FD_AVG_MISTAKE_RATE.result mean: 0.85 

Observed difference of two means: 0.28 
379 out of 100000 experiments had a difference of two means greater than or equal to 0.28.
The chance of getting a difference of two means greater than or equal to 0.28 is 0.00379.

=============================================================================================================== 
LARREA_EPOCH_FD_AVG_MISTAKE_RATE.result	          <->	          CHEN_FD_AVG_MISTAKE_RATE.result
=============================================================================================================== 

LARREA_EPOCH_FD_AVG_MISTAKE_RATE.result mean: 0.57 
CHEN_FD_AVG_MISTAKE_RATE.result mean: 0.00 

Observed difference of two means: -0.57 
256 out of 100000 experiments had a difference of two means less than or equal to -0.57.
The chance of getting a difference of two means less than or equal to -0.57 is 0.00256.

=============================================================================================================== 
AGUILERA_FD_AVG_MISTAKE_RATE.result	          <->	          CHEN_FD_AVG_MISTAKE_RATE.result
=============================================================================================================== 

AGUILERA_FD_AVG_MISTAKE_RATE.result mean: 0.85 
CHEN_FD_AVG_MISTAKE_RATE.result mean: 0.00 

Observed difference of two means: -0.85 
374 out of 100000 experiments had a difference of two means less than or equal to -0.85.
The chance of getting a difference of two means less than or equal to -0.85 is 0.00374.

=============================================================================================================== 
LARREA_VANILLA_FD_TG_SUM.result	          <->	          LARREA_EPOCH_FD_TG_SUM.result
=============================================================================================================== 

LARREA_VANILLA_FD_TG_SUM.result mean: 493341.80 
LARREA_EPOCH_FD_TG_SUM.result mean: 495923.60 

Observed difference of two means: 2581.80 
46571 out of 100000 experiments had a difference of two means greater than or equal to 2581.80.
The chance of getting a difference of two means greater than or equal to 2581.80 is 0.46571.

=============================================================================================================== 
LARREA_VANILLA_FD_TG_SUM.result	          <->	          AGUILERA_FD_TG_SUM.result
=============================================================================================================== 

LARREA_VANILLA_FD_TG_SUM.result mean: 493341.80 
AGUILERA_FD_TG_SUM.result mean: 436556.80 

Observed difference of two means: -56785.00 
400 out of 100000 experiments had a difference of two means less than or equal to -56785.00.
The chance of getting a difference of two means less than or equal to -56785.00 is 0.004.

=============================================================================================================== 
LARREA_VANILLA_FD_TG_SUM.result	          <->	          CHEN_FD_TG_SUM.result
=============================================================================================================== 

LARREA_VANILLA_FD_TG_SUM.result mean: 493341.80 
CHEN_FD_TG_SUM.result mean: 29723.60 

Observed difference of two means: -463618.20 
416 out of 100000 experiments had a difference of two means less than or equal to -463618.20.
The chance of getting a difference of two means less than or equal to -463618.20 is 0.00416.

=============================================================================================================== 
LARREA_EPOCH_FD_TG_SUM.result	          <->	          AGUILERA_FD_TG_SUM.result
=============================================================================================================== 

LARREA_EPOCH_FD_TG_SUM.result mean: 495923.60 
AGUILERA_FD_TG_SUM.result mean: 436556.80 

Observed difference of two means: -59366.80 
404 out of 100000 experiments had a difference of two means less than or equal to -59366.80.
The chance of getting a difference of two means less than or equal to -59366.80 is 0.00404.

=============================================================================================================== 
LARREA_EPOCH_FD_TG_SUM.result	          <->	          CHEN_FD_TG_SUM.result
=============================================================================================================== 

LARREA_EPOCH_FD_TG_SUM.result mean: 495923.60 
CHEN_FD_TG_SUM.result mean: 29723.60 

Observed difference of two means: -466200.00 
361 out of 100000 experiments had a difference of two means less than or equal to -466200.00.
The chance of getting a difference of two means less than or equal to -466200.00 is 0.00361.

=============================================================================================================== 
AGUILERA_FD_TG_SUM.result	          <->	          CHEN_FD_TG_SUM.result
=============================================================================================================== 

AGUILERA_FD_TG_SUM.result mean: 436556.80 
CHEN_FD_TG_SUM.result mean: 29723.60 

Observed difference of two means: -406833.20 
412 out of 100000 experiments had a difference of two means less than or equal to -406833.20.
The chance of getting a difference of two means less than or equal to -406833.20 is 0.00412.

