=============================================================================================================== 
LARREA_VANILLA_LG_CONSENSUS_RATE.result	          <->	          LARREA_EPOCH_LG_CONSENSUS_RATE.result
=============================================================================================================== 

LARREA_VANILLA_LG_CONSENSUS_RATE.result mean: 0.21 
LARREA_EPOCH_LG_CONSENSUS_RATE.result mean: 0.22 

Observed difference of two means: 0.00 
47427 out of 100000 experiments had a difference of two means greater than or equal to 0.00.
The chance of getting a difference of two means greater than or equal to 0.00 is 0.47427.

=============================================================================================================== 
LARREA_VANILLA_LG_CONSENSUS_RATE.result	          <->	          AGUILERA_LG_CONSENSUS_RATE.result
=============================================================================================================== 

LARREA_VANILLA_LG_CONSENSUS_RATE.result mean: 0.21 
AGUILERA_LG_CONSENSUS_RATE.result mean: 0.59 

Observed difference of two means: 0.38 
1113 out of 100000 experiments had a difference of two means greater than or equal to 0.38.
The chance of getting a difference of two means greater than or equal to 0.38 is 0.01113.

=============================================================================================================== 
LARREA_VANILLA_LG_CONSENSUS_RATE.result	          <->	          CHEN_LG_CONSENSUS_RATE.result
=============================================================================================================== 

LARREA_VANILLA_LG_CONSENSUS_RATE.result mean: 0.21 
CHEN_LG_CONSENSUS_RATE.result mean: 0.20 

Observed difference of two means: -0.01 
44855 out of 100000 experiments had a difference of two means less than or equal to -0.01.
The chance of getting a difference of two means less than or equal to -0.01 is 0.44855.

=============================================================================================================== 
LARREA_EPOCH_LG_CONSENSUS_RATE.result	          <->	          AGUILERA_LG_CONSENSUS_RATE.result
=============================================================================================================== 

LARREA_EPOCH_LG_CONSENSUS_RATE.result mean: 0.22 
AGUILERA_LG_CONSENSUS_RATE.result mean: 0.59 

Observed difference of two means: 0.38 
412 out of 100000 experiments had a difference of two means greater than or equal to 0.38.
The chance of getting a difference of two means greater than or equal to 0.38 is 0.00412.

=============================================================================================================== 
LARREA_EPOCH_LG_CONSENSUS_RATE.result	          <->	          CHEN_LG_CONSENSUS_RATE.result
=============================================================================================================== 

LARREA_EPOCH_LG_CONSENSUS_RATE.result mean: 0.22 
CHEN_LG_CONSENSUS_RATE.result mean: 0.20 

Observed difference of two means: -0.02 
28010 out of 100000 experiments had a difference of two means less than or equal to -0.02.
The chance of getting a difference of two means less than or equal to -0.02 is 0.2801.

=============================================================================================================== 
AGUILERA_LG_CONSENSUS_RATE.result	          <->	          CHEN_LG_CONSENSUS_RATE.result
=============================================================================================================== 

AGUILERA_LG_CONSENSUS_RATE.result mean: 0.59 
CHEN_LG_CONSENSUS_RATE.result mean: 0.20 

Observed difference of two means: -0.39 
410 out of 100000 experiments had a difference of two means less than or equal to -0.39.
The chance of getting a difference of two means less than or equal to -0.39 is 0.0041.

=============================================================================================================== 
LARREA_VANILLA_FD_AVG_MISTAKE_RATE.result	          <->	          LARREA_EPOCH_FD_AVG_MISTAKE_RATE.result
=============================================================================================================== 

LARREA_VANILLA_FD_AVG_MISTAKE_RATE.result mean: 0.20 
LARREA_EPOCH_FD_AVG_MISTAKE_RATE.result mean: 0.19 

Observed difference of two means: -0.01 
40264 out of 100000 experiments had a difference of two means less than or equal to -0.01.
The chance of getting a difference of two means less than or equal to -0.01 is 0.40264.

=============================================================================================================== 
LARREA_VANILLA_FD_AVG_MISTAKE_RATE.result	          <->	          AGUILERA_FD_AVG_MISTAKE_RATE.result
=============================================================================================================== 

LARREA_VANILLA_FD_AVG_MISTAKE_RATE.result mean: 0.20 
AGUILERA_FD_AVG_MISTAKE_RATE.result mean: 0.48 

Observed difference of two means: 0.28 
385 out of 100000 experiments had a difference of two means greater than or equal to 0.28.
The chance of getting a difference of two means greater than or equal to 0.28 is 0.00385.

=============================================================================================================== 
LARREA_VANILLA_FD_AVG_MISTAKE_RATE.result	          <->	          CHEN_FD_AVG_MISTAKE_RATE.result
=============================================================================================================== 

LARREA_VANILLA_FD_AVG_MISTAKE_RATE.result mean: 0.20 
CHEN_FD_AVG_MISTAKE_RATE.result mean: 0.00 

Observed difference of two means: -0.20 
316 out of 100000 experiments had a difference of two means less than or equal to -0.20.
The chance of getting a difference of two means less than or equal to -0.20 is 0.00316.

=============================================================================================================== 
LARREA_EPOCH_FD_AVG_MISTAKE_RATE.result	          <->	          AGUILERA_FD_AVG_MISTAKE_RATE.result
=============================================================================================================== 

LARREA_EPOCH_FD_AVG_MISTAKE_RATE.result mean: 0.19 
AGUILERA_FD_AVG_MISTAKE_RATE.result mean: 0.48 

Observed difference of two means: 0.29 
317 out of 100000 experiments had a difference of two means greater than or equal to 0.29.
The chance of getting a difference of two means greater than or equal to 0.29 is 0.00317.

=============================================================================================================== 
LARREA_EPOCH_FD_AVG_MISTAKE_RATE.result	          <->	          CHEN_FD_AVG_MISTAKE_RATE.result
=============================================================================================================== 

LARREA_EPOCH_FD_AVG_MISTAKE_RATE.result mean: 0.19 
CHEN_FD_AVG_MISTAKE_RATE.result mean: 0.00 

Observed difference of two means: -0.19 
381 out of 100000 experiments had a difference of two means less than or equal to -0.19.
The chance of getting a difference of two means less than or equal to -0.19 is 0.00381.

=============================================================================================================== 
AGUILERA_FD_AVG_MISTAKE_RATE.result	          <->	          CHEN_FD_AVG_MISTAKE_RATE.result
=============================================================================================================== 

AGUILERA_FD_AVG_MISTAKE_RATE.result mean: 0.48 
CHEN_FD_AVG_MISTAKE_RATE.result mean: 0.00 

Observed difference of two means: -0.48 
372 out of 100000 experiments had a difference of two means less than or equal to -0.48.
The chance of getting a difference of two means less than or equal to -0.48 is 0.00372.

=============================================================================================================== 
LARREA_VANILLA_FD_TG_SUM.result	          <->	          LARREA_EPOCH_FD_TG_SUM.result
=============================================================================================================== 

LARREA_VANILLA_FD_TG_SUM.result mean: 585104.60 
LARREA_EPOCH_FD_TG_SUM.result mean: 579444.60 

Observed difference of two means: -5660.00 
37656 out of 100000 experiments had a difference of two means less than or equal to -5660.00.
The chance of getting a difference of two means less than or equal to -5660.00 is 0.37656.

=============================================================================================================== 
LARREA_VANILLA_FD_TG_SUM.result	          <->	          AGUILERA_FD_TG_SUM.result
=============================================================================================================== 

LARREA_VANILLA_FD_TG_SUM.result mean: 585104.60 
AGUILERA_FD_TG_SUM.result mean: 561020.20 

Observed difference of two means: -24084.40 
3215 out of 100000 experiments had a difference of two means less than or equal to -24084.40.
The chance of getting a difference of two means less than or equal to -24084.40 is 0.03215.

=============================================================================================================== 
LARREA_VANILLA_FD_TG_SUM.result	          <->	          CHEN_FD_TG_SUM.result
=============================================================================================================== 

LARREA_VANILLA_FD_TG_SUM.result mean: 585104.60 
CHEN_FD_TG_SUM.result mean: 29827.20 

Observed difference of two means: -555277.40 
411 out of 100000 experiments had a difference of two means less than or equal to -555277.40.
The chance of getting a difference of two means less than or equal to -555277.40 is 0.00411.

=============================================================================================================== 
LARREA_EPOCH_FD_TG_SUM.result	          <->	          AGUILERA_FD_TG_SUM.result
=============================================================================================================== 

LARREA_EPOCH_FD_TG_SUM.result mean: 579444.60 
AGUILERA_FD_TG_SUM.result mean: 561020.20 

Observed difference of two means: -18424.40 
5845 out of 100000 experiments had a difference of two means less than or equal to -18424.40.
The chance of getting a difference of two means less than or equal to -18424.40 is 0.05845.

=============================================================================================================== 
LARREA_EPOCH_FD_TG_SUM.result	          <->	          CHEN_FD_TG_SUM.result
=============================================================================================================== 

LARREA_EPOCH_FD_TG_SUM.result mean: 579444.60 
CHEN_FD_TG_SUM.result mean: 29827.20 

Observed difference of two means: -549617.40 
424 out of 100000 experiments had a difference of two means less than or equal to -549617.40.
The chance of getting a difference of two means less than or equal to -549617.40 is 0.00424.

=============================================================================================================== 
AGUILERA_FD_TG_SUM.result	          <->	          CHEN_FD_TG_SUM.result
=============================================================================================================== 

AGUILERA_FD_TG_SUM.result mean: 561020.20 
CHEN_FD_TG_SUM.result mean: 29827.20 

Observed difference of two means: -531193.00 
378 out of 100000 experiments had a difference of two means less than or equal to -531193.00.
The chance of getting a difference of two means less than or equal to -531193.00 is 0.00378.

