=============================================================================================================== 
LARREA_VANILLA_LG_CONSENSUS_RATE.result	          <->	          LARREA_EPOCH_LG_CONSENSUS_RATE.result
=============================================================================================================== 

LARREA_VANILLA_LG_CONSENSUS_RATE.result mean: 0.00 
LARREA_EPOCH_LG_CONSENSUS_RATE.result mean: 0.00 

Observed difference of two means: 0.00 
100000 out of 100000 experiments had a difference of two means greater than or equal to 0.00.
The chance of getting a difference of two means greater than or equal to 0.00 is 1.0.

=============================================================================================================== 
LARREA_VANILLA_LG_CONSENSUS_RATE.result	          <->	          AGUILERA_LG_CONSENSUS_RATE.result
=============================================================================================================== 

LARREA_VANILLA_LG_CONSENSUS_RATE.result mean: 0.00 
AGUILERA_LG_CONSENSUS_RATE.result mean: 0.00 

Observed difference of two means: 0.00 
100000 out of 100000 experiments had a difference of two means greater than or equal to 0.00.
The chance of getting a difference of two means greater than or equal to 0.00 is 1.0.

=============================================================================================================== 
LARREA_VANILLA_LG_CONSENSUS_RATE.result	          <->	          CHEN_LG_CONSENSUS_RATE.result
=============================================================================================================== 

LARREA_VANILLA_LG_CONSENSUS_RATE.result mean: 0.00 
CHEN_LG_CONSENSUS_RATE.result mean: 0.10 

Observed difference of two means: 0.10 
390 out of 100000 experiments had a difference of two means greater than or equal to 0.10.
The chance of getting a difference of two means greater than or equal to 0.10 is 0.0039.

=============================================================================================================== 
LARREA_EPOCH_LG_CONSENSUS_RATE.result	          <->	          AGUILERA_LG_CONSENSUS_RATE.result
=============================================================================================================== 

LARREA_EPOCH_LG_CONSENSUS_RATE.result mean: 0.00 
AGUILERA_LG_CONSENSUS_RATE.result mean: 0.00 

Observed difference of two means: 0.00 
100000 out of 100000 experiments had a difference of two means greater than or equal to 0.00.
The chance of getting a difference of two means greater than or equal to 0.00 is 1.0.

=============================================================================================================== 
LARREA_EPOCH_LG_CONSENSUS_RATE.result	          <->	          CHEN_LG_CONSENSUS_RATE.result
=============================================================================================================== 

LARREA_EPOCH_LG_CONSENSUS_RATE.result mean: 0.00 
CHEN_LG_CONSENSUS_RATE.result mean: 0.10 

Observed difference of two means: 0.10 
405 out of 100000 experiments had a difference of two means greater than or equal to 0.10.
The chance of getting a difference of two means greater than or equal to 0.10 is 0.00405.

=============================================================================================================== 
AGUILERA_LG_CONSENSUS_RATE.result	          <->	          CHEN_LG_CONSENSUS_RATE.result
=============================================================================================================== 

AGUILERA_LG_CONSENSUS_RATE.result mean: 0.00 
CHEN_LG_CONSENSUS_RATE.result mean: 0.10 

Observed difference of two means: 0.10 
363 out of 100000 experiments had a difference of two means greater than or equal to 0.10.
The chance of getting a difference of two means greater than or equal to 0.10 is 0.00363.

=============================================================================================================== 
LARREA_VANILLA_FD_AVG_MISTAKE_RATE.result	          <->	          LARREA_EPOCH_FD_AVG_MISTAKE_RATE.result
=============================================================================================================== 

LARREA_VANILLA_FD_AVG_MISTAKE_RATE.result mean: 1.85 
LARREA_EPOCH_FD_AVG_MISTAKE_RATE.result mean: 1.94 

Observed difference of two means: 0.09 
19088 out of 100000 experiments had a difference of two means greater than or equal to 0.09.
The chance of getting a difference of two means greater than or equal to 0.09 is 0.19088.

=============================================================================================================== 
LARREA_VANILLA_FD_AVG_MISTAKE_RATE.result	          <->	          AGUILERA_FD_AVG_MISTAKE_RATE.result
=============================================================================================================== 

LARREA_VANILLA_FD_AVG_MISTAKE_RATE.result mean: 1.85 
AGUILERA_FD_AVG_MISTAKE_RATE.result mean: 3.52 

Observed difference of two means: 1.67 
373 out of 100000 experiments had a difference of two means greater than or equal to 1.67.
The chance of getting a difference of two means greater than or equal to 1.67 is 0.00373.

=============================================================================================================== 
LARREA_VANILLA_FD_AVG_MISTAKE_RATE.result	          <->	          CHEN_FD_AVG_MISTAKE_RATE.result
=============================================================================================================== 

LARREA_VANILLA_FD_AVG_MISTAKE_RATE.result mean: 1.85 
CHEN_FD_AVG_MISTAKE_RATE.result mean: 0.00 

Observed difference of two means: -1.85 
410 out of 100000 experiments had a difference of two means less than or equal to -1.85.
The chance of getting a difference of two means less than or equal to -1.85 is 0.0041.

=============================================================================================================== 
LARREA_EPOCH_FD_AVG_MISTAKE_RATE.result	          <->	          AGUILERA_FD_AVG_MISTAKE_RATE.result
=============================================================================================================== 

LARREA_EPOCH_FD_AVG_MISTAKE_RATE.result mean: 1.94 
AGUILERA_FD_AVG_MISTAKE_RATE.result mean: 3.52 

Observed difference of two means: 1.57 
313 out of 100000 experiments had a difference of two means greater than or equal to 1.57.
The chance of getting a difference of two means greater than or equal to 1.57 is 0.00313.

=============================================================================================================== 
LARREA_EPOCH_FD_AVG_MISTAKE_RATE.result	          <->	          CHEN_FD_AVG_MISTAKE_RATE.result
=============================================================================================================== 

LARREA_EPOCH_FD_AVG_MISTAKE_RATE.result mean: 1.94 
CHEN_FD_AVG_MISTAKE_RATE.result mean: 0.00 

Observed difference of two means: -1.94 
379 out of 100000 experiments had a difference of two means less than or equal to -1.94.
The chance of getting a difference of two means less than or equal to -1.94 is 0.00379.

=============================================================================================================== 
AGUILERA_FD_AVG_MISTAKE_RATE.result	          <->	          CHEN_FD_AVG_MISTAKE_RATE.result
=============================================================================================================== 

AGUILERA_FD_AVG_MISTAKE_RATE.result mean: 3.52 
CHEN_FD_AVG_MISTAKE_RATE.result mean: 0.00 

Observed difference of two means: -3.52 
372 out of 100000 experiments had a difference of two means less than or equal to -3.52.
The chance of getting a difference of two means less than or equal to -3.52 is 0.00372.

=============================================================================================================== 
LARREA_VANILLA_FD_TG_SUM.result	          <->	          LARREA_EPOCH_FD_TG_SUM.result
=============================================================================================================== 

LARREA_VANILLA_FD_TG_SUM.result mean: 523893.60 
LARREA_EPOCH_FD_TG_SUM.result mean: 522941.20 

Observed difference of two means: -952.40 
41561 out of 100000 experiments had a difference of two means less than or equal to -952.40.
The chance of getting a difference of two means less than or equal to -952.40 is 0.41561.

=============================================================================================================== 
LARREA_VANILLA_FD_TG_SUM.result	          <->	          AGUILERA_FD_TG_SUM.result
=============================================================================================================== 

LARREA_VANILLA_FD_TG_SUM.result mean: 523893.60 
AGUILERA_FD_TG_SUM.result mean: 386024.20 

Observed difference of two means: -137869.40 
381 out of 100000 experiments had a difference of two means less than or equal to -137869.40.
The chance of getting a difference of two means less than or equal to -137869.40 is 0.00381.

=============================================================================================================== 
LARREA_VANILLA_FD_TG_SUM.result	          <->	          CHEN_FD_TG_SUM.result
=============================================================================================================== 

LARREA_VANILLA_FD_TG_SUM.result mean: 523893.60 
CHEN_FD_TG_SUM.result mean: 29854.00 

Observed difference of two means: -494039.60 
396 out of 100000 experiments had a difference of two means less than or equal to -494039.60.
The chance of getting a difference of two means less than or equal to -494039.60 is 0.00396.

=============================================================================================================== 
LARREA_EPOCH_FD_TG_SUM.result	          <->	          AGUILERA_FD_TG_SUM.result
=============================================================================================================== 

LARREA_EPOCH_FD_TG_SUM.result mean: 522941.20 
AGUILERA_FD_TG_SUM.result mean: 386024.20 

Observed difference of two means: -136917.00 
395 out of 100000 experiments had a difference of two means less than or equal to -136917.00.
The chance of getting a difference of two means less than or equal to -136917.00 is 0.00395.

=============================================================================================================== 
LARREA_EPOCH_FD_TG_SUM.result	          <->	          CHEN_FD_TG_SUM.result
=============================================================================================================== 

LARREA_EPOCH_FD_TG_SUM.result mean: 522941.20 
CHEN_FD_TG_SUM.result mean: 29854.00 

Observed difference of two means: -493087.20 
417 out of 100000 experiments had a difference of two means less than or equal to -493087.20.
The chance of getting a difference of two means less than or equal to -493087.20 is 0.00417.

=============================================================================================================== 
AGUILERA_FD_TG_SUM.result	          <->	          CHEN_FD_TG_SUM.result
=============================================================================================================== 

AGUILERA_FD_TG_SUM.result mean: 386024.20 
CHEN_FD_TG_SUM.result mean: 29854.00 

Observed difference of two means: -356170.20 
388 out of 100000 experiments had a difference of two means less than or equal to -356170.20.
The chance of getting a difference of two means less than or equal to -356170.20 is 0.00388.

