=============================================================================================================== 
LARREA_VANILLA_LG_CONSENSUS_RATE.result	          <->	          LARREA_EPOCH_LG_CONSENSUS_RATE.result
=============================================================================================================== 

LARREA_VANILLA_LG_CONSENSUS_RATE.result mean: 1.20 
LARREA_EPOCH_LG_CONSENSUS_RATE.result mean: 1.19 

Observed difference of two means: -0.01 
26041 out of 100000 experiments had a difference of two means less than or equal to -0.01.
The chance of getting a difference of two means less than or equal to -0.01 is 0.26041.

=============================================================================================================== 
LARREA_VANILLA_LG_CONSENSUS_RATE.result	          <->	          AGUILERA_LG_CONSENSUS_RATE.result
=============================================================================================================== 

LARREA_VANILLA_LG_CONSENSUS_RATE.result mean: 1.20 
AGUILERA_LG_CONSENSUS_RATE.result mean: 0.71 

Observed difference of two means: -0.49 
384 out of 100000 experiments had a difference of two means less than or equal to -0.49.
The chance of getting a difference of two means less than or equal to -0.49 is 0.00384.

=============================================================================================================== 
LARREA_VANILLA_LG_CONSENSUS_RATE.result	          <->	          CHEN_LG_CONSENSUS_RATE.result
=============================================================================================================== 

LARREA_VANILLA_LG_CONSENSUS_RATE.result mean: 1.20 
CHEN_LG_CONSENSUS_RATE.result mean: 0.14 

Observed difference of two means: -1.05 
363 out of 100000 experiments had a difference of two means less than or equal to -1.05.
The chance of getting a difference of two means less than or equal to -1.05 is 0.00363.

=============================================================================================================== 
LARREA_EPOCH_LG_CONSENSUS_RATE.result	          <->	          AGUILERA_LG_CONSENSUS_RATE.result
=============================================================================================================== 

LARREA_EPOCH_LG_CONSENSUS_RATE.result mean: 1.19 
AGUILERA_LG_CONSENSUS_RATE.result mean: 0.71 

Observed difference of two means: -0.48 
284 out of 100000 experiments had a difference of two means less than or equal to -0.48.
The chance of getting a difference of two means less than or equal to -0.48 is 0.00284.

=============================================================================================================== 
LARREA_EPOCH_LG_CONSENSUS_RATE.result	          <->	          CHEN_LG_CONSENSUS_RATE.result
=============================================================================================================== 

LARREA_EPOCH_LG_CONSENSUS_RATE.result mean: 1.19 
CHEN_LG_CONSENSUS_RATE.result mean: 0.14 

Observed difference of two means: -1.05 
318 out of 100000 experiments had a difference of two means less than or equal to -1.05.
The chance of getting a difference of two means less than or equal to -1.05 is 0.00318.

=============================================================================================================== 
AGUILERA_LG_CONSENSUS_RATE.result	          <->	          CHEN_LG_CONSENSUS_RATE.result
=============================================================================================================== 

AGUILERA_LG_CONSENSUS_RATE.result mean: 0.71 
CHEN_LG_CONSENSUS_RATE.result mean: 0.14 

Observed difference of two means: -0.56 
389 out of 100000 experiments had a difference of two means less than or equal to -0.56.
The chance of getting a difference of two means less than or equal to -0.56 is 0.00389.

=============================================================================================================== 
LARREA_VANILLA_FD_AVG_MISTAKE_RATE.result	          <->	          LARREA_EPOCH_FD_AVG_MISTAKE_RATE.result
=============================================================================================================== 

LARREA_VANILLA_FD_AVG_MISTAKE_RATE.result mean: 0.00 
LARREA_EPOCH_FD_AVG_MISTAKE_RATE.result mean: 0.00 

Observed difference of two means: 0.00 
49921 out of 100000 experiments had a difference of two means greater than or equal to 0.00.
The chance of getting a difference of two means greater than or equal to 0.00 is 0.49921.

=============================================================================================================== 
LARREA_VANILLA_FD_AVG_MISTAKE_RATE.result	          <->	          AGUILERA_FD_AVG_MISTAKE_RATE.result
=============================================================================================================== 

LARREA_VANILLA_FD_AVG_MISTAKE_RATE.result mean: 0.00 
AGUILERA_FD_AVG_MISTAKE_RATE.result mean: 0.02 

Observed difference of two means: 0.02 
964 out of 100000 experiments had a difference of two means greater than or equal to 0.02.
The chance of getting a difference of two means greater than or equal to 0.02 is 0.00964.

=============================================================================================================== 
LARREA_VANILLA_FD_AVG_MISTAKE_RATE.result	          <->	          CHEN_FD_AVG_MISTAKE_RATE.result
=============================================================================================================== 

LARREA_VANILLA_FD_AVG_MISTAKE_RATE.result mean: 0.00 
CHEN_FD_AVG_MISTAKE_RATE.result mean: 0.00 

Observed difference of two means: 0.00 
2337 out of 100000 experiments had a difference of two means greater than or equal to 0.00.
The chance of getting a difference of two means greater than or equal to 0.00 is 0.02337.

=============================================================================================================== 
LARREA_EPOCH_FD_AVG_MISTAKE_RATE.result	          <->	          AGUILERA_FD_AVG_MISTAKE_RATE.result
=============================================================================================================== 

LARREA_EPOCH_FD_AVG_MISTAKE_RATE.result mean: 0.00 
AGUILERA_FD_AVG_MISTAKE_RATE.result mean: 0.02 

Observed difference of two means: 0.01 
6285 out of 100000 experiments had a difference of two means greater than or equal to 0.01.
The chance of getting a difference of two means greater than or equal to 0.01 is 0.06285.

=============================================================================================================== 
LARREA_EPOCH_FD_AVG_MISTAKE_RATE.result	          <->	          CHEN_FD_AVG_MISTAKE_RATE.result
=============================================================================================================== 

LARREA_EPOCH_FD_AVG_MISTAKE_RATE.result mean: 0.00 
CHEN_FD_AVG_MISTAKE_RATE.result mean: 0.00 

Observed difference of two means: 0.00 
42017 out of 100000 experiments had a difference of two means greater than or equal to 0.00.
The chance of getting a difference of two means greater than or equal to 0.00 is 0.42017.

=============================================================================================================== 
AGUILERA_FD_AVG_MISTAKE_RATE.result	          <->	          CHEN_FD_AVG_MISTAKE_RATE.result
=============================================================================================================== 

AGUILERA_FD_AVG_MISTAKE_RATE.result mean: 0.02 
CHEN_FD_AVG_MISTAKE_RATE.result mean: 0.00 

Observed difference of two means: -0.01 
6981 out of 100000 experiments had a difference of two means less than or equal to -0.01.
The chance of getting a difference of two means less than or equal to -0.01 is 0.06981.

=============================================================================================================== 
LARREA_VANILLA_FD_TG_SUM.result	          <->	          LARREA_EPOCH_FD_TG_SUM.result
=============================================================================================================== 

LARREA_VANILLA_FD_TG_SUM.result mean: 575746.00 
LARREA_EPOCH_FD_TG_SUM.result mean: 575742.00 

Observed difference of two means: -4.00 
46927 out of 100000 experiments had a difference of two means less than or equal to -4.00.
The chance of getting a difference of two means less than or equal to -4.00 is 0.46927.

=============================================================================================================== 
LARREA_VANILLA_FD_TG_SUM.result	          <->	          AGUILERA_FD_TG_SUM.result
=============================================================================================================== 

LARREA_VANILLA_FD_TG_SUM.result mean: 575746.00 
AGUILERA_FD_TG_SUM.result mean: 596874.40 

Observed difference of two means: 21128.40 
2376 out of 100000 experiments had a difference of two means greater than or equal to 21128.40.
The chance of getting a difference of two means greater than or equal to 21128.40 is 0.02376.

=============================================================================================================== 
LARREA_VANILLA_FD_TG_SUM.result	          <->	          CHEN_FD_TG_SUM.result
=============================================================================================================== 

LARREA_VANILLA_FD_TG_SUM.result mean: 575746.00 
CHEN_FD_TG_SUM.result mean: 29715.20 

Observed difference of two means: -546030.80 
405 out of 100000 experiments had a difference of two means less than or equal to -546030.80.
The chance of getting a difference of two means less than or equal to -546030.80 is 0.00405.

=============================================================================================================== 
LARREA_EPOCH_FD_TG_SUM.result	          <->	          AGUILERA_FD_TG_SUM.result
=============================================================================================================== 

LARREA_EPOCH_FD_TG_SUM.result mean: 575742.00 
AGUILERA_FD_TG_SUM.result mean: 596874.40 

Observed difference of two means: 21132.40 
2338 out of 100000 experiments had a difference of two means greater than or equal to 21132.40.
The chance of getting a difference of two means greater than or equal to 21132.40 is 0.02338.

=============================================================================================================== 
LARREA_EPOCH_FD_TG_SUM.result	          <->	          CHEN_FD_TG_SUM.result
=============================================================================================================== 

LARREA_EPOCH_FD_TG_SUM.result mean: 575742.00 
CHEN_FD_TG_SUM.result mean: 29715.20 

Observed difference of two means: -546026.80 
406 out of 100000 experiments had a difference of two means less than or equal to -546026.80.
The chance of getting a difference of two means less than or equal to -546026.80 is 0.00406.

=============================================================================================================== 
AGUILERA_FD_TG_SUM.result	          <->	          CHEN_FD_TG_SUM.result
=============================================================================================================== 

AGUILERA_FD_TG_SUM.result mean: 596874.40 
CHEN_FD_TG_SUM.result mean: 29715.20 

Observed difference of two means: -567159.20 
384 out of 100000 experiments had a difference of two means less than or equal to -567159.20.
The chance of getting a difference of two means less than or equal to -567159.20 is 0.00384.

