=============================================================================================================== 
LARREA_VANILLA_LG_CONSENSUS_RATE.result	          <->	          LARREA_EPOCH_LG_CONSENSUS_RATE.result
=============================================================================================================== 

LARREA_VANILLA_LG_CONSENSUS_RATE.result mean: 0.01 
LARREA_EPOCH_LG_CONSENSUS_RATE.result mean: 0.01 

Observed difference of two means: 0.00 
58038 out of 100000 experiments had a difference of two means greater than or equal to 0.00.
The chance of getting a difference of two means greater than or equal to 0.00 is 0.58038.

=============================================================================================================== 
LARREA_VANILLA_LG_CONSENSUS_RATE.result	          <->	          AGUILERA_LG_CONSENSUS_RATE.result
=============================================================================================================== 

LARREA_VANILLA_LG_CONSENSUS_RATE.result mean: 0.01 
AGUILERA_LG_CONSENSUS_RATE.result mean: 0.02 

Observed difference of two means: 0.01 
12592 out of 100000 experiments had a difference of two means greater than or equal to 0.01.
The chance of getting a difference of two means greater than or equal to 0.01 is 0.12592.

=============================================================================================================== 
LARREA_VANILLA_LG_CONSENSUS_RATE.result	          <->	          CHEN_LG_CONSENSUS_RATE.result
=============================================================================================================== 

LARREA_VANILLA_LG_CONSENSUS_RATE.result mean: 0.01 
CHEN_LG_CONSENSUS_RATE.result mean: 0.18 

Observed difference of two means: 0.17 
387 out of 100000 experiments had a difference of two means greater than or equal to 0.17.
The chance of getting a difference of two means greater than or equal to 0.17 is 0.00387.

=============================================================================================================== 
LARREA_EPOCH_LG_CONSENSUS_RATE.result	          <->	          AGUILERA_LG_CONSENSUS_RATE.result
=============================================================================================================== 

LARREA_EPOCH_LG_CONSENSUS_RATE.result mean: 0.01 
AGUILERA_LG_CONSENSUS_RATE.result mean: 0.02 

Observed difference of two means: 0.01 
11212 out of 100000 experiments had a difference of two means greater than or equal to 0.01.
The chance of getting a difference of two means greater than or equal to 0.01 is 0.11212.

=============================================================================================================== 
LARREA_EPOCH_LG_CONSENSUS_RATE.result	          <->	          CHEN_LG_CONSENSUS_RATE.result
=============================================================================================================== 

LARREA_EPOCH_LG_CONSENSUS_RATE.result mean: 0.01 
CHEN_LG_CONSENSUS_RATE.result mean: 0.18 

Observed difference of two means: 0.17 
400 out of 100000 experiments had a difference of two means greater than or equal to 0.17.
The chance of getting a difference of two means greater than or equal to 0.17 is 0.004.

=============================================================================================================== 
AGUILERA_LG_CONSENSUS_RATE.result	          <->	          CHEN_LG_CONSENSUS_RATE.result
=============================================================================================================== 

AGUILERA_LG_CONSENSUS_RATE.result mean: 0.02 
CHEN_LG_CONSENSUS_RATE.result mean: 0.18 

Observed difference of two means: 0.16 
376 out of 100000 experiments had a difference of two means greater than or equal to 0.16.
The chance of getting a difference of two means greater than or equal to 0.16 is 0.00376.

=============================================================================================================== 
LARREA_VANILLA_FD_AVG_MISTAKE_RATE.result	          <->	          LARREA_EPOCH_FD_AVG_MISTAKE_RATE.result
=============================================================================================================== 

LARREA_VANILLA_FD_AVG_MISTAKE_RATE.result mean: 0.99 
LARREA_EPOCH_FD_AVG_MISTAKE_RATE.result mean: 0.96 

Observed difference of two means: -0.04 
17018 out of 100000 experiments had a difference of two means less than or equal to -0.04.
The chance of getting a difference of two means less than or equal to -0.04 is 0.17018.

=============================================================================================================== 
LARREA_VANILLA_FD_AVG_MISTAKE_RATE.result	          <->	          AGUILERA_FD_AVG_MISTAKE_RATE.result
=============================================================================================================== 

LARREA_VANILLA_FD_AVG_MISTAKE_RATE.result mean: 0.99 
AGUILERA_FD_AVG_MISTAKE_RATE.result mean: 1.47 

Observed difference of two means: 0.47 
394 out of 100000 experiments had a difference of two means greater than or equal to 0.47.
The chance of getting a difference of two means greater than or equal to 0.47 is 0.00394.

=============================================================================================================== 
LARREA_VANILLA_FD_AVG_MISTAKE_RATE.result	          <->	          CHEN_FD_AVG_MISTAKE_RATE.result
=============================================================================================================== 

LARREA_VANILLA_FD_AVG_MISTAKE_RATE.result mean: 0.99 
CHEN_FD_AVG_MISTAKE_RATE.result mean: 0.00 

Observed difference of two means: -0.99 
352 out of 100000 experiments had a difference of two means less than or equal to -0.99.
The chance of getting a difference of two means less than or equal to -0.99 is 0.00352.

=============================================================================================================== 
LARREA_EPOCH_FD_AVG_MISTAKE_RATE.result	          <->	          AGUILERA_FD_AVG_MISTAKE_RATE.result
=============================================================================================================== 

LARREA_EPOCH_FD_AVG_MISTAKE_RATE.result mean: 0.96 
AGUILERA_FD_AVG_MISTAKE_RATE.result mean: 1.47 

Observed difference of two means: 0.51 
413 out of 100000 experiments had a difference of two means greater than or equal to 0.51.
The chance of getting a difference of two means greater than or equal to 0.51 is 0.00413.

=============================================================================================================== 
LARREA_EPOCH_FD_AVG_MISTAKE_RATE.result	          <->	          CHEN_FD_AVG_MISTAKE_RATE.result
=============================================================================================================== 

LARREA_EPOCH_FD_AVG_MISTAKE_RATE.result mean: 0.96 
CHEN_FD_AVG_MISTAKE_RATE.result mean: 0.00 

Observed difference of two means: -0.96 
384 out of 100000 experiments had a difference of two means less than or equal to -0.96.
The chance of getting a difference of two means less than or equal to -0.96 is 0.00384.

=============================================================================================================== 
AGUILERA_FD_AVG_MISTAKE_RATE.result	          <->	          CHEN_FD_AVG_MISTAKE_RATE.result
=============================================================================================================== 

AGUILERA_FD_AVG_MISTAKE_RATE.result mean: 1.47 
CHEN_FD_AVG_MISTAKE_RATE.result mean: 0.00 

Observed difference of two means: -1.47 
374 out of 100000 experiments had a difference of two means less than or equal to -1.47.
The chance of getting a difference of two means less than or equal to -1.47 is 0.00374.

=============================================================================================================== 
LARREA_VANILLA_FD_TG_SUM.result	          <->	          LARREA_EPOCH_FD_TG_SUM.result
=============================================================================================================== 

LARREA_VANILLA_FD_TG_SUM.result mean: 571414.00 
LARREA_EPOCH_FD_TG_SUM.result mean: 566314.00 

Observed difference of two means: -5100.00 
5495 out of 100000 experiments had a difference of two means less than or equal to -5100.00.
The chance of getting a difference of two means less than or equal to -5100.00 is 0.05495.

=============================================================================================================== 
LARREA_VANILLA_FD_TG_SUM.result	          <->	          AGUILERA_FD_TG_SUM.result
=============================================================================================================== 

LARREA_VANILLA_FD_TG_SUM.result mean: 571414.00 
AGUILERA_FD_TG_SUM.result mean: 519567.60 

Observed difference of two means: -51846.40 
392 out of 100000 experiments had a difference of two means less than or equal to -51846.40.
The chance of getting a difference of two means less than or equal to -51846.40 is 0.00392.

=============================================================================================================== 
LARREA_VANILLA_FD_TG_SUM.result	          <->	          CHEN_FD_TG_SUM.result
=============================================================================================================== 

LARREA_VANILLA_FD_TG_SUM.result mean: 571414.00 
CHEN_FD_TG_SUM.result mean: 29803.60 

Observed difference of two means: -541610.40 
424 out of 100000 experiments had a difference of two means less than or equal to -541610.40.
The chance of getting a difference of two means less than or equal to -541610.40 is 0.00424.

=============================================================================================================== 
LARREA_EPOCH_FD_TG_SUM.result	          <->	          AGUILERA_FD_TG_SUM.result
=============================================================================================================== 

LARREA_EPOCH_FD_TG_SUM.result mean: 566314.00 
AGUILERA_FD_TG_SUM.result mean: 519567.60 

Observed difference of two means: -46746.40 
364 out of 100000 experiments had a difference of two means less than or equal to -46746.40.
The chance of getting a difference of two means less than or equal to -46746.40 is 0.00364.

=============================================================================================================== 
LARREA_EPOCH_FD_TG_SUM.result	          <->	          CHEN_FD_TG_SUM.result
=============================================================================================================== 

LARREA_EPOCH_FD_TG_SUM.result mean: 566314.00 
CHEN_FD_TG_SUM.result mean: 29803.60 

Observed difference of two means: -536510.40 
401 out of 100000 experiments had a difference of two means less than or equal to -536510.40.
The chance of getting a difference of two means less than or equal to -536510.40 is 0.00401.

=============================================================================================================== 
AGUILERA_FD_TG_SUM.result	          <->	          CHEN_FD_TG_SUM.result
=============================================================================================================== 

AGUILERA_FD_TG_SUM.result mean: 519567.60 
CHEN_FD_TG_SUM.result mean: 29803.60 

Observed difference of two means: -489764.00 
408 out of 100000 experiments had a difference of two means less than or equal to -489764.00.
The chance of getting a difference of two means less than or equal to -489764.00 is 0.00408.

