=============================================================================================================== 
LARREA_VANILLA_LG_CONSENSUS_RATE.result	          <->	          LARREA_EPOCH_LG_CONSENSUS_RATE.result
=============================================================================================================== 

LARREA_VANILLA_LG_CONSENSUS_RATE.result mean: 0.33 
LARREA_EPOCH_LG_CONSENSUS_RATE.result mean: 0.41 

Observed difference of two means: 0.07 
4232 out of 100000 experiments had a difference of two means greater than or equal to 0.07.
The chance of getting a difference of two means greater than or equal to 0.07 is 0.04232.

=============================================================================================================== 
LARREA_VANILLA_LG_CONSENSUS_RATE.result	          <->	          AGUILERA_LG_CONSENSUS_RATE.result
=============================================================================================================== 

LARREA_VANILLA_LG_CONSENSUS_RATE.result mean: 0.33 
AGUILERA_LG_CONSENSUS_RATE.result mean: 0.14 

Observed difference of two means: -0.20 
123 out of 100000 experiments had a difference of two means less than or equal to -0.20.
The chance of getting a difference of two means less than or equal to -0.20 is 0.00123.

=============================================================================================================== 
LARREA_VANILLA_LG_CONSENSUS_RATE.result	          <->	          CHEN_LG_CONSENSUS_RATE.result
=============================================================================================================== 

LARREA_VANILLA_LG_CONSENSUS_RATE.result mean: 0.33 
CHEN_LG_CONSENSUS_RATE.result mean: 0.08 

Observed difference of two means: -0.25 
163 out of 100000 experiments had a difference of two means less than or equal to -0.25.
The chance of getting a difference of two means less than or equal to -0.25 is 0.00163.

=============================================================================================================== 
LARREA_EPOCH_LG_CONSENSUS_RATE.result	          <->	          AGUILERA_LG_CONSENSUS_RATE.result
=============================================================================================================== 

LARREA_EPOCH_LG_CONSENSUS_RATE.result mean: 0.41 
AGUILERA_LG_CONSENSUS_RATE.result mean: 0.14 

Observed difference of two means: -0.27 
408 out of 100000 experiments had a difference of two means less than or equal to -0.27.
The chance of getting a difference of two means less than or equal to -0.27 is 0.00408.

=============================================================================================================== 
LARREA_EPOCH_LG_CONSENSUS_RATE.result	          <->	          CHEN_LG_CONSENSUS_RATE.result
=============================================================================================================== 

LARREA_EPOCH_LG_CONSENSUS_RATE.result mean: 0.41 
CHEN_LG_CONSENSUS_RATE.result mean: 0.08 

Observed difference of two means: -0.32 
411 out of 100000 experiments had a difference of two means less than or equal to -0.32.
The chance of getting a difference of two means less than or equal to -0.32 is 0.00411.

=============================================================================================================== 
AGUILERA_LG_CONSENSUS_RATE.result	          <->	          CHEN_LG_CONSENSUS_RATE.result
=============================================================================================================== 

AGUILERA_LG_CONSENSUS_RATE.result mean: 0.14 
CHEN_LG_CONSENSUS_RATE.result mean: 0.08 

Observed difference of two means: -0.05 
1592 out of 100000 experiments had a difference of two means less than or equal to -0.05.
The chance of getting a difference of two means less than or equal to -0.05 is 0.01592.

=============================================================================================================== 
LARREA_VANILLA_FD_AVG_MISTAKE_RATE.result	          <->	          LARREA_EPOCH_FD_AVG_MISTAKE_RATE.result
=============================================================================================================== 

LARREA_VANILLA_FD_AVG_MISTAKE_RATE.result mean: 0.30 
LARREA_EPOCH_FD_AVG_MISTAKE_RATE.result mean: 0.30 

Observed difference of two means: 0.00 
27205 out of 100000 experiments had a difference of two means greater than or equal to 0.00.
The chance of getting a difference of two means greater than or equal to 0.00 is 0.27205.

=============================================================================================================== 
LARREA_VANILLA_FD_AVG_MISTAKE_RATE.result	          <->	          AGUILERA_FD_AVG_MISTAKE_RATE.result
=============================================================================================================== 

LARREA_VANILLA_FD_AVG_MISTAKE_RATE.result mean: 0.30 
AGUILERA_FD_AVG_MISTAKE_RATE.result mean: 0.42 

Observed difference of two means: 0.12 
394 out of 100000 experiments had a difference of two means greater than or equal to 0.12.
The chance of getting a difference of two means greater than or equal to 0.12 is 0.00394.

=============================================================================================================== 
LARREA_VANILLA_FD_AVG_MISTAKE_RATE.result	          <->	          CHEN_FD_AVG_MISTAKE_RATE.result
=============================================================================================================== 

LARREA_VANILLA_FD_AVG_MISTAKE_RATE.result mean: 0.30 
CHEN_FD_AVG_MISTAKE_RATE.result mean: 0.00 

Observed difference of two means: -0.30 
267 out of 100000 experiments had a difference of two means less than or equal to -0.30.
The chance of getting a difference of two means less than or equal to -0.30 is 0.00267.

=============================================================================================================== 
LARREA_EPOCH_FD_AVG_MISTAKE_RATE.result	          <->	          AGUILERA_FD_AVG_MISTAKE_RATE.result
=============================================================================================================== 

LARREA_EPOCH_FD_AVG_MISTAKE_RATE.result mean: 0.30 
AGUILERA_FD_AVG_MISTAKE_RATE.result mean: 0.42 

Observed difference of two means: 0.12 
443 out of 100000 experiments had a difference of two means greater than or equal to 0.12.
The chance of getting a difference of two means greater than or equal to 0.12 is 0.00443.

=============================================================================================================== 
LARREA_EPOCH_FD_AVG_MISTAKE_RATE.result	          <->	          CHEN_FD_AVG_MISTAKE_RATE.result
=============================================================================================================== 

LARREA_EPOCH_FD_AVG_MISTAKE_RATE.result mean: 0.30 
CHEN_FD_AVG_MISTAKE_RATE.result mean: 0.00 

Observed difference of two means: -0.30 
396 out of 100000 experiments had a difference of two means less than or equal to -0.30.
The chance of getting a difference of two means less than or equal to -0.30 is 0.00396.

=============================================================================================================== 
AGUILERA_FD_AVG_MISTAKE_RATE.result	          <->	          CHEN_FD_AVG_MISTAKE_RATE.result
=============================================================================================================== 

AGUILERA_FD_AVG_MISTAKE_RATE.result mean: 0.42 
CHEN_FD_AVG_MISTAKE_RATE.result mean: 0.00 

Observed difference of two means: -0.42 
386 out of 100000 experiments had a difference of two means less than or equal to -0.42.
The chance of getting a difference of two means less than or equal to -0.42 is 0.00386.

=============================================================================================================== 
LARREA_VANILLA_FD_TG_SUM.result	          <->	          LARREA_EPOCH_FD_TG_SUM.result
=============================================================================================================== 

LARREA_VANILLA_FD_TG_SUM.result mean: 553390.80 
LARREA_EPOCH_FD_TG_SUM.result mean: 540846.80 

Observed difference of two means: -12544.00 
11741 out of 100000 experiments had a difference of two means less than or equal to -12544.00.
The chance of getting a difference of two means less than or equal to -12544.00 is 0.11741.

=============================================================================================================== 
LARREA_VANILLA_FD_TG_SUM.result	          <->	          AGUILERA_FD_TG_SUM.result
=============================================================================================================== 

LARREA_VANILLA_FD_TG_SUM.result mean: 553390.80 
AGUILERA_FD_TG_SUM.result mean: 526744.60 

Observed difference of two means: -26646.20 
827 out of 100000 experiments had a difference of two means less than or equal to -26646.20.
The chance of getting a difference of two means less than or equal to -26646.20 is 0.00827.

=============================================================================================================== 
LARREA_VANILLA_FD_TG_SUM.result	          <->	          CHEN_FD_TG_SUM.result
=============================================================================================================== 

LARREA_VANILLA_FD_TG_SUM.result mean: 553390.80 
CHEN_FD_TG_SUM.result mean: 29725.80 

Observed difference of two means: -523665.00 
390 out of 100000 experiments had a difference of two means less than or equal to -523665.00.
The chance of getting a difference of two means less than or equal to -523665.00 is 0.0039.

=============================================================================================================== 
LARREA_EPOCH_FD_TG_SUM.result	          <->	          AGUILERA_FD_TG_SUM.result
=============================================================================================================== 

LARREA_EPOCH_FD_TG_SUM.result mean: 540846.80 
AGUILERA_FD_TG_SUM.result mean: 526744.60 

Observed difference of two means: -14102.20 
7149 out of 100000 experiments had a difference of two means less than or equal to -14102.20.
The chance of getting a difference of two means less than or equal to -14102.20 is 0.07149.

=============================================================================================================== 
LARREA_EPOCH_FD_TG_SUM.result	          <->	          CHEN_FD_TG_SUM.result
=============================================================================================================== 

LARREA_EPOCH_FD_TG_SUM.result mean: 540846.80 
CHEN_FD_TG_SUM.result mean: 29725.80 

Observed difference of two means: -511121.00 
373 out of 100000 experiments had a difference of two means less than or equal to -511121.00.
The chance of getting a difference of two means less than or equal to -511121.00 is 0.00373.

=============================================================================================================== 
AGUILERA_FD_TG_SUM.result	          <->	          CHEN_FD_TG_SUM.result
=============================================================================================================== 

AGUILERA_FD_TG_SUM.result mean: 526744.60 
CHEN_FD_TG_SUM.result mean: 29725.80 

Observed difference of two means: -497018.80 
441 out of 100000 experiments had a difference of two means less than or equal to -497018.80.
The chance of getting a difference of two means less than or equal to -497018.80 is 0.00441.

