=============================================================================================================== 
LARREA_VANILLA_LG_CONSENSUS_RATE.result	          <->	          LARREA_EPOCH_LG_CONSENSUS_RATE.result
=============================================================================================================== 

LARREA_VANILLA_LG_CONSENSUS_RATE.result mean: 0.00 
LARREA_EPOCH_LG_CONSENSUS_RATE.result mean: 0.00 

Observed difference of two means: 0.00 
100000 out of 100000 experiments had a difference of two means greater than or equal to 0.00.
The chance of getting a difference of two means greater than or equal to 0.00 is 1.0.

=============================================================================================================== 
LARREA_VANILLA_LG_CONSENSUS_RATE.result	          <->	          AGUILERA_LG_CONSENSUS_RATE.result
=============================================================================================================== 

LARREA_VANILLA_LG_CONSENSUS_RATE.result mean: 0.00 
AGUILERA_LG_CONSENSUS_RATE.result mean: 0.00 

Observed difference of two means: 0.00 
100000 out of 100000 experiments had a difference of two means greater than or equal to 0.00.
The chance of getting a difference of two means greater than or equal to 0.00 is 1.0.

=============================================================================================================== 
LARREA_VANILLA_LG_CONSENSUS_RATE.result	          <->	          CHEN_LG_CONSENSUS_RATE.result
=============================================================================================================== 

LARREA_VANILLA_LG_CONSENSUS_RATE.result mean: 0.00 
CHEN_LG_CONSENSUS_RATE.result mean: 0.09 

Observed difference of two means: 0.09 
0 out of 100000 experiments had a difference of two means greater than or equal to 0.09.
The chance of getting a difference of two means greater than or equal to 0.09 is 0.0.

=============================================================================================================== 
LARREA_EPOCH_LG_CONSENSUS_RATE.result	          <->	          AGUILERA_LG_CONSENSUS_RATE.result
=============================================================================================================== 

LARREA_EPOCH_LG_CONSENSUS_RATE.result mean: 0.00 
AGUILERA_LG_CONSENSUS_RATE.result mean: 0.00 

Observed difference of two means: 0.00 
100000 out of 100000 experiments had a difference of two means greater than or equal to 0.00.
The chance of getting a difference of two means greater than or equal to 0.00 is 1.0.

=============================================================================================================== 
LARREA_EPOCH_LG_CONSENSUS_RATE.result	          <->	          CHEN_LG_CONSENSUS_RATE.result
=============================================================================================================== 

LARREA_EPOCH_LG_CONSENSUS_RATE.result mean: 0.00 
CHEN_LG_CONSENSUS_RATE.result mean: 0.09 

Observed difference of two means: 0.09 
0 out of 100000 experiments had a difference of two means greater than or equal to 0.09.
The chance of getting a difference of two means greater than or equal to 0.09 is 0.0.

=============================================================================================================== 
AGUILERA_LG_CONSENSUS_RATE.result	          <->	          CHEN_LG_CONSENSUS_RATE.result
=============================================================================================================== 

AGUILERA_LG_CONSENSUS_RATE.result mean: 0.00 
CHEN_LG_CONSENSUS_RATE.result mean: 0.09 

Observed difference of two means: 0.09 
0 out of 100000 experiments had a difference of two means greater than or equal to 0.09.
The chance of getting a difference of two means greater than or equal to 0.09 is 0.0.

=============================================================================================================== 
LARREA_VANILLA_FD_AVG_MISTAKE_RATE.result	          <->	          LARREA_EPOCH_FD_AVG_MISTAKE_RATE.result
=============================================================================================================== 

LARREA_VANILLA_FD_AVG_MISTAKE_RATE.result mean: 4.32 
LARREA_EPOCH_FD_AVG_MISTAKE_RATE.result mean: 4.30 

Observed difference of two means: -0.01 
39650 out of 100000 experiments had a difference of two means less than or equal to -0.01.
The chance of getting a difference of two means less than or equal to -0.01 is 0.3965.

=============================================================================================================== 
LARREA_VANILLA_FD_AVG_MISTAKE_RATE.result	          <->	          AGUILERA_FD_AVG_MISTAKE_RATE.result
=============================================================================================================== 

LARREA_VANILLA_FD_AVG_MISTAKE_RATE.result mean: 4.32 
AGUILERA_FD_AVG_MISTAKE_RATE.result mean: 8.04 

Observed difference of two means: 3.73 
0 out of 100000 experiments had a difference of two means greater than or equal to 3.73.
The chance of getting a difference of two means greater than or equal to 3.73 is 0.0.

=============================================================================================================== 
LARREA_VANILLA_FD_AVG_MISTAKE_RATE.result	          <->	          CHEN_FD_AVG_MISTAKE_RATE.result
=============================================================================================================== 

LARREA_VANILLA_FD_AVG_MISTAKE_RATE.result mean: 4.32 
CHEN_FD_AVG_MISTAKE_RATE.result mean: 0.00 

Observed difference of two means: -4.31 
0 out of 100000 experiments had a difference of two means less than or equal to -4.31.
The chance of getting a difference of two means less than or equal to -4.31 is 0.0.

=============================================================================================================== 
LARREA_EPOCH_FD_AVG_MISTAKE_RATE.result	          <->	          AGUILERA_FD_AVG_MISTAKE_RATE.result
=============================================================================================================== 

LARREA_EPOCH_FD_AVG_MISTAKE_RATE.result mean: 4.30 
AGUILERA_FD_AVG_MISTAKE_RATE.result mean: 8.04 

Observed difference of two means: 3.74 
0 out of 100000 experiments had a difference of two means greater than or equal to 3.74.
The chance of getting a difference of two means greater than or equal to 3.74 is 0.0.

=============================================================================================================== 
LARREA_EPOCH_FD_AVG_MISTAKE_RATE.result	          <->	          CHEN_FD_AVG_MISTAKE_RATE.result
=============================================================================================================== 

LARREA_EPOCH_FD_AVG_MISTAKE_RATE.result mean: 4.30 
CHEN_FD_AVG_MISTAKE_RATE.result mean: 0.00 

Observed difference of two means: -4.30 
0 out of 100000 experiments had a difference of two means less than or equal to -4.30.
The chance of getting a difference of two means less than or equal to -4.30 is 0.0.

=============================================================================================================== 
AGUILERA_FD_AVG_MISTAKE_RATE.result	          <->	          CHEN_FD_AVG_MISTAKE_RATE.result
=============================================================================================================== 

AGUILERA_FD_AVG_MISTAKE_RATE.result mean: 8.04 
CHEN_FD_AVG_MISTAKE_RATE.result mean: 0.00 

Observed difference of two means: -8.04 
0 out of 100000 experiments had a difference of two means less than or equal to -8.04.
The chance of getting a difference of two means less than or equal to -8.04 is 0.0.

=============================================================================================================== 
LARREA_VANILLA_FD_TG_SUM.result	          <->	          LARREA_EPOCH_FD_TG_SUM.result
=============================================================================================================== 

LARREA_VANILLA_FD_TG_SUM.result mean: 511698.58 
LARREA_EPOCH_FD_TG_SUM.result mean: 511389.27 

Observed difference of two means: -309.32 
39375 out of 100000 experiments had a difference of two means less than or equal to -309.32.
The chance of getting a difference of two means less than or equal to -309.32 is 0.39375.

=============================================================================================================== 
LARREA_VANILLA_FD_TG_SUM.result	          <->	          AGUILERA_FD_TG_SUM.result
=============================================================================================================== 

LARREA_VANILLA_FD_TG_SUM.result mean: 511698.58 
AGUILERA_FD_TG_SUM.result mean: 351691.82 

Observed difference of two means: -160006.77 
0 out of 100000 experiments had a difference of two means less than or equal to -160006.77.
The chance of getting a difference of two means less than or equal to -160006.77 is 0.0.

=============================================================================================================== 
LARREA_VANILLA_FD_TG_SUM.result	          <->	          CHEN_FD_TG_SUM.result
=============================================================================================================== 

LARREA_VANILLA_FD_TG_SUM.result mean: 511698.58 
CHEN_FD_TG_SUM.result mean: 58336.35 

Observed difference of two means: -453362.23 
0 out of 100000 experiments had a difference of two means less than or equal to -453362.23.
The chance of getting a difference of two means less than or equal to -453362.23 is 0.0.

=============================================================================================================== 
LARREA_EPOCH_FD_TG_SUM.result	          <->	          AGUILERA_FD_TG_SUM.result
=============================================================================================================== 

LARREA_EPOCH_FD_TG_SUM.result mean: 511389.27 
AGUILERA_FD_TG_SUM.result mean: 351691.82 

Observed difference of two means: -159697.45 
0 out of 100000 experiments had a difference of two means less than or equal to -159697.45.
The chance of getting a difference of two means less than or equal to -159697.45 is 0.0.

=============================================================================================================== 
LARREA_EPOCH_FD_TG_SUM.result	          <->	          CHEN_FD_TG_SUM.result
=============================================================================================================== 

LARREA_EPOCH_FD_TG_SUM.result mean: 511389.27 
CHEN_FD_TG_SUM.result mean: 58336.35 

Observed difference of two means: -453052.92 
0 out of 100000 experiments had a difference of two means less than or equal to -453052.92.
The chance of getting a difference of two means less than or equal to -453052.92 is 0.0.

=============================================================================================================== 
AGUILERA_FD_TG_SUM.result	          <->	          CHEN_FD_TG_SUM.result
=============================================================================================================== 

AGUILERA_FD_TG_SUM.result mean: 351691.82 
CHEN_FD_TG_SUM.result mean: 58336.35 

Observed difference of two means: -293355.47 
0 out of 100000 experiments had a difference of two means less than or equal to -293355.47.
The chance of getting a difference of two means less than or equal to -293355.47 is 0.0.

