29800
29850
29850
29850
29823
29815
599893
29810
29816
29861
29850
29827
29803
29829
29850
29850
599893
599892
29830
29847
29825
29857
29812
29824
29850
29841
29800
29822
29791
29850
29862
29850
29850
29821
29810
29802
29814
29850
29884
29847
29860
29855
29850
29840
29804
29817
29851
29857
29837
29850
29850
29803
29837
29823
29800
29815
29810
29802
29826
29893
