600000
600000
600000
600000
600000
100000
600000
100000
600000
100000
600000
600000
600000
600000
100000
600000
600000
100000
600000
600000
100000
600000
100000
600000
600000
600000
100000
600000
100000
600000
600000
100000
600000
600000
100000
600000
600000
600000
100000
600000
600000
600000
100000
600000
100000
600000
600000
100000
600000
100000
600000
600000
100000
600000
600000
100000
600000
600000
100000
600000
600000
600000
100000
600000
100000
600000
600000
100000
600000
600000
600000
600000
100000
600000
100000
600000
600000
600000
600000
100000
600000
100000
600000
100000
600000
100000
600000
100000
600000
