600000
600000
600000
100000
600000
100000
600000
100000
600000
600000
100000
600000
100000
600000
100000
600000
600000
100000
600000
600000
600000
100000
600000
600000
100000
600000
100000
600000
100000
500000
200000
100000
600000
600000
100000
600000
100000
600000
100000
600000
600000
600000
100000
500000
100000
600000
100000
600000
100000
600000
100000
600000
100000
600000
100000
600000
600000
600000
100000
600000
600000
100000
600000
100000
600000
100000
600000
100000
600000
100000
600000
600000
600000
100000
600000
100000
600000
600000
100000
600000
600000
600000
100000
75
600000
100000
600000
100000
600000
100000
600000
100000
600000
600000
600000
600000
600000
100000
600000
