569812
569830
569776
569741
569850
29770
569775
29767
569778
29770
569832
569796
569854
569805
29742
569778
569829
29769
569752
569788
29752
569824
29777
569763
569760
569797
29775
569800
29760
569778
569778
29788
569803
569777
29772
569819
569797
569814
29764
569788
569802
569857
29756
569798
29747
569780
569809
29743
569791
29753
569771
569781
29763
569758
569808
29749
569767
569774
29782
569860
569799
569796
29775
569811
29764
569782
569782
29781
569782
569825
569830
569815
29745
569755
29783
569815
569798
569760
569785
29783
569769
29780
569817
29770
569772
29764
569802
29748
569779
