599952
599966
599932
599929
599936
599947
599932
599932
599925
599925
599931
599928
599933
599931
599932
599924
599924
599922
599924
599936
599957
599929
599951
599940
599932
599929
599923
599931
599929
599932
599925
599924
599932
599928
599925
599928
599943
599932
599944
599935
599924
599938
599946
599926
599925
599933
599928
599908
599933
599918
599926
599927
599925
600058
599930
599933
599932
599931
599932
599931
