=============================================================================================================== 
LARREA_VANILLA_LG_CONSENSUS_RATE.result	          <->	          LARREA_EPOCH_LG_CONSENSUS_RATE.result
=============================================================================================================== 

LARREA_VANILLA_LG_CONSENSUS_RATE.result mean: 0.85 
LARREA_EPOCH_LG_CONSENSUS_RATE.result mean: 0.90 

Observed difference of two means: 0.04 
23481 out of 100000 experiments had a difference of two means greater than or equal to 0.04.
The chance of getting a difference of two means greater than or equal to 0.04 is 0.23481.

=============================================================================================================== 
LARREA_VANILLA_LG_CONSENSUS_RATE.result	          <->	          AGUILERA_LG_CONSENSUS_RATE.result
=============================================================================================================== 

LARREA_VANILLA_LG_CONSENSUS_RATE.result mean: 0.85 
AGUILERA_LG_CONSENSUS_RATE.result mean: 1.74 

Observed difference of two means: 0.89 
0 out of 100000 experiments had a difference of two means greater than or equal to 0.89.
The chance of getting a difference of two means greater than or equal to 0.89 is 0.0.

=============================================================================================================== 
LARREA_VANILLA_LG_CONSENSUS_RATE.result	          <->	          CHEN_LG_CONSENSUS_RATE.result
=============================================================================================================== 

LARREA_VANILLA_LG_CONSENSUS_RATE.result mean: 0.85 
CHEN_LG_CONSENSUS_RATE.result mean: 9.52 

Observed difference of two means: 8.67 
0 out of 100000 experiments had a difference of two means greater than or equal to 8.67.
The chance of getting a difference of two means greater than or equal to 8.67 is 0.0.

=============================================================================================================== 
LARREA_EPOCH_LG_CONSENSUS_RATE.result	          <->	          AGUILERA_LG_CONSENSUS_RATE.result
=============================================================================================================== 

LARREA_EPOCH_LG_CONSENSUS_RATE.result mean: 0.90 
AGUILERA_LG_CONSENSUS_RATE.result mean: 1.74 

Observed difference of two means: 0.84 
0 out of 100000 experiments had a difference of two means greater than or equal to 0.84.
The chance of getting a difference of two means greater than or equal to 0.84 is 0.0.

=============================================================================================================== 
LARREA_EPOCH_LG_CONSENSUS_RATE.result	          <->	          CHEN_LG_CONSENSUS_RATE.result
=============================================================================================================== 

LARREA_EPOCH_LG_CONSENSUS_RATE.result mean: 0.90 
CHEN_LG_CONSENSUS_RATE.result mean: 9.52 

Observed difference of two means: 8.62 
0 out of 100000 experiments had a difference of two means greater than or equal to 8.62.
The chance of getting a difference of two means greater than or equal to 8.62 is 0.0.

=============================================================================================================== 
AGUILERA_LG_CONSENSUS_RATE.result	          <->	          CHEN_LG_CONSENSUS_RATE.result
=============================================================================================================== 

AGUILERA_LG_CONSENSUS_RATE.result mean: 1.74 
CHEN_LG_CONSENSUS_RATE.result mean: 9.52 

Observed difference of two means: 7.78 
0 out of 100000 experiments had a difference of two means greater than or equal to 7.78.
The chance of getting a difference of two means greater than or equal to 7.78 is 0.0.

=============================================================================================================== 
LARREA_VANILLA_FD_AVG_MISTAKE_RATE.result	          <->	          LARREA_EPOCH_FD_AVG_MISTAKE_RATE.result
=============================================================================================================== 

LARREA_VANILLA_FD_AVG_MISTAKE_RATE.result mean: 3.41 
LARREA_EPOCH_FD_AVG_MISTAKE_RATE.result mean: 3.25 

Observed difference of two means: -0.16 
19605 out of 100000 experiments had a difference of two means less than or equal to -0.16.
The chance of getting a difference of two means less than or equal to -0.16 is 0.19605.

=============================================================================================================== 
LARREA_VANILLA_FD_AVG_MISTAKE_RATE.result	          <->	          AGUILERA_FD_AVG_MISTAKE_RATE.result
=============================================================================================================== 

LARREA_VANILLA_FD_AVG_MISTAKE_RATE.result mean: 3.41 
AGUILERA_FD_AVG_MISTAKE_RATE.result mean: 3.05 

Observed difference of two means: -0.35 
278 out of 100000 experiments had a difference of two means less than or equal to -0.35.
The chance of getting a difference of two means less than or equal to -0.35 is 0.00278.

=============================================================================================================== 
LARREA_VANILLA_FD_AVG_MISTAKE_RATE.result	          <->	          CHEN_FD_AVG_MISTAKE_RATE.result
=============================================================================================================== 

LARREA_VANILLA_FD_AVG_MISTAKE_RATE.result mean: 3.41 
CHEN_FD_AVG_MISTAKE_RATE.result mean: 0.00 

Observed difference of two means: -3.41 
0 out of 100000 experiments had a difference of two means less than or equal to -3.41.
The chance of getting a difference of two means less than or equal to -3.41 is 0.0.

=============================================================================================================== 
LARREA_EPOCH_FD_AVG_MISTAKE_RATE.result	          <->	          AGUILERA_FD_AVG_MISTAKE_RATE.result
=============================================================================================================== 

LARREA_EPOCH_FD_AVG_MISTAKE_RATE.result mean: 3.25 
AGUILERA_FD_AVG_MISTAKE_RATE.result mean: 3.05 

Observed difference of two means: -0.20 
8486 out of 100000 experiments had a difference of two means less than or equal to -0.20.
The chance of getting a difference of two means less than or equal to -0.20 is 0.08486.

=============================================================================================================== 
LARREA_EPOCH_FD_AVG_MISTAKE_RATE.result	          <->	          CHEN_FD_AVG_MISTAKE_RATE.result
=============================================================================================================== 

LARREA_EPOCH_FD_AVG_MISTAKE_RATE.result mean: 3.25 
CHEN_FD_AVG_MISTAKE_RATE.result mean: 0.00 

Observed difference of two means: -3.25 
0 out of 100000 experiments had a difference of two means less than or equal to -3.25.
The chance of getting a difference of two means less than or equal to -3.25 is 0.0.

=============================================================================================================== 
AGUILERA_FD_AVG_MISTAKE_RATE.result	          <->	          CHEN_FD_AVG_MISTAKE_RATE.result
=============================================================================================================== 

AGUILERA_FD_AVG_MISTAKE_RATE.result mean: 3.05 
CHEN_FD_AVG_MISTAKE_RATE.result mean: 0.00 

Observed difference of two means: -3.05 
0 out of 100000 experiments had a difference of two means less than or equal to -3.05.
The chance of getting a difference of two means less than or equal to -3.05 is 0.0.

=============================================================================================================== 
LARREA_VANILLA_FD_TG_SUM.result	          <->	          LARREA_EPOCH_FD_TG_SUM.result
=============================================================================================================== 

LARREA_VANILLA_FD_TG_SUM.result mean: 530120.40 
LARREA_EPOCH_FD_TG_SUM.result mean: 545277.65 

Observed difference of two means: 15157.25 
4705 out of 100000 experiments had a difference of two means greater than or equal to 15157.25.
The chance of getting a difference of two means greater than or equal to 15157.25 is 0.04705.

=============================================================================================================== 
LARREA_VANILLA_FD_TG_SUM.result	          <->	          AGUILERA_FD_TG_SUM.result
=============================================================================================================== 

LARREA_VANILLA_FD_TG_SUM.result mean: 530120.40 
AGUILERA_FD_TG_SUM.result mean: 571277.37 

Observed difference of two means: 41156.97 
0 out of 100000 experiments had a difference of two means greater than or equal to 41156.97.
The chance of getting a difference of two means greater than or equal to 41156.97 is 0.0.

=============================================================================================================== 
LARREA_VANILLA_FD_TG_SUM.result	          <->	          CHEN_FD_TG_SUM.result
=============================================================================================================== 

LARREA_VANILLA_FD_TG_SUM.result mean: 530120.40 
CHEN_FD_TG_SUM.result mean: 599923.57 

Observed difference of two means: 69803.17 
0 out of 100000 experiments had a difference of two means greater than or equal to 69803.17.
The chance of getting a difference of two means greater than or equal to 69803.17 is 0.0.

=============================================================================================================== 
LARREA_EPOCH_FD_TG_SUM.result	          <->	          AGUILERA_FD_TG_SUM.result
=============================================================================================================== 

LARREA_EPOCH_FD_TG_SUM.result mean: 545277.65 
AGUILERA_FD_TG_SUM.result mean: 571277.37 

Observed difference of two means: 25999.72 
0 out of 100000 experiments had a difference of two means greater than or equal to 25999.72.
The chance of getting a difference of two means greater than or equal to 25999.72 is 0.0.

=============================================================================================================== 
LARREA_EPOCH_FD_TG_SUM.result	          <->	          CHEN_FD_TG_SUM.result
=============================================================================================================== 

LARREA_EPOCH_FD_TG_SUM.result mean: 545277.65 
CHEN_FD_TG_SUM.result mean: 599923.57 

Observed difference of two means: 54645.92 
0 out of 100000 experiments had a difference of two means greater than or equal to 54645.92.
The chance of getting a difference of two means greater than or equal to 54645.92 is 0.0.

=============================================================================================================== 
AGUILERA_FD_TG_SUM.result	          <->	          CHEN_FD_TG_SUM.result
=============================================================================================================== 

AGUILERA_FD_TG_SUM.result mean: 571277.37 
CHEN_FD_TG_SUM.result mean: 599923.57 

Observed difference of two means: 28646.20 
0 out of 100000 experiments had a difference of two means greater than or equal to 28646.20.
The chance of getting a difference of two means greater than or equal to 28646.20 is 0.0.

