599910
599928
599927
599920
599922
599947
599929
599914
599910
599959
599928
599914
599928
599927
599928
599930
599926
599911
599912
599923
599925
599938
599948
599912
599926
599927
599912
599910
599913
599892
599933
599936
599928
599928
599928
599911
599947
599925
599929
599929
599911
599901
599939
599924
599929
159872
440037
599934
599912
599912
599928
599928
599916
599937
599896
599925
599921
599929
599923
599921
599929
