=============================================================================================================== 
LARREA_VANILLA_LG_CONSENSUS_RATE.result	          <->	          LARREA_EPOCH_LG_CONSENSUS_RATE.result
=============================================================================================================== 

LARREA_VANILLA_LG_CONSENSUS_RATE.result mean: 0.00 
LARREA_EPOCH_LG_CONSENSUS_RATE.result mean: 0.00 

Observed difference of two means: 0.00 
100000 out of 100000 experiments had a difference of two means greater than or equal to 0.00.
The chance of getting a difference of two means greater than or equal to 0.00 is 1.0.

=============================================================================================================== 
LARREA_VANILLA_LG_CONSENSUS_RATE.result	          <->	          AGUILERA_LG_CONSENSUS_RATE.result
=============================================================================================================== 

LARREA_VANILLA_LG_CONSENSUS_RATE.result mean: 0.00 
AGUILERA_LG_CONSENSUS_RATE.result mean: 0.00 

Observed difference of two means: 0.00 
100000 out of 100000 experiments had a difference of two means greater than or equal to 0.00.
The chance of getting a difference of two means greater than or equal to 0.00 is 1.0.

=============================================================================================================== 
LARREA_VANILLA_LG_CONSENSUS_RATE.result	          <->	          CHEN_LG_CONSENSUS_RATE.result
=============================================================================================================== 

LARREA_VANILLA_LG_CONSENSUS_RATE.result mean: 0.00 
CHEN_LG_CONSENSUS_RATE.result mean: 0.10 

Observed difference of two means: 0.10 
0 out of 100000 experiments had a difference of two means greater than or equal to 0.10.
The chance of getting a difference of two means greater than or equal to 0.10 is 0.0.

=============================================================================================================== 
LARREA_EPOCH_LG_CONSENSUS_RATE.result	          <->	          AGUILERA_LG_CONSENSUS_RATE.result
=============================================================================================================== 

LARREA_EPOCH_LG_CONSENSUS_RATE.result mean: 0.00 
AGUILERA_LG_CONSENSUS_RATE.result mean: 0.00 

Observed difference of two means: 0.00 
100000 out of 100000 experiments had a difference of two means greater than or equal to 0.00.
The chance of getting a difference of two means greater than or equal to 0.00 is 1.0.

=============================================================================================================== 
LARREA_EPOCH_LG_CONSENSUS_RATE.result	          <->	          CHEN_LG_CONSENSUS_RATE.result
=============================================================================================================== 

LARREA_EPOCH_LG_CONSENSUS_RATE.result mean: 0.00 
CHEN_LG_CONSENSUS_RATE.result mean: 0.10 

Observed difference of two means: 0.10 
0 out of 100000 experiments had a difference of two means greater than or equal to 0.10.
The chance of getting a difference of two means greater than or equal to 0.10 is 0.0.

=============================================================================================================== 
AGUILERA_LG_CONSENSUS_RATE.result	          <->	          CHEN_LG_CONSENSUS_RATE.result
=============================================================================================================== 

AGUILERA_LG_CONSENSUS_RATE.result mean: 0.00 
CHEN_LG_CONSENSUS_RATE.result mean: 0.10 

Observed difference of two means: 0.10 
0 out of 100000 experiments had a difference of two means greater than or equal to 0.10.
The chance of getting a difference of two means greater than or equal to 0.10 is 0.0.

=============================================================================================================== 
LARREA_VANILLA_FD_AVG_MISTAKE_RATE.result	          <->	          LARREA_EPOCH_FD_AVG_MISTAKE_RATE.result
=============================================================================================================== 

LARREA_VANILLA_FD_AVG_MISTAKE_RATE.result mean: 1.91 
LARREA_EPOCH_FD_AVG_MISTAKE_RATE.result mean: 1.94 

Observed difference of two means: 0.03 
6915 out of 100000 experiments had a difference of two means greater than or equal to 0.03.
The chance of getting a difference of two means greater than or equal to 0.03 is 0.06915.

=============================================================================================================== 
LARREA_VANILLA_FD_AVG_MISTAKE_RATE.result	          <->	          AGUILERA_FD_AVG_MISTAKE_RATE.result
=============================================================================================================== 

LARREA_VANILLA_FD_AVG_MISTAKE_RATE.result mean: 1.91 
AGUILERA_FD_AVG_MISTAKE_RATE.result mean: 3.39 

Observed difference of two means: 1.48 
0 out of 100000 experiments had a difference of two means greater than or equal to 1.48.
The chance of getting a difference of two means greater than or equal to 1.48 is 0.0.

=============================================================================================================== 
LARREA_VANILLA_FD_AVG_MISTAKE_RATE.result	          <->	          CHEN_FD_AVG_MISTAKE_RATE.result
=============================================================================================================== 

LARREA_VANILLA_FD_AVG_MISTAKE_RATE.result mean: 1.91 
CHEN_FD_AVG_MISTAKE_RATE.result mean: 0.00 

Observed difference of two means: -1.91 
0 out of 100000 experiments had a difference of two means less than or equal to -1.91.
The chance of getting a difference of two means less than or equal to -1.91 is 0.0.

=============================================================================================================== 
LARREA_EPOCH_FD_AVG_MISTAKE_RATE.result	          <->	          AGUILERA_FD_AVG_MISTAKE_RATE.result
=============================================================================================================== 

LARREA_EPOCH_FD_AVG_MISTAKE_RATE.result mean: 1.94 
AGUILERA_FD_AVG_MISTAKE_RATE.result mean: 3.39 

Observed difference of two means: 1.45 
0 out of 100000 experiments had a difference of two means greater than or equal to 1.45.
The chance of getting a difference of two means greater than or equal to 1.45 is 0.0.

=============================================================================================================== 
LARREA_EPOCH_FD_AVG_MISTAKE_RATE.result	          <->	          CHEN_FD_AVG_MISTAKE_RATE.result
=============================================================================================================== 

LARREA_EPOCH_FD_AVG_MISTAKE_RATE.result mean: 1.94 
CHEN_FD_AVG_MISTAKE_RATE.result mean: 0.00 

Observed difference of two means: -1.94 
0 out of 100000 experiments had a difference of two means less than or equal to -1.94.
The chance of getting a difference of two means less than or equal to -1.94 is 0.0.

=============================================================================================================== 
AGUILERA_FD_AVG_MISTAKE_RATE.result	          <->	          CHEN_FD_AVG_MISTAKE_RATE.result
=============================================================================================================== 

AGUILERA_FD_AVG_MISTAKE_RATE.result mean: 3.39 
CHEN_FD_AVG_MISTAKE_RATE.result mean: 0.00 

Observed difference of two means: -3.39 
0 out of 100000 experiments had a difference of two means less than or equal to -3.39.
The chance of getting a difference of two means less than or equal to -3.39 is 0.0.

=============================================================================================================== 
LARREA_VANILLA_FD_TG_SUM.result	          <->	          LARREA_EPOCH_FD_TG_SUM.result
=============================================================================================================== 

LARREA_VANILLA_FD_TG_SUM.result mean: 522533.35 
LARREA_EPOCH_FD_TG_SUM.result mean: 522366.68 

Observed difference of two means: -166.67 
43166 out of 100000 experiments had a difference of two means less than or equal to -166.67.
The chance of getting a difference of two means less than or equal to -166.67 is 0.43166.

=============================================================================================================== 
LARREA_VANILLA_FD_TG_SUM.result	          <->	          AGUILERA_FD_TG_SUM.result
=============================================================================================================== 

LARREA_VANILLA_FD_TG_SUM.result mean: 522533.35 
AGUILERA_FD_TG_SUM.result mean: 390270.63 

Observed difference of two means: -132262.72 
0 out of 100000 experiments had a difference of two means less than or equal to -132262.72.
The chance of getting a difference of two means less than or equal to -132262.72 is 0.0.

=============================================================================================================== 
LARREA_VANILLA_FD_TG_SUM.result	          <->	          CHEN_FD_TG_SUM.result
=============================================================================================================== 

LARREA_VANILLA_FD_TG_SUM.result mean: 522533.35 
CHEN_FD_TG_SUM.result mean: 77321.22 

Observed difference of two means: -445212.13 
0 out of 100000 experiments had a difference of two means less than or equal to -445212.13.
The chance of getting a difference of two means less than or equal to -445212.13 is 0.0.

=============================================================================================================== 
LARREA_EPOCH_FD_TG_SUM.result	          <->	          AGUILERA_FD_TG_SUM.result
=============================================================================================================== 

LARREA_EPOCH_FD_TG_SUM.result mean: 522366.68 
AGUILERA_FD_TG_SUM.result mean: 390270.63 

Observed difference of two means: -132096.05 
0 out of 100000 experiments had a difference of two means less than or equal to -132096.05.
The chance of getting a difference of two means less than or equal to -132096.05 is 0.0.

=============================================================================================================== 
LARREA_EPOCH_FD_TG_SUM.result	          <->	          CHEN_FD_TG_SUM.result
=============================================================================================================== 

LARREA_EPOCH_FD_TG_SUM.result mean: 522366.68 
CHEN_FD_TG_SUM.result mean: 77321.22 

Observed difference of two means: -445045.47 
0 out of 100000 experiments had a difference of two means less than or equal to -445045.47.
The chance of getting a difference of two means less than or equal to -445045.47 is 0.0.

=============================================================================================================== 
AGUILERA_FD_TG_SUM.result	          <->	          CHEN_FD_TG_SUM.result
=============================================================================================================== 

AGUILERA_FD_TG_SUM.result mean: 390270.63 
CHEN_FD_TG_SUM.result mean: 77321.22 

Observed difference of two means: -312949.42 
0 out of 100000 experiments had a difference of two means less than or equal to -312949.42.
The chance of getting a difference of two means less than or equal to -312949.42 is 0.0.

