100000
2325
750
4125
100000
8925
1725
100000
3900
75
1725
9900
2250
9375
6300
3000
225
5475
100000
3825
2100
8925
3375
100000
6825
3600
100000
8100
100000
75
100000
9675
2250
2475
75
100000
4800
100000
8250
1800
100000
75
10150
100000
100000
1575
100000
75
8850
7950
100000
825
1725
7125
975
3150
6825
100000
4575
100000
5400
100000
100000
6900
4725
100000
3450
1050
7425
9000
100000
1500
10150
100000
7050
750
1275
9450
450
3000
2025
5925
2625
75
1575
1500
1725
750
825
1650
7125
6675
3300
6825
9600
1875
4350
2100
100000
6225
8700
9900
4425
1350
1350
300
3075
6525
1275
1650
100000
1650
7800
6825
75
6600
1725
100000
1725
1800
5100
2325
4950
975
4050
6900
75
375
600
2025
6825
6225
4125
450
900
900
75
8325
4725
75
8025
100000
5400
8700
225
900
75
750
525
1500
5925
4650
825
3300
75
1050
825
4125
3225
75
5850
1200
1800
1950
2400
1350
2700
75
3225
150
5925
100000
2100
1125
1350
3450
225
525
75
4125
750
1050
75
4125
1425
2400
1200
4500
3000
225
2925
3300
8550
5700
450
75
1950
4500
450
75
9750
100000
10150
1275
100000
1950
3225
6150
4050
300
450
3225
600
1050
1125
75
3150
100000
6825
5100
3825
2925
5925
5625
7200
5325
4725
1800
3450
75
100000
75
6600
1500
9525
4425
900
2100
1200
5325
2100
100000
1350
6825
1950
1500
3600
2700
225
8100
1650
3525
3825
1725
2025
2325
100000
5550
375
300
100000
8700
1275
2475
600
1200
1725
1800
2775
6000
750
1575
1575
7500
975
1125
100000
525
5850
6150
900
4350
7725
375
100000
375
75
5400
1200
1050
1950
2850
4050
750
6150
100000
3900
5475
5850
100000
8400
1875
750
1200
7200
2475
825
8625
3525
825
100000
3225
1125
1200
1275
2325
3975
3150
4275
2925
2550
225
2925
1500
5700
750
8025
825
300
4725
3600
1500
75
3150
100000
4650
975
225
1200
6150
450
5550
3975
675
2925
5925
3000
9600
100000
2475
7350
750
525
75
5775
225
75
2325
5025
2325
2475
100000
4275
750
100000
75
100000
525
1050
3000
300
4125
2850
600
4425
1800
225
675
600
2025
75
675
4650
825
1350
1500
450
300
2700
2250
3525
525
3525
600
3825
2475
75
225
975
4125
675
2400
8325
450
1650
75
1800
6825
825
450
75
2850
1200
2100
4350
6900
300
100000
300
75
100000
7650
2475
75
1050
300
3225
150
3300
2250
3000
1875
100000
3900
75
2625
4425
75
6900
75
375
8625
900
3750
1425
75
675
825
10150
450
6825
3075
2925
100000
225
1800
4275
825
8775
2025
225
3600
7275
2925
6000
6525
5475
6225
3300
75
100000
100000
7650
2250
900
1875
75
3450
300
2025
450
75
3600
300
8775
5475
5400
2925
100000
2250
225
100000
2700
4125
9750
600
4350
3150
2175
2100
100000
75
3825
100000
75
225
1050
5475
6975
300
1425
100000
5025
100000
825
3750
1425
1350
525
4875
2700
6000
3600
825
225
6600
100000
100000
100000
6600
100000
8175
3525
75
100000
8400
3525
6900
100000
100000
6525
4125
1050
225
6900
7575
6150
100000
100000
100000
300
4050
1950
225
100000
8100
6450
100000
9675
3525
825
3375
9225
1425
225
3450
4125
5025
100000
100000
9000
3300
9075
1425
100000
8025
6225
2700
100000
1425
6750
3525
450
100000
5850
6675
6075
300
1425
100000
4875
300
8625
9975
75
5325
100000
300
8550
100000
4950
100000
375
525
6825
300
600
5100
525
600
75
2100
1050
2025
3450
75
375
900
225
225
2250
75
3525
225
2400
525
300
2850
600
1425
300
3525
2850
225
900
1425
75
1425
4500
2250
900
1800
1425
5850
2175
300
2400
75
4050
3300
900
4425
3750
1725
300
75
6000
225
1725
225
300
225
1200
3150
1200
4425
4650
1350
2250
1800
1500
600
750
75
1500
600
300
825
525
3225
750
3450
5550
3825
2850
3225
600
4650
750
75
825
6825
750
3600
75
1500
2625
75
1800
300
825
100000
1650
2100
9675
450
300
75
1050
4875
2550
2250
4575
1425
2100
750
3000
75
2250
825
1050
750
4725
75
2400
1125
3450
750
75
1800
1725
225
4875
1125
225
75
5400
750
1725
2100
75
2700
1125
4650
1800
1350
2925
2325
2625
3225
1200
2025
1500
75
900
4425
300
2700
75
100000
225
1950
225
75
1350
1050
1275
2175
1200
75
1650
2025
2400
75
825
6225
525
525
1500
4200
1950
5250
2325
900
2625
8325
300
4725
900
2100
2025
4275
225
525
600
225
2925
2550
5625
375
1050
900
75
3150
1350
3150
1125
450
525
4275
6150
1125
1125
225
1050
2025
1500
1275
1125
75
3525
4350
1950
3900
750
75
300
1425
1125
150
1200
1050
75
225
1725
300
75
1050
2325
300
2925
2100
1125
1425
600
1125
1500
900
225
75
3525
1425
3375
2625
300
75
4575
1950
2025
3225
2775
2550
1200
450
3000
600
100000
1950
1500
450
3300
300
600
600
2100
3450
1650
6450
75
300
2925
1050
3225
450
225
450
8025
1050
5250
1500
75
1425
450
5400
2025
1425
6675
225
1050
900
1950
100000
1200
4650
1725
225
3225
6150
100000
100000
100000
100000
7950
4875
9750
600
675
3825
2175
5175
1575
2625
4800
100000
75
1800
1275
100000
450
5400
100000
2100
75
975
2775
4950
3750
5250
4050
1275
4875
100000
2400
100000
75
225
300
100000
4725
100000
1500
975
375
375
75
1125
375
450
300
7125
4200
7200
150
4425
75
7050
825
4725
1950
2700
1275
525
100000
1200
7050
8400
2700
8025
525
3525
100000
525
900
75
5925
5475
6225
300
2550
6450
75
1500
8325
100000
450
1425
300
7425
3450
300
1125
100000
1575
75
100000
5850
600
100000
825
2250
4350
75
1200
75
150
4350
2250
5100
100000
450
1200
7275
100000
6300
3375
600
75
2325
100000
75
1275
75
750
100000
7125
75
6675
75
4050
9525
100000
450
1125
75
9375
6225
8925
9375
2850
100000
100000
100000
7725
6225
600
100000
100000
1725
7125
8400
300
1650
100000
5925
375
8625
3675
100000
1500
3075
100000
100000
75
100000
3450
6750
900
100000
100000
100000
3150
8175
100000
2025
7950
100000
3900
4650
100000
750
100000
100000
100000
600
7350
1800
100000
100000
1050
2925
3900
525
300
675
8100
4800
1725
1125
1425
900
75
1650
9000
1425
1350
6450
6525
525
1275
75
2550
100000
1875
3375
2400
450
6225
4050
6600
225
825
750
2400
100000
5625
10150
2175
1125
1950
6375
1425
3150
900
1200
2325
75
5850
2175
100000
8850
100000
3450
1200
1800
4875
9450
2400
1800
825
3600
2775
750
2550
75
1950
9000
2325
2175
450
5925
75
6150
450
600
225
7425
1200
2250
1350
100000
8025
75
1275
825
1050
600
150
225
3750
900
6600
2325
5700
6450
1125
975
4800
2175
75
3000
3225
75
5250
6525
5925
2550
4800
1125
3975
1275
750
2250
100000
1500
4575
1350
3225
600
825
1800
3300
5250
9975
75
600
75
1125
5025
1125
525
900
2550
2400
450
900
75
600
150
225
300
225
75
825
100000
75
100000
1725
75
825
2400
1725
600
225
1350
900
2700
300
9225
2925
5250
750
75
600
600
3000
100000
375
900
6150
225
675
600
675
100000
300
1650
5250
75
75
100000
2250
525
2325
75
2250
600
5550
75
3000
2025
900
2925
4725
600
75
225
7500
1500
2400
900
1800
1350
3075
2850
2925
1500
3150
75
2850
1125
600
75
1800
225
300
2100
1050
300
75
1725
2550
300
75
2925
450
3450
1425
75
1500
450
75
3825
3600
2325
3450
2100
4050
1050
2475
3225
1200
2400
300
2100
3150
4575
75
3450
2025
3300
7725
525
8700
1125
5400
3300
225
450
75
825
1275
1650
1800
1500
225
2775
1950
2850
1800
7875
675
600
75
225
825
2400
1500
5400
75
1650
1950
3150
2250
4800
2025
2925
1800
4725
4800
525
300
3675
1950
75
1500
3750
75
2700
1575
525
7425
1950
3900
900
1200
900
2625
3450
3450
1650
75
375
450
3450
2100
300
1650
1950
3450
7725
3825
2700
3375
1050
3000
1500
4950
750
75
600
225
1200
225
525
75
1950
300
750
75
6900
6450
75
600
75
900
1800
2475
2625
225
4050
3600
9000
2100
1500
2700
3225
900
7125
2325
600
75
5025
300
3450
375
4800
3900
8100
3900
5850
900
375
450
750
1425
3900
375
2250
4425
4650
300
300
375
7050
3300
225
2700
7350
750
2550
1350
3525
1200
5325
1350
300
825
1350
525
375
225
1125
1500
825
225
600
825
225
7725
300
3525
1725
6900
1050
75
4950
75
375
2775
1200
1800
5100
5550
2700
4050
1500
3525
900
1500
600
3225
2250
150
2625
1125
75
2400
4425
2850
750
4950
1200
1425
3825
750
375
5175
750
1500
100000
2775
7425
2925
450
375
2550
4500
1050
4350
1725
75
8475
900
675
2325
1125
1200
1425
4500
1950
2400
1800
7425
1425
300
600
150
6300
2400
4800
3450
225
225
300
300
75
2550
300
1725
750
6900
3000
7575
2550
1725
450
1725
375
1500
3150
825
900
100000
1725
4500
450
4725
2100
600
75
150
900
1650
3975
375
75
4050
600
300
4200
900
100000
3225
5250
525
4950
900
2025
1350
675
3000
3225
2400
6750
1275
4500
1500
2775
8700
4350
3075
3450
100000
9600
825
4350
1425
75
1650
300
1125
4800
2700
8925
1950
4500
1350
1125
825
750
375
825
375
1200
450
750
1800
1800
3300
225
975
1275
1350
3225
2700
1500
3900
2325
900
525
7500
2325
975
300
2550
1050
2250
1950
225
4800
9225
1125
2325
2400
5100
6000
825
3225
3750
2400
7500
1425
1425
2550
300
2100
375
5025
7950
2025
825
1500
1425
450
450
3225
100000
3600
1125
7125
525
825
1650
2775
1500
750
750
225
1200
7125
2625
75
900
300
2175
75
3450
5250
300
3075
225
450
600
525
450
75
525
525
225
900
1875
1575
7200
4275
975
9300
825
525
75
1725
2250
300
1125
100000
9825
975
300
600
675
525
2250
225
1950
375
900
2400
450
1725
3600
100000
4575
2250
2175
300
100000
525
75
375
525
100000
6750
100000
5325
525
2325
3075
100000
100000
100000
225
750
1200
75
6750
100000
2925
5325
100000
100000
1650
4875
3000
100000
2025
1800
9900
3825
100000
5925
525
7125
4275
9450
100000
7725
100000
1425
100000
5100
100000
6525
100000
100000
525
225
150
100000
1500
100000
6750
100000
1050
100000
100000
8775
75
100000
6225
225
9750
1800
300
225
2025
2100
1125
100000
7200
7275
4575
1500
525
4275
100000
7275
100000
100000
3525
5325
3150
9825
75
2100
2925
7575
1875
100000
3375
225
6150
100000
75
2250
5250
100000
5325
75
5025
750
7800
100000
10150
6825
4425
100000
6000
100000
100000
900
525
75
2850
5400
1425
450
4350
1350
75
100000
100000
3300
75
3525
750
100000
3375
100000
1200
150
450
2625
100000
3600
100000
75
600
75
1725
825
2700
75
6375
6300
8025
100000
100000
2025
5700
75
3000
1950
1800
1200
100000
2775
7050
300
1425
6525
1200
1500
5325
5850
1500
7650
75
825
3300
2700
300
5625
3900
5475
75
8175
5250
6000
1125
5025
6600
8700
9375
5250
900
75
225
1275
100000
1800
3750
3300
75
4050
9300
1725
100000
75
100000
2025
5250
4275
3150
100000
525
9600
1950
1725
100000
1725
100000
7200
2175
3225
7425
2025
4425
100000
3675
6900
100000
75
525
225
1050
600
450
1050
375
1125
225
5250
8250
1650
2400
375
9750
225
2025
4875
75
1275
7500
3525
900
1050
450
5625
1425
5925
2550
8175
4350
4425
4350
75
2025
225
225
6000
4950
100000
7800
100000
1050
3600
100000
3600
3825
300
3675
4425
1425
9000
75
3300
5400
4275
1500
75
3900
1050
1875
8925
975
4350
100000
1125
100000
2100
9675
6600
4800
4575
8100
100000
10150
825
3975
100000
525
2775
100000
100000
2625
100000
3000
6900
4575
525
300
100000
7050
4950
100000
2850
100000
2850
225
3825
1125
100000
75
100000
1275
1425
100000
6900
5325
1125
3450
100000
2025
4650
100000
825
3075
1650
1650
75
4575
2250
5925
75
9900
5025
7950
2175
7350
6000
10150
4950
75
100000
3750
75
8400
5175
100000
300
5850
100000
225
100000
3150
8025
100000
8400
300
100000
75
3225
750
3300
6525
9150
1425
3525
7500
3750
100000
100000
4950
2025
100000
100000
3750
8925
2850
4650
100000
5025
1050
100000
9075
100000
7050
5025
225
6450
6000
6900
100000
9000
2475
7200
3750
100000
2625
10150
100000
100000
75
7350
4725
100000
4650
675
7125
2400
7725
4500
3600
3900
525
525
450
600
4800
1500
100000
2100
100000
225
5550
7800
75
7275
100000
100000
3525
100000
5700
1275
7050
4350
75
100000
3375
675
2100
750
6600
900
4275
5250
1725
75
2850
7800
100000
75
100000
7725
2550
3900
8550
7425
7950
3300
100000
900
100000
450
100000
3075
7200
100000
1800
100000
7200
450
2175
5625
8850
2400
2475
100000
3900
100000
750
600
6675
525
7350
75
100000
3150
75
100000
100000
375
225
75
1050
900
300
675
6000
1725
100000
100000
450
75
1800
3975
375
100000
300
225
300
1050
4350
75
2775
225
2400
1200
9525
8100
5550
9300
9900
675
300
4650
1650
6000
100000
75
5400
375
1650
525
8850
9525
1125
100000
100000
100000
100000
2625
1500
100000
3000
3900
100000
300
100000
100000
100000
8175
3825
10150
2550
100000
3150
2400
75
2325
100000
1050
1275
2925
100000
4350
100000
1350
100000
100000
900
100000
100000
100000
2700
2775
100000
300
1800
525
100000
100000
5325
3375
6150
3750
75
825
100000
600
100000
3075
75
5250
100000
100000
1050
75
3450
1350
1275
100000
100000
8475
375
1125
100000
450
600
100000
75
1725
1425
900
1125
1050
1425
825
3300
450
300
1500
2100
750
1500
600
5700
1500
7050
4500
450
600
1125
3600
100000
525
100000
600
825
7350
75
3000
225
2025
5625
75
1725
525
1125
2025
6075
675
3000
1050
750
1500
225
1200
4800
4425
600
1050
825
75
1125
750
1500
75
825
1425
675
2625
75
2625
1050
75
5325
375
1425
300
975
2925
1350
1125
750
375
2025
5100
2250
525
225
825
750
2025
1200
75
1500
300
600
975
300
1200
675
1500
4500
1500
825
2175
75
5025
2775
675
3600
1650
2925
600
75
5475
750
750
825
75
3450
1575
1125
1200
225
3825
300
1125
4500
1950
3000
4950
1200
600
75
225
825
975
8175
2625
4050
5325
75
2250
5100
1350
1125
825
1200
6225
3600
675
225
1125
750
1350
5400
3300
6375
1875
2025
4200
75
825
225
1050
2325
675
1200
450
900
75
1500
3150
2025
1800
1500
5700
750
825
1950
75
2700
3600
3450
1650
900
2700
3000
6075
300
375
75
7425
1950
300
375
2475
5325
4950
2400
900
450
1650
2700
900
1200
450
3000
1350
5175
1125
2175
1725
3525
3825
3300
450
4350
2100
825
1050
1575
75
225
675
600
825
5325
1200
3825
1875
450
75
8100
1500
2400
5400
75
3000
1050
1950
7725
2625
300
4575
5625
1050
750
7725
75
525
3150
675
225
750
75
900
2025
3075
4650
9600
675
600
2700
1050
525
900
2850
1725
1425
225
900
1875
2475
100000
1950
300
1425
600
1125
5850
825
3600
1650
1275
4350
225
450
450
1050
900
1725
825
600
6225
1050
750
300
2700
2025
1125
1050
1350
2325
1950
5775
2250
75
750
2550
4275
1275
600
600
300
75
1500
75
225
900
825
2325
2775
1200
6000
600
900
1200
75
375
825
825
900
2250
2550
1275
2025
1125
5100
4650
450
2700
1275
2025
75
1050
1650
225
1125
750
1350
600
300
75
2325
525
450
375
2250
1125
2400
675
1125
1425
2850
525
3450
1725
600
6525
825
2925
3450
3225
825
225
1575
2100
225
825
1650
75
1650
450
750
300
600
75
825
1125
525
2025
8325
900
1125
750
600
525
525
75
2925
375
1050
450
75
1650
600
1050
600
4050
450
525
1125
4050
300
750
5250
1800
1050
225
1050
2550
600
825
1725
2700
450
3600
2400
5100
750
225
225
600
1125
225
825
300
4800
1125
675
825
1650
225
450
2025
3450
300
4875
2625
4425
2625
300
600
900
1425
450
750
75
750
600
1125
300
450
75
4800
1425
75
825
675
2850
1725
825
525
4650
75
525
2325
750
525
300
3525
1950
600
1725
75
600
75
2400
900
1350
375
75
1125
225
1725
2775
1800
1500
4875
300
300
450
225
1350
1125
825
2850
3150
600
225
225
4125
1500
1425
525
75
225
75
3825
300
1950
300
75
900
75
375
300
1500
1050
2025
6300
4425
450
450
1050
2700
750
1200
825
1275
450
75
1350
75
1800
1800
1125
450
900
525
3450
75
525
1500
1500
75
450
6675
1350
225
300
1125
750
3450
1125
675
525
225
750
450
1050
1350
2400
4875
1050
6300
3225
75
225
1200
600
1800
1575
1800
225
75
825
600
1725
2700
375
225
225
1725
1725
1950
225
1050
1725
450
2325
1725
225
4800
300
2100
1800
600
6525
300
75
300
1275
1800
825
75
1950
1050
3000
1050
1500
600
825
2250
1725
225
525
1500
825
3300
1125
1500
1725
600
300
675
900
825
4650
1650
1125
3150
3225
75
825
75
600
75
300
1650
825
3600
600
75
750
2700
2925
600
1650
75
300
225
75
1350
4350
300
4500
1125
4875
1050
2850
825
75
450
900
450
375
3150
2325
225
450
375
825
225
1125
1500
450
1500
100000
150
2700
1350
1425
2400
450
3000
4725
450
375
1425
300
750
100000
1050
3150
1125
3450
100000
2925
2700
100000
5625
100000
7575
525
2550
75
1425
6825
4500
9450
75
100000
100000
825
975
5850
4950
6750
1050
2925
75
3150
100000
75
7200
75
100000
2775
100000
1125
5250
75
525
3900
2925
100000
100000
4725
3450
5925
225
4350
6900
1125
100000
100000
3600
600
8850
100000
7350
6525
225
525
100000
1575
7950
5175
3975
225
1350
375
225
2250
450
975
5550
75
3525
9750
2400
2550
9225
1125
3075
5025
100000
100000
1575
1500
100000
75
900
9600
100000
1800
7725
1725
525
225
100000
6750
225
225
6150
3900
1500
4425
2475
300
1050
375
2850
3750
525
525
1950
4500
1125
1425
975
4050
1200
525
525
900
525
75
3450
75
675
1425
2175
375
2775
1425
825
750
300
3600
600
2400
1425
1125
2025
75
600
525
300
375
1800
975
7125
1275
75
375
150
1125
75
525
1425
75
300
5850
3000
900
3300
5400
1125
2325
525
600
5175
75
300
525
3300
2850
600
450
2475
1950
600
300
3150
300
1500
600
2175
300
75
375
3750
3000
825
300
1275
1650
825
1275
3300
100000
525
75
2325
6900
8700
600
1350
300
525
6300
225
1800
375
75
5400
150
1425
6225
1800
1725
1050
75
225
1125
450
675
825
900
300
3150
900
600
2400
2025
4725
1125
375
4725
1875
75
1125
975
75
1350
225
5475
825
1500
375
375
300
600
1125
75
525
900
1425
825
75
600
450
900
75
450
975
1575
225
375
300
900
4425
225
5700
1500
825
375
1350
225
1500
1875
525
2850
300
525
525
450
7350
300
75
525
2925
450
750
1950
1125
2775
75
1425
2625
825
4950
1725
2400
75
1050
375
75
2475
1050
1725
2025
975
3150
2325
3600
75
1425
225
525
825
525
225
1350
1125
300
300
375
1875
1050
675
525
3750
1200
1725
300
3300
300
6075
3375
75
2175
2025
75
600
75
750
225
525
4875
1425
825
225
825
900
3675
825
75
1725
2625
2175
2700
1125
1725
75
600
75
225
1050
1350
525
2250
1800
4050
2325
825
300
2775
525
3300
2325
3975
7200
1125
75
6225
600
1500
525
225
75
1800
75
825
525
1125
1425
300
2550
4500
150
75
1200
600
2025
2175
75
1125
3225
300
1500
75
300
75
450
1875
75
5175
1725
2100
75
3450
300
1650
450
2100
3900
225
75
1200
225
3075
900
75
675
2775
1500
975
75
675
1275
1575
300
3225
2550
3225
1425
5400
825
2775
1800
1050
75
1725
750
2325
300
4500
1425
100000
9225
100000
100000
100000
100000
100000
100000
100000
100000
100000
2325
150
750
225
8100
5550
100000
1650
7500
5625
100000
8925
225
2625
100000
100000
75
5550
3375
2850
3600
3825
1125
100000
300
900
375
225
100000
750
3900
4650
750
8025
3600
9975
375
225
300
100000
1200
3150
7275
100000
4350
100000
100000
100000
2475
2625
5700
1800
8100
100000
100000
600
100000
2625
300
450
100000
5700
900
100000
225
2625
100000
4350
100000
100000
450
675
8775
1875
5325
225
7650
75
1350
100000
1500
375
300
9075
75
100000
300
750
100000
1575
900
100000
100000
5400
5325
100000
75
7875
1425
75
6525
8925
100000
6600
8250
7200
300
100000
2175
100000
9900
1350
100000
5400
4800
4425
2700
8475
3450
75
100000
5925
100000
75
7575
75
2100
100000
1500
75
7650
100000
5025
2625
100000
150
75
225
1125
300
150
1800
300
4650
2625
675
6075
4125
1200
2625
1425
375
1350
1200
825
100000
300
75
225
900
600
1575
3825
1500
900
1800
1125
1200
1650
1425
2025
75
4875
75
300
225
300
3075
4200
525
2325
825
1725
3825
4350
3075
1350
1125
3750
1500
5100
600
225
300
225
3825
525
3150
300
825
825
75
375
300
525
3300
225
2925
3825
1050
2550
5775
2250
1500
6450
75
7725
3825
7050
1650
525
3525
900
1650
1275
825
75
1725
300
2400
2250
300
3525
2625
4200
75
900
75
3225
4050
75
9450
525
225
3600
75
675
2325
2475
1575
2100
525
2550
600
1350
375
2925
100000
3300
2175
1125
1425
3750
75
4275
1950
2850
300
1200
1200
750
900
3900
1500
2100
1125
2100
2250
3150
5100
375
5925
900
2700
75
225
3300
3000
375
3525
2325
2175
75
2175
75
375
1650
75
1275
4650
75
975
100000
2925
75
2700
4125
75
3075
75
2700
3750
3300
3525
6000
2025
3300
75
3600
525
1275
2850
1725
75
2625
825
2850
3000
1950
75
3600
8100
3825
2025
600
75
3375
225
750
3750
75
1950
825
3150
1500
1200
1650
4950
4800
3300
1350
525
300
5025
75
825
2250
1650
525
4050
525
4125
2550
2025
1275
2775
1425
75
1950
300
3600
300
750
525
2850
300
8325
5100
225
10150
450
225
3000
4575
975
75
1500
5025
300
7500
1200
1350
600
1350
75
4125
3150
75
5325
5325
5175
3000
675
1950
75
100000
100000
75
100000
1800
750
375
100000
100000
2025
1050
10150
4050
100000
225
100000
675
450
1200
3825
75
600
5025
525
100000
5025
100000
100000
100000
1125
300
75
2850
5850
375
825
5625
1650
5475
1650
3675
2250
100000
2400
5925
4725
750
3300
100000
2100
75
3675
5325
8100
100000
9450
5400
5325
75
3600
6375
4950
4500
4725
2175
75
4125
3675
100000
100000
100000
4425
100000
75
1650
300
6525
600
9600
750
100000
75
6525
525
100000
2850
3825
3450
4950
3375
100000
6225
100000
3150
2400
2850
450
900
525
4725
300
525
2325
5250
5400
4125
525
1875
525
5925
100000
3525
3000
4050
900
225
3000
8700
100000
3825
2550
4950
100000
3600
1800
900
525
3300
1275
600
300
225
1350
3750
1125
525
1125
8925
1950
2850
5700
1425
1200
2775
450
450
1200
5400
5550
1500
2025
6525
1800
75
3525
75
450
1725
5625
825
3000
525
100000
225
1725
1725
2475
4425
1425
9450
4800
2175
1050
300
600
3150
750
9900
300
100000
100000
100000
2700
3450
4800
750
225
3450
100000
3675
2025
900
2250
75
4050
2100
1200
975
100000
8850
1425
100000
2400
5850
450
1200
5550
1800
3000
7350
100000
450
5025
600
1725
7650
1050
2175
5850
825
2550
1650
5325
2850
8550
225
2325
2400
8925
2325
825
2325
1125
7050
525
600
1200
1650
1725
300
825
1725
4500
9300
75
100000
2100
1350
2700
4425
825
3750
4950
1125
100000
75
2250
525
1425
1875
3975
7500
4050
525
975
1275
3525
100000
1200
2475
1200
1050
450
825
100000
1500
2100
75
1425
300
1125
100000
3375
1200
75
3975
3375
2700
1425
600
2625
1725
3150
5700
3525
100000
5400
3075
1800
7425
825
825
3675
1875
225
3675
7425
600
100000
2850
600
2325
1650
300
750
1575
7125
4725
4950
3375
7800
600
3150
2700
75
8100
2250
75
4575
3825
1050
100000
75
6150
1350
450
5400
1725
825
2100
100000
1125
1050
9525
3000
7650
2400
225
1275
1950
900
2550
100000
2475
75
300
4650
2175
1125
2925
8325
3375
1575
1875
4575
525
900
75
100000
2025
450
1125
3000
5850
100000
3000
1950
450
75
5325
2325
6000
2250
1800
900
9750
75
5100
900
2175
1125
225
1050
1350
75
2100
900
7425
2925
600
825
450
2400
3750
225
75
300
4200
7425
375
1950
4125
75
225
4050
75
3975
225
975
2550
300
1725
750
975
1875
600
6600
2925
4575
7050
2550
75
600
1875
300
1050
2700
75
150
75
9525
2625
225
900
825
225
3825
9225
100000
5850
1350
1350
2100
4950
1125
75
1575
1350
1800
5925
750
225
5850
2325
75
3150
2925
2025
2325
4200
5550
1125
2550
1125
600
600
3075
825
8625
100000
3600
525
525
5400
1650
300
8475
525
750
525
675
100000
300
6975
75
3450
5100
1125
5325
100000
900
100000
225
225
1200
5925
4500
375
4725
2400
225
525
8775
4200
225
3600
3000
100000
4425
5025
675
975
450
225
4200
450
100000
900
75
2550
6750
4725
2025
750
100000
3225
9450
4050
75
900
2250
1875
450
4350
2100
750
3150
7650
1650
3525
1425
6750
900
825
8700
600
600
450
5625
750
3750
7425
1125
75
825
1350
1425
2550
100000
1500
3750
300
2700
3300
3300
100000
600
2550
1650
3525
975
3525
300
4500
2925
5700
4350
5925
2025
8850
675
1200
750
2625
7200
225
225
4050
825
450
8550
300
1800
300
100000
1725
6825
1650
225
225
2400
4650
750
4425
100000
1800
2100
600
100000
1275
750
75
3450
75
750
600
1275
1950
3525
75
750
3300
450
9600
3825
2250
3150
1425
4725
6300
75
1950
300
1425
825
225
300
6150
3525
3525
75
1275
7500
75
900
600
2925
1200
1425
225
1425
1500
1500
4575
375
6600
300
1725
5925
225
3525
2325
900
975
1800
975
675
600
3300
2325
450
1050
4800
75
4950
1575
225
75
300
1725
75
1725
450
2025
6450
75
375
375
1500
2475
3600
1350
600
750
2100
100000
1725
375
3000
75
600
4050
3600
900
2025
75
300
100000
3450
225
7350
1200
1800
2925
600
600
300
525
150
375
1725
4575
8700
100000
600
100000
75
1125
5625
900
975
1500
1050
1650
525
3150
2325
525
100000
3750
1725
150
75
2625
1500
75
100000
75
750
225
450
375
2775
4275
1575
225
600
9750
100000
2550
600
2400
375
1875
4125
450
3300
2925
4050
4650
7275
600
450
975
2850
525
6300
600
225
75
1950
2100
3075
2025
1050
2025
1650
3600
5850
1425
1125
1050
2775
3150
2400
75
300
2700
2100
7425
2700
2700
6225
3225
525
75
675
3675
2550
1500
600
1650
75
300
525
75
2850
3000
3525
3825
100000
450
3750
6075
1500
300
4125
6675
4050
6900
1950
1200
825
3300
825
675
1050
75
1200
825
225
75
2025
2100
9000
900
5100
3675
3675
1875
100000
750
2625
1425
300
75
10150
8925
675
525
1125
2925
1125
4050
3150
3675
1125
9300
3675
600
1575
4050
1500
2850
6450
3525
100000
1200
8400
7950
75
2175
6600
2025
600
300
900
300
750
300
2025
8625
2250
75
2400
450
75
825
7275
4875
4800
100000
300
4800
375
75
4125
2025
75
3600
100000
6600
5550
5025
2025
3525
75
900
3375
4425
1950
600
3825
3975
6900
825
3150
300
3975
1800
8925
3075
3000
3675
4800
2025
4125
100000
1875
5100
6375
2925
100000
2325
5025
1725
7800
3900
6225
7950
300
1800
1650
75
8850
75
750
300
450
1125
2400
2100
6300
75
100000
1725
7500
75
7125
225
1500
300
1575
100000
8925
100000
1950
100000
100000
4425
1425
100000
3225
3225
100000
2250
3075
75
450
100000
1725
3075
6300
5850
100000
900
100000
7650
6525
900
100000
100000
100000
300
1575
2550
100000
300
6300
7125
2400
75
6975
1650
100000
100000
1875
3825
2850
7725
2775
100000
600
3750
1725
300
5775
2850
100000
375
6750
1500
4800
525
8625
225
150
825
300
300
7650
750
300
525
8850
2400
100000
3150
525
6900
900
75
525
450
225
100000
100000
4425
1650
1125
1200
2025
2325
4425
75
100000
1200
100000
3750
1500
100000
450
600
600
750
2175
300
1725
6900
450
1575
600
9750
2700
300
900
225
300
75
1200
1800
75
2175
1650
1125
100000
2850
975
5550
2625
2475
75
100000
750
2925
1725
2775
5175
2100
2700
4950
100000
100000
7275
2700
2025
525
100000
2925
2325
300
300
975
1725
750
8025
3375
8325
900
1125
9375
100000
300
100000
75
4575
1425
5250
4425
6525
975
5550
9150
7425
6975
100000
1500
975
3600
75
1575
100000
100000
6900
100000
5100
5775
5175
375
100000
5550
9375
1500
100000
100000
8400
525
75
6750
100000
100000
2700
300
1200
4200
900
8250
6075
100000
75
1425
100000
225
100000
2775
900
600
375
450
225
225
450
600
8700
9075
5325
450
100000
100000
8175
8175
100000
75
3525
5100
6150
100000
75
100000
3075
5700
3375
100000
150
1800
75
225
9750
75
7800
100000
900
100000
100000
100000
5475
8250
75
1125
5325
2475
9075
1650
5625
8550
2850
7800
2850
100000
2250
2100
7650
750
75
5850
75
2850
75
100000
100000
6225
2250
7275
2625
3450
225
4875
1650
6300
450
6300
900
100000
3000
675
100000
1800
225
1950
75
975
100000
4950
100000
825
9450
3750
100000
2625
3150
300
825
1650
4575
5250
100000
4800
5550
100000
75
1500
75
975
7650
100000
6525
375
6675
3225
7875
100000
100000
8775
9900
8550
100000
100000
1125
5400
1200
3825
8025
100000
100000
6075
75
100000
6000
5925
10150
1125
7425
8550
1125
3825
2025
9000
100000
100000
6450
75
6600
8925
75
100000
1200
75
300
825
3450
600
9975
3375
750
3000
100000
2100
75
100000
2325
100000
75
100000
1350
450
6150
100000
6900
1575
3225
600
8175
1050
600
300
1725
1125
1650
100000
1725
975
300
900
1350
6975
9825
8925
600
1125
3450
1800
4650
7200
100000
1650
100000
5025
825
100000
100000
100000
975
100000
100000
4350
2850
2175
100000
2475
5400
7800
100000
100000
4650
2400
4125
100000
3300
8775
2025
4500
100000
75
600
9000
100000
100000
3300
1050
1350
75
100000
100000
5700
900
100000
375
2700
3750
1725
2325
75
3975
225
9075
75
4650
7125
750
300
2550
225
1800
8700
9000
8850
4425
1500
7425
300
3900
1800
3900
4050
2550
3600
2550
600
100000
100000
750
1725
100000
3900
1125
4875
100000
525
100000
2625
100000
75
300
825
900
900
7725
100000
525
525
6600
1050
2700
4350
4725
4650
1500
525
1350
8775
75
6300
2325
3150
3600
100000
9450
525
5100
4350
2325
100000
300
100000
8925
300
750
1500
5025
3525
2550
300
450
9750
6000
100000
300
8625
7050
4650
7125
7350
100000
75
4200
1650
100000
225
8475
5400
2025
2550
100000
3450
10150
2775
4725
100000
7425
100000
3525
100000
1800
100000
1200
1725
300
7575
75
1650
100000
5025
6900
1125
9150
4425
100000
75
100000
4350
1425
675
2025
1875
9600
225
525
1650
100000
975
6975
5550
75
2850
7500
75
4275
4125
100000
2700
2850
75
2625
100000
375
150
825
75
1725
100000
100000
100000
450
1125
75
4125
75
3150
100000
825
5775
75
6450
2175
7125
1200
3150
75
100000
450
7725
2325
75
1725
4950
1950
3600
75
900
75
2325
825
3000
100000
825
9825
75
375
6675
100000
2475
4650
100000
100000
900
525
225
7500
100000
8400
5025
100000
825
100000
900
3600
9450
2625
1425
100000
300
7350
1425
9750
1500
3375
4350
100000
6450
100000
4425
3975
225
3225
100000
9450
2550
2925
5700
2325
7725
2625
1800
100000
525
4425
6375
7875
6450
2475
100000
100000
75
750
2025
100000
1575
3750
1425
100000
100000
1125
2250
2250
3975
5850
100000
100000
7200
5175
100000
100000
225
100000
3000
6000
100000
375
900
100000
100000
2100
3300
750
1575
100000
825
3750
3150
2775
1200
525
900
225
1350
6000
2025
1650
4575
9375
225
4200
525
1350
100000
6600
2325
825
4050
1125
100000
1650
1425
4500
4800
375
6525
3675
7200
2400
6525
1125
6300
825
3675
5475
1275
975
2850
3150
900
3900
9825
100000
8100
1650
1575
300
1800
300
225
600
1275
2700
300
825
2250
4950
1800
100000
6825
225
375
300
5100
1125
1950
2250
9225
2250
100000
2250
1650
1200
2100
300
100000
1275
5700
7800
3450
10150
7425
3450
600
3750
5925
600
7725
450
1725
4950
2550
8250
600
100000
825
7800
100000
2700
2025
8325
1650
100000
225
5775
6900
2175
1050
375
8025
1050
450
5100
5625
1500
3450
900
1650
825
300
1950
1725
825
7200
4725
3000
6750
750
3000
9900
4650
100000
2700
750
100000
4500
3675
2100
75
4650
300
100000
8850
6825
100000
5100
75
675
100000
4500
1500
2700
1875
9525
8475
825
1425
8700
1800
4350
750
1200
5700
225
2775
5625
100000
100000
100000
825
300
450
1875
2475
100000
525
3075
1050
5625
4425
6375
5925
1725
2925
100000
5850
750
2850
8325
4275
75
6450
2400
1500
2400
100000
1650
100000
4275
100000
675
1050
100000
5850
3525
1650
3900
100000
1350
750
100000
6300
750
10150
75
4050
7650
975
7650
2625
2250
100000
150
1050
300
225
5400
4800
825
7200
5175
3225
975
2925
75
2550
825
6600
2025
3000
900
8850
6600
600
3150
3150
5700
2700
1800
75
100000
4275
100000
3600
1800
2625
3150
1650
1950
3150
225
3150
525
75
450
2325
5625
100000
1050
975
75
3750
1050
1950
2025
525
1275
450
450
525
1950
3750
7200
5250
1725
2625
825
5400
1725
1125
75
750
450
9300
6675
4125
7500
100000
3825
6075
2325
8100
8325
1050
4500
3825
6300
9600
300
5850
2325
100000
300
525
6675
1200
3600
1650
6900
1425
75
1575
4800
2700
450
1725
100000
4575
2025
100000
1050
1050
2175
5925
5400
1050
5850
5325
75
2400
3525
3150
750
4800
1800
6825
2025
8850
1050
525
1425
5925
300
2775
2400
1575
100000
450
600
7275
3000
1125
4875
1800
300
75
2625
3450
3750
2250
5475
3825
825
600
750
1950
100000
2550
825
6150
450
375
750
100000
75
100000
2325
5625
100000
3750
3225
100000
75
825
450
8400
1050
1725
3300
900
225
3225
1050
600
1500
6825
3000
100000
100000
1200
5325
825
8100
100000
100000
2775
100000
100000
100000
225
100000
3750
5250
100000
100000
100000
75
3525
100000
7725
100000
4050
100000
75
3600
100000
1350
7350
75
3300
100000
7125
825
1275
900
2550
5475
100000
100000
7575
1725
100000
450
5100
100000
300
8850
100000
4950
5700
5925
4425
300
100000
9975
100000
100000
7500
75
10150
6975
6750
1425
300
100000
8475
5850
2325
100000
100000
75
1725
1200
75
9300
4650
100000
5250
4500
100000
600
100000
100000
100000
6975
5400
7350
8400
7275
4275
5775
3900
6150
3225
100000
9750
1725
100000
75
1125
100000
75
6600
675
9075
1875
3750
100000
100000
7725
9000
3525
75
4500
75
1425
900
75
6525
900
2775
100000
975
3600
100000
6225
100000
100000
100000
450
100000
9150
8100
75
6900
1800
100000
3450
5700
9900
100000
2325
3000
100000
7875
525
8100
9150
5625
7950
75
750
75
4725
450
6300
3525
4200
1800
100000
4125
100000
3525
3300
75
2700
3600
100000
100000
9750
75
10150
100000
4275
2325
100000
100000
1875
100000
100000
600
4350
100000
100000
2325
8400
100000
100000
4950
3000
7350
1725
100000
100000
6225
75
4275
8925
100000
6750
7575
6150
100000
100000
75
100000
100000
100000
75
7125
8400
525
75
525
1425
375
6600
1425
1500
1950
5775
100000
1275
2775
7800
4800
3000
2775
1800
3825
825
1200
1725
5775
3975
7500
300
3150
6750
1425
7125
100000
75
2400
5100
1350
3600
6300
4425
75
2025
100000
75
525
4800
1200
2850
4725
100000
3150
10150
675
100000
100000
3900
3450
4725
9825
100000
4200
2400
825
75
525
2475
1350
750
1125
5400
100000
75
7125
75
375
1575
300
600
1050
5850
5775
8100
75
1050
225
2250
825
600
8925
5850
75
6600
100000
3000
75
6225
2700
2100
6000
7500
825
675
100000
525
1425
75
225
100000
375
2025
100000
1950
9150
1500
100000
100000
1425
100000
2550
1350
825
5100
7800
6900
1350
1350
825
4500
1650
450
1575
4650
4350
75
2625
2025
10150
2025
1275
75
2550
3225
6000
4500
375
2400
100000
100000
75
100000
1125
100000
4800
225
4800
7125
3300
300
100000
100000
1650
7500
7125
10150
100000
2025
100000
75
7650
100000
100000
100000
1050
6525
100000
8550
525
7575
600
100000
100000
8325
100000
8400
100000
10150
900
450
100000
8625
3150
1800
100000
75
1425
1425
100000
7500
100000
1650
100000
75
7125
100000
1800
100000
3600
2400
100000
100000
150
75
2550
2700
825
2925
7200
1725
825
300
1350
2025
750
600
1800
2325
1200
4200
2475
4725
3600
1950
900
1125
975
2175
1950
3000
100000
3525
2250
6525
225
2325
4125
825
4725
2025
450
2550
2025
900
1350
6825
900
300
75
600
1350
4725
825
1800
1050
750
7200
4500
825
1800
2025
225
300
750
2850
225
900
2250
825
1200
300
5625
3525
3000
825
225
225
1650
4200
7725
900
4125
525
825
1725
2250
5850
4050
3150
300
450
2400
750
4800
1350
2700
5025
1650
825
5250
1200
825
2550
1950
2250
5625
1050
2025
3150
5400
1050
2700
4575
75
3000
2700
1500
525
1725
525
1500
7950
3300
5100
75
300
600
375
900
2250
225
225
100000
1200
5700
2925
1125
300
825
2625
300
4800
1125
750
4200
5025
2550
4200
1500
600
1425
1050
3150
1500
600
2625
4650
100000
450
300
1125
2025
1650
2625
2025
300
900
6225
4125
300
4650
225
450
2925
3300
100000
3225
675
2550
1425
2325
7725
750
1650
6150
375
300
3450
225
3000
1725
2550
300
3300
3000
4350
2325
2700
2025
4200
4200
4200
1050
900
900
1725
2025
4950
3825
525
300
2025
4125
2250
3075
225
1275
2925
5850
900
1425
1200
6150
4200
1950
600
2100
1200
1500
2100
1800
7350
1875
2625
2100
100000
1650
1200
825
2925
2025
6450
1950
5550
450
5700
3750
3150
900
1350
3900
825
100000
5100
2625
1500
4200
4125
3450
4350
1950
9900
8850
4125
1800
1650
9525
600
4425
1950
1650
975
75
1125
300
1050
900
750
2325
2850
2400
1800
5025
1800
2550
2025
675
75
675
75
900
7500
75
225
100000
750
1125
3300
1050
75
450
7350
1500
9000
5325
8700
2025
5325
3300
75
3450
300
525
5775
100000
6900
2025
3150
1125
2100
6600
75
2025
2400
2325
600
7500
2925
2700
825
3300
75
2400
1725
900
6825
4800
3525
2100
4125
75
2100
1275
8550
300
75
9525
2250
3000
75
2550
9375
5475
75
2850
7050
750
750
75
100000
525
3525
1200
4200
2925
8775
2325
2625
2700
3750
100000
1650
450
6900
3225
975
750
525
1575
450
4650
975
1800
525
75
2250
525
75
100000
225
8325
3600
5325
7500
2475
6300
1050
2925
5175
300
1350
1650
1350
3150
2925
1875
525
5400
450
2325
1725
4425
525
825
600
4500
1425
7425
3150
4425
225
2400
825
1050
300
4425
450
100000
4800
100000
5700
1350
75
100000
100000
2475
100000
9975
4875
4500
3300
525
4950
1950
375
6450
975
3600
8925
100000
7875
5850
4425
1875
8850
8925
7425
5925
2100
1800
100000
1200
100000
3900
6750
975
100000
1500
100000
100000
3750
225
100000
1275
75
300
3600
3825
1500
100000
2400
3525
100000
225
75
100000
3975
100000
375
2175
7125
1275
1125
100000
6600
100000
4350
2400
2625
3600
2025
100000
5700
1725
7725
75
1500
600
100000
1800
1125
100000
100000
8400
2700
3750
2775
100000
1800
6300
9075
100000
225
1200
100000
100000
5100
6075
5925
100000
750
7650
100000
100000
5175
100000
100000
300
4500
900
300
75
100000
100000
1725
7950
2325
1350
100000
8700
8400
100000
6900
3150
100000
4125
6525
100000
100000
100000
2550
1725
8250
100000
2325
4425
100000
100000
4425
7125
100000
7800
75
3525
6075
3000
3000
525
5325
1725
7125
900
6000
100000
1725
75
225
8775
225
8250
100000
3225
2400
3300
5250
2850
2550
75
525
2625
4425
75
300
75
1725
675
9300
3900
100000
8025
7650
100000
2025
1200
2025
3450
3225
7875
9750
75
3150
1350
100000
100000
8100
4725
3825
2025
5325
600
9825
75
375
75
100000
100000
3675
2925
6825
100000
1350
100000
1425
3600
4125
4875
900
100000
2100
4350
100000
75
1950
3525
225
825
450
6375
225
7125
100000
6825
1350
600
2475
100000
1575
7275
2475
10150
5100
100000
100000
100000
5100
600
750
75
3900
300
5550
375
2925
3450
3900
1500
300
100000
3450
1725
1125
2550
6600
75
1950
100000
300
3300
2550
2100
3750
600
5700
300
1350
225
4425
2925
2025
100000
1725
100000
2925
4125
2400
100000
3450
3525
100000
5325
1650
2925
2625
5325
2850
4650
1350
1050
1950
75
4275
825
2925
9675
4650
5550
600
900
1950
1200
225
1050
1200
2700
1425
2025
225
75
2400
4800
5475
225
2100
900
4500
7050
525
2700
2025
75
5175
450
1425
75
1500
9225
825
825
825
3375
600
525
4350
9000
5550
3900
6150
225
600
6900
75
8100
1200
1350
3225
3825
1725
1425
75
5175
9900
6600
3900
6000
2475
9000
375
150
1050
1575
3150
525
750
6150
675
3000
3975
5700
225
1575
300
8550
825
7050
6600
75
2100
225
825
4500
450
450
1725
100000
8850
100000
75
2025
1950
3525
450
2025
6825
2175
1950
3225
4800
7725
750
1500
2250
100000
1800
225
2850
3000
100000
1575
2250
3000
2925
3825
600
3300
825
1125
750
375
3450
4725
2325
1800
3000
525
1800
3225
2025
1950
450
3150
75
600
4650
975
2625
1875
525
1350
450
75
1350
1425
1800
1650
450
300
1275
2250
3525
3300
825
1650
600
8925
4800
225
150
1200
525
75
1950
300
675
750
1500
525
1575
5475
300
675
1050
1125
1800
1275
7425
600
2100
5625
75
1275
75
900
450
2025
825
300
5025
225
1500
300
1275
2175
6525
1350
2850
300
525
1425
975
5100
1200
1350
900
75
525
9525
9525
2475
2400
1200
1125
4650
825
7650
6225
525
2850
225
1425
1800
6300
600
1200
3525
825
1350
1650
7425
2925
225
1125
300
75
225
8175
75
6450
7125
2550
1275
1050
100000
75
750
3150
1425
450
4575
2250
900
1950
1350
75
900
300
1125
75
6900
75
1950
3450
3600
5925
4425
1200
600
450
6825
4875
1800
1350
900
2325
1950
3525
525
375
900
300
375
225
525
750
2250
1125
4800
4350
3900
4650
8025
1425
5250
75
2925
5550
2175
450
75
825
1200
375
75
2025
1725
450
2100
75
2325
3450
825
4800
75
2100
3675
2250
975
1800
600
1725
1125
2325
9150
4650
600
75
4425
3825
600
2250
525
2325
6225
675
2025
525
2250
1650
6300
5175
300
900
2250
1125
450
450
8700
4875
1125
1650
75
1125
525
525
4650
1725
75
2175
75
2700
525
2400
1950
1950
7500
675
1350
3450
300
675
75
2625
1125
2250
1725
300
2400
1050
75
825
75
675
75
4425
100000
4800
1200
100000
100000
7950
100000
1800
100000
4650
75
3225
6450
450
75
825
300
100000
75
3825
8325
100000
3225
100000
750
2325
4200
100000
525
5625
100000
4800
8325
9450
4350
3525
100000
100000
2100
1125
6900
5250
100000
8925
3225
450
100000
225
100000
6225
2325
1125
2850
750
525
5550
3375
300
225
5700
9450
975
100000
8325
1200
100000
100000
5175
100000
3450
100000
2700
100000
100000
600
75
4275
300
100000
2175
100000
8325
4725
100000
6975
600
75
100000
75
1950
4650
7425
7125
100000
100000
100000
7125
100000
3525
5925
100000
9225
6825
100000
3150
9900
5700
5400
100000
3675
5625
2625
6300
825
100000
100000
100000
100000
75
100000
100000
3675
1725
8175
75
1875
2925
1050
100000
100000
1800
2100
4200
600
3300
1125
100000
75
3075
100000
7350
225
75
4200
75
100000
100000
9975
100000
3600
9450
100000
3075
750
225
600
75
225
75
1125
300
225
225
2625
2250
825
75
375
75
1425
75
1500
825
75
1350
525
225
450
225
2625
1425
2775
2850
2325
4425
75
450
1200
1125
450
975
1800
2250
75
5025
300
2775
225
2625
1800
75
1875
5250
1725
4350
3975
100000
1275
900
375
1050
525
600
5625
825
75
3825
1125
2325
2025
1650
1800
2625
75
4725
600
225
3075
75
225
2250
675
675
300
3150
2475
4800
75
600
300
2250
75
750
225
900
3150
2400
975
3825
3150
1425
225
225
1425
2325
825
750
600
1800
3300
1650
525
750
2325
1200
300
1725
1050
525
5550
150
525
825
4725
225
3450
225
1575
750
1800
3750
525
3300
75
975
825
525
1425
75
3150
1500
3975
5250
75
1275
2700
75
225
1725
825
2475
1125
5100
75
1200
1425
75
4200
1650
1500
300
2550
600
750
75
825
3675
3300
750
1425
5400
75
100000
825
225
300
3150
750
2100
1200
75
825
750
1200
75
2550
5400
1050
825
75
2400
225
2325
300
825
225
5625
7350
75
525
1800
1725
1950
2250
1050
4200
1350
1425
7800
2400
3450
5475
1725
900
75
450
2025
5700
75
300
1500
2325
600
525
450
1200
3450
750
3450
600
1200
75
750
75
300
2250
2925
600
1575
825
4425
75
3300
900
3525
3150
450
1050
525
1350
3225
3600
600
1500
1050
1500
300
1425
2625
900
2025
600
75
2250
825
1200
750
750
75
3450
75
2625
225
2475
1350
300
75
1050
225
1425
2100
4500
1500
900
75
975
375
2250
750
4650
75
1050
450
600
225
1200
75
225
2100
1125
75
2625
3600
1650
4425
300
2550
2025
825
3300
75
1575
1200
75
300
2850
2625
75
1650
2100
3675
600
1650
1425
5625
2100
1050
525
300
2250
450
900
1650
2700
225
1725
2550
2250
1425
375
600
2625
900
75
225
450
2400
675
2400
75
450
3225
300
1650
1500
3000
300
150
1050
3525
450
3975
225
3525
975
525
100000
750
6300
3375
900
1275
300
3525
3300
1950
825
2100
900
1050
2175
75
2475
900
675
375
300
3300
450
5625
750
3150
1425
225
5550
5700
1050
6750
225
975
600
300
225
2100
4800
1200
2850
1050
1650
2250
1950
2175
900
5625
825
1650
375
900
75
1200
3375
450
3225
750
1725
1800
450
300
6225
900
75
1425
600
2025
975
3975
4125
375
225
2100
2325
3450
450
2025
3825
2850
1125
525
1350
7200
225
975
225
1050
975
3075
1200
5100
300
1350
2475
1050
4350
300
3825
225
375
300
1950
600
1875
300
6075
1650
1950
975
375
450
675
600
1875
600
1050
225
600
5400
600
3450
1800
1650
4050
750
1200
3000
300
3675
1350
675
525
1425
9225
300
1125
8025
825
225
3450
825
825
225
1350
525
600
6000
2025
1200
4200
825
7125
1125
1050
225
2475
4350
3225
2700
1350
1125
300
4725
1425
2775
1200
525
375
6600
750
1050
3300
2025
75
1500
600
1050
75
1425
75
2175
1725
2325
900
6750
2475
2550
900
1650
1125
4725
525
7350
1500
75
1425
3225
2025
300
1650
300
2400
750
1050
4050
5250
825
2400
6150
5250
750
2325
2550
1350
525
300
1125
1725
3900
1500
600
2550
4800
900
2550
1950
300
1725
4575
1125
225
2325
600
2025
1425
4500
2850
1800
375
1200
225
375
225
750
1125
75
75
1950
1650
5850
7950
525
75
900
225
1725
1350
525
1500
1800
3750
4050
75
675
2325
4725
2550
600
225
225
2850
75
1275
3075
7875
300
3975
2850
3225
1350
1200
825
1425
9300
675
2175
225
600
225
600
1500
1275
525
2550
3150
900
1500
2400
3225
525
450
750
100000
7500
1575
100000
75
375
75
3075
5100
100000
3300
1650
75
7425
100000
2100
1500
7200
900
4200
375
825
2025
5100
7800
5025
6000
1575
3225
9525
75
6900
4050
3675
100000
100000
100000
100000
4575
1650
3300
75
100000
2700
3300
5400
100000
8175
75
3000
100000
2025
100000
100000
75
1950
5925
3750
100000
5475
5025
600
1200
100000
100000
375
6675
100000
450
100000
75
1500
3375
4800
2550
1425
100000
1575
450
2400
100000
7725
2175
75
1725
100000
3825
825
1950
6675
3825
900
600
4800
100000
4275
2775
6675
225
375
4125
1800
100000
6075
9750
6450
6300
9525
3975
4650
3825
600
8475
1275
1125
8175
7200
5400
8700
75
100000
4950
2775
525
5850
75
100000
3300
6450
6525
8025
100000
2400
5175
1575
100000
75
5325
4350
7425
6225
7050
3300
6000
225
5625
4500
75
100000
7725
9225
100000
100000
3825
1125
100000
100000
2025
3300
100000
900
3075
4650
1200
100000
100000
1950
100000
5775
450
7425
100000
7425
5625
1650
100000
1350
675
100000
6000
100000
3225
100000
1125
8250
6525
5625
2100
7500
5400
7425
300
8025
100000
825
5025
100000
1050
10150
5325
100000
750
9675
2400
450
1200
2175
1200
7725
4425
100000
6525
3000
5475
100000
3675
7800
600
5700
100000
6975
9300
100000
5325
1200
3150
1725
75
4050
7350
975
6900
9750
100000
6675
100000
100000
600
1500
100000
3450
100000
675
1800
100000
225
4800
6675
3300
7500
5850
5175
4800
2775
5775
3450
8025
100000
3300
5400
300
2625
300
9150
2925
100000
3600
5100
5100
9225
75
5700
2850
