29824
29822
29826
29806
29803
29831
29847
29852
29824
29820
29804
29821
29852
29815
29874
29818
29815
29825
29833
29804
29804
29813
29822
29800
29801
29814
29805
29871
29806
29842
29822
29822
29843
29819
29807
29813
29824
29807
29806
29821
29811
29838
29807
29820
29812
29809
29819
29817
29823
29822
29804
29809
29818
29870
29831
29837
29825
29820
29809
29827
