1631
600
2024
1000
2177
1322
1033
388
200
13
345
2910
3664
768
2347
251
2818
1598
5769
1581
1623
993
1379
2789
13
1156
3241
549
3559
1078
799
1151
1542
587
7764
2985
354
1397
31
4736
578
2767
363
1
400
1611
4596
2
3394
380
775
1565
1780
749
17
1221
3408
3552
4400
2584
5980
1358
2226
3825
2457
552
1553
3042
2763
1590
3380
346
3623
1624
456
13
1226
1967
1780
5401
5554
628
1387
393
1033
4973
1258
3021
12
636
596
1430
6
1230
596
1348
2257
400
3953
565
2374
1497
1459
3390
4
1317
17
1646
1132
382
581
1196
2945
1349
1545
2834
1987
347
3389
1953
422
707
1783
3743
831
3360
2972
978
368
38
556
3359
17
3788
1416
1228
3731
1234
597
206
176
1742
6974
579
1257
592
29
2575
4143
451
4
799
945
1573
13
598
636
578
2146
576
943
3864
242
613
395
1587
4741
1174
393
3365
2
373
1387
4591
2
1232
836
846
557
995
593
237
2236
2414
9394
3310
1767
2966
2395
2423
1574
5788
733
2206
769
1784
1220
553
1993
1134
3036
605
572
2003
4952
1696
5197
2039
820
2757
4554
1566
2369
2400
1183
3350
4964
1397
2813
1944
1958
976
13
797
786
612
1841
1826
4
2637
387
1225
1177
1373
1791
2185
1032
1141
996
3564
569
4197
1621
85
2995
426
568
1771
604
4041
1937
1990
1325
2247
3762
2591
1219
1347
833
7115
1826
1741
1364
1395
1235
1961
6141
591
1341
592
1794
3
477
2944
2369
1164
447
250
3783
4394
2043
4744
597
1957
628
514
4267
2263
4528
1362
624
368
2379
789
1516
387
541
1355
436
2154
4563
241
375
1890
590
749
4011
29872
1031
1079
2034
608
1003
3840
882
1231
390
797
391
2622
840
1
1412
3369
599
816
393
796
840
233
2051
1035
6372
763
2602
1815
693
2636
1996
1580
2980
1448
1388
427
242
1783
1787
1644
887
382
2015
797
1448
1074
823
1608
592
1007
1020
802
17
1639
647
386
359
635
1000
352
2238
5003
4640
1780
1613
1414
4781
1649
790
1181
3399
4637
441
633
1377
2791
640
1984
2233
402
358
2662
799
655
6
2193
3394
2478
1432
251
868
1431
616
2042
1199
409
1023
2397
1399
2836
2796
2041
16
2213
3697
1816
2614
3624
6
1007
1024
1639
574
1382
1277
2769
1
1585
795
370
235
1808
237
617
1617
1241
851
16
815
597
647
429
1198
2840
2806
1569
1813
1428
1811
3789
1034
1386
782
1247
2781
1391
772
2958
7
592
2623
374
4272
695
1213
255
1798
1573
2840
895
745
2635
842
1611
399
6814
883
773
2206
6627
174
1030
3023
836
789
240
799
1615
278
840
4098
1222
3
1202
585
693
677
11
2009
2838
223
969
1476
12
1007
399
1025
1654
756
1199
3020
243
793
1388
229
2854
8
659
33
982
436
1487
2028
968
1203
1591
816
2380
1813
5
1782
3175
1662
2841
1381
2066
1195
590
1398
487
583
6
776
756
3
2394
1395
8579
1373
2027
388
2204
773
409
3009
1181
2589
840
34
3402
1184
1005
373
354
616
2395
379
1222
6789
2425
221
380
3
2061
469
441
1788
1688
2034
1444
2032
416
3634
3844
34
3465
842
598
440
1035
820
219
3789
1024
766
4407
1198
841
277
799
1369
1463
1843
2223
3402
3028
1044
1169
6817
3389
637
690
1289
10
390
1057
626
270
367
1221
1605
40
408
1612
2420
231
454
1979
1038
653
2799
2856
5034
2855
1403
404
588
3703
2460
1668
4839
1184
610
1638
1106
2366
388
382
1035
433
3366
436
482
430
4036
2815
3
546
2
3258
1820
2020
608
5775
379
1210
2376
1992
373
1119
368
547
356
993
2194
2195
1
1407
1140
259
4326
551
618
3147
649
1928
11
1384
992
1600
8
1896
1014
2245
2
2332
630
238
1114
3951
1651
3158
2770
1002
359
352
549
1919
2857
530
608
2577
224
3768
637
371
413
1117
790
1622
951
610
837
396
1006
4396
5979
950
1
2333
1574
3518
1370
12
1838
363
2971
1168
856
425
572
6003
1221
4065
2354
30
1753
795
3
948
600
339
4366
2386
771
2130
797
13
1973
4562
1188
599
380
1806
3521
791
2390
2171
542
2217
2568
419
1114
620
2559
557
5190
1055
333
2217
964
811
6
2599
2138
2743
822
998
1421
225
2411
761
360
948
1391
17
1179
1767
613
3995
3366
1772
10
598
5142
839
531
583
1421
237
2573
436
3604
16
5117
388
1
1959
378
1016
247
930
399
394
3609
1139
943
1257
375
767
1190
6001
4397
1539
1026
1368
1775
1334
1796
1975
2211
765
3181
261
1793
1313
3713
798
1559
4357
433
2461
2127
198
1827
587
1733
631
450
2415
2782
7
1367
3527
9172
12
399
994
966
2457
903
2804
1036
1514
1
3743
1414
3624
548
428
997
819
999
5441
590
543
952
1409
741
5
4198
2594
2
1719
1242
581
2
5351
1146
25
2985
847
1614
1240
627
2193
977
2834
1154
383
2753
570
1
575
1206
13
786
940
507
3585
527
432
3353
1188
366
1032
569
12
1551
761
574
2837
2933
1194
764
984
15
2374
375
4413
1956
6414
1572
988
716
974
2124
820
2183
2587
144
1574
610
2985
921
3571
808
998
384
23
3244
2622
377
1787
2594
4314
3604
3197
2189
5993
605
365
3207
1022
392
411
795
532
755
2606
1402
2974
4370
1035
830
2713
376
24
2590
1026
1
2214
3221
941
23
1991
2968
646
748
1996
3596
2022
1607
4529
18
1640
362
3
519
11
5838
1821
1021
1349
992
383
427
2173
2782
431
164
29858
798
1370
2856
16
263
2622
1130
1236
1434
1778
8397
252
2436
4844
4
2037
1655
15
391
551
1793
449
711
2048
581
792
976
2428
674
2258
3021
1658
347
2064
2418
2041
1925
1407
1068
369
1631
587
388
1
1977
2080
1202
580
225
4380
1083
20
1966
1625
6050
443
3029
4153
3158
1189
1839
1255
213
584
1230
55
393
824
3189
2267
9
2390
1384
1169
1448
1230
1636
7
2391
616
585
1172
857
573
384
1972
3215
1163
19
1598
391
1038
1638
1189
1
1053
462
3487
8169
3024
1953
1267
17
4772
1441
256
1659
1041
291
195
958
1436
585
5264
3168
1968
1002
3394
1058
1
4587
2449
1
2196
593
436
631
432
1553
787
3597
431
401
1662
1270
683
1016
2232
1044
795
1173
1066
301
1837
477
856
2050
3488
2541
2466
10073
875
2042
1375
1
1858
1057
7471
2146
520
3870
10
5130
658
462
803
1067
2782
396
1182
1394
1629
1042
1645
2265
401
1040
1241
2225
243
247
634
259
1221
1202
3574
5573
3062
5479
1040
14
2600
2058
29
571
3169
1975
815
1415
465
2276
1014
3215
343
197
373
2553
411
2197
237
3567
1195
3251
974
382
8554
767
3226
432
1458
987
262
3060
779
588
831
1853
883
30
4862
436
778
536
983
1231
4424
981
1991
6220
618
236
1065
2
3975
363
428
8
826
2270
4175
395
592
2395
587
235
9
5261
422
3744
426
3830
1067
2669
1
1040
7125
1874
3306
238
665
266
1381
585
3375
428
1650
1177
1043
2002
774
1036
5
1188
570
33
753
1370
379
1227
12
373
1465
1224
2047
4434
2
1437
6
2387
839
337
3772
4065
384
3410
6212
1145
1167
615
3152
752
2583
987
1210
2828
1384
836
974
853
3886
497
9638
1816
310
839
2044
3602
250
3765
29856
4009
2223
3348
6805
4634
1420
2319
1378
393
4362
356
5026
15
343
959
418
2606
220
1534
10177
4245
1367
967
637
1822
423
1617
3362
989
368
835
3405
1319
3235
1244
6
766
650
1791
2557
1561
1238
1405
2414
693
2403
815
391
1260
635
357
398
1606
1745
5
447
1799
906
586
5396
39
2575
735
546
2396
1612
390
596
2823
213
2768
4756
34
339
4211
118
4406
355
1398
1
793
1166
2850
230
778
219
3747
1047
742
153
1813
2
2904
2614
1414
537
1048
9
2809
3944
2181
14
985
13
592
264
735
429
13
1026
2121
494
2980
1567
621
535
3550
1357
3
355
535
2052
6199
1591
370
1076
7
1239
3789
1341
2044
521
414
6531
3
4160
1555
26
825
3566
964
969
424
660
567
384
350
533
25
437
1738
7669
1201
361
359
2788
1381
778
647
4011
930
1938
3635
3411
750
222
3522
4151
2598
2033
1696
3618
551
3633
1609
5522
386
532
12
420
732
1210
764
1610
8
1318
564
790
2458
1007
12
740
608
633
204
848
489
2911
1
364
2119
2598
929
392
617
5081
10497
8
841
5765
4766
1434
9252
1374
371
840
2574
1185
1424
6215
775
104
1770
567
1231
4192
1002
572
359
21
8049
1573
1794
1747
608
5340
3765
11
8016
2849
5589
324
2386
20
2824
799
351
4517
2815
956
442
592
1392
831
4782
991
1959
1948
1590
1577
26
363
4795
2417
3540
1646
4
368
766
1369
12
1162
2632
185
5139
365
2181
929
1548
1
2335
442
333
8617
3868
1056
2364
3797
2818
2542
539
711
242
2262
849
3431
2128
409
2716
18
361
2
2848
643
3375
406
1232
661
20
5647
4799
392
29889
804
21
842
1780
2250
4196
376
1040
1173
780
1237
1224
21
446
1425
1020
1416
4191
1795
5946
16
4608
576
948
396
2499
2834
1234
36
2419
17
328
9087
3270
939
1670
1856
265
1186
560
837
1473
991
370
3995
1094
1590
2257
34
4659
3175
24
2601
4022
429
361
567
3020
4769
10
9834
827
1220
1182
4036
2461
11
1267
1832
2345
3814
1432
1062
228
210
2778
615
769
1840
2779
10
806
1997
3154
1165
794
1072
1433
5656
3403
4287
16
2087
4730
687
275
2829
11
259
373
344
2
4209
636
3206
232
988
783
662
2071
636
3899
619
4184
4124
21
1052
2883
4256
5191
835
1640
4960
854
2222
488
2035
6
1238
855
1247
2780
1381
2626
612
1638
172
2379
1899
403
861
390
3394
577
388
2374
1209
1751
1764
5217
2080
1809
967
584
3369
8
2037
3839
2640
6
1241
14
472
5461
1410
656
1212
1840
1037
789
12
349
2036
2832
1164
768
1176
631
6
620
2938
1395
2027
1628
231
1198
1229
2058
1188
1124
383
2572
398
2
3162
596
5478
1595
2883
825
1768
2261
3076
1645
8
2013
1055
1207
1172
1649
565
3376
843
5437
3051
20
3437
3041
1201
240
4241
2363
1073
7
4048
633
605
1718
9047
1069
2
833
2019
1164
12
267
3030
1751
1150
2228
1501
1996
283
1814
448
231
1954
1222
4595
284
981
385
759
3777
1946
1929
608
385
626
410
2948
6827
3815
1459
596
650
3138
12
2386
1263
596
215
1545
2438
1962
1445
12617
221
11
638
13
594
22
1578
5581
883
1272
11
963
4218
802
2440
1422
2312
1162
10
1614
6197
4254
199
5856
1602
6
1238
1065
3610
942
411
2187
3188
4195
205
3446
2341
7579
860
871
2332
5
630
249
1755
2209
1472
553
2811
2146
471
7207
615
2365
4184
155
1189
2170
15
1045
2955
212
1750
1521
4420
836
1008
24
387
400
225
23
2538
2164
426
2583
2393
1589
6
754
4816
1028
417
784
1918
1449
2254
986
387
831
436
793
3363
4216
1183
3983
1618
34
613
643
11837
3233
376
1816
2840
2928
672
829
1850
2658
1610
376
410
1345
2779
2191
1797
2038
3074
373
4559
840
2160
1797
408
8481
371
953
1764
823
773
5461
1100
24
3994
2222
384
237
1560
673
4362
241
408
3022
804
237
1378
617
1
1033
1223
3432
805
2067
2374
18
1403
2181
1254
950
1583
3161
1
1390
951
3839
600
830
1742
1468
3166
645
506
2685
849
214
184
389
1286
7509
1786
2190
1253
1770
5785
2806
207
4448
495
8
3230
1222
1198
1061
1068
1
433
1261
1019
979
1012
5218
2648
11
2207
2002
1547
1373
2622
3793
1474
1805
3553
382
2029
1790
225
674
1161
621
1695
1638
1190
5411
557
1216
607
684
27
3777
2990
4076
1283
371
3809
628
395
628
1171
1837
2584
795
2834
10
856
3254
1479
2638
5466
1954
353
861
461
778
15
3550
796
834
2469
1180
2140
4859
1475
2024
445
1412
5660
1011
3600
380
380
5056
2279
3435
1433
755
2407
1859
1577
430
4629
1439
2376
2569
822
3179
949
5162
1182
2013
870
1009
564
793
2636
1736
1839
2439
758
1032
20
466
3
1799
1834
625
954
462
3608
775
579
757
402
591
1409
3233
4262
18
1237
393
2430
1013
395
6144
634
1895
1294
983
3023
1855
670
811
1209
2612
241
966
3016
3295
501
621
1012
393
567
2192
980
1831
2064
9
720
1395
1175
6
1219
999
590
994
6
646
453
416
2650
363
1990
13
364
9
393
2620
6037
587
1602
434
402
1023
4359
444
1332
16
1234
266
403
2393
7579
365
2202
1853
239
2593
581
560
1624
1781
1951
1431
362
3976
225
634
1477
2763
203
382
1611
1950
2134
4005
1221
433
9
573
2213
4613
1751
1371
2389
2778
1230
8
5802
4977
581
2634
2095
254
674
395
741
789
2413
7
353
10
992
1544
1990
3367
598
23
3929
3202
366
1390
374
451
1388
2577
1787
162
610
619
395
7
377
2235
994
201
806
2019
778
1057
219
3178
1576
844
266
7
594
432
760
1808
6995
2777
1791
5998
1668
2828
462
368
2443
1609
1392
4
278
798
5608
1947
4
996
4954
1050
537
390
15
1189
2255
2774
1769
951
1377
1572
369
838
2777
13
790
992
1013
1011
3672
622
2796
2577
2395
1173
2415
6434
369
3468
1632
594
627
1170
212
399
2017
2952
1977
3
4370
1402
4358
11
579
1198
515
3629
8
3962
1956
2591
976
2574
361
7
1450
34
2419
4
1457
964
5
4178
459
874
1031
3805
3392
1167
3599
2015
1120
668
1276
4159
632
1951
9
1182
824
3
640
2277
1833
1164
1196
2231
1641
2570
5221
1833
2308
987
810
449
798
794
1141
379
2
1991
1176
1565
3244
555
442
390
1559
3466
559
3645
8
415
11
1961
2381
1227
855
2073
363
4037
365
6
1396
1763
1187
807
764
243
1174
228
824
1142
8022
5147
2
373
1203
401
237
1919
5758
985
5430
284
1168
2649
1368
591
356
1194
547
1219
384
599
550
1445
810
7768
445
1210
21
544
357
573
3
1633
337
25
193
20
2651
296
633
497
3244
4637
372
9
652
6
4223
1033
1924
386
6556
796
1252
268
6
449
1042
1576
9
2782
2803
3398
968
4376
966
812
5199
2847
1046
4578
1454
804
19
4593
198
584
231
736
1046
3418
29870
1089
2088
594
4030
1833
8258
468
255
428
2804
4203
1063
1245
2159
3228
1420
1234
1190
593
2998
407
2451
10
1387
221
1349
828
1420
1
853
862
1654
3036
5992
588
2442
244
1171
5591
1586
1614
5399
2603
1819
2397
4180
795
2060
612
2221
427
2462
621
1190
3050
10
1559
634
3047
2491
206
612
4004
616
817
2429
4261
2596
3372
1259
4226
2349
4816
3151
4859
9
2222
560
15
549
805
1195
1663
3233
889
580
416
159
1191
1637
398
2596
3224
2807
2371
1225
574
271
899
27
2061
847
1042
557
1057
477
799
1457
1399
252
879
828
375
1410
1650
3553
6
2413
869
1580
2015
3430
2033
1637
1766
2178
1408
1032
2573
6803
768
2421
1250
2574
1972
2016
599
35
2160
1963
966
3631
440
2033
19
1021
3882
1574
3183
2436
1312
1220
1262
1830
567
1023
2447
841
11071
354
3660
49
3181
801
1024
3190
575
1448
823
22
2389
1416
1199
1838
1400
1197
1495
2432
1218
375
2822
5251
1408
26
993
1457
273
1232
1072
642
653
33
420
405
835
3435
388
1456
1016
589
2409
1018
796
775
595
4982
3189
4583
1043
224
861
5964
776
406
700
23
812
610
3
1188
5022
854
234
606
3385
356
1612
1410
1208
1034
1646
261
3083
1274
547
588
1193
1245
1665
5435
235
2596
6217
1565
1206
2221
1359
11
4612
2595
395
1985
683
846
287
428
2074
3650
228
834
2192
613
582
4815
4
1160
432
685
1033
1620
577
4022
1420
226
3029
230
816
2806
892
2875
822
6
5200
2821
239
1611
986
839
1218
4798
1588
2010
1387
1663
1783
410
1214
3208
2164
258
1422
1985
1577
780
1175
1830
1534
5243
236
1999
2373
843
3485
2999
3593
22
1970
38
406
1174
6231
5422
2202
1394
527
4937
19
1597
1761
435
570
765
583
786
948
1
2365
1775
1236
2613
252
4968
11
1797
780
2
2559
6615
855
398
1388
4735
2
529
1828
495
19
2617
175
204
1117
3
2771
1187
5181
387
1
2643
1428
2037
2248
3052
1546
1
2738
366
20
995
2801
1212
8075
2195
438
1974
4228
394
766
1210
1374
1813
598
747
412
798
1046
1999
4615
2374
787
8219
211
1042
2630
14
1552
2588
369
6380
775
613
2955
1976
387
565
1053
2118
6
637
4570
1838
1370
423
4043
1151
640
146
381
409
1198
966
1773
419
19
1966
953
1990
1414
6032
219
836
3639
2229
3011
10337
578
334
609
3235
1640
441
1557
610
10
1522
16
572
1376
2740
5402
2594
775
15
373
377
3770
210
1179
604
3372
4805
3994
1357
4119
220
1590
1025
1055
1420
783
563
1623
1197
784
2465
1993
1014
816
629
573
2467
7232
550
203
1336
1223
2211
1028
1430
510
3409
1858
1382
385
7037
3998
1558
937
2610
844
257
986
882
1577
1614
264
251
1844
361
3382
2827
2361
2464
1231
369
1193
4582
2999
4343
2648
644
819
738
15
2968
1229
1379
6364
1057
585
1335
7
570
975
399
1819
1320
8
2539
416
612
2876
1064
1610
2155
8
4001
3660
1986
3219
3429
1047
671
1394
183
975
592
1185
391
418
627
785
2217
393
19
1915
3
2973
4391
1608
1
1614
1041
279
9
1163
20
373
3
566
5428
18
3380
1363
432
442
1149
842
1044
4561
2627
1197
734
2436
1387
591
2787
3144
7160
1869
347
573
578
22
794
263
9
838
7283
3025
583
648
3000
1380
1533
1206
1998
1212
2802
1039
636
1203
243
1595
620
780
576
1640
597
1783
1217
4624
11
6455
972
29817
270
358
1627
1169
1726
20
2151
2818
4350
2629
383
2669
1455
1200
540
284
885
2013
6176
12
4226
684
278
2152
359
1306
329
2864
25
1340
307
613
6568
2816
4
2479
357
20
816
2076
93
559
834
2198
2546
1797
3367
200
3409
590
1963
8
792
379
2803
3024
2358
344
794
4629
2170
1124
532
579
5120
3634
2516
2459
1388
3414
959
570
2025
2197
843
1795
942
1018
964
661
625
780
1730
1367
1001
1011
2552
1266
1147
2561
925
4000
24
2023
8505
3122
2190
617
545
1527
603
4529
580
553
386
519
253
1222
597
605
1182
3587
2946
2151
21
1957
1252
3821
3746
1177
450
3350
3329
555
1454
21
2028
20
996
1413
6195
785
8
2126
774
1789
850
2639
270
2430
5355
6395
6
768
3633
690
546
1372
173
1993
115
878
26
753
3837
436
586
1796
2642
845
1135
29
351
2556
565
6020
731
8197
796
8
416
2646
751
1500
1779
1245
3119
266
7
393
2974
225
2539
447
1437
354
3
4554
4791
253
1555
1364
644
5769
2
560
609
9731
1
355
436
664
17654
948
14
2049
2585
48
327
25
368
1645
1571
1540
610
5324
427
858
2183
1755
1205
5752
979
730
638
401
598
840
2
262
1535
2232
3439
1349
832
3192
1
1534
6613
523
29
748
794
975
1231
1564
2307
1582
3025
2158
2210
1995
962
846
2648
1375
2744
2774
16
2024
472
1584
37
795
2839
1142
2048
982
7
3105
4
819
2825
1742
253
1628
2767
1538
22
9495
28
1142
1193
4770
1367
1539
2159
6
2552
655
3130
1978
1118
194
1003
854
631
1555
587
595
1120
3575
263
4913
983
755
918
5
597
1144
1990
242
833
2768
8
6359
13
2254
5596
2603
590
563
29
2715
1352
29804
239
1786
3188
423
573
2246
8294
1102
4215
1440
2550
228
3221
793
2997
731
1
3198
4263
1043
2029
1250
808
393
9
1932
608
6995
340
1453
382
5619
92
346
1613
1390
8
339
846
218
1529
7166
6526
2632
3399
3584
5403
2024
4590
894
728
3405
1100
20
1017
335
1560
1589
1910
432
724
1619
903
2045
1039
907
2263
105
591
1595
11
1292
685
841
2395
18
1398
1763
736
2276
527
982
1442
2990
14
1166
1399
488
1217
7008
5369
3132
1435
5879
977
18
4344
1386
4310
1951
636
253
3225
3131
607
1568
506
2381
2515
12
5609
4722
225
3334
827
2397
2185
607
1775
567
629
813
4354
3975
1190
2791
2437
429
783
394
1203
1523
850
4619
589
1579
1870
5
2326
1039
4503
1186
1660
2287
2425
758
664
1581
1585
3102
8
819
406
3213
1165
1157
2157
4984
2497
381
1357
668
2744
25
3795
3913
258
5210
1036
340
1802
1422
4518
324
2771
2023
1338
597
3195
1688
1951
2831
2794
792
2635
989
2442
1347
519
3282
1192
1630
1049
1422
992
393
7199
2235
1725
242
3212
2426
356
3614
275
1245
1242
1
1526
903
1578
2145
1807
706
608
7
363
8787
3446
1599
1596
2608
1153
3423
2918
405
3416
1141
339
2810
4105
1326
479
1
10025
909
237
1622
4528
3044
2189
265
220
11
340
237
909
1599
936
698
2575
1171
2951
2
938
2
2728
339
927
1075
1193
2590
2817
1617
1431
10
486
697
787
34
339
257
783
758
923
2434
986
595
387
1520
1439
750
1320
1551
2232
1997
5798
2042
658
3905
8394
11
2533
23
737
213
114
799
798
1540
1238
2890
8
2998
397
12
1548
582
248
372
2266
271
1999
764
999
2183
1795
5991
583
2173
247
1835
582
1726
2332
4
801
760
800
2015
778
1324
1023
5984
2
593
380
3992
188
377
617
4239
1408
3609
257
1816
2989
790
250
15
453
422
594
1126
1427
2817
255
776
359
2433
5
1242
212
15
795
2395
4600
808
848
1583
765
14
394
2784
573
224
805
1586
721
2962
799
4176
356
2666
4611
1413
3576
2024
5
1192
167
1185
8
1991
1035
572
6212
1590
2869
1040
1551
240
984
2074
618
371
1376
651
1225
2372
2220
290
599
1425
847
6808
386
367
773
963
1335
547
1772
220
1746
857
2163
626
2511
3123
1942
2452
619
582
746
626
16
1792
420
609
1175
5985
984
794
1208
397
972
2223
628
594
1430
958
793
749
662
417
432
644
2594
1153
3035
208
988
602
2762
1617
1414
573
854
408
2807
419
10347
1407
396
1422
590
387
1796
2451
2429
2151
1
347
2463
793
581
981
256
633
5131
4
733
28
2392
570
143
244
569
748
23
621
2586
448
632
234
2008
7
4391
1402
2404
739
2177
1221
1586
6177
1796
1739
2209
1126
861
544
1242
1796
638
977
1070
1764
1040
659
362
3450
972
2
3771
998
820
393
584
1159
1996
1644
170
2552
1178
1233
825
4614
457
620
766
1
392
643
5018
994
384
3574
594
2610
1540
554
1184
2131
620
1590
3180
251
1216
2636
2133
1630
815
3172
1974
5187
1313
6196
1611
1782
2414
11
393
607
1017
7
5756
432
397
2375
1640
1037
787
2196
1733
2580
220
215
1443
208
782
341
2421
5204
13
4999
8
2812
247
886
1798
573
824
3556
7
1019
28
352
1744
1058
574
1037
1395
555
2589
9
1366
220
3225
1235
611
392
2398
849
821
1224
827
191
1207
1619
777
1987
416
1371
14
920
1172
975
2036
3845
349
624
559
1009
1198
2
1012
601
5583
4223
2739
34
287
418
3125
1419
1219
2758
3217
2965
809
1615
1680
1216
8
1441
986
2431
3191
373
407
787
385
394
989
211
1619
206
1197
29812
346
1024
406
1193
2380
222
3680
724
13
432
335
536
624
536
9
4445
5551
1791
1176
4414
492
341
478
1209
677
243
6920
9
832
651
2104
9071
823
10
1818
3712
779
1529
988
3145
3
7182
1745
25
1548
261
11
791
1116
8729
798
1499
341
873
536
804
2166
1590
426
4245
1188
469
3750
834
1679
3641
2151
8005
366
3014
1255
407
3094
2561
1187
1014
3028
858
2095
1629
1795
1717
1320
2090
197
1738
382
1830
669
754
528
244
393
423
2319
1
5117
630
1591
1167
2086
1023
945
15
2613
961
21
3253
303
768
1774
3306
271
230
9770
3
2596
1148
1624
8797
1304
2593
746
4263
537
492
536
3771
3532
5555
2470
1613
4275
865
2561
617
2411
1251
957
640
2984
347
2746
1232
1
769
810
368
3579
1027
2709
9
1142
273
2458
1621
2932
1143
2038
830
2763
2350
409
214
277
5250
1650
2306
350
3552
3144
472
1340
1809
2575
7
606
3577
3247
1599
2961
541
720
2323
4137
3557
2465
4094
8
226
970
2157
781
1540
398
3791
6170
1945
1022
2629
1441
321
3380
5
1245
370
261
1238
1765
953
24
8450
2365
960
2430
2519
3534
5
10422
263
485
1
453
2224
1188
1894
1077
3766
2347
1907
2021
361
4620
2676
1
575
6039
192
1987
2795
1743
17
334
466
2433
803
215
250
201
1012
3837
542
991
611
451
6
536
14931
3369
392
2344
834
18
730
248
3372
233
851
840
7409
957
25
1765
637
3098
2278
4821
2314
2856
244
3041
3095
2205
1172
6234
2035
2818
1175
2153
619
3167
335
8
576
1398
557
12
1452
-10
29813
2551
4
377
176
534
1175
2798
3336
4336
376
3989
500
2442
337
4
630
3179
185
3404
1003
900
5292
23
1190
496
6760
1621
1743
1130
1177
1988
5758
589
822
2569
788
2777
619
3590
1234
3170
604
1181
2204
4615
5733
520
25
2808
16
1187
364
2142
732
2952
1039
1375
1820
2324
2618
2995
214
11
466
1055
1184
2790
977
1406
733
379
2893
1161
3394
368
203
3035
381
568
3115
1009
1352
1824
217
2592
3223
3194
2382
978
921
466
1688
2570
995
1193
2723
415
3023
995
774
205
340
4611
366
3635
2510
7
2997
1191
1143
510
11
1516
1395
414
2763
2541
2543
208
1578
3317
368
1861
4362
612
2205
2098
972
1808
3753
803
587
556
3213
243
2382
14
479
1598
508
5444
592
2724
417
3959
214
1606
2214
2170
1917
431
2560
626
2175
1428
993
10232
1198
231
1986
370
592
563
3209
3013
11
2190
3217
913
2242
3909
3
1621
4259
7193
2226
2814
1155
3605
1595
2520
914
5
4624
234
980
590
1344
2449
4445
442
987
3014
3223
2170
2621
208
1774
807
826
760
365
576
1728
2886
14
378
595
7
2970
1788
419
504
2569
6
2201
395
1586
2997
1196
2953
589
3796
985
775
385
3815
388
3116
3
1824
1952
1776
549
1957
7
722
152
432
1225
570
1328
29
793
546
999
4212
4967
764
1981
1221
1198
396
987
592
1757
1180
984
1184
551
2130
4010
366
1538
5177
385
1935
1194
1817
2375
2334
11
3133
2376
943
3591
11
1386
399
5291
1449
2584
8538
220
377
3022
1390
4580
979
793
1415
1968
420
850
6286
539
389
2194
2598
1161
2276
217
5825
387
2005
2196
34
741
7179
1433
587
970
5578
29871
982
438
2002
145
4645
846
7635
1037
1582
3435
3772
1188
1191
589
7395
375
604
1182
232
3626
8
999
9
237
578
581
3791
368
1390
4155
1392
580
2590
1005
1625
1135
1791
4185
576
717
421
2396
4983
2159
365
646
1186
1003
2791
190
1187
1012
10793
3376
1998
1187
5
614
967
587
432
1785
620
3179
1152
981
425
1153
383
599
584
1233
3
1603
4743
836
729
1184
202
1137
592
1545
1778
27
1152
7
385
267
1804
370
382
351
3628
575
415
3334
5
1203
569
1778
2396
6206
810
241
1140
3619
2540
1224
1216
2043
605
172
934
415
364
1388
5
2382
2521
196
391
1200
952
2999
15
251
387
1574
11
1399
4790
1004
6976
455
420
1176
3986
602
8
2824
5632
2593
2344
860
105
625
385
2978
385
4380
2
3189
393
352
15
580
1579
994
1397
383
810
1
2783
1175
1912
3038
2790
717
229
1378
6365
997
4175
978
1366
1337
3035
2592
1525
22
2793
6
4437
9
1188
1401
747
368
422
417
2365
1339
1635
2757
1005
3989
1185
1389
1029
1764
578
1188
1355
544
1174
2934
12
1749
1574
13
996
552
2955
3180
2626
1774
1600
1124
387
1834
6382
791
392
301
976
1391
1588
388
1767
1155
1416
586
1241
600
427
363
1848
7039
1827
616
984
2784
16
718
19
983
1820
989
518
15
1600
630
621
786
1225
3
251
1396
575
584
2351
13
1586
751
979
3136
238
3751
383
2190
584
13
834
713
430
583
356
436
1379
560
14
2749
8
5797
444
2195
1392
2501
837
997
7
1364
2614
366
1384
759
1413
1990
1008
959
1178
1
391
593
422
1401
3776
4599
1184
1808
242
3974
995
1384
373
376
565
742
3963
2775
1990
392
1198
804
593
1
764
954
582
3819
587
587
773
381
3194
2236
3149
235
1981
1992
2164
1319
1621
1799
2403
2388
2779
1191
206
1817
345
1364
1570
4807
2397
994
1751
1444
2382
2987
1586
1374
580
402
399
1163
977
1242
3
1033
367
371
2741
239
1050
3
739
1224
1449
4062
607
870
581
392
1787
394
351
1129
612
609
3793
1745
550
1789
3947
240
2325
20
1383
1967
1005
533
235
3771
1824
1784
395
5792
1182
2
570
367
1823
1237
986
384
1746
3768
554
1191
1416
590
1595
703
1185
161
2249
659
449
607
189
2434
1617
605
1920
2657
765
392
4423
5757
1202
1916
2388
816
499
288
4796
368
2268
7637
1577
423
11
357
125
596
80
1207
2787
4196
561
618
2282
2760
5860
1967
600
967
18
1997
768
2802
396
4562
1996
618
237
2154
427
2179
581
413
1922
4302
763
14
596
1223
253
391
1999
2025
2828
869
1123
1005
3009
1811
1144
1871
5578
804
15
790
1545
2847
1579
1827
4351
2464
819
1221
1164
4
3553
562
1
1825
253
1284
374
14
829
389
2141
799
2582
4849
9
1268
417
629
424
2032
2646
785
752
627
366
777
2131
22
3193
387
594
635
820
987
488
955
630
6646
1031
1378
1451
16
259
1351
2014
1347
2220
18
7369
1001
1194
6141
1257
458
538
2390
1812
843
611
1134
258
11
1166
10
7206
2988
850
2042
1449
439
2126
1247
5168
613
366
997
1626
1860
2064
2201
6
2034
1801
2793
2187
183
382
1386
3589
547
25
393
610
6
990
2426
1615
3353
839
1821
1818
13
1467
383
397
2011
2610
3006
1227
2976
3846
2636
171
1544
940
587
453
4814
2382
9
3824
1028
2795
7
6771
377
3227
1785
2589
378
1391
22
2764
3243
461
25
240
6234
13
469
1323
1205
3239
758
790
6826
992
222
7
371
475
1229
1351
1370
209
401
992
3849
3241
2368
1227
572
577
5191
1392
1812
2586
1665
394
4917
549
4596
2431
1797
1994
1206
1227
1839
1249
4984
415
606
386
6
377
1621
1586
430
589
589
599
1619
4
3204
604
6553
1653
5600
1171
615
951
1742
360
29884
2584
2091
7995
1516
1138
530
1434
2973
746
530
1589
20
588
1141
3608
6
1189
1043
3532
9868
1013
986
397
1730
1286
1307
1434
464
939
12
1398
2127
1404
1454
208
836
1392
224
4122
581
1231
848
583
1310
2257
1724
1548
4458
7779
393
3652
16
3593
1045
581
1075
3081
579
1388
1246
796
389
215
985
794
1248
7515
3475
628
737
545
1178
1417
2601
1368
680
788
1580
625
2309
1881
3200
1125
315
478
398
2201
1456
5856
4
564
1376
340
1358
6607
456
455
338
1011
1443
340
2712
1488
413
390
373
2853
2628
888
591
124
788
1602
4079
6
856
5677
282
3460
4492
1148
1372
998
1460
5376
236
1775
573
581
4589
1995
2798
2352
4279
2308
540
681
220
5028
2173
4616
505
3780
1817
1728
1157
574
384
881
1004
1672
2080
634
808
389
867
614
662
13
384
2761
695
905
1160
1022
6827
1054
3212
1531
1914
1112
23
598
999
943
614
3394
376
396
966
3626
527
634
1135
10
1390
2629
933
596
1573
984
2246
757
20
2458
3999
1201
1648
1738
506
287
1281
569
2101
1057
388
1464
1635
1257
316
1846
714
425
2798
4504
1332
2657
241
1398
21
1707
1240
3500
3015
1653
2359
305
3663
1635
788
853
2219
5026
1383
1492
2018
368
901
1779
1489
277
1203
1132
1907
2858
564
1989
595
313
2471
2088
1969
4288
1994
604
220
201
5198
2132
1655
642
4235
3891
3782
1032
1644
5476
1445
1253
829
1851
4354
2521
1574
432
1190
4781
2857
211
1369
2030
1473
314
2100
4262
1767
835
5266
3144
1034
1182
1196
1187
2049
3663
1025
3749
862
2027
1638
2389
2305
1571
1019
351
3790
1888
934
3591
17
984
246
4426
223
392
936
3220
844
2016
974
2600
791
5
4930
972
6186
4186
2318
971
625
410
2189
746
1365
829
1426
1079
2045
2846
252
637
624
5
3557
1672
1787
1
995
1399
3522
840
9
1216
1540
1187
388
2239
11029
10
1018
387
4009
1828
2766
3047
36
833
2420
1671
1670
632
2657
1177
970
567
551
1387
1443
770
1
2194
603
2984
4677
261
4196
2407
2153
1670
1841
4791
785
1429
7144
4040
247
395
580
355
2372
1208
1194
2220
13
1597
620
4002
792
1966
7
355
1209
2339
224
3377
840
6207
433
2232
2793
1146
3079
1230
431
399
4815
2704
978
576
6434
588
383
449
246
334
2174
4613
3784
1806
3
276
2000
234
278
3560
1156
556
1029
2238
2177
802
10023
1881
217
981
1988
6431
561
2430
397
549
1015
267
1370
774
383
768
2918
4608
7
597
2222
5058
655
1426
1056
1028
1171
1629
436
1212
1753
2243
3
584
2395
597
1394
1794
323
2414
6
391
750
270
26
1387
16
786
234
26
3796
7049
2225
2177
1094
1245
17
1018
1210
609
1799
3197
2983
1755
4
1199
1991
2812
1222
9
820
575
7
1195
1029
879
1210
4646
1235
3195
430
774
6
6025
972
3753
1413
217
1426
1849
402
2418
1418
4838
1214
749
855
396
244
3093
1241
227
600
770
544
432
1788
836
1612
349
1017
2830
772
2676
1254
5782
4422
583
3600
1387
239
1086
1960
1754
1803
2190
1187
1166
1640
3599
2965
824
259
1658
947
31
2243
1963
1443
3571
1428
397
1779
5168
2433
324
354
377
969
6
2229
5
4794
395
3273
2152
4880
8460
576
2215
1017
827
1590
4387
4192
398
17
4983
568
1198
1
2433
1375
1977
179
2588
577
584
1384
1420
797
2155
608
985
1595
1241
3040
2260
29809
1152
5394
1103
1584
3384
349
2388
1383
1369
1335
757
6
809
5156
1179
558
7
1750
372
728
1983
1219
1590
2970
615
1286
442
1384
3552
778
203
5015
713
397
181
1769
1550
569
3553
364
2567
1958
2599
2811
1440
4573
506
1181
1149
1581
33
6554
554
2172
3601
2181
2130
1178
549
1585
3153
3771
1902
2405
730
4568
1300
931
2799
5794
791
1391
4563
3631
546
2555
7565
711
2529
23
2759
2373
552
2979
1960
3793
352
187
1553
369
2539
6
937
584
5830
1480
1814
764
789
571
4974
2150
1133
2736
12
3193
322
1231
2195
2291
619
759
1409
1173
6935
19
234
585
704
820
18
1347
6184
2755
1810
334
14
1884
3
383
4210
605
1555
7359
1695
5
956
4009
997
342
8
1767
575
14
2197
5344
358
3
376
1918
4572
1353
8
1145
2428
507
4406
599
3958
24
3286
14
814
1568
3349
1213
26
2981
1553
969
7791
1196
2194
4507
2730
332
5577
1543
3193
398
1179
2369
781
21
998
585
2377
371
3179
1026
1989
2122
1810
1714
350
1156
993
2
793
1990
586
554
796
6763
973
574
1981
588
1176
1330
3958
3186
395
366
792
593
2137
5981
782
1545
2383
743
31
1959
552
1018
1531
1335
1
2543
1754
377
799
4402
374
12
2557
993
1330
800
632
552
549
3029
3563
1175
220
321
991
595
1143
2360
581
1166
2996
1109
925
4200
1387
569
1037
360
379
1361
32
957
2789
1952
6
400
560
336
1201
2387
2593
339
1182
538
9
625
903
573
1301
970
761
371
2233
2417
3758
1351
615
2378
5932
2138
590
1181
787
2
4152
3584
787
3008
1957
3728
817
1922
4399
913
1337
585
4190
583
2777
710
789
1743
28
578
1170
1979
784
773
342
2231
1339
343
973
2880
1365
29833
2163
1473
680
1823
4073
3714
1143
470
5
2380
11
1789
2654
613
1186
1354
3475
2188
980
10588
975
2031
1002
1598
999
1292
750
1796
669
856
9635
4065
2186
2657
13
1102
904
1956
14
2493
13
295
3
2610
871
800
2973
3750
672
4879
1066
7484
10
3470
4950
335
14
4839
611
7208
643
3637
759
18
4763
623
647
876
6443
342
406
1038
471
5022
1266
2253
1442
862
1246
1444
3230
711
4292
11
1426
1654
4251
1663
4046
708
12
275
16
2836
2847
4878
890
2214
1610
1429
1355
2031
550
3
1795
1317
373
989
2626
3815
1043
1218
875
501
1281
643
340
1065
3873
3601
42
626
1397
616
1170
2028
2846
302
1008
4593
809
1421
756
549
1223
1047
5
4364
270
3589
4973
9
3430
261
1417
721
3237
1170
969
588
10
8494
2028
792
2000
135
204
3274
1280
10
610
1365
397
968
11
892
3054
2032
1198
5878
6
1089
441
1973
1079
27
1573
12
2410
742
233
281
10
4398
1030
459
586
825
975
3189
2431
1280
1280
4518
242
1726
561
676
1029
612
1112
3523
4421
6048
1202
333
1212
2093
23
3448
223
814
894
270
821
1710
751
299
8042
1632
727
3065
4197
1828
4684
1208
3423
380
834
719
1003
3231
12
3290
672
2480
489
2621
2361
1615
2410
4859
1174
993
1259
3137
3619
415
1773
235
1173
1070
582
597
2795
627
2605
4694
290
2730
2866
2739
5183
1482
1981
8881
802
1199
2690
7536
1059
1498
3088
1832
588
981
1833
832
8433
2143
448
7601
627
2498
825
509
7
1807
4882
1050
315
825
1396
29877
1243
608
4728
849
8122
2
1424
1883
269
351
1
998
414
616
1172
1813
834
1260
635
913
218
119
365
562
1326
1648
5
3999
12
2788
1171
579
16
769
397
222
838
3607
638
602
1253
1823
596
3403
1197
445
3177
388
3372
2209
1222
405
661
2849
1815
396
1640
1197
2333
3601
1
1150
1256
4010
2954
3464
2435
380
556
818
2215
578
2757
220
10
1013
468
1577
387
2234
284
1028
404
749
1781
609
8
2839
3027
984
5795
1176
388
2
608
2595
1030
25
2233
221
2988
1688
2000
5
1188
6982
2360
936
4
616
1396
2975
616
380
2183
255
239
2776
7
398
179
1984
3594
234
3441
1784
1018
1969
384
392
590
668
3107
394
383
1432
360
424
5588
1145
1
1394
798
1218
6
839
5618
3814
1989
425
799
425
2449
1216
6395
421
1214
1379
10
593
16
2059
598
971
520
1030
990
2122
426
5027
227
624
2021
385
813
995
997
2
3166
3595
423
425
3815
1004
8
1353
980
236
206
2009
600
1982
2800
413
809
2815
785
421
749
576
972
1052
3189
1565
582
979
1821
9
609
453
367
16
798
381
202
428
1392
799
1017
4041
403
789
861
3039
6
781
218
3835
1404
5811
626
625
2417
207
1265
371
268
374
375
2421
3970
4847
3605
287
246
991
3
205
2440
996
589
1132
1240
1436
446
1787
488
366
4756
374
978
4086
2999
1189
373
6581
3257
1599
2774
2628
997
3020
2149
1767
3757
1816
476
279
1656
649
1649
8846
1215
1051
359
1240
996
246
6377
960
1
1018
600
1238
2547
1402
774
2013
2237
6617
395
445
1236
7220
620
833
2134
434
1478
1048
1435
257
4015
3837
792
5995
6583
406
4981
3199
1010
2158
377
6606
2192
3469
574
4023
1349
628
1837
784
8649
4526
1575
4534
1420
4320
1035
570
29840
227
1600
990
2168
642
8
832
1020
3026
2395
454
2
253
474
673
2018
1027
380
645
3346
13
4447
3498
2966
439
1970
5183
1814
507
389
8
1247
1
844
207
760
1775
1213
1202
236
283
10
829
348
5216
599
893
238
544
28
2046
1166
852
1426
390
1816
285
262
2198
1618
267
352
355
7
3754
778
795
264
3067
850
254
668
647
3620
2112
1227
1428
52
3026
986
2416
5435
37
474
11
9477
344
1657
565
3791
1327
1622
204
250
1280
23
1402
4123
1645
842
7
645
1631
1038
788
7396
620
4453
1608
2629
8621
1460
1605
600
680
2199
451
14
1880
697
264
1177
2740
10064
567
12
3027
1258
2826
1137
173
643
7
1809
1600
1644
3000
454
455
3056
1544
1222
415
1197
616
2011
2820
2346
6188
576
615
385
1194
3379
1253
210
3179
3
552
646
1196
434
544
1073
839
29
1996
1014
2030
235
9783
434
1
2192
4033
376
2046
2060
1641
8008
4981
648
943
1175
25
1818
262
1647
2617
1456
468
537
7008
9180
1030
601
3203
859
473
306
737
1252
460
2222
5150
30
743
826
1557
3210
675
394
829
2
2607
2960
10
2816
791
4742
1018
8100
1079
2388
1479
277
633
1827
824
240
2046
2844
1057
242
2
2198
232
570
985
613
478
3480
1213
829
2480
622
2494
1035
1428
234
2585
971
463
1975
1
2048
2203
1045
2150
3029
3468
612
820
2662
14
1181
259
453
1009
634
1800
400
4672
1229
373
982
565
615
2019
199
2825
1671
1980
589
5855
828
1592
1194
7529
580
1138
8
357
590
433
7
1241
2
277
1051
243
840
1417
1929
2233
2230
1445
14
1475
1248
35
1238
2578
1883
621
6
469
254
1734
392
589
33
603
3205
4471
1063
2234
2079
630
3258
665
7333
23
3414
1014
5020
2158
615
1840
1210
589
984
600
512
1525
400
1424
29855
652
427
4955
544
8
2372
2142
731
360
1208
555
1397
954
828
2776
962
790
2917
3604
2005
2960
1548
2588
4606
526
979
7961
7
222
1347
777
2112
9
807
2186
1985
9
622
544
964
812
330
362
3190
411
1912
2145
203
2
2964
637
817
808
5135
1777
1788
1923
1175
360
1814
8764
770
621
224
398
3593
1701
5411
3181
2151
2369
384
2995
635
246
3414
6
1190
1569
585
17
5791
1607
1980
1599
438
2529
1
782
5813
1340
3527
554
3157
3363
4410
2163
202
982
1791
1647
586
1380
1796
1529
6047
2415
1548
1572
2176
28
2164
2591
2752
3
5576
1398
391
591
7
3593
4083
1
785
6
1527
1017
722
16
394
1184
1
2798
2790
783
1998
8
1725
26
817
2594
2109
1213
1945
3
945
3364
240
1164
788
2217
4529
1161
1042
1329
839
352
1139
7
1425
1999
597
615
42
1731
1432
1761
828
821
1542
19
2210
5
562
4361
4149
1024
802
1323
4807
1127
13
557
7
605
2376
2602
540
259
3046
4124
1778
3000
13
387
764
616
989
6406
1168
9
1196
1391
962
4417
2242
2610
387
2178
583
9
1011
245
381
1172
937
1786
750
227
394
976
598
967
587
350
1063
572
1993
1720
1043
2990
6
941
1780
4249
1368
8
3596
937
1396
546
350
7589
1571
30
4599
1776
977
1826
7
2806
1178
4
397
5
2656
6213
3993
3413
2547
568
372
1726
822
3764
550
1418
1179
1213
1374
931
1564
1415
3227
2780
5
4405
374
819
791
397
1771
5
1728
972
2809
1183
1383
847
1375
378
610
1819
1579
12
816
256
2114
2586
390
2009
232
757
259
2759
2190
1602
1002
611
930
241
814
2374
5
1948
786
1584
18
998
1153
401
202
1197
952
25
3013
1332
379
2987
969
1219
365
586
2981
1190
240
521
5
2725
463
4803
2205
747
758
2396
1370
4199
568
1366
399
1400
394
1731
531
14
1168
3150
636
716
225
14
410
3025
617
258
1401
263
10204
2699
1088
271
446
1109
1770
1213
399
2667
3995
1198
1590
2436
387
2053
488
227
3039
627
793
1037
1020
218
3238
242
2109
387
1082
4633
3619
1999
2427
3059
2260
376
33
12626
1189
2431
598
3905
398
1054
789
2026
622
881
2582
590
627
41
1039
431
2074
5986
1838
2435
441
1212
2420
2606
1241
985
361
986
1254
2384
451
2841
1179
394
219
2063
2
659
810
2066
2
6647
3839
528
626
802
1466
1192
687
785
3053
19
4965
2064
2793
675
2639
2598
1788
7611
1090
1023
14791
5191
2639
1425
234
3
3232
1189
433
793
1494
2862
257
2456
2465
471
1005
3796
1413
445
1997
803
2
393
380
6613
1031
2022
645
377
2986
2429
32
1632
1451
1635
1449
5235
2589
5
1172
2843
456
422
237
809
391
1247
305
1025
2825
386
837
466
3680
229
11
642
249
784
10
1384
389
3836
3029
1980
1476
1835
1824
2166
1243
671
4846
1430
13
6198
1459
1565
837
814
1014
2407
590
813
2227
796
265
861
4664
7
1214
623
3791
1234
601
1810
5198
979
419
1021
3001
1037
596
886
859
3465
1195
830
1576
1009
2409
538
1603
160
373
3641
3191
2060
3075
2
2029
2220
15
393
871
1462
429
450
6018
488
839
995
618
863
256
1241
3
441
850
4192
2017
1241
1438
7442
1006
3401
413
633
2966
1010
144
1042
3296
4
6850
3
2843
405
2455
845
2643
850
1262
589
1431
2250
2574
2098
255
3021
2565
2627
439
1735
820
1849
1454
1592
3047
444
2797
794
6832
1379
443
1050
1427
13
823
984
1236
2153
1842
634
992
2415
879
480
8
6837
17
219
209
2415
1439
2617
266
2434
1564
29845
1986
570
740
2394
1344
5820
3015
377
15
1122
496
3367
2890
2327
5840
997
1565
632
1932
427
595
1890
5152
1784
316
387
367
350
2967
2
1120
851
2338
1022
631
4180
501
565
4577
557
9727
677
1223
1561
4136
377
635
938
4050
1339
7653
943
1491
1255
702
8
2809
1363
1113
987
1172
909
1875
404
4130
10
594
1549
2312
17
2844
1752
1711
596
4538
6
2569
498
691
8508
328
1426
4590
379
5
636
516
6
1729
4175
2778
2380
581
14
1583
5743
3513
1700
297
1380
360
871
769
625
4
1592
382
1517
749
536
502
918
2
534
12
5933
272
2117
277
745
9
1197
1192
981
158
1334
763
580
307
18
349
1642
945
485
3306
1304
20
1141
1991
3938
9
3366
1173
2311
327
2989
3371
717
2178
591
2275
4526
11
2173
2144
529
378
2687
5045
1706
18
3183
1222
3599
3
8375
451
304
5635
4039
236
387
987
1182
922
9
737
1405
1176
1310
3107
907
2409
360
778
6
620
2408
572
2007
563
5895
403
20
1152
323
973
5302
1326
17
2792
2158
1
1983
4955
437
1
1169
1931
1205
2519
984
749
915
5200
1328
13
918
955
3169
753
1577
2517
368
2544
340
6418
476
6330
3161
1558
370
5325
199
1385
3588
1371
1511
981
6030
1531
1077
1592
424
598
391
5398
749
1371
6
6678
2450
1164
686
2751
1825
1795
9114
9
307
668
2400
965
992
2560
851
436
1379
3310
3182
2114
2
776
364
578
2355
342
1505
1738
739
565
588
4371
2183
2329
567
1848
243
2774
972
1373
1539
2572
1335
929
3745
620
2511
14
5598
2765
1765
1031
637
2995
3024
1959
2346
374
1174
9
515
2421
588
1649
384
4418
846
767
437
928
1722
768
253
823
338
1321
645
424
2988
4839
27
1796
1799
591
819
3847
2594
453
1639
1188
426
1001
1456
2993
255
4215
5
981
1893
1629
1043
983
1554
15
1596
1079
771
1397
661
1061
1961
14
3219
3
241
3235
638
4028
1450
792
5
1449
569
264
603
840
569
1417
2194
1615
2201
1646
1448
498
12
2798
571
819
15
1851
502
398
2651
1427
2
588
4
1413
2663
4225
1830
1342
4798
7143
746
19
3639
619
271
2980
1839
599
5599
392
645
279
1593
3190
1633
13
370
1362
1251
1601
18
1228
2458
445
4620
368
1409
647
3613
407
236
233
2388
5223
266
3378
598
2992
16
361
638
1442
821
1401
2250
241
1608
1868
2031
450
211
621
1857
594
1628
3793
452
1476
1803
1268
3672
2875
796
1860
7
1655
2443
1867
599
39
3422
3371
1021
1987
2242
28
2455
875
3177
640
1218
12
3195
377
1594
386
3229
305
1054
438
10255
785
1768
816
1820
1585
5387
1432
426
747
1469
989
347
608
1263
1582
21
5410
819
1630
1280
1336
825
597
863
573
25
2229
464
1808
952
2438
581
1034
1059
1075
682
5434
1201
2042
1059
16
853
440
1407
6239
1174
867
5790
2382
3172
4798
2411
2403
3177
691
1873
25
597
6809
1845
2983
1275
3396
562
3186
1986
4045
473
1740
645
420
2872
1445
259
1060
4390
425
2185
1777
6226
4272
1995
572
842
6
628
257
429
241
3
2606
2798
1161
1596
1281
1072
502
250
1592
1431
7828
585
1393
1553
1598
1852
2614
2828
2569
3210
426
472
1797
1368
1599
842
485
767
768
370
827
2182
2288
2460
265
2631
624
2664
3567
362
205
596
1252
370
256
1182
51
481
1074
356
1060
2169
4035
793
1044
843
886
2194
1251
431
2565
2027
2798
2650
607
4813
796
1619
447
1028
235
4605
394
836
2536
3235
181
2249
402
261
1065
1761
1643
2668
288
33
1408
4856
3976
4444
5253
6
477
1451
6892
587
1598
809
8
1171
4336
13
1044
2967
937
5
5833
1849
233
2163
2871
3659
2365
4640
845
2379
263
593
3767
4025
3061
1
370
4795
340
398
1358
774
2848
1027
6184
5
2381
4064
1622
4181
15
1316
2
421
2385
602
448
3343
3372
1044
785
1026
2174
5022
2026
4003
2799
1226
227
1574
1392
3022
470
2430
751
8
1544
405
513
3752
1172
2260
242
2987
591
2608
391
424
837
3690
2
418
364
1864
1561
4048
1665
6735
14
8030
6134
3633
1589
2933
2621
958
1959
1996
253
3794
10972
787
808
14
2949
4988
1168
560
9664
1361
2
455
859
2387
2
395
1798
9
1766
3939
4473
377
1656
4277
1338
423
1141
2413
423
558
354
1586
3417
776
456
440
4227
2435
2966
20
3430
645
417
4299
30
3223
630
3
587
2983
814
1548
1366
1028
3423
257
1650
382
417
2255
6019
550
1430
2227
978
1864
584
538
796
330
6
1208
5005
3191
2369
1393
568
588
742
2162
4436
471
2815
2174
527
1353
753
2811
3226
250
631
887
1422
1247
1298
231
2792
833
208
573
247
348
254
941
2957
2785
2675
836
627
773
5329
364
1654
1374
1942
598
1399
830
2195
1565
533
792
784
339
5854
789
5
5420
470
655
6229
264
410
4401
2056
15
1655
41
459
999
1007
1343
417
198
2746
19
376
1037
6414
3013
343
2019
5012
1419
264
652
867
794
394
997
653
1004
1355
3822
598
17
425
2768
664
3406
1649
4586
1447
1985
2367
374
2252
3035
1192
744
4592
405
2148
9
561
974
1820
389
29871
778
1168
952
2991
245
1238
592
1012
2626
388
1450
604
3612
5189
1009
418
611
2047
16
457
252
370
1581
802
1774
5
573
4409
3813
4203
3356
1974
414
242
599
1785
1355
1787
1787
1575
380
996
3738
1008
604
811
1258
480
1582
219
4987
1139
229
204
4862
2191
428
4570
1346
1014
1177
250
1011
257
1157
817
2251
4384
256
1
6230
1567
1148
246
6238
774
10
2796
396
762
1444
203
1822
632
872
875
829
2216
4
2217
899
1367
834
1376
6
763
616
595
2434
4597
1611
963
858
261
847
2654
1208
812
581
1397
33
554
635
863
455
973
1427
256
582
411
233
984
2360
4987
7
626
991
1621
952
776
4406
1784
827
1077
2156
430
1639
24
787
474
1107
11
2009
1652
3585
2377
2573
2026
790
609
862
790
226
597
13
353
494
2398
2993
1260
27
2430
3021
381
1777
17
1759
790
1183
1203
779
2020
1033
435
2033
1149
4819
1197
1009
5570
1394
1368
1187
5801
3172
384
771
7
1765
593
2381
1989
12
1996
3564
587
1150
5049
568
354
3198
2
387
1801
30
954
1199
579
1206
425
386
370
1210
402
585
1587
409
419
585
375
4985
580
1426
277
1193
1776
267
1974
1609
1235
2456
3019
1102
1584
808
599
2397
775
594
6964
1382
983
247
257
1021
362
3786
400
1196
1258
4379
595
1397
1228
3571
2037
347
2787
1364
2175
3220
1184
1597
950
799
445
4002
3804
2228
2219
2579
2873
1386
2052
2573
4219
483
3277
815
264
1631
6001
789
387
374
6401
845
383
2988
2
1784
2460
6021
1483
873
2626
7
1804
636
823
1585
574
397
620
427
599
389
5981
2621
3556
984
387
983
1786
985
561
592
1
256
679
1103
2806
5615
796
15
2147
9
356
379
2194
3069
1191
262
2047
5
201
3435
593
1196
797
631
2394
596
669
1189
4391
603
396
5771
1000
1647
3477
1960
772
369
378
1422
391
1199
970
1071
26
1608
427
29810
1
587
4033
4801
425
1158
763
759
1140
4
1555
2777
1967
10
1191
1978
1352
6789
30
6714
18
779
391
4734
1006
2593
948
773
1
951
4966
22
1734
363
3166
5006
1589
3531
1170
2352
358
345
1750
35
738
9547
738
739
6
747
1523
3
358
1163
3177
393
1029
392
4152
3211
4796
1519
255
330
1177
1743
2976
2346
3788
5137
1946
1351
1122
3372
1595
767
507
1207
6
2960
1560
2
3149
1782
850
6746
331
1783
4
1146
1317
941
3341
2255
1350
3667
1996
571
316
1203
529
12
983
765
593
1583
6314
13
1597
2363
785
1011
356
3169
558
9
1398
4979
420
1421
557
2757
1129
5
392
2385
4
1570
5557
2840
2711
15
1570
817
997
1707
1211
8
540
2151
5
369
1989
4419
1296
5025
938
1327
649
2942
524
407
384
1947
362
2754
573
6730
1367
1058
4007
2016
1090
5979
3174
304
3351
349
371
717
2319
612
1539
161
3820
2106
1762
3975
1153
1585
4971
534
2133
442
373
2582
624
262
2383
1170
1759
1348
561
4962
4386
5
639
13
1997
4927
1791
361
92
791
742
23
775
1120
2020
2397
375
6591
774
725
596
967
2364
977
789
362
5594
598
2787
360
1987
527
1988
1579
1744
972
2177
2174
2386
374
553
1163
2204
376
437
1406
794
1157
586
2741
3163
3
5537
174
14
1322
574
1944
424
3170
1627
8
750
2780
17
537
3008
1351
1931
274
1999
2110
336
981
1009
1429
5588
8180
352
1028
353
4924
788
444
1547
1623
2948
542
1163
1507
3275
798
1127
424
4921
4981
2412
1716
398
780
226
15
6634
766
1993
2418
743
3945
3949
1615
635
4631
5335
602
26
540
1764
358
407
977
343
929
3
1107
1221
1130
8
386
4132
3374
4
1776
29814
2330
1988
380
385
607
2380
2402
5035
1999
524
6033
1622
1372
372
1132
403
2490
2357
7237
681
2544
414
765
1917
2264
790
1776
706
1170
8973
1150
211
731
1191
598
780
4327
3384
1384
1192
1837
5
848
1243
500
1580
10169
945
13
2148
5174
1541
3166
1662
224
770
1133
880
384
1913
372
341
2649
2392
1542
2150
2141
1024
2011
14
3583
1770
573
2384
263
8804
2394
435
425
2134
19
2201
2594
581
385
1948
2410
374
1033
1417
552
1996
6636
2717
4100
904
275
1254
340
959
402
3220
368
842
5219
5587
643
1960
3210
698
634
1967
1170
785
1142
782
771
726
1153
6043
6
641
1193
3990
3997
3643
4997
406
2569
393
2731
2259
1037
3641
988
260
13
1845
1777
679
2064
811
10194
978
4508
4
2042
6384
401
5633
799
5588
10
354
3194
4027
917
1124
3162
251
1399
387
1423
795
1391
392
792
219
12
238
3
1639
345
2961
340
5
6523
820
1835
3986
627
1423
1377
1378
3989
2946
2569
835
2581
1003
2802
3998
2933
239
729
790
6760
573
595
3139
4455
1982
3216
1561
4674
2097
1553
2387
947
740
1735
7362
1834
1430
611
2
426
2360
819
2300
2482
579
2143
2562
371
2218
1413
436
2788
1799
948
1947
380
1126
425
3001
4002
737
1552
1622
1843
1390
385
722
822
1378
1378
2329
878
1592
939
560
283
3815
1580
1319
363
2959
3163
1828
2809
1504
3689
248
1553
510
3382
5791
2388
1536
599
1810
805
1969
2643
5357
3203
988
1027
254
930
4037
3985
7635
206
726
13
395
379
1433
991
29875
1598
1584
1647
1396
294
1890
845
895
639
597
1840
8254
1248
2929
1234
404
2
1173
5042
927
2406
1807
2195
2394
1229
218
222
3383
2126
3801
726
2237
831
1132
1020
601
2196
2947
648
3209
570
3364
2398
443
1003
1236
375
349
565
1848
231
2159
806
791
3015
31
2452
1185
415
2121
8038
369
3794
4041
1595
1136
999
1193
991
358
598
788
2795
432
6239
9
2391
217
822
2026
905
378
15
4406
2674
853
1003
990
444
227
2321
3391
392
5131
1211
1570
2174
438
1213
586
437
1012
2045
3345
392
4802
2196
773
3024
3792
2508
824
1589
1795
7021
26
5365
633
392
1383
8
390
412
1198
582
3030
1015
803
238
2411
1192
2044
1366
3586
533
844
790
182
14
5391
1415
3962
232
2945
1052
572
819
802
2916
2649
1573
2822
775
1570
777
6401
422
234
987
3192
1587
1805
231
213
1200
243
1446
744
31
2131
210
1593
1425
10
5769
232
808
3782
1340
5602
798
840
607
1918
461
3789
1952
5187
185
769
353
1154
17
198
346
1414
2802
1761
360
1011
590
777
1776
1127
52
1144
1778
382
439
3016
1833
1423
3900
1776
236
1776
3371
3033
5
632
1000
1973
1541
2801
1004
1028
786
214
381
834
405
731
803
3216
2000
678
1178
1215
2840
7
595
983
852
785
217
1373
435
582
405
369
2546
638
584
581
392
560
820
249
1138
832
4923
1190
452
249
2008
578
792
1066
922
2829
4
245
2638
4836
3851
394
2975
5787
11
189
849
935
1039
2652
372
8
1127
431
992
7792
2736
635
2783
638
1
1771
1
446
8
2440
2191
957
632
3574
392
4
720
844
1200
4
2175
1404
6226
816
803
4
1989
4579
403
1395
5341
4615
986
1560
1045
9
584
439
1376
4039
3849
3
743
36
612
1479
1550
415
801
574
1849
383
12
945
7
787
393
1651
984
642
1594
598
995
822
780
747
2003
1427
1768
1217
231
379
1435
620
13048
282
1987
3375
335
2299
2679
3635
2209
8
13891
13
1483
19
1481
443
3148
2809
796
2878
679
28
1988
848
1114
3444
4
2167
3059
449
6434
1125
829
1046
816
6200
7
852
4223
4243
2790
467
2593
1170
1385
1206
270
2061
807
203
2043
9230
838
3491
7
395
295
234
1064
1469
929
471
699
854
502
651
748
30
639
1058
367
491
1239
1225
796
287
556
252
425
6229
1720
3742
285
30
2274
427
242
1454
1156
3062
273
1261
645
772
2704
803
1381
236
2244
3035
2614
1285
686
1846
1420
274
1584
5011
4027
2391
1015
1221
637
813
4222
838
485
2220
854
705
12
3861
3049
1
354
448
1278
251
2468
943
943
950
877
761
2216
2206
356
647
2151
1652
6627
1068
856
237
4844
1871
3254
1094
5043
404
475
3441
402
104
1802
1345
11898
929
28
4235
2597
2833
1733
1462
3362
1082
5190
815
840
4219
1210
4050
4991
997
209
431
422
1623
2380
2655
4446
1025
941
30
312
654
194
631
615
3458
974
1469
1453
643
2976
437
994
2283
18
1296
2535
1494
2018
8227
1470
658
783
821
975
1237
1974
5064
1083
2838
1641
794
305
237
1795
3839
1049
1209
16
486
4
1092
1054
4575
393
854
226
5209
4452
5861
673
1983
2569
2617
420
459
2034
3978
713
34
6436
678
5640
3830
225
1873
1032
3416
2906
680
3420
375
718
3238
3232
3190
7
545
11
3963
1788
802
673
2216
624
605
1213
5282
1237
450
841
2259
1061
308
2239
633
6218
5637
919
1703
1450
3151
2832
4323
26
1013
1395
29853
251
2
3401
1647
30
431
4
1381
1837
555
2596
648
1998
1
2012
454
3563
242
574
2804
13
986
15
228
19
1227
800
453
1244
735
2037
2007
6856
2631
635
218
420
4398
2643
1030
5851
3
1435
426
2877
3544
1646
476
597
646
8393
561
3840
249
614
800
784
3575
809
1080
421
736
795
245
1021
4008
807
6
205
840
1211
597
609
377
1005
4419
944
1626
406
2452
1237
681
1830
669
3423
2248
1438
3056
3
13207
2208
235
887
979
1773
614
2053
16
1246
2605
2196
231
2396
596
188
8451
967
1477
1976
645
12
2610
458
1282
1815
226
4988
1044
4967
1373
4239
421
982
802
1864
1032
452
2599
5438
595
35
1637
1471
337
1209
1017
212
3946
832
2161
464
613
1604
2040
642
2975
3620
6205
1013
21
4633
630
13
592
4023
247
633
2044
3253
1165
1245
1333
2256
1845
1464
617
3584
614
14
5594
1778
303
642
1452
640
3787
1054
1198
574
2215
12396
2
4651
1793
815
1027
5234
828
4830
383
992
434
1619
2595
1867
8031
3
828
12
1240
6
384
1187
1615
257
1265
812
3854
3603
838
2424
1812
1194
1148
2234
1241
1196
3218
393
1032
2634
7
649
1996
2679
1205
613
1026
588
14
939
1013
589
1279
2425
10
1353
392
818
6
7169
5795
2628
230
8496
736
6198
2392
3364
1446
591
1225
3427
2099
7043
2865
3862
474
250
1176
1069
979
2672
1996
1075
1749
5198
6
419
4
854
215
1412
1668
2799
7593
2374
1600
1177
1025
4196
1354
863
220
1454
233
5178
2050
561
1625
262
201
694
7
392
243
2388
1301
2564
245
1843
1
2164
1788
434
9597
2390
29854
787
3772
2171
3651
253
801
1544
3752
382
4790
3178
392
246
805
635
10
614
3178
3198
3154
984
612
350
373
2151
248
852
264
211
2745
809
575
17
979
19
2997
574
2564
2839
6
390
1213
1782
2783
413
395
553
981
636
5
2252
1495
4944
7405
10
1198
1966
3167
2449
20
1266
1841
364
1399
632
979
1797
1644
620
1245
1807
2779
4862
536
1590
796
389
995
336
394
618
1607
260
629
2998
379
777
798
583
4256
5749
426
393
587
379
633
1776
2201
379
776
635
2050
4406
1436
2004
454
720
596
12
585
3574
374
1615
970
27
3941
8
1026
7230
957
6574
3414
1964
647
3196
817
2832
763
1962
357
14
1974
1782
2366
996
2623
362
963
806
984
1616
615
776
3143
2229
597
1960
2372
2204
426
1042
4597
351
5
3377
6199
750
1608
369
10
2648
289
634
23
356
1968
1621
1027
1999
2388
9
1592
793
620
1630
5550
621
530
7
4400
1949
1220
972
3616
1354
1526
2
597
994
1190
369
1010
47
2642
2638
674
1743
2639
1155
794
1019
4977
2799
339
559
2781
595
1357
965
1023
1190
4353
3845
1204
1395
7768
2175
768
375
5174
376
1
221
691
4561
5548
819
838
2453
1846
3364
593
807
585
397
379
2633
1007
5529
1966
1595
756
1006
3205
3196
803
999
690
1613
1979
397
1568
2562
3168
3813
2404
1596
535
371
1433
2392
628
424
582
1405
5685
5847
36
926
1165
1405
2459
2853
27
2008
1359
1193
1337
3204
2763
3233
1272
4236
2386
1140
1
610
1142
3167
761
366
3152
949
977
949
356
1431
938
268
1121
7
753
805
1779
4059
14
2217
973
1615
3
3187
5400
1369
2443
1155
790
619
42
992
546
1367
255
4750
370
374
2838
3540
2428
29
1575
988
2171
1763
1177
572
1575
1821
19
4392
387
779
7
375
191
29860
356
1590
943
46
177
764
1997
8
782
2984
50
263
366
1040
3181
6141
782
5338
628
352
357
2133
8635
2063
2858
583
3745
2822
1333
2623
593
1137
582
1459
305
777
1393
7872
3394
395
1797
1007
3421
591
441
1219
4990
978
1825
2844
403
2394
3149
1668
1223
202
1763
778
2038
10
1408
1211
1815
1523
5
352
982
5818
576
2761
4607
2756
619
1816
377
3372
2
1551
1863
1989
2771
1017
1477
250
411
16053
2610
3166
387
10
1591
5297
2476
1570
5435
378
2962
1566
1058
1519
4
1030
839
2222
1987
5
3539
19
2615
3377
804
612
763
692
824
249
1644
1084
740
1780
1378
1595
3548
16
1788
1422
383
607
3321
2388
2662
3238
3625
260
769
1129
2209
8
924
393
1611
1374
2003
10
1621
1167
1571
2213
2160
1925
4552
1089
16
1577
1989
1789
635
6575
760
2228
1771
3664
1859
997
1
1795
1808
1861
1011
1620
2154
1199
379
781
385
4036
3791
366
3259
380
7337
7188
1378
4
1845
2434
1973
966
4454
2963
2863
2886
5590
1974
1392
1860
1624
2598
1725
600
548
2597
380
1196
551
1611
841
478
2570
3185
3890
885
276
2216
5592
6148
987
4
4574
2211
1819
777
636
2056
593
6
941
344
1019
813
488
444
345
1004
2253
792
1181
2
586
2172
1625
2962
762
4206
1162
341
2859
2438
1205
15
569
1829
368
2221
6558
1194
2977
5
993
1549
247
147
1410
2609
929
191
252
752
1445
2507
1426
2981
1
2739
371
658
957
17
5584
481
760
472
4366
1193
2357
390
317
2749
582
398
2585
998
1017
843
1542
4
1417
4399
1427
2141
1052
410
2529
2600
260
5
1256
275
2001
463
2251
380
3073
2590
29894
1447
310
837
3244
5674
4227
21
1801
1825
1218
3461
673
426
487
1399
241
1876
218
1398
5603
3442
1634
1276
1615
424
6457
496
277
869
1023
1881
248
1285
2890
1866
862
44
2815
3645
1066
4271
791
3596
1
1016
6431
1610
599
623
1510
3680
675
839
1206
1804
1309
225
2830
1241
1200
417
4031
394
1991
8446
1455
2830
259
208
11054
1711
2819
413
3620
2889
2396
3058
1639
2856
868
5186
2784
1797
670
256
822
507
799
282
258
452
3076
1883
639
265
2854
246
55
1833
847
1606
402
1039
1039
6904
4061
897
666
1129
1430
1675
303
2863
5787
1842
1800
263
3034
441
2225
274
240
2213
193
1499
1823
13
2263
903
17
2618
1849
5579
866
1993
363
1662
1037
402
1977
1432
3853
1192
612
450
884
33
2599
486
4849
2651
521
4251
281
257
1414
396
248
597
3015
996
241
396
1301
827
2067
3243
1617
1594
434
507
24
3993
2202
612
824
979
283
243
1868
451
1092
1617
686
599
1629
241
833
818
4396
1074
1018
3043
3251
1678
5225
2615
1632
175
266
1368
1446
1023
1456
1195
236
1231
809
1041
638
1223
255
2043
2483
825
264
420
1258
1898
632
1668
259
230
1044
824
1626
998
1235
5504
2274
659
6651
233
621
1025
252
463
262
267
296
868
1241
3436
1438
2206
1830
461
1638
1441
2798
3249
277
467
8789
1211
4395
1299
654
3289
1824
1087
1947
468
1074
568
2053
982
1028
5656
879
849
1363
804
2514
429
422
415
595
235
1394
4801
834
406
1408
398
253
2449
230
2197
2826
2800
2069
2066
263
2844
844
5
799
454
4196
707
4066
248
448
3993
669
479
1225
1583
640
472
1799
440
480
268
2435
486
1395
440
1
837
476
2093
2451
634
1015
250
3047
1049
645
971
238
225
31
6989
1381
28
5044
980
996
774
2413
3482
18
771
992
2322
1520
640
15
224
17
787
1214
2791
4755
1208
1426
744
2398
712
1394
4597
2007
1394
1575
4777
6
383
3226
2791
1043
674
17
1421
1427
6220
3049
33
432
162
2224
3027
12
2139
2593
2406
2184
4004
426
451
608
4883
4024
4510
977
1032
790
13
1788
377
1771
984
1187
3387
1217
2623
283
1680
1543
4638
3671
451
635
2879
382
2975
1653
2058
1
633
1784
1024
841
4078
1770
2973
1196
395
876
7023
1624
13
1221
405
599
328
3230
224
1132
2002
780
2232
3867
4237
944
5776
211
1194
27
609
1417
406
1179
2210
964
384
3
2720
1427
20
995
569
3359
4578
376
9
1154
2229
2389
222
8
2825
2249
7194
566
1857
3
2598
3368
3107
1287
619
1837
3886
585
606
1869
785
366
1238
1876
3208
1614
4326
2040
2010
6236
4335
10019
819
2608
1621
1016
3498
807
8590
814
615
338
4745
968
4
5741
9
3021
1854
15
399
532
1410
1607
405
20
3003
4
1190
1044
2235
3412
3
3575
6268
342
9
1390
2238
4181
6993
412
1986
418
6195
431
3194
1181
7
599
2
750
380
3
1993
533
236
3564
4184
247
3438
382
7432
1788
242
846
5
778
1231
988
2763
1579
237
20
1802
2
2810
464
5
969
632
3804
390
803
19
1215
994
259
10407
3803
414
3796
1042
947
262
1616
259
1053
2875
3576
218
4764
822
1810
833
791
359
1187
2063
219
1065
2235
839
970
1007
1
802
3461
489
1042
3031
4401
956
221
2333
831
1705
616
2610
2541
3790
1377
3613
459
2354
3015
3215
1786
29831
222
1387
2820
12
2411
1134
3583
2732
3593
24
5961
239
549
6
440
432
824
1229
2240
1236
2120
4215
225
2241
625
742
960
555
258
7208
630
441
4632
419
820
236
1
3956
2828
1598
392
6785
375
1186
2784
3611
1597
3361
257
407
945
1079
5
2833
3377
3436
350
20
5033
946
377
6193
2134
380
2002
994
2633
713
8
554
599
5184
2010
2454
34
2623
645
2845
1615
791
590
1407
1429
2940
805
791
8164
1345
1178
2207
1436
1008
5416
859
1142
7
817
5015
32
473
1485
1583
838
1059
625
633
1572
1614
716
1842
19
1235
2386
978
2010
2404
1025
1390
212
2551
4828
3
6679
639
349
3822
757
3798
773
6
559
3855
1749
2955
3618
1282
576
823
1034
41
549
25
413
815
741
604
5622
364
814
2796
3210
223
3078
3253
683
6715
570
12
1241
8999
3238
1203
953
11
204
378
1211
6
2572
262
4411
1585
406
349
1789
631
238
2500
1023
100
1664
2585
1026
1997
2433
2022
936
1206
1013
7367
5794
2427
799
1010
7078
1239
6832
391
379
272
1535
3044
3226
955
458
1028
1845
826
2150
16
2434
247
387
996
1792
4290
452
454
2628
883
3410
1646
340
463
942
1427
1557
1005
896
626
833
239
3344
2230
1
388
2403
1624
2633
574
1874
621
2774
3
1556
623
222
1419
1655
252
271
592
11
879
987
1029
2194
925
534
632
573
1618
1054
965
218
1408
1329
815
1201
4538
1430
1613
623
4600
1651
4451
4
1470
1067
3583
1722
6410
7814
663
3
766
187
408
2437
552
1367
10439
1013
2653
821
802
379
1585
564
3239
1014
10
809
779
1823
8
3821
628
769
3376
814
1825
4409
1618
4387
2398
3588
1620
1393
1229
778
985
2562
2396
2152
6036
1758
219
438
2383
597
1344
1614
2
245
381
1812
13
2240
4038
762
9
998
1986
588
857
792
1160
2448
191
215
1176
568
440
10
592
364
2024
5406
994
652
2166
1621
700
1369
1587
2809
374
777
2170
989
3844
1047
2
1007
1983
13
2019
594
251
13
2194
371
867
778
443
4207
4389
2833
1197
2
2194
2040
262
3408
5616
341
5815
404
996
251
364
993
594
3
779
197
1222
2194
10004
2230
1573
427
558
1599
2017
1802
218
1440
404
387
3
1000
383
1390
2
946
1168
3
2159
245
395
409
279
766
3398
2015
405
1845
1028
3241
612
244
3008
580
395
397
1189
3213
2439
575
388
625
413
989
4014
773
994
395
399
595
1400
13
4220
1881
600
374
2194
1813
1407
448
4982
1204
1995
2827
393
1410
1020
7
614
1046
1990
2865
1208
409
445
9
562
456
1028
1471
7
1194
2231
1956
2764
2249
2749
798
13
395
2198
1211
1018
4017
3842
6
348
1429
1564
2179
379
1228
6971
1199
4988
1546
189
830
2387
400
166
430
815
1387
1782
1441
2377
679
1000
1836
4967
5014
1005
2657
4223
1817
15
990
5
1608
1399
2626
1829
780
1179
1393
1005
389
581
581
239
3796
1383
1204
2181
1392
1037
1432
1962
1598
438
7563
1417
1
586
391
1810
1818
1779
1536
814
392
1596
678
1979
1424
3164
2192
1031
181
1760
1428
2439
421
414
5784
3199
1818
3822
4220
1617
1980
603
999
197
415
2016
1209
551
6240
4225
1173
354
1036
6176
3427
439
4
587
1163
213
1431
381
1778
1166
1256
1222
427
6197
242
1530
236
1575
796
261
1827
397
1018
4
385
2375
1954
1408
992
8
409
349
9
606
5185
1035
2144
380
3593
382
3014
2562
612
4994
824
1596
1569
24
587
376
3213
18
382
1382
3405
397
1395
5602
1421
1045
591
1417
5
802
1969
2
604
1366
802
1821
1584
1976
363
598
397
2411
136
191
29859
2398
1219
2770
369
768
3400
848
443
1451
998
1770
409
243
1043
1041
2671
597
776
454
266
1297
271
796
3043
932
2608
2784
3459
1178
570
577
1776
2048
1073
1404
571
375
375
1569
999
2199
2554
362
1195
1013
2983
2
1599
389
638
10
2811
972
4010
2852
2356
759
284
1857
1569
1218
1203
592
624
4407
2448
1459
1063
302
387
2394
1796
1195
242
1572
1392
5
588
3370
403
21
5530
205
2162
1390
1216
3266
1089
586
1429
1207
796
1399
775
386
1259
361
784
983
5569
843
843
5586
778
1987
612
228
569
648
2229
623
22
1413
621
3846
634
11
4409
232
485
21
1413
1369
391
384
8191
1593
1598
453
1033
873
400
1977
32
603
693
1171
1788
2055
6055
360
1779
581
1179
1577
374
947
3
2259
1350
603
1988
1659
18
408
587
455
403
3050
2783
2
406
568
247
1783
4
1436
2401
4774
1423
2654
363
2116
580
3627
1678
975
587
6
1171
1819
414
1653
6171
2407
756
8
2796
1221
869
810
2180
779
2438
2658
1463
843
1148
2013
1789
1396
1407
216
249
2
1199
599
1191
900
972
1381
407
557
799
2937
590
3394
2976
1570
3809
372
376
1838
394
3986
571
932
1395
6442
2429
1383
694
2589
1044
1386
4043
2579
1632
1012
181
1980
48
1441
1382
1453
3221
3580
1790
973
4604
3807
1053
232
231
1059
380
1360
1596
393
583
1233
3559
2571
1045
2385
216
380
394
1572
1
587
1402
990
3001
888
979
4072
2257
14
549
761
206
985
3251
2378
4836
2694
802
784
2236
1391
3849
2594
638
793
381
3634
787
3547
1854
407
1595
807
1434
1373
395
782
955
13
2844
388
1795
966
2
2784
6453
1994
377
2374
366
605
1167
1897
1002
4
2397
593
585
545
602
578
418
359
776
264
234
988
1580
2
4386
397
1980
637
546
2588
416
190
264
11986
1002
2652
284
1352
21
3593
3167
3067
1003
3026
661
4101
1401
1405
1195
1590
989
29850
1980
786
372
403
1397
934
839
5757
3168
369
996
1396
1552
1346
770
1539
1795
1011
2983
1415
3754
992
4
2352
2181
972
594
1184
353
1841
763
1825
1731
1182
214
1820
1999
2595
203
749
1984
3811
2629
385
241
1564
545
1785
1208
4788
1630
587
595
1552
2395
366
1400
24
4804
585
12
5195
1568
746
1991
331
1929
773
960
2
1405
3181
219
396
582
997
3190
3060
799
538
4628
1920
2762
971
2362
614
3198
418
607
561
362
2209
14
388
783
1792
228
582
997
13
341
768
2780
4766
968
1788
376
3
1159
204
857
984
1994
590
5160
360
1579
615
4736
6
768
227
1
1792
8368
327
1739
396
2605
8
739
1804
1158
1999
987
382
385
408
570
752
2169
1383
2188
575
363
4001
356
370
3772
1156
5
1579
594
6
3969
1988
1158
379
1624
783
368
746
6174
361
746
570
1966
1782
575
1177
784
406
360
1365
2396
563
727
345
3381
999
1599
3202
1176
1360
1398
20
770
5980
1244
3006
2
1005
353
2411
1253
215
1794
768
1772
603
1767
769
752
761
3584
3811
2
241
1567
588
617
759
769
369
1373
1797
413
756
546
5190
379
8
4354
246
828
2770
531
358
1987
587
1185
1957
607
1156
1985
992
5395
4746
1617
1621
26
612
3252
1326
972
4
1597
1591
768
1797
1408
12
1367
1981
1161
779
9
596
1154
1957
376
371
266
431
223
598
18
410
1012
1145
1593
1939
1
2417
2559
452
1
1589
356
1178
2141
604
3382
375
562
8
1193
1600
574
752
1997
1416
3179
2366
6403
1173
371
2996
4777
983
1006
770
2148
580
1195
1399
583
6
1563
1185
3456
3
948
4214
2409
1762
372
1750
404
757
1557
1578
25
2965
3596
380
1020
2
421
1011
2571
1165
2347
1010
2759
1827
1155
3569
4
612
3778
535
953
13
615
547
1981
5
566
2586
2408
385
835
2207
776
5
2558
1179
7
1577
2558
560
1220
11
386
1774
1390
743
1412
2199
2960
947
1618
1591
766
3
1793
1147
3968
4371
2792
3186
17
1375
1356
2592
29877
1472
1845
7
2118
1161
515
3389
27
2333
2
2980
2017
4
995
725
3387
785
1739
739
374
2951
3182
1045
1138
1833
4179
3527
2620
1843
5523
7997
1296
4181
1138
1631
536
850
3064
3297
276
544
2061
912
1217
935
610
3956
29
2040
346
1052
715
47
7017
2374
1349
4
709
1308
4379
939
2881
2457
2378
5000
1762
1782
2629
3241
2913
2215
732
4254
1186
391
612
604
233
390
8
1331
1541
3950
1591
302
1119
1423
331
764
3973
2612
2520
221
397
3184
15
2120
5290
1041
2963
2092
1
412
1897
8089
2225
1049
1011
1240
2512
1995
2
922
40
1916
1035
1129
16
13213
898
1166
5
5592
432
3301
3423
2391
1972
714
1452
2368
1015
4017
542
226
992
3955
4948
1096
1415
4412
336
626
4
516
1821
1520
373
385
502
1358
1473
2124
1072
1436
1772
5247
1764
7782
803
1818
602
534
3852
1429
4819
3
1197
9
359
557
1033
1948
3550
1193
1136
1016
2945
15
886
429
3362
1612
6828
195
1646
624
2748
2043
4406
3644
592
6443
3877
754
10
566
6
1231
3232
1278
1621
552
3197
1298
2
614
2763
1019
1182
342
320
798
4138
8256
984
506
2706
1317
1277
443
10243
2421
2418
2726
5
2991
3060
5470
1305
1621
3075
241
450
87
769
645
709
239
3066
1219
1123
332
1366
513
17
2739
1666
5737
1160
640
8113
1604
816
3510
306
392
2518
399
1523
26
1444
2361
3071
1709
3636
2555
538
458
518
1894
426
28
2792
2841
2251
14865
1758
688
1520
1723
1911
2866
1392
779
209
29873
1607
1692
1587
792
1810
1605
4811
3002
799
5779
2056
2439
628
996
2210
23
1846
248
8033
2055
4575
399
559
1237
618
1240
638
990
185
220
385
1886
1055
795
390
1805
430
973
617
1456
575
1054
2461
2315
5
1021
382
601
425
3796
969
3224
663
234
240
4
596
2993
776
1496
251
249
252
1218
2576
2058
2453
808
1394
4024
252
3009
229
2043
1064
1383
2215
4058
1279
1023
792
34
4244
1464
1197
403
910
6997
454
490
2093
653
597
987
605
3665
276
5796
431
838
787
4468
996
1579
6871
1062
397
1034
3848
448
2099
4
5019
4966
395
422
2619
1798
2638
988
841
3181
1615
691
655
2647
5672
644
391
2041
1472
457
2983
1395
1206
604
3013
1560
588
5784
3638
429
2381
425
1439
656
1974
3
1422
1635
2413
448
853
1011
232
1221
417
1664
267
1024
644
2902
1470
1188
1007
2429
1249
2578
2425
466
2637
1586
1645
870
3595
1016
1391
2817
11
1197
979
2610
3453
308
985
1991
1587
2176
1386
360
1644
849
4068
1510
635
3398
581
581
776
1978
4987
2202
635
1608
274
1210
632
1436
388
1195
596
1273
635
2023
970
598
1653
4530
1395
392
2655
19
789
3402
3996
1596
771
4412
882
1847
2401
1991
977
1459
593
1239
228
2236
376
222
839
231
777
593
236
706
556
4804
438
2635
389
1003
1421
2264
1638
844
4620
234
2428
579
1626
1241
597
1991
262
681
231
2024
3379
240
6424
840
711
2855
901
1027
969
1630
1557
1013
381
1439
2
393
3654
845
2815
1103
4858
5197
865
238
2230
798
4962
798
3981
440
19
3807
1140
3187
2007
588
6882
249
9024
278
471
1591
647
615
2291
215
2625
3038
244
396
2609
234
464
1363
12
359
1040
613
1189
354
873
272
3789
4792
629
29857
3400
11
550
8
718
1406
972
3386
763
8
962
3561
1973
565
563
8397
789
366
206
3763
2115
957
586
772
1400
526
577
1148
1414
3541
3958
8
2169
1584
1173
1155
523
1932
2352
1137
9
3593
574
2183
360
1576
5
384
764
172
380
394
2105
1856
2
1579
1782
525
466
1382
3568
988
1149
3818
4
928
214
1694
1327
564
4178
226
365
794
2
1376
1762
1503
3765
1538
1585
778
2608
1560
1772
772
365
1751
11556
964
382
10
8172
995
4985
1589
778
735
557
2106
13
1197
522
1818
927
982
384
1548
3369
8226
2187
147
2310
457
2992
3969
6
1364
1335
4
795
146
773
925
849
754
2145
5
586
976
2189
392
3586
1387
969
10
1312
1366
963
3627
973
3555
720
997
10
906
882
1762
1
1181
325
513
2170
10
982
3164
2583
1957
991
361
1393
1925
5798
783
1792
4757
1632
9
1169
1204
1980
3179
369
2198
3149
4685
2182
569
1978
1035
4192
2411
380
2575
2381
905
2
803
1505
39
759
3797
1755
393
2608
570
358
573
1
2582
3542
767
1991
3031
1191
2144
1961
569
2186
789
3569
1982
1198
5
599
941
3782
562
1134
2143
1196
793
775
3
385
357
2151
21
3094
2378
381
386
988
5886
1778
2796
956
1
3963
1773
1586
1127
605
4946
990
3977
2376
782
801
4004
2177
370
2555
392
1536
389
16
1584
382
1555
1828
3173
1370
2970
393
1976
1798
523
1155
31
1400
110
244
772
2618
572
1574
3478
385
4139
581
2545
3915
1387
2564
1605
3578
5938
2762
1994
583
1519
738
2712
2801
165
386
221
335
2394
777
730
419
1106
1218
3726
5373
1569
1312
3777
1
1782
1730
990
583
762
6
798
1764
4729
4989
971
1936
16
1024
1946
1280
384
5925
4412
785
1970
597
1102
1339
1226
1568
349
1758
512
379
4583
574
904
371
716
821
2919
689
3449
1228
7448
307
1192
1240
4409
878
6849
841
1649
2220
3477
849
250
4647
2030
5202
2425
783
2018
8276
5421
5172
9208
249
2159
454
1
1062
1414
7852
2425
3449
1562
266
754
618
362
458
1590
660
4801
9032
2243
5409
273
865
14
667
840
965
2
1150
635
2259
441
23
266
3
2830
2448
1083
513
379
2449
4924
4272
852
1203
2477
1034
1609
17
1267
11395
2564
2809
4660
585
2426
2012
10
1775
1277
1651
822
2379
1038
3033
798
2214
1815
4820
1873
4042
411
4014
559
638
4684
2593
17
723
4219
651
16
448
693
809
4448
11
1256
2283
2053
1467
2307
2220
2400
467
2214
2451
3621
620
1020
832
361
5034
3
3026
2444
4220
2865
1361
3232
812
1002
1195
1814
2
836
2235
209
2205
446
579
2387
12
819
498
1247
934
266
5656
3006
209
1249
1009
6035
449
214
2192
243
264
589
415
372
648
237
2222
2257
1625
5186
457
2025
4237
1410
455
2778
466
2844
411
2064
640
610
842
1054
395
326
1249
3
3645
1430
7596
2418
4220
8
258
1622
3431
2187
1251
295
258
824
3635
2
855
250
2
1393
2244
20
4869
1243
4044
1566
440
641
2450
3982
1004
3443
4600
1596
1470
2652
1061
249
1373
1823
621
1
595
1581
1470
398
5473
2638
393
976
257
604
1439
2292
223
4202
3214
419
9617
4
1386
387
2866
1502
2050
29
4646
1373
742
1965
1647
640
1454
2397
839
1164
1070
2853
255
1221
4744
2850
259
1257
1080
4091
353
7
1027
826
1810
2056
378
608
782
29
1633
368
1584
1599
2231
2370
790
225
1418
689
1844
608
1452
636
2492
961
1625
2804
1381
706
2
5428
394
554
5464
21
441
375
1573
338
2837
1632
441
4813
481
1393
1625
996
597
2685
3200
1599
964
3399
3438
8093
4057
596
4
411
7549
1794
3
615
798
1553
1412
779
407
1361
1547
1041
1219
3375
2365
2
599
512
388
430
615
403
265
23
4052
724
430
4585
13
1799
5001
431
2970
2486
2395
6438
1231
986
30
1040
7428
4634
382
604
252
1113
4157
409
6375
6010
447
627
653
1846
412
2333
224
1014
5
2027
2409
1144
621
17
3990
4059
366
7114
647
51
3
1221
773
1354
3835
432
260
260
981
2450
2216
1062
2217
257
376
6
2814
5214
418
23
435
640
10
4184
1
3742
3789
2929
369
215
619
635
668
4142
1482
571
996
1608
3008
7863
3081
4020
464
2338
1758
810
557
1007
607
2474
1391
1583
250
4858
30
445
224
1793
1009
1612
1229
353
2036
2824
1965
2620
806
726
1847
2141
3
629
177
4022
3
226
4401
1215
26
1840
2421
2
972
571
651
800
3222
853
1643
1827
1611
1683
1292
1231
1398
965
1946
2254
798
2448
3
4258
366
2611
4021
1024
2060
794
5424
3417
294
667
1635
3014
233
18
1411
3334
4071
6632
2611
1217
3222
3860
1491
1757
15
1022
4463
1240
239
2242
1025
6384
26
1014
1031
2263
2067
2028
432
1625
834
4642
1004
1970
2422
16
2595
995
1865
987
267
1638
1612
2811
1029
1244
44
1477
119
1532
2276
982
13
972
2
623
795
997
852
3137
578
1878
655
1590
247
1
475
1338
1825
1218
1394
4219
2803
4
578
560
1750
35
1359
1350
11
1806
1319
393
4163
999
16
380
427
11
1871
553
2
537
784
1853
4778
1473
981
29888
788
20
2549
621
2826
226
8228
595
1627
3831
418
243
856
23
1602
611
2257
1529
4827
840
1037
1573
391
801
1089
611
1214
1628
2226
396
4691
907
1809
1869
4041
1608
868
2061
790
3792
1459
1703
1046
5210
200
1593
635
405
1807
447
262
2394
409
2173
388
828
2198
347
193
834
555
265
4035
1828
4026
2426
2390
1013
2993
1018
1835
1848
805
1004
1788
2051
1498
3352
26
2564
352
1181
26
1984
3891
659
2220
1603
3222
594
1951
582
1
3167
802
489
1226
1022
1254
2363
993
31
564
992
1216
650
659
21
2623
1985
256
1364
254
3284
3608
3030
1820
392
6066
1033
1414
3027
16
576
429
3028
1874
10023
3594
5184
1654
840
9
1327
5
802
568
261
4461
250
7
1615
4989
1222
3236
2625
1040
1022
1470
808
782
2148
6
2993
803
600
2
2033
325
1324
1011
3768
2640
2888
3995
1351
1988
1597
1609
387
1197
459
626
487
1418
1374
2223
1451
271
599
622
2182
2620
3055
255
22
1595
385
248
209
7132
3431
741
4629
625
7
437
5728
1213
811
259
1873
2250
237
1814
3635
3264
1993
3367
1241
1052
9
563
1199
2958
146
2185
12
3396
679
3686
604
2411
35
3402
617
3
1033
2197
3176
669
293
696
1838
6
794
21
2181
268
5145
1419
413
1421
4
1237
769
999
5382
1570
4449
1008
10758
2250
5300
1408
5885
3483
2097
1440
993
1159
32
742
1401
329
4635
3376
2785
627
379
2179
236
4
3826
2288
290
2197
1210
1
252
641
636
1187
3224
227
1472
611
2099
1844
43
138
624
1800
1617
1243
249
2878
379
18
350
614
1989
6
1363
417
2621
596
841
4137
1205
15
562
3686
265
401
29
399
3972
6021
827
328
34
628
391
3193
4594
1466
5
2853
875
1817
11
1943
225
1129
2577
402
402
2225
15
1214
358
2389
1175
784
1432
12
4192
266
393
600
393
219
1622
3268
235
420
2965
2233
2598
3984
535
777
2619
6249
1197
1146
3567
372
1021
1782
2039
605
5046
434
5355
973
438
434
4222
1824
2053
807
769
21
2165
1542
1275
1410
1776
4141
272
36
2355
4679
3199
8
2224
1751
2185
4220
3165
787
2616
3865
2
577
2233
247
1358
1201
1230
782
620
419
1680
1550
470
1205
1007
9
996
862
2093
2
269
1
255
1025
846
17
985
455
1597
834
274
1783
999
1829
4313
1432
2566
17
3356
474
399
2979
1070
1028
1644
1056
1856
631
612
1772
1242
3764
1190
1254
1018
1598
848
453
11
964
393
1181
6453
1661
613
1068
1612
544
440
983
383
595
635
3799
445
944
260
3
1873
1153
644
835
809
220
1630
986
409
4819
1007
33
206
17
2159
1
361
789
5394
2569
1455
841
1061
1203
30
959
261
793
837
221
589
569
1943
1157
993
405
1471
557
4015
571
6195
1032
229
2662
5201
994
1849
47
1066
477
1828
798
1384
181
3433
854
3463
2
2595
2433
2768
1371
261
1196
16
4159
3033
3550
1912
2272
1868
1789
390
798
2041
1
394
3235
944
214
1995
788
1260
1265
1188
584
570
798
382
2299
390
818
798
261
981
1211
429
3049
807
597
396
434
2035
3631
1027
980
2639
1184
553
1855
274
4837
986
5
2057
4
1181
1035
8194
1628
1774
663
1206
393
1192
2079
802
582
797
632
2229
1432
1212
1188
1370
2412
2833
8173
14
605
3785
1425
1061
406
2418
2541
3863
1852
1358
1474
3234
1181
747
988
376
1847
1026
254
3194
617
803
3119
4598
1536
2221
423
395
2189
1431
1848
1825
1273
1436
405
2169
1814
760
28
808
15
2641
748
1411
1198
1998
830
756
35
1196
1390
1235
2395
264
5222
3876
1358
194
266
3591
1407
2827
12
1218
1649
3
429
2280
627
1068
1997
1254
3466
774
2271
258
302
1072
3213
575
29887
872
1037
2
258
1197
2378
1009
299
2656
1385
3674
816
1699
368
1662
1750
1062
2591
1181
1770
1840
561
3642
1389
5816
21
648
5
830
993
2091
3903
403
583
6240
1238
993
5063
2995
6
1621
264
2827
1060
394
1248
1245
2
934
1428
1199
3666
1238
3532
2046
3227
3198
1260
1645
399
393
1439
266
889
649
1327
2241
613
2593
3369
1037
755
616
1070
550
1409
3797
3180
2391
2255
1363
2038
2635
457
1825
765
1021
4182
618
646
7373
445
2195
607
1596
498
1227
1431
2022
1997
2212
995
2269
5774
2015
4028
1840
18
431
395
4187
249
1175
854
784
1245
1000
4820
1130
12
2747
619
2238
967
36
2797
3252
9
3595
1018
1811
2542
591
3120
3259
2999
4788
4798
769
1232
1056
1164
428
369
9816
1786
46
5198
1986
656
1631
4411
236
40
1213
398
841
1231
776
797
762
623
4574
2262
1426
4235
695
523
1637
199
472
202
847
4853
4511
232
769
3345
4
3396
584
4994
1218
8
3050
839
1175
1412
4192
1938
4453
822
225
965
1842
970
3844
3398
1889
618
1616
2040
2196
596
10
3457
772
637
1587
386
437
1692
399
387
1470
6
253
347
1229
585
1396
1635
5799
2179
2448
1457
2776
407
790
2034
4
1412
666
958
542
3212
3391
1841
1991
440
1400
3779
814
631
1186
1403
1830
489
630
2068
359
624
236
2824
1213
815
462
3249
423
3396
4182
241
1232
5776
234
6
224
2
1047
7
3645
1059
792
1967
2049
1984
551
1245
8
996
1611
2193
733
1037
2365
4278
1192
1411
2216
2785
7
1442
1816
747
373
3436
2198
3599
584
1200
195
568
2403
1441
1379
2642
211
675
306
1454
1449
1510
4026
4189
998
603
8895
415
1431
678
1057
413
187
1038
1409
366
445
1008
1837
2644
997
972
1618
952
6211
1247
375
5576
427
2023
224
1955
4812
1742
2546
1585
6383
1989
2
4313
4
630
347
5
1185
1620
3364
2408
1446
4564
2
360
1904
7
3557
4
1177
949
1587
5597
14
449
3529
2176
338
395
858
1579
11
1802
3602
794
7299
2965
1429
555
609
3429
802
8189
5839
643
966
1735
2855
817
21
2244
340
2002
413
647
2163
2621
432
394
1363
565
8
4441
249
2406
4140
22
596
1643
569
1023
1272
2380
1047
6
3211
3046
856
4
436
371
857
4194
18
363
362
2425
1065
2586
1594
1153
2846
6377
2637
260
270
2888
4030
27
5512
5566
2178
2034
1098
525
350
3239
399
3642
820
971
667
419
872
975
1647
5779
399
1990
2206
724
352
3661
882
18
366
17
2369
358
5
385
325
6170
740
3569
1421
1562
3339
358
5155
386
5940
379
985
1424
392
2215
751
3585
474
1136
1136
254
2958
5140
266
806
2408
413
3411
263
2270
2267
1256
767
481
7
379
3841
3790
4607
1949
4224
1630
2
835
608
2795
578
6033
2819
571
1931
1586
644
2117
2848
1
1978
1018
1811
15
8394
1026
1194
1221
1967
2636
1762
367
1
1362
5952
2779
3623
716
2263
1849
1367
3034
8
1513
528
1446
789
11
448
402
1155
958
389
3844
5583
798
1844
1338
1962
13
369
1397
397
508
3607
478
1945
3598
2202
4043
2434
3598
563
960
7335
3607
1756
991
2757
1138
426
999
2410
6
4661
340
2012
217
510
579
476
2182
956
605
455
802
2611
4369
801
1808
245
1117
1799
3230
2435
3118
612
1620
568
4266
986
1995
1020
695
3606
29938
887
288
888
1279
322
3282
478
253
2117
3633
27
1100
1520
624
735
316
1040
2418
1684
1840
7478
493
517
1608
3294
5145
615
796
650
2393
1042
1402
2233
2508
1270
1031
1716
993
280
878
2735
2802
697
363
1944
1558
1322
339
2290
1553
6702
647
3984
2285
3893
475
2657
537
653
1180
4917
2443
5041
468
397
399
413
3646
3065
1241
863
625
1036
773
2573
3234
1649
1607
2102
5311
545
1843
464
471
909
12277
287
418
607
468
1049
258
1039
3348
4241
2306
287
1290
338
3729
1570
16
3438
2049
1699
289
2126
3679
877
889
993
1190
1297
5825
2645
3657
604
624
509
1452
1509
1302
280
833
2444
9303
1466
1165
677
6235
4845
2483
4516
1351
860
4042
961
1630
3603
3805
1049
2478
260
690
209
391
771
294
649
1591
388
1192
1442
683
876
3361
699
473
398
1183
280
467
1015
2284
2069
2695
3234
1805
2830
3285
5661
2289
247
362
1261
1043
811
1691
2057
34
2079
2928
5609
2831
1094
242
1597
1672
4483
1479
788
2569
1495
1714
2
384
677
2353
3262
230
940
278
444
3860
2132
453
3871
5079
1658
10442
1349
729
9
2844
1317
291
309
1334
1551
306
821
2837
862
5078
6623
1700
43
592
2284
1079
291
395
2060
4268
1429
1416
850
273
1442
872
8702
9
2792
3243
944
295
7470
434
3371
2703
3121
2219
885
7
1698
18
2431
460
1284
5562
711
14
3180
1702
1435
17
1941
386
7841
3239
1268
898
1036
3062
728
1734
4541
2646
3694
1228
1034
776
5708
864
16
235
2643
1731
942
809
2478
1776
1399
1628
450
768
597
1013
1699
1189
660
232
3287
4897
4241
1219
1585
1706
837
1558
265
1266
4280
2652
428
1243
3054
361
2456
369
9684
787
1658
8625
489
1537
1036
334
3636
5
1065
1956
2048
3803
609
1887
3120
5648
1154
660
7
850
818
450
3998
1052
441
3220
614
329
669
276
1198
645
1859
1370
9
1009
769
1566
419
1196
7066
2475
242
434
380
814
798
22
888
563
3578
1648
786
254
3781
2635
437
16
2997
4268
1642
1438
6908
4471
2596
825
2035
1292
3693
4017
587
373
366
2232
388
1
587
1414
4451
13
469
2
1887
840
1910
23
2307
24
2803
857
476
4220
5308
3619
1246
4388
215
1039
842
1446
613
1611
3691
2438
265
9
1886
2
1248
561
3271
1578
7398
647
2633
989
439
1459
834
3777
3553
4053
379
508
4818
1611
837
1212
1818
339
2226
251
5240
369
838
1668
795
436
5398
2583
1043
649
1419
6446
1611
1213
3852
1056
4833
587
1371
9
1593
3049
3850
1021
2938
646
549
238
1048
3176
2014
5084
651
660
3008
2048
2672
3377
9
377
1504
3053
1341
2419
873
2650
3
577
5639
20
1669
1647
1609
2179
3638
461
226
646
410
2431
1867
285
494
1645
3189
1
269
4013
1825
258
2019
586
1393
352
2275
1556
2415
1157
2613
232
830
1645
1849
168
2618
444
268
1424
574
632
1629
1558
2190
1172
2658
1
649
864
908
355
848
1345
3417
1260
780
1813
608
838
869
1788
5855
191
3214
6252
2049
1365
809
1425
770
1035
1223
3005
1666
6
264
750
9
806
1396
206
1410
245
646
619
1697
1613
6503
3994
643
495
5461
235
411
399
623
2845
1237
547
394
4033
386
2465
3256
624
1839
614
2732
7993
1863
797
2988
1230
801
3547
584
1977
1620
925
784
2204
1005
1656
365
5433
1026
3519
4176
783
870
598
1043
2023
1434
4055
757
1263
1801
467
440
578
5648
1333
3650
569
15
2152
2771
5140
1624
935
689
2380
574
279
3302
1065
3619
3938
1182
3658
530
2197
1476
980
353
187
27
1754
1155
592
2039
634
1848
4424
1256
893
964
3176
1352
380
3386
3180
577
1648
763
3943
10961
1248
267
1238
754
1152
4897
935
431
232
1882
2776
3595
560
1337
539
2037
1377
1391
3927
2195
4472
3785
7525
1982
1566
1221
4199
3348
4226
2234
1966
1385
1332
6587
1553
2245
3070
3795
586
3749
262
4136
431
2590
3640
606
6
597
10569
4254
3961
2433
9
1022
4334
825
3345
248
4008
29
437
3781
1060
1472
7810
1193
1226
629
13646
2210
859
1137
972
215
1453
2665
2
2963
2914
1589
2874
2399
2955
5586
1207
757
1393
1936
2641
264
638
621
4237
674
2176
2788
1656
1735
1461
969
862
509
1204
1311
2394
1206
4549
5424
3544
1197
5576
2582
3609
2778
2787
4015
2773
4398
4116
3356
1185
3813
1283
2242
5789
966
5037
2217
4118
774
1224
2745
1571
977
2267
1015
1570
2031
6
7593
35
3152
6460
721
1195
15833
954
1124
1269
997
12785
1433
4985
245
2042
3796
741
1207
1143
1080
3795
4987
393
442
250
1375
374
592
577
7
1448
1261
1231
2020
646
629
3482
1224
251
4089
2633
603
779
1829
2371
384
721
1615
2192
26
2773
3034
865
563
3009
3193
1
547
2422
2444
5230
1813
1051
987
794
868
681
1811
2579
2616
1601
2225
595
429
1442
2173
9
755
1824
1232
5031
2403
1451
346
1418
56
1805
407
791
1265
593
993
4574
202
4609
1218
1397
223
13
206
976
596
18
8150
2999
1376
832
665
348
3008
945
1425
600
4056
1
2400
6
382
3235
1024
778
1597
4225
3798
3182
1197
1850
1676
240
26
429
1397
166
420
971
3236
444
204
793
845
11
796
664
386
1283
427
588
244
2
601
1600
4184
1398
558
435
450
858
5045
18
234
3388
3446
830
2448
40
823
1961
1149
5601
610
846
1604
1192
1835
27
1397
562
3
214
4811
2098
1252
1
396
794
1835
2022
5995
3615
1392
396
389
802
254
1019
1403
358
379
5417
3187
3628
228
398
616
1159
994
376
1246
1790
1
1197
785
4388
1431
597
247
841
1408
2796
1004
1615
2202
1012
594
4616
2578
991
263
1797
217
2374
1395
590
6624
754
1617
4215
7830
3153
1440
847
17
339
366
267
679
452
8
1190
1607
896
403
2459
601
1009
833
3986
430
566
6
576
1855
3835
391
608
859
16
2346
2222
435
3
390
1201
638
2801
1620
2191
2596
2599
1425
393
989
1191
1635
7634
32
784
651
1799
641
266
2
1391
1047
1024
1275
583
789
1577
12
1364
623
2848
451
3036
1999
422
1413
410
4459
842
1663
642
1842
10
258
988
211
3437
2867
13
394
3596
619
4198
6989
214
4580
1185
12
1165
6416
1189
814
1681
173
1794
997
3002
964
632
637
1383
3217
1224
777
391
239
985
6005
2219
16
1570
352
1445
381
1966
207
437
1212
1424
1411
3689
3267
597
432
271
598
645
1444
567
1766
2005
2191
7363
787
5148
1219
4041
846
1985
253
1739
1235
660
6
1377
4533
7748
3
5834
1165
2373
273
1395
2183
3206
397
5765
1061
783
2072
2063
1792
11402
2219
778
2231
1223
6574
4045
1802
1853
832
2977
1040
4472
2539
5096
993
1789
2015
5632
206
2034
1460
1392
606
738
587
530
1408
2818
889
524
195
5932
577
540
2832
1750
9
3240
420
799
2580
202
1629
1332
1026
1326
3319
3241
2187
722
405
2376
4403
6001
2261
7431
6778
1210
4356
398
4224
3195
1467
572
4201
345
421
4
780
1780
8
7049
5223
3319
1796
825
1732
2557
1463
1375
2767
233
522
2207
1024
2888
958
2234
1049
570
1627
2988
1562
263
16
2061
531
620
1422
798
392
1147
4198
601
616
2167
3304
974
1860
383
219
38
792
1559
1617
521
1058
749
977
4626
6
2237
3735
1817
731
418
2011
764
1023
4958
2199
1231
7621
1417
1037
1017
1531
577
17
1173
23
2448
389
776
6002
592
618
1741
1828
1994
2
4401
3015
13
1587
935
1759
3022
602
244
420
1345
8
351
2440
632
346
3180
358
384
568
239
599
628
2519
2661
4674
3318
1585
791
2007
381
1980
3207
592
799
3633
3832
8
1200
5
328
940
1980
774
3846
632
2777
2359
366
5632
973
3649
1595
918
939
3364
1247
1168
5404
422
931
571
2624
3795
2761
12990
1225
1735
368
6955
3049
795
383
1197
5980
368
1057
3337
1205
604
1396
1
370
1975
3827
1136
4735
9
365
976
2144
1645
1167
2985
3160
29850
3813
341
358
813
363
235
233
1212
403
208
2996
1175
580
2113
5253
1394
5588
554
13
1395
7198
3166
1154
630
1162
49
404
224
6759
2804
1966
2929
998
1007
911
584
2
382
1004
968
986
1168
572
380
1398
1388
508
1237
1358
1162
14
401
566
624
591
618
1210
2090
376
1383
953
566
2425
999
2972
20
1134
3347
2034
2521
382
5947
942
250
1311
3980
1588
395
16
1026
662
2
1607
7160
3153
776
2520
418
993
769
388
12
1384
1899
400
6
1996
2396
404
12
1157
975
2170
12
2743
365
10
2323
20
2018
1979
393
3355
2798
1980
545
1003
1021
603
4
390
1985
343
1781
3845
1186
1084
1827
4378
562
8
1177
3803
1971
1649
3404
3916
5768
1366
2318
2147
4
727
2062
965
1212
2220
1324
2779
8580
2552
2660
1063
433
983
420
4735
29
942
954
789
2548
249
1964
4205
596
1196
1581
562
2790
1198
240
2598
568
234
378
1007
5116
1724
3167
2945
754
235
3515
3246
1314
1818
436
1016
1201
251
3183
756
659
2754
2021
1800
776
3433
2196
1786
553
570
5
3386
294
1441
1153
5
770
7
340
12
2993
763
5156
915
636
3561
1120
341
1774
995
2186
2177
1
1789
1118
782
3173
2789
862
1356
820
3014
1
1356
2019
374
391
1688
414
6789
4983
1996
755
626
1175
391
1377
6753
8
3188
2390
2164
1003
2554
1190
412
2601
999
1374
4373
14
583
1110
4231
3319
2038
562
3121
1055
6122
489
1818
1814
743
623
725
795
248
2553
7
6498
3821
221
816
1187
1186
805
1990
731
2
405
1157
794
241
2184
2005
1771
787
3621
2389
12
1410
2903
788
3506
1803
414
370
1109
1198
2204
599
1201
386
2594
552
1625
2594
5186
1309
1145
383
1170
1591
3
401
1191
1596
422
1577
1383
4792
2752
1164
954
764
2421
1987
6948
29812
5532
15
1343
1391
771
722
1095
656
1590
1334
406
8526
3
5989
3253
1416
1115
730
19
211
1
2196
478
2343
2972
604
1433
688
1183
175
2050
3938
632
830
1240
1193
1775
4
965
10
2131
2192
772
1438
3954
11
1166
5197
406
797
1232
2959
241
2212
286
1351
612
956
3744
39
2215
339
1197
787
2617
1535
1464
413
3862
4987
5734
420
605
2940
722
2207
130
416
1236
1491
401
1991
14
983
37
1421
1036
11
3146
5618
1
1374
1057
371
1387
14
933
6834
4570
1
5166
1431
1818
22
493
2449
4848
398
3431
1424
238
447
319
1473
2031
2493
841
2119
4581
1393
593
973
574
1564
4197
545
3
333
2396
7
8170
773
618
849
2767
4
5973
1917
5052
5314
2591
607
3
796
2348
3407
1457
2576
734
3214
1393
575
428
5451
1140
965
2874
437
436
439
3759
19
1401
1576
2679
556
1331
2342
3861
846
7796
2798
405
1183
669
351
2047
390
1610
6191
3132
2614
1262
6164
3034
2172
2782
1116
2376
369
3136
1598
1869
1492
1543
711
23
1595
12
3776
10
1788
598
373
4367
1431
3319
989
415
777
371
1617
1751
2557
7247
17
6776
9
1956
6
1332
547
567
5539
426
435
736
235
3422
2
2640
776
248
2964
2416
2178
362
3
351
15
393
982
1350
368
3178
732
987
1330
2688
2352
673
2536
12
2736
857
1937
958
9
354
1846
4886
3960
970
498
1222
3258
958
3128
1741
4019
6562
7
1818
6609
1798
12
960
966
1272
1936
7996
8
5914
399
1724
1174
18
1184
349
3312
9
1393
1584
1169
372
3417
6012
1925
2531
4261
673
2394
4154
2947
1955
789
220
29812
1989
1973
9
5792
655
770
2591
1419
427
359
1986
3107
2624
969
5636
713
1590
3389
2513
2766
14
332
36
1540
963
2989
417
495
340
3626
1398
593
9778
2900
4
412
1979
3254
8572
950
3001
489
1504
1137
2844
6193
7616
539
1505
4396
1445
9577
1523
433
3199
543
1153
5114
22
1792
3554
1558
3597
8412
5370
1
1751
340
968
1525
214
4734
748
68
1356
2144
9079
626
548
998
3392
8192
2398
5941
1329
11207
1149
1245
3167
1259
11438
193
8780
598
912
10
2229
2294
176
418
946
6418
1716
3291
1146
2742
1445
4347
988
2030
11360
2964
20
4545
1378
1625
2116
2225
3110
2815
526
208
6140
581
1033
1003
267
4996
564
245
1413
426
8445
1718
802
543
3494
2165
1365
5398
765
1568
7371
779
562
379
11
345
1242
1428
6515
29
3229
2358
822
1825
2344
1421
2146
4373
1735
219
1196
4716
348
379
13140
356
8337
1232
2331
2637
2713
3448
4824
3197
2947
1767
3900
1680
17
1543
2995
14
6893
5124
3785
5900
2433
3279
231
2580
404
2024
1790
2133
10088
4164
737
623
1185
2795
357
3196
10
7592
4188
361
1722
2249
766
2372
2164
1755
5756
3589
822
513
2578
1721
181
247
439
628
5
6160
2956
1919
6
421
260
1200
250
1567
1242
2137
2039
14
1467
1
463
555
2820
940
3380
1183
2383
2976
1611
4389
384
3756
2405
1622
2443
5596
1403
1590
1188
7218
2849
3165
2607
310
30
3222
236
404
963
1063
408
1144
3641
2591
759
2245
4622
844
4312
222
429
973
2985
3363
1031
208
4964
448
1615
1826
1
974
2394
642
2436
23
2799
1416
1162
1623
1566
1384
843
247
742
348
983
779
818
574
5
256
869
5445
365
587
5180
3217
807
606
2035
668
1832
2465
1
2240
2202
27
2094
3328
1389
1596
3783
1742
8
399
2842
3059
4369
329
1691
4260
449
834
616
1397
561
1030
1457
3250
255
388
5162
33
3813
10
265
1845
445
450
2809
1230
872
16
6997
1585
1249
412
539
564
996
815
1577
27
1431
267
621
5
574
3039
2174
20
2157
346
646
2158
831
1843
1008
220
898
1163
274
11
1814
2199
647
4208
630
366
2457
190
391
406
3245
854
2232
5
1068
367
1193
1648
1630
2857
2807
810
3881
1585
1936
1975
1447
381
986
2589
391
3815
2576
845
2194
634
1419
567
1674
257
1199
1857
2442
5
581
3644
2796
3213
1
2836
1981
6868
8368
1751
590
1671
555
630
1985
827
216
260
813
12
3573
1433
1074
2226
2
767
881
2451
20
1401
3017
792
6636
3614
370
611
1196
371
849
3989
2792
3
725
3
3033
827
1590
2259
632
6
801
618
12
2369
1607
2778
856
2290
19
352
7439
2232
259
1894
2340
2767
1367
2420
1988
4022
1551
2275
3165
1984
615
2211
2018
2581
1257
1440
568
1423
4983
3962
1026
234
724
4839
1622
1930
1868
775
1060
600
1556
1061
5986
1781
1791
11
241
6
4612
2654
2847
362
653
2170
1998
2877
1289
