100000
100000
2475
900
5100
900
5475
1500
2400
8700
300
975
6075
900
6900
6975
3600
8400
300
100000
4800
675
8475
1500
1200
5100
9000
3000
900
600
900
600
4875
8175
2550
1500
2700
2100
5400
1800
7500
8400
600
5400
6000
300
600
7800
5100
900
2475
100000
2100
4800
3300
4500
4800
3000
5700
100000
3300
900
100000
2700
4200
300
3900
3075
2475
2400
2100
2400
1200
7800
6900
100000
5700
5400
2700
4200
100000
9900
1500
6300
300
2175
2100
5700
3675
600
9900
1800
7200
5400
4500
4200
100000
1800
3600
3000
2400
6900
9900
6900
7800
675
4800
600
900
6075
300
1500
2400
5775
5400
3300
1800
7500
300
2400
2550
3675
3900
3600
3600
1200
1800
100000
900
2700
900
3675
750
100000
100000
100000
2400
100000
100000
1500
100000
100000
5100
100000
300
300
3000
600
675
7800
1500
4875
4875
600
6900
100000
4500
600
6300
4200
300
7200
8100
600
3900
2400
4500
100000
1200
75
3600
1500
3000
6600
6600
300
1800
8100
1800
2700
7200
600
1800
7200
4200
100000
2100
1800
4875
100000
5175
4800
2700
1500
6375
2475
100000
900
6300
2700
6675
100000
100000
7800
9675
7200
7500
100000
1875
3600
100000
3300
100000
3600
900
600
100000
9675
900
6000
3600
2400
100000
2400
6075
3375
100000
3525
100000
100000
100000
3975
1650
900
1500
100000
4500
6675
2250
1500
100000
525
6900
100000
2400
8175
8100
300
5775
750
900
100000
6000
2400
675
3900
100000
1200
1500
1050
675
9000
1800
100000
8775
900
100000
8400
4275
1200
3000
100000
1125
5100
100000
2100
100000
3600
2775
6450
4575
1350
600
1200
4200
1200
8400
600
900
1575
1200
3300
225
7875
525
300
2700
9975
6600
1800
1200
6600
5700
900
600
2400
7800
900
1800
2400
2400
1350
8400
2100
5625
2475
2775
2700
9000
3300
300
900
3300
5700
100000
9300
900
6000
100000
8400
3000
975
375
5625
100000
1800
2400
600
2400
4200
5400
1500
4275
3000
6600
1200
525
6300
6000
1800
3600
975
100000
5100
3900
3000
9075
7200
1500
2475
5400
1500
2400
1800
5100
5700
3300
9300
300
100000
75
7500
1800
5775
600
4950
4500
7800
4425
2700
2175
6300
900
3300
600
4875
4200
1800
1800
3075
1500
2175
9375
9600
2175
1050
100000
1500
5400
3300
9000
6000
300
1800
2400
2100
6600
3000
100000
1200
100000
4950
8100
675
2100
100000
6375
6450
3000
1800
5400
7575
5400
2475
1350
3000
2475
6000
5700
5100
100000
100000
6900
4500
3300
7200
900
5100
100000
4800
1275
100000
3000
4200
3300
3600
9600
2100
2700
6600
2700
1800
2700
525
5700
2175
7200
300
300
600
3600
100000
1500
3300
4200
5325
9075
100000
3000
2100
4875
100000
3000
1200
2100
100000
6075
1275
1800
975
100000
5475
300
3900
1125
7800
7500
1800
100000
9900
8400
100000
1800
4800
100000
900
1275
7350
1200
100000
9300
5700
1500
3600
3000
1575
4800
7500
4200
300
2700
300
1500
5100
600
1800
4800
3075
100000
1425
4575
2100
2400
100000
7950
1200
100000
4800
7200
3900
100000
9900
1200
2700
100000
8400
3600
9000
1800
7500
4650
75
4350
100000
100000
2700
2400
4575
2025
6000
4500
2850
1200
3300
4500
5100
600
600
600
225
8400
1200
7800
100000
1800
3600
2475
6600
2700
6900
5100
8100
4425
9600
5700
1500
2700
100000
6000
900
1500
100000
3000
1500
1800
1800
2775
900
2700
1200
6000
2700
100000
6600
4350
2700
1500
300
100000
1800
900
1800
1725
675
2775
3600
6600
1500
600
975
6300
100000
5100
3300
100000
5100
2100
100000
300
1200
7725
100000
300
4200
375
3150
100000
2400
600
5700
5400
9000
6375
900
2400
8475
3900
3600
100000
5700
600
1200
100000
2100
1800
100000
1275
9900
3375
100000
600
6975
100000
5400
900
300
3000
1575
600
5400
3375
75
300
225
1500
600
6300
2475
4575
100000
2700
1275
1875
900
3900
4800
1950
5775
5100
2700
1500
3675
2775
1500
2400
900
1800
100000
300
75
7800
3300
2400
5700
675
7200
100000
7500
900
2100
3600
4800
100000
4800
300
225
5100
675
7500
900
4275
1500
3000
1200
1800
2400
7500
100000
3375
2400
1800
100000
2775
3300
9300
7800
6300
600
6300
3000
1500
2700
1200
3300
2475
2475
7500
3900
900
100000
3000
1200
1500
1800
9075
2400
1800
600
3075
2700
975
900
5400
1200
6300
3900
1575
6375
6075
4800
300
2175
100000
4200
300
100000
7500
900
2400
2700
3600
1275
1500
1500
1500
2775
900
2400
1875
100000
600
5400
3000
1200
1200
4200
8100
9000
450
1200
2700
8700
3000
900
1800
9300
675
3900
2325
100000
7800
3225
5100
1500
6000
3600
6600
4800
600
3375
3000
6900
2175
1200
975
375
1500
6000
600
100000
5100
1275
6600
3000
3300
1275
600
100000
100000
5100
2700
4725
2100
4800
8700
100000
2700
3900
3300
7500
3000
2400
6600
900
7200
1125
100000
1275
3450
8700
5325
1875
100000
300
6600
1500
300
1875
4950
2700
100000
1350
1200
3900
600
75
3600
100000
6000
4200
600
3900
3600
300
3000
6150
7500
1275
100000
2100
300
375
1950
100000
2100
1800
100000
1500
300
600
2100
100000
4500
1800
300
100000
8700
100000
3300
3300
900
4800
5475
5100
900
4875
3600
2100
100000
6000
4800
600
1275
7950
100000
2775
7500
2325
100000
4500
300
8400
100000
2400
7800
900
300
1200
1500
1125
3675
100000
600
100000
600
8100
6975
7500
9975
6000
5475
75
7200
2700
2100
300
100000
1800
3300
6600
100000
9000
100000
3000
100000
5475
100000
2475
600
8775
1800
4200
2700
300
100000
3600
100000
3300
5475
100000
900
600
100000
7200
1800
100000
3075
3450
600
1200
1725
100000
100000
2400
1200
5775
8400
100000
4500
6000
100000
100000
4500
2100
3000
7800
4200
900
8325
3300
4800
2100
2400
6975
3000
3675
3000
300
4800
300
6075
675
4575
975
5700
4800
100000
9900
2175
1500
1425
2100
6000
900
1275
900
7500
675
300
300
900
4200
7425
3300
6675
2400
4800
1275
100000
4200
4200
900
100000
5175
2775
7200
5700
9075
675
1275
2400
100000
100000
600
900
3900
3000
1800
2400
900
6300
900
2700
5700
6975
1275
2400
4800
600
7500
600
4200
100000
8475
5400
7200
5700
900
6600
4500
100000
300
100000
3300
300
9000
1275
3375
1575
9300
100000
3900
375
9300
2400
2175
900
5100
5700
100000
3000
4500
2700
100000
900
100000
100000
100000
4200
600
9975
6975
300
9000
3600
1200
2100
100000
3300
300
975
6000
9900
2400
5400
600
3000
5925
4200
3000
5100
100000
7200
5400
100000
1800
2475
675
100000
900
5100
1200
1500
2400
3825
100000
900
2400
600
6600
3975
9000
2100
100000
300
1200
300
1800
100000
8775
1275
7800
600
900
5700
900
300
4800
2400
2400
375
6375
5475
3900
75
2175
4500
3300
1875
600
900
2100
225
4800
4575
1200
600
600
1500
4875
1800
4200
2400
1800
3300
3000
8700
900
4275
3300
1500
1500
1800
300
9300
100000
100000
1800
3900
4800
4800
3300
3075
600
2775
1800
375
4275
300
3375
375
900
975
2175
5100
6300
300
2400
600
100000
100000
5100
2700
100000
9675
7275
3300
4575
1800
100000
1275
75
9600
600
2100
3675
375
1800
4275
8700
2700
3600
4800
9975
3975
4500
600
100000
2100
1200
5400
675
900
2175
300
3675
1800
7575
900
5175
4575
1275
300
100000
4800
600
100000
8775
9300
3300
8475
4200
5700
3300
3900
5400
4800
1200
2475
6900
100000
1200
8100
3675
1875
100000
5400
900
1200
600
3900
9600
1200
2100
5400
100000
7875
1875
5100
6600
4500
6000
3900
5400
2100
1275
600
4800
3000
900
600
6975
4800
2400
3000
3000
2700
3300
8700
5400
2700
100000
5700
4800
1500
100000
9900
5700
2100
100000
5100
100000
2100
9075
9000
5400
8400
6000
1275
3300
2775
1200
7800
1800
2175
300
5100
3375
1875
3075
4200
3075
8100
100000
100000
2400
75
3300
6675
6375
3075
1875
300
300
600
900
5325
675
3375
75
2775
7875
900
3000
100000
600
600
2100
4200
1800
3975
75
2775
75
1875
1275
6900
900
4275
4275
4800
300
2100
1800
300
825
9075
100000
2100
975
7200
300
4800
1200
4200
1800
300
3900
1500
75
600
3900
4500
3900
4200
3675
7275
4800
1500
7500
5400
5475
600
8400
375
1200
900
2700
300
3600
1875
2100
6075
4800
300
5175
1200
3300
5475
2400
3300
4800
600
3600
1725
2700
1275
2175
2400
100000
300
1200
3675
1800
3375
2700
3675
75
1800
375
6675
8100
300
100000
300
4575
7200
375
3075
2400
5250
2700
7500
3000
300
300
6300
2100
900
75
375
1575
100000
4575
4875
7500
3000
3000
300
3600
100000
3075
1500
1725
5100
1800
3600
7200
5400
7275
2250
1200
300
4200
2100
100000
8100
4800
300
9000
6000
8700
5100
6300
675
1500
4800
3300
5400
2700
300
900
3600
300
100000
6975
4500
600
1200
5400
3225
100000
525
3000
8100
225
8775
6075
1200
3375
6300
3675
1425
1800
7275
8700
3900
6900
2100
900
1500
100000
2700
1125
5475
2100
8700
8400
300
600
100000
3300
7200
600
1800
2400
4500
3000
5100
1575
1350
150
300
1800
1500
1500
7200
100000
3225
3675
6300
5700
2700
900
3900
9300
5700
675
100000
675
4200
2700
2700
7500
1500
9975
900
1800
3900
3600
4275
100000
2700
9375
4500
1875
100000
2100
5400
9900
100000
3300
4500
1200
6075
600
1200
1500
7500
1200
9900
600
900
4500
5700
5700
6600
6000
6900
5400
7575
4200
300
525
2775
3600
1200
8100
600
100000
3000
2700
2400
6375
3000
2100
9900
1125
6675
6600
3975
6600
6300
1500
4200
9000
9300
300
9300
1200
4200
9900
1800
100000
2775
100000
3300
6975
1350
5100
7200
4500
6900
2400
675
100000
100000
3000
9000
100000
4200
6900
975
5700
6900
600
3000
3075
4500
6300
6975
975
225
1800
1200
100000
2400
900
7500
1200
100000
8400
4500
2400
1800
5100
100000
4500
6600
4500
100000
100000
300
5175
7200
3375
5700
2100
6525
2775
600
975
6450
7500
1800
600
1200
600
1200
100000
9900
1500
4800
900
6900
2175
3075
5100
600
2175
450
2100
900
2100
100000
600
675
3750
100000
3000
8700
7200
4200
4800
6225
3075
8100
600
1425
2475
1575
5850
2700
100000
100000
100000
2700
1200
3000
900
975
100000
100000
9675
4650
3300
600
100000
900
1200
975
2100
2700
3000
300
225
7200
100000
1875
3450
2100
600
8400
600
6075
3150
1800
1200
1500
8700
900
1500
2700
225
9675
100000
7500
3975
6750
5700
900
1200
7800
3675
100000
1500
5400
2100
2100
3300
100000
1575
300
1950
3000
2100
2700
2700
100000
4200
1200
600
100000
100000
2700
4800
7200
2100
8400
1875
3000
900
1275
600
900
1200
3300
2100
900
600
1800
1275
100000
2100
6225
2400
300
1800
2175
6900
3975
4800
900
1800
1800
5475
300
600
6000
3000
825
6075
2100
3600
2700
1275
2400
3825
3000
9000
8100
1275
3300
100000
600
6000
7200
9000
3900
900
300
1500
3075
7200
600
1800
600
2400
9600
600
5400
2700
3300
1500
2400
100000
5400
7800
2100
8175
675
1800
300
5175
7875
2400
1800
900
9600
4200
7800
4500
900
7200
5550
2700
100000
4200
4800
2100
5100
6000
300
4200
2400
5100
3300
1875
600
4500
3900
8700
100000
6675
1500
5400
1800
5700
5100
2475
5775
3675
100000
4500
3300
7800
3075
3000
2400
6300
5100
2700
7200
100000
5100
375
5250
4200
3300
8100
3675
1575
675
9600
2400
3600
4800
5775
3600
75
8475
300
525
9075
1500
300
300
6300
1275
3900
9000
225
4200
3975
2475
1575
1800
375
900
225
1950
8100
3000
3900
9300
4800
2100
2700
900
1800
5400
375
4500
825
375
8700
2400
100000
2775
1200
2700
3900
2100
75
900
8700
975
6000
900
675
300
1200
7200
300
975
3675
3000
9000
2775
6675
6000
100000
1500
675
7200
1575
2775
8775
4500
2700
4575
1200
375
2775
100000
825
2625
6000
1650
300
600
3000
3600
900
4800
1125
1800
8475
600
2175
600
4200
6600
1125
975
300
5850
300
2700
2700
100000
75
1875
100000
3000
75
2625
2100
5100
3750
3225
5175
900
1800
3000
5025
3000
4200
4500
6375
975
300
3675
2400
900
2400
1200
2475
3000
1500
4050
5625
300
3300
1200
975
2475
2100
1500
825
1050
2100
5175
2400
100000
100000
5700
1575
2400
8475
3075
450
100000
1500
300
6300
100000
3900
900
4575
4800
1500
7800
4800
9000
300
2700
1500
300
900
3000
4200
3000
2400
2700
600
2700
1875
3600
7875
100000
6900
600
6375
1500
2175
5475
100000
4200
5700
100000
7575
100000
100000
300
1500
5850
300
7500
900
9825
3300
100000
600
100000
100000
100000
100000
9300
300
7425
2700
8100
2025
1800
100000
1800
100000
5850
600
600
3600
4500
1275
4200
6600
6900
1425
375
3600
5100
4200
3300
600
5400
600
100000
300
2325
5400
8100
3075
4050
100000
975
100000
8700
4800
3900
300
3900
5400
300
300
3600
4200
2400
3600
3900
3600
300
1200
600
100000
2100
6375
1800
600
6900
5100
3000
2100
300
300
8175
7800
5100
3900
1500
3600
1200
600
2400
5400
2700
100000
300
6000
1200
6675
600
600
100000
2700
100000
900
300
2700
900
6675
6600
7200
100000
3675
375
1500
8700
100000
675
3375
4800
100000
1800
5700
1800
600
4500
1275
6900
3000
4800
1800
8700
5400
1500
1200
6900
6600
100000
4500
1200
2700
900
100000
5100
300
600
300
1500
9300
900
2400
3300
3600
9600
5100
100000
3300
1200
3000
100000
900
975
2100
975
675
2700
2400
2400
1800
100000
2175
100000
9300
3300
1575
675
3375
100000
1500
2100
9600
5400
100000
100000
1350
3000
4500
9900
1200
8400
300
3225
6600
100000
1200
9000
3000
1800
900
600
100000
3300
1800
5400
3225
2775
7800
100000
2100
2325
5400
300
9450
8850
8400
100000
9000
2700
9900
3000
6300
2100
10150
6750
2700
900
3450
2475
600
1800
100000
9900
1200
2700
600
1200
900
2400
100000
900
1500
100000
1575
225
5700
8100
975
5700
100000
2100
900
4800
7200
9900
100000
7200
100000
4800
4500
6000
300
9000
1200
100000
2400
2100
3600
100000
675
9900
3375
4500
3900
100000
2175
900
1800
1500
1200
9000
1200
2700
3000
600
7500
4500
2175
1800
1200
9000
1800
4800
6300
3000
100000
2100
4275
9300
2100
4800
9600
300
2700
300
525
100000
3000
4800
7275
2175
300
300
975
1200
600
600
3000
900
100000
100000
2475
3300
1500
975
900
4800
2475
1200
3600
1500
4500
5400
900
3600
9600
100000
100000
8475
300
9000
3600
100000
1800
3300
5400
1500
6600
300
900
1800
1500
2100
1200
2175
3300
3900
4575
1200
5700
2100
100000
100000
600
2475
5700
375
100000
5400
3300
2400
2700
3900
300
2400
1800
6300
100000
3900
2100
4500
5100
1200
8400
3600
5400
300
1200
600
1800
1500
4800
4500
3600
5700
3600
675
7200
1200
6000
100000
100000
600
4800
8700
2100
1800
5400
100000
5400
5100
300
100000
1875
7575
6450
600
300
100000
6000
2100
3300
5700
5100
100000
4800
2100
3000
6900
4500
8100
3000
300
225
3000
300
100000
8175
100000
5100
1800
100000
6300
600
4800
2475
300
3000
6900
7200
100000
3600
3300
1800
5100
600
600
2175
3300
7500
100000
100000
1200
3300
100000
8100
9900
1500
100000
300
3975
300
100000
600
3000
600
975
1500
100000
4875
2400
7800
100000
900
300
100000
100000
6900
6675
4200
300
900
100000
8700
8400
6000
600
3000
4125
1800
3900
300
9000
1200
6600
2400
4200
1200
4800
7275
975
4875
4800
3900
600
1200
225
100000
300
150
375
4200
6900
3975
5400
2400
9900
2400
3300
1800
4200
1200
2700
900
300
100000
3000
2100
2100
1875
3000
1200
1800
1875
600
100000
1800
100000
8700
5100
1200
9600
8175
100000
5100
3300
5400
900
6000
8100
8925
2400
2100
1800
4800
900
100000
2175
9675
5100
3900
300
4800
1800
8400
6975
4950
4200
3900
4500
2625
100000
2400
3825
100000
3300
1500
6600
5175
2700
1800
100000
300
7200
600
4575
1875
3900
4800
1800
3975
100000
3300
600
4275
6375
300
300
7500
1800
900
600
1500
675
2100
100000
100000
2700
4200
2700
2175
1800
7200
8400
100000
100000
6300
5475
100000
900
9600
600
5400
100000
1200
4575
3300
2100
6000
9300
9300
4800
300
7200
100000
100000
3975
100000
900
2100
9675
600
2700
1500
9000
1800
9600
100000
8700
5100
600
1275
225
3975
100000
300
3300
2775
8400
1800
900
1575
1800
975
2775
3900
100000
2100
4275
8400
5100
5475
5700
100000
100000
1200
100000
3300
2700
600
3000
3000
1275
4800
600
100000
7500
6000
9375
3450
1275
1500
300
100000
8700
100000
600
7500
5400
900
100000
1800
225
2175
4350
2175
300
100000
100000
2550
8100
900
3600
100000
1800
1500
300
5100
8925
1950
2400
1200
2400
1500
3750
300
2100
2100
5850
1200
2700
100000
100000
900
5700
5400
1800
600
1500
4200
7575
4800
2775
3000
5400
1575
2400
1725
4575
5850
2400
4500
1200
100000
1200
9450
5400
3300
3300
900
8700
8100
2550
600
3600
2400
4875
2250
9975
6000
3525
2400
5400
6900
1200
1500
6525
1500
6600
100000
9000
5700
5400
2100
6900
1800
75
900
7800
3000
8100
3000
975
8250
2100
100000
3600
9300
3900
975
3000
100000
900
300
6900
9600
900
3900
3000
6075
600
5100
3825
1200
300
1275
4050
4200
3900
5700
2100
225
1200
3600
300
3675
100000
900
4575
1575
3075
4875
6900
975
6600
6900
4800
3900
2775
2100
9000
4200
3900
100000
5325
1500
100000
3300
600
3600
4800
675
3975
2175
1875
6300
2400
10150
3900
4200
1800
1200
225
2400
675
8700
75
1200
4200
5700
1200
6300
2400
1500
9900
5775
900
600
1500
9300
3900
300
900
3300
2100
4875
225
100000
600
4500
900
100000
2100
600
6900
100000
1275
5775
2400
975
2700
8100
100000
75
3975
225
5475
8175
7800
900
900
5400
3600
900
2700
375
2400
6900
100000
375
3375
5700
100000
600
1200
600
2100
2100
3000
6900
3075
1575
300
3375
3300
2100
2700
1875
2175
2400
2400
2400
2100
1200
3975
3375
4500
1800
600
100000
3000
1875
1575
8475
100000
1500
6675
9000
100000
100000
5400
4200
3375
300
3000
100000
4200
2475
2400
2175
600
3375
4200
1800
100000
100000
600
6375
1275
7500
7500
100000
3900
900
9000
4500
8100
1500
3000
5700
300
4800
8700
3000
1500
6600
1500
8400
5100
6900
100000
1875
2175
8175
7500
300
100000
1200
7200
2400
3900
3975
5400
100000
1800
1500
2100
2400
100000
100000
3900
4800
6600
1200
7200
300
600
6900
2700
3000
100000
75
100000
100000
3075
6300
9600
3000
8700
1200
2100
7200
9825
100000
3000
3000
1200
600
1200
9000
100000
675
10150
1500
100000
100000
1800
8100
900
5100
1500
3300
375
3975
300
8700
100000
1200
1350
1275
6600
1200
1800
7200
900
100000
3300
100000
8700
300
2400
3600
1800
9975
3300
100000
2100
6450
4800
1200
8400
3000
1800
2400
9900
7500
3300
3300
2700
900
8700
3900
600
2100
900
5700
100000
975
3600
5700
300
5700
100000
600
7575
2175
6900
600
375
7650
100000
1800
600
2100
100000
100000
6075
375
4500
7275
3900
2475
9075
900
1575
300
75
975
2700
300
1500
6975
8700
300
3375
900
1800
1200
100000
375
3300
3300
100000
1500
5100
900
7800
100000
3300
1275
4200
2100
300
2400
2700
1500
300
600
8400
7200
600
6975
3600
6975
7500
4500
100000
5325
375
100000
4275
3900
3000
100000
75
1500
100000
7200
100000
1800
1500
100000
2400
7275
100000
600
3600
300
300
5325
2475
2400
900
4500
1800
4500
600
8100
100000
100000
1575
1500
1500
3900
2700
5400
2700
100000
3300
2100
600
1500
100000
7800
5700
4875
2475
4200
2400
100000
100000
4575
2400
1800
1800
8400
9300
7200
975
675
100000
100000
3600
300
4800
900
2625
100000
4275
9600
4125
6675
600
600
5100
300
1200
2850
100000
2100
100000
100000
100000
1200
3900
1575
8100
3600
6075
1575
6900
975
6075
3300
7500
1200
6075
3075
1800
8100
375
5700
300
300
6600
100000
1800
100000
600
1800
3000
100000
6900
600
4800
100000
3675
6075
600
7500
5700
5775
75
1500
2700
4200
300
600
7200
5400
3300
3000
600
1275
5100
6900
75
8475
375
1650
100000
4575
1200
2175
8100
3300
5100
5775
6000
1500
9000
675
9000
1200
2175
7500
300
2400
5400
1125
100000
100000
900
2400
1200
5400
1200
7500
100000
2100
2400
6900
1800
1500
8400
4275
5400
100000
1200
2400
300
300
2100
4800
100000
5100
6300
3600
8700
1875
100000
1200
5400
100000
100000
3600
2400
8400
1500
3075
1200
675
300
100000
2700
100000
3975
8775
3300
100000
7500
2100
1500
5100
2400
1200
7800
75
5100
3375
3300
75
8100
4800
375
600
100000
100000
300
975
2775
4800
5700
9300
9900
8700
4275
1500
1200
1875
7200
100000
5400
300
100000
2400
300
8700
100000
1200
3900
5400
3900
6900
3975
1800
6000
600
4200
3000
3000
5700
3000
1200
2400
1575
5175
3600
100000
1200
6900
8100
7275
1575
6900
2100
1200
900
100000
1800
3300
3075
8775
5100
3900
4875
4800
600
4500
4200
8100
1800
6000
2475
3900
2700
900
300
8700
375
2100
1500
1875
3375
5400
1200
3600
100000
3900
600
900
4875
2400
4875
2175
1200
75
1500
375
300
2400
1500
3600
900
1875
1200
2700
3900
4500
300
2475
1275
9000
3675
4875
2475
4275
6375
8175
300
675
4275
1500
900
1800
3375
600
600
3600
1275
1500
75
4200
1500
4575
1800
3900
1500
100000
3900
3900
3375
375
5775
675
5175
1575
900
5775
3975
3675
100000
2475
3375
4200
300
300
4800
300
5100
5475
600
100000
9600
1875
4200
600
1200
6900
4800
5400
100000
2100
900
4575
1875
100000
8175
100000
1800
2100
2100
6000
3300
100000
4575
1575
3900
600
3900
2400
300
2700
100000
6900
2100
100000
975
4800
675
5475
75
6975
100000
300
2700
5400
100000
2400
375
7875
8700
4200
9900
3975
3675
300
600
1575
1575
3600
1200
4875
2775
3000
6000
2100
100000
6000
1275
4875
100000
1200
375
100000
3900
1200
3375
1200
9900
300
975
4500
150
4500
5925
2025
6600
3300
9000
2400
4200
9000
3000
5400
3600
100000
1800
9300
1800
300
3900
1800
2400
100000
1200
1575
3675
7800
600
8625
8775
9600
1275
900
100000
4725
675
3600
1800
100000
300
3600
1200
100000
7800
6300
2025
975
6750
6900
300
3600
900
100000
1500
5100
8175
3000
100000
1575
3000
3450
675
100000
3300
3000
900
900
6000
10150
600
1500
2700
1500
1800
900
6525
5700
7500
2100
6300
600
7275
2925
3000
100000
600
7500
900
7200
5175
100000
1200
3000
2175
6000
9600
4575
4800
100000
4800
7800
900
900
100000
8475
8175
300
100000
1800
7200
4500
2400
2700
1800
4725
100000
300
975
300
300
375
100000
2400
4800
9000
600
1800
4200
900
1575
2250
8700
4500
600
3525
1875
2400
5400
3300
100000
6000
300
3000
900
100000
2100
600
1200
100000
2100
4200
3075
1200
100000
1500
100000
4200
4500
6600
2400
300
300
100000
2700
9900
7200
4050
3300
300
2700
3825
4575
100000
1200
3900
3900
100000
600
675
8400
100000
5100
1500
100000
9300
100000
3375
100000
3300
1275
8400
300
600
8100
2100
1500
300
1500
1500
900
5700
1800
2475
2100
6300
1200
100000
100000
900
100000
6975
4575
1500
7800
100000
225
100000
1500
3300
100000
975
75
100000
1875
1200
150
4200
2100
9000
6600
1575
1800
3900
675
1575
75
1800
3075
3075
2400
600
5100
3000
6000
7200
7575
2400
3075
8400
100000
300
600
2475
2100
4125
2400
600
75
1200
5100
8175
100000
4800
3600
600
5100
3900
4800
4575
7500
2400
300
375
3675
3000
3675
8100
600
675
4200
2400
900
3000
3225
100000
2700
3600
6300
100000
4575
7500
2775
9075
8400
8400
2175
1275
2100
3900
2700
3900
525
1275
150
100000
5100
2475
2475
1500
1800
100000
1200
300
7800
5400
675
3900
900
1800
3300
2100
1500
3300
375
100000
300
3675
5100
100000
675
4800
900
1200
600
675
2700
375
1875
100000
600
6600
1800
100000
4500
6300
300
100000
100000
4800
300
3600
300
6000
8100
3600
2100
4500
2100
300
600
4875
1200
975
2400
2700
2100
600
300
2700
1500
6000
4275
9975
2700
100000
100000
5100
100000
1500
1200
9675
4575
1875
6300
4500
900
3600
600
5100
1200
1575
2400
900
600
100000
8400
1200
1200
7800
100000
900
100000
6000
7500
600
3000
900
4800
5100
3000
300
300
4200
100000
3900
5700
2400
1275
3975
4500
100000
2700
9300
100000
1200
6675
8100
3975
2700
1800
2400
900
8475
675
900
1200
3300
3900
8475
2700
1800
7500
6300
5100
900
600
100000
2700
100000
1200
1875
1425
1500
2400
7575
1500
1500
375
900
750
7650
7200
100000
4800
5100
9300
750
9900
4200
5400
4200
1800
7800
2100
5100
6300
3075
2100
2400
100000
3300
3600
975
6900
6900
3600
6900
9600
6000
1500
975
3975
5700
3600
900
8325
375
8400
1575
1500
1275
3600
2700
2400
3900
7800
4500
100000
9900
975
5175
375
3300
1275
675
7500
6075
3000
975
2100
3300
6600
1500
7875
100000
4500
6600
3000
1800
9900
900
5775
1800
8775
900
100000
2475
1275
600
100000
1800
600
3300
3075
6750
900
100000
6975
4500
300
3600
5100
2100
2700
1800
2400
100000
5700
900
8100
8700
6300
7875
600
1500
3000
300
100000
100000
2100
1500
900
2400
6900
3900
7200
900
1200
225
75
900
8250
5100
3900
8100
1275
1800
8100
6000
100000
1275
300
2100
2775
100000
5850
100000
300
5175
2700
3000
300
3000
1500
6000
900
300
825
3975
1800
4800
3000
100000
100000
3600
1875
375
600
5100
2100
100000
1275
4200
2100
1575
6075
1500
5700
4950
2400
3075
4950
100000
3300
1800
300
2775
6600
1200
2700
3600
100000
8700
600
975
100000
2625
9600
8700
1275
150
7500
1500
600
2400
1200
600
2700
3300
100000
2100
3300
100000
2550
4500
2925
100000
4725
600
3300
1200
900
100000
3900
2100
4275
300
7800
3000
8700
1425
1800
3600
900
100000
2475
375
5925
4800
1800
4200
5400
8100
3000
1275
375
7200
1200
6900
9225
8400
675
3600
4500
300
4275
75
600
1800
6300
1200
100000
6975
300
300
2400
600
100000
900
600
2475
7500
3900
100000
900
4500
75
4800
6600
900
1500
2175
2775
100000
3300
675
3075
7200
3300
4200
100000
225
1575
75
6675
1275
2700
3600
2400
1275
2400
9600
1275
7875
3000
5700
7500
3300
2475
6075
5100
1575
300
4800
4200
2400
5775
300
2400
600
375
7875
2400
3375
3075
600
100000
2100
900
3600
100000
1500
300
100000
300
4500
3600
300
9600
3900
5400
100000
4575
3000
900
100000
4500
2400
8100
4275
1275
4575
2400
2400
100000
4500
6300
1500
5100
3225
7275
100000
3000
1500
3900
100000
100000
7575
3675
1500
600
6075
300
6600
2400
975
900
5100
2400
100000
9000
4200
6300
100000
2100
2400
4500
3600
8100
6600
2175
5475
4800
2475
75
9600
1200
2700
3000
1500
600
7200
300
2700
5100
5175
225
100000
7200
1200
1500
100000
3300
4875
6375
900
3300
600
3000
3900
600
1800
4200
1875
1950
3300
1200
3600
3000
2400
4275
2100
2700
100000
3900
1800
6600
300
2700
100000
9000
3300
2100
5400
5400
1575
300
3300
2100
1800
6000
100000
2175
1200
6075
1500
100000
6900
6000
4200
600
3300
4800
300
300
2400
1875
2100
100000
600
9300
100000
100000
100000
100000
9900
9600
1800
100000
6600
4500
3600
7800
5700
8175
2100
100000
100000
1500
8775
600
4200
7200
6900
9900
100000
4800
2475
2100
7800
6675
1350
4500
3300
3000
100000
1275
4275
100000
6375
7200
1800
3675
7200
300
9300
300
300
1800
5400
4800
3000
4800
300
4200
6900
900
100000
4500
5400
1500
2400
1275
3000
9000
100000
9300
3900
3600
2400
3000
4500
5400
5100
100000
2475
600
600
100000
5100
3600
6375
1200
3300
900
1500
4800
9000
1500
7650
4800
600
6825
100000
300
100000
100000
1275
9600
900
1200
4500
600
8700
3900
300
6300
600
600
100000
2100
9600
4200
6000
6300
1200
7500
1800
1800
1500
100000
3075
9000
675
2400
900
3000
100000
1800
1800
5400
375
3000
6900
6375
600
5100
2400
9000
4200
300
1800
300
7200
1800
4500
675
8400
1500
5400
1275
7875
100000
1500
5100
8700
2700
2100
900
4275
75
4575
975
3600
6900
100000
900
100000
3000
100000
4800
1800
300
7200
900
4500
600
2700
6075
5700
3600
600
3300
100000
1500
300
6300
900
1800
2100
2700
2700
1200
4800
7800
9600
3600
1200
6900
2100
1800
7800
4200
4800
100000
4200
3900
9300
2700
8175
100000
5775
900
2100
100000
4200
1500
8700
6075
3075
100000
2100
675
100000
1200
4200
1800
3375
100000
3000
3975
675
300
300
100000
600
6300
225
7575
3000
2700
100000
6375
3000
2400
3300
5025
1200
9900
7200
1500
1200
2100
4275
975
1275
375
2475
8175
6975
900
3975
1275
8400
1500
900
5775
5100
100000
5775
900
100000
300
3900
3150
4275
600
2700
600
3300
2775
6300
5100
3900
6375
2475
9600
2475
3825
100000
3675
1275
7875
100000
4200
100000
3000
2400
2700
8400
900
3375
7275
2175
900
1500
2775
4275
600
3900
1200
2400
1500
3000
600
6075
3675
1575
100000
2100
2700
100000
5700
6300
3600
2475
1950
5700
2400
4500
3900
1200
2175
8100
4800
4875
4800
100000
1500
6600
100000
100000
6900
8700
1575
1800
7200
4575
4200
1500
7800
3675
1725
100000
9600
9375
3000
1575
3975
1500
100000
4500
4200
2100
1200
1200
3075
300
300
4575
900
3300
3600
3600
600
2475
2775
6300
2100
300
9225
2100
4425
4500
2325
1200
1800
1500
3000
100000
1800
2700
600
4575
2400
750
3975
6300
1200
3375
5700
3300
4800
6000
4575
100000
300
9675
3450
1500
100000
9300
2400
6600
2700
900
300
5100
675
1950
100000
6675
100000
6825
300
1275
1875
6375
2700
2700
100000
2925
1500
525
7500
5925
1275
1800
600
2175
6300
4800
2325
1800
5475
9600
4275
4500
1500
7575
8175
2925
3975
5100
6000
7200
375
225
75
9000
8475
2400
600
100000
2400
1800
5175
600
4200
1500
100000
4200
1200
600
2100
4200
600
300
1800
1500
1200
3000
2100
900
7500
4500
3300
300
1200
2100
100000
100000
1500
6300
8775
1575
6300
2700
2700
6600
6075
100000
1200
100000
4500
2700
1800
3300
6000
2700
600
5400
3600
600
1200
3300
600
3975
1800
5700
1875
1200
1800
2175
6300
1200
1800
2700
1200
2400
600
2100
6300
2400
2400
100000
300
4200
75
900
3675
5100
100000
2100
300
1500
375
375
7800
1575
2175
3300
9900
300
6900
100000
300
2100
100000
900
5400
2175
6900
2700
2175
1275
3300
2100
1200
4500
3375
3975
4500
3900
8400
5400
5700
1200
1275
100000
1500
2400
1575
900
8175
3375
3375
7500
4500
3900
1200
300
1575
300
2100
3000
5400
6075
1200
4800
6600
5700
600
2400
2100
100000
100000
975
4500
4200
2775
4800
100000
2100
100000
3900
4725
2775
9600
5400
6900
3000
4500
300
100000
7800
3600
600
1200
2700
3075
1650
1425
9900
9300
100000
5475
1800
9300
5100
1200
8100
3750
600
600
4200
1200
900
8925
3300
2475
5025
450
3825
2175
7500
900
6000
6600
2100
5700
5700
100000
5550
1425
100000
2100
300
3900
5100
225
3600
6900
7725
2775
8100
600
7500
3000
2925
8700
3075
5400
2100
100000
4500
300
8400
100000
900
3000
3300
8700
8400
8100
2700
6000
5400
3075
100000
9300
6975
100000
7200
375
3150
1725
3900
6000
9000
900
2625
6600
1800
900
375
600
3525
4200
300
8100
100000
600
100000
1500
100000
3300
2775
5700
7200
2700
900
6375
100000
2400
7200
9600
1500
3300
3900
975
300
100000
100000
9075
300
8550
6900
2175
100000
9900
100000
100000
1500
675
300
600
4200
4200
1200
300
5700
100000
3000
100000
900
4200
4800
7200
3600
1200
4800
600
7800
100000
100000
100000
7200
100000
9000
8475
5700
100000
6900
2775
5400
75
1500
100000
300
600
2100
1800
3900
900
900
1200
300
100000
4200
3600
9600
1800
1800
9000
100000
1725
2175
600
600
900
2700
100000
9300
4800
5700
100000
4650
75
100000
100000
1500
5100
100000
100000
2700
100000
1800
3525
100000
3600
8700
1500
2700
100000
7200
7200
300
8175
100000
3000
5400
6900
6300
7500
6000
2100
3975
100000
600
100000
1800
600
4800
100000
225
1875
2400
1500
1500
6900
9075
7800
9900
2400
4200
4200
3900
1200
900
3600
600
3300
7500
6000
4575
1200
3000
4500
3900
2700
2175
2100
100000
100000
2400
675
6900
900
300
3375
1200
3900
8775
2700
2775
3975
4200
525
8775
975
75
4200
100000
5100
2700
1200
100000
600
1800
1200
100000
3900
100000
3000
8400
6675
2400
1800
3300
9300
100000
6000
2775
9600
8925
2625
2700
100000
100000
4575
1800
975
300
7575
4950
7275
5700
2700
7500
1800
6000
150
3000
1275
5475
5550
6075
1725
9000
4800
5100
2550
1500
10150
100000
3675
3375
3075
9975
4800
3000
9000
1200
100000
2100
1200
675
100000
4800
2100
6300
100000
300
3900
6975
9600
6900
675
6000
1800
9300
4200
600
8100
1275
900
1500
2400
300
1800
3150
600
300
5700
300
600
6075
4725
675
3075
2700
3000
1200
2400
1200
2100
4200
300
2700
2100
2700
2700
4875
5175
2400
5400
100000
600
975
8175
6600
100000
5700
1200
100000
600
4500
1200
3000
100000
300
7800
100000
100000
4500
300
300
8400
3000
900
1800
2475
100000
1200
3300
3600
8100
3900
600
100000
4875
7575
4800
1575
300
7800
4500
8700
3300
100000
1800
300
1200
9600
3900
100000
3975
100000
3300
6375
4500
100000
2100
100000
3075
1800
100000
2400
7200
300
1200
7800
6675
4500
6300
7800
1500
9675
600
3600
900
300
9375
3975
600
100000
100000
1800
2700
2100
2400
7200
8100
1575
2400
100000
1500
900
4200
1425
75
5925
3900
9300
8400
2700
7200
600
1350
75
2100
7800
3000
100000
3600
4575
5400
5475
1800
3600
3300
5400
1200
5100
6000
3000
600
600
100000
300
300
9300
2400
1350
9600
1200
100000
2400
3300
8700
100000
4200
6675
5100
1500
6600
3600
75
7650
3000
3000
4200
4500
2775
100000
900
3600
2100
300
4200
100000
3900
4500
9000
2100
2700
2100
1800
9075
1800
3000
2100
900
4200
600
5175
1200
5700
1200
675
7200
1875
5400
100000
6300
1800
9000
2400
300
5700
900
5400
6300
600
9975
5700
5100
5400
1200
300
100000
8100
7500
4800
3900
1200
900
4800
2400
5700
7800
600
100000
1200
9000
9900
4200
1575
2700
3300
1500
600
3075
300
4575
300
100000
2700
3375
1500
2700
100000
1200
9000
4200
8175
100000
3300
3900
4200
6300
1200
600
100000
100000
100000
6000
4125
6000
2100
100000
2100
600
6300
5100
2400
2100
100000
7500
8400
6375
100000
100000
8400
100000
6300
9300
100000
100000
300
4200
6300
1200
2400
5700
2325
9900
300
8700
900
3675
75
375
1800
1800
2025
3075
9300
6600
100000
2400
1125
100000
1275
975
4200
6000
2475
5700
5175
8400
300
100000
3600
3300
4500
5325
900
2700
675
3600
3000
900
8400
375
3750
4800
1875
6900
6900
300
6300
3900
9900
2400
900
3900
2100
300
300
100000
7725
1875
9900
9600
5100
100000
3000
8100
4575
600
100000
100000
975
375
3600
975
4500
7800
3300
3600
9975
4575
900
5100
2700
6975
300
1875
9600
2400
5700
1200
675
6000
300
1275
6300
2700
1500
600
75
4275
2475
3900
2700
3000
600
975
300
1200
10150
300
7500
5100
6000
1800
3600
4200
1800
4500
100000
7200
1275
675
1500
4875
2775
4500
6600
375
100000
7800
900
3900
1800
1200
5100
9000
4200
1800
3000
300
900
100000
100000
2100
975
600
9900
1800
75
5700
5475
5700
2400
900
1200
3600
3300
100000
100000
9375
100000
4500
600
600
2100
300
5175
2400
5400
100000
7275
1575
2175
3075
3900
3000
3600
6300
4500
3900
6300
1125
1200
975
9300
1500
1200
3300
3600
2400
600
7500
900
4200
600
1275
75
8775
4800
100000
1500
3000
5100
3000
300
100000
5625
375
6000
100000
5400
2100
300
2400
5700
3300
8100
1500
3600
1200
1800
2100
300
600
600
600
5400
1125
3600
1500
900
2175
6675
2400
900
6600
3600
225
675
3975
3900
2700
7500
4800
100000
5100
1800
100000
1200
3075
7800
3000
1500
6300
1650
300
100000
1725
8400
2700
5700
6000
6000
2400
375
3000
5400
9000
675
6000
2700
2700
1800
100000
3825
2100
6225
5100
1800
100000
4500
3075
3600
100000
8850
1500
100000
9075
2400
600
9000
9600
450
3975
1650
7500
1800
4200
300
4800
1200
5475
2700
3075
2100
1275
6300
8400
3900
675
3000
1500
6900
2700
6000
2925
5175
100000
1350
100000
100000
3900
5400
2100
5100
4800
100000
900
1800
300
2475
3075
3075
2775
975
225
375
3300
675
2100
3975
7575
225
6000
4575
8175
1800
6900
100000
2100
4200
4800
2100
1500
5175
6000
1500
100000
900
3900
600
75
4200
300
1200
600
3600
1500
2100
1875
9075
7875
525
5475
1200
1200
1200
5100
3900
3900
3675
600
2400
600
3675
3900
6000
3900
300
1500
100000
3975
2100
600
300
3900
1575
2775
6075
1500
9300
3900
600
675
100000
300
1500
2100
4200
1800
4800
1575
100000
8400
300
6675
600
2700
6300
3000
4500
100000
6075
2550
600
1200
1725
100000
100000
3975
600
300
2700
100000
8775
1275
3600
3900
2100
1500
5100
2700
600
3900
375
4575
100000
6600
2775
3300
3225
900
525
4800
5700
5700
6900
3600
3600
1800
3075
975
1275
3750
2400
1500
9075
3450
2700
2100
4800
9075
100000
1275
5100
975
5850
2100
100000
4800
6600
5400
4200
1200
3675
100000
600
1500
6300
1800
5100
6000
600
3000
5400
2475
6000
4500
4500
975
6450
3000
1200
1200
2400
2625
6525
4500
1200
8400
3600
7425
300
5100
9600
3300
100000
5400
9600
3525
3975
3300
3825
900
600
5700
9900
1200
100000
6000
2400
5700
7800
375
1200
3975
100000
100000
225
600
1500
3600
1275
1275
3300
3600
6000
2100
5475
300
6600
1275
600
2550
5100
2025
1275
2700
900
300
3000
6075
100000
100000
7200
600
4725
100000
100000
1200
300
3900
5700
6375
1650
1275
5775
6975
1275
2400
1575
4200
900
1875
3000
2100
300
1575
4725
2700
3000
1200
5175
300
4725
100000
9225
3900
300
3075
900
3900
3000
5100
5775
2475
4500
3975
2400
100000
1200
600
975
6075
825
5100
4500
7500
6600
600
300
1575
4950
1500
450
8100
1575
3525
8475
100000
1575
1800
300
5700
6825
2400
1725
300
7425
5325
3600
2100
675
3900
375
300
1500
600
375
3300
900
2775
1800
2100
75
1125
300
675
9375
1200
100000
900
4800
6975
1200
2700
375
5700
375
7200
5700
1500
600
2400
100000
2100
1500
5400
100000
6975
7200
6075
975
975
975
1800
3975
300
8400
7200
4500
4800
975
4275
2475
1500
9000
675
150
6900
5175
6975
1575
900
3000
300
3225
3000
9900
4800
1800
100000
100000
100000
1800
300
600
2100
5175
750
1500
5775
2400
1800
3075
1500
7200
2100
300
1500
6000
3450
2775
375
600
3600
7200
975
1500
2775
975
3075
5250
5700
900
100000
1200
100000
2700
100000
2400
8775
3075
375
300
6825
3900
2100
75
5475
900
2475
1875
975
1500
9900
1800
1500
4575
1275
900
75
5850
600
2400
600
3600
900
900
675
1275
2100
4200
6075
2100
1500
3675
1200
2175
1875
375
1800
2100
100000
2625
3300
1500
2700
900
6975
375
5175
9000
3675
7800
2400
1800
2025
2025
100000
6900
975
600
3300
1275
1500
1275
6900
1575
975
975
975
300
3900
150
100000
1875
3900
900
1575
1275
975
900
100000
675
6075
2400
1575
4800
1575
900
375
5775
3075
1275
1875
2175
900
6675
5700
4200
100000
975
5700
225
675
900
150
3000
6075
5700
75
1500
1875
300
3375
2100
1875
2700
8700
1875
1800
1575
2400
6600
975
6300
2700
1725
3075
5175
100000
2100
600
1500
9600
2400
6000
5775
375
1200
1200
3000
900
100000
4200
2100
300
2100
4200
100000
1500
10150
4875
7275
1200
375
1800
2400
1500
1200
1500
1200
3300
1200
600
300
4500
4200
3375
100000
1500
5100
900
100000
1800
6000
1200
3975
100000
900
300
6300
100000
6975
100000
8100
4200
600
6000
2400
1200
8700
300
100000
5400
1500
3900
7800
600
2700
300
2100
100000
100000
7875
2100
1800
300
9600
7200
2400
1500
900
4200
6000
7200
100000
2175
4875
75
7200
3375
3300
300
3300
2700
3900
1200
975
3300
2925
2400
7200
4200
3075
300
8400
900
2400
4200
5700
600
9900
7500
2100
2700
9300
3075
9300
