7650
2325
4350
1350
1350
7950
450
1650
450
4350
1350
2550
750
1650
100000
1050
6150
100000
9150
4950
7650
8550
9450
2850
2475
750
6750
4350
2550
2925
7350
5550
450
1350
8850
100000
2250
6450
7650
2250
3450
2850
100000
6525
825
100000
525
5250
3450
3450
4350
6750
5250
100000
4350
2250
2175
3750
9750
450
3225
100000
1650
1950
2250
4350
1125
100000
1050
1050
1350
100000
1650
5250
100000
6750
4650
7425
3750
100000
450
100000
6750
7650
4575
1650
7050
450
450
1875
1050
2925
1050
100000
100000
100000
5550
6375
5175
1950
2550
2250
2775
1275
4650
1950
6675
7050
750
975
1650
2550
6450
100000
5850
7050
4650
1650
100000
6375
6150
2175
4350
4050
100000
8475
450
450
3075
1650
9675
4350
100000
100000
10150
1275
2475
7950
4950
6975
4875
2775
100000
100000
750
450
9075
4350
100000
4350
7950
1050
7950
3450
1275
1050
1275
750
3150
8250
2550
2475
4050
3075
6975
4950
3975
4350
4350
5775
1275
4650
450
375
8250
1650
1275
7350
5550
7950
1650
3975
2250
100000
100000
4275
7950
100000
6450
150
1650
3825
1350
1650
1650
100000
4050
4050
100000
5250
7650
5850
525
1050
2250
1650
100000
9150
3750
100000
2850
8625
2850
8850
3750
2550
7350
100000
1050
100000
750
1350
750
3450
1350
100000
2850
100000
100000
5850
5775
2250
6450
3450
5850
1875
4050
3675
3750
1050
450
4650
750
100000
3150
100000
4350
375
750
3450
9225
100000
3750
1650
1950
1650
10150
1950
7575
3750
2850
100000
3750
8850
100000
4950
750
3450
1950
3750
1350
100000
100000
2250
5850
100000
825
450
1050
450
3450
9150
7350
1425
2550
4350
1350
4350
3750
7125
4350
6150
100000
3450
4050
4950
100000
100000
4050
4050
1950
1950
5250
100000
1350
1950
1950
450
6750
9975
5625
100000
100000
2250
9450
4050
2550
9150
3975
100000
2850
5850
7050
100000
2250
6150
7050
8250
1050
100000
750
1350
2850
2250
100000
2250
4650
1950
2550
5250
100000
8850
8550
2850
9450
4350
100000
450
1050
1050
1650
525
8250
3150
10150
3450
2850
3150
1650
100000
6450
750
4650
8250
450
4050
2550
2550
9450
8550
1950
450
7350
7350
3150
9975
1050
3150
825
7050
100000
450
100000
2250
8850
1050
1425
750
2550
4575
2850
1650
750
3150
6075
7350
450
7050
5250
1350
1050
525
4650
100000
3225
1950
6450
9750
5625
450
2550
4050
3450
1950
100000
5850
3450
5850
5250
4350
2325
100000
1950
5550
4650
2550
2250
8850
5550
450
750
750
1350
3750
3150
4650
1650
2850
2325
7950
3450
450
4650
3150
9750
9750
9150
6750
1050
5250
5850
8850
5925
450
1650
7050
450
100000
450
1050
2250
825
100000
1350
1350
5850
7050
100000
450
100000
100000
8850
1425
1725
9150
3150
5250
3750
100000
100000
7650
7650
4950
4725
9450
100000
3750
100000
2250
8250
10150
450
100000
4050
3525
4350
7350
7125
4950
8250
1650
100000
2250
4950
450
100000
4350
1950
750
3150
7650
1650
3750
1950
450
6750
8250
4350
9750
6750
8250
100000
1350
4950
1050
2850
1050
1050
750
1350
7050
6150
750
9150
4950
100000
3750
825
8250
5250
8550
6450
3150
750
5250
1050
5550
450
8850
2250
2850
1350
100000
4350
100000
450
1050
2850
100000
2625
1050
100000
1350
6150
100000
5250
6450
3150
4950
2850
100000
1650
2850
5850
7950
6225
1050
100000
3750
1350
1050
1350
5550
100000
1050
3450
5850
100000
750
2250
100000
8550
4650
9450
100000
9750
5550
100000
2250
750
100000
450
9150
1050
1050
2550
2550
1350
10150
1650
3975
8550
1350
1650
9450
1650
4650
4350
100000
6675
1050
4650
7575
5850
1950
6150
1650
1350
4950
750
750
5625
9750
100000
100000
1950
1650
6750
1050
1050
4650
1350
4950
450
4350
2550
100000
375
3750
100000
1950
100000
2250
1050
3150
6450
1875
3750
450
825
1950
5850
450
2850
100000
4050
3150
1425
100000
100000
525
5550
100000
100000
7050
100000
7050
5325
1050
1050
4350
2550
6675
100000
5850
9750
825
2250
3450
1575
750
450
2550
2850
6450
2250
100000
1050
6750
2250
5625
1950
5175
7125
750
2325
1725
100000
750
2025
8925
8250
100000
100000
2850
450
3525
3525
4350
5250
100000
750
100000
525
9450
7125
1950
450
4950
3450
2025
2925
1350
2625
4350
1950
1950
1425
1725
100000
3150
1050
2550
7725
4725
100000
7350
1350
825
825
3825
1725
9825
4650
450
750
100000
4650
6750
4050
7050
2550
825
1425
100000
7950
100000
9075
9225
2925
1350
3225
2250
1050
100000
1650
8925
3450
4650
8850
375
5550
100000
6825
100000
2250
2325
1650
8850
2250
4350
1650
3675
2625
750
3525
3375
1350
2475
100000
1650
100000
1650
1950
6750
6750
3450
450
4350
3150
5550
2550
100000
2850
2250
3150
4050
3450
6450
100000
5550
8625
100000
6450
100000
7650
3375
1050
3450
100000
1950
450
100000
2250
4425
100000
7050
9975
3450
1950
10150
100000
5850
100000
100000
2550
5250
7350
1050
1650
100000
1350
450
8550
4950
1050
1575
750
6450
7575
100000
750
2550
9150
5250
4350
7950
1950
7350
6450
7950
2550
6750
8850
1950
4650
1650
450
4050
1050
450
450
9450
3450
450
7350
1950
3150
7575
2250
5850
750
5550
1575
5850
450
3450
450
3750
3150
100000
2550
4575
10150
100000
450
1650
750
8550
100000
450
100000
3750
750
2850
450
2550
750
100000
750
100000
100000
4950
5250
2475
4275
2550
9150
1575
3450
5850
100000
450
3975
100000
3375
3075
1650
3750
7350
5850
7050
1350
100000
6750
450
3750
1950
4350
100000
7950
4050
750
7950
6675
4650
3975
525
3225
2850
7350
2550
3750
5850
1950
1050
975
2325
4050
3750
100000
1950
7650
2250
100000
9150
5475
3450
100000
7050
100000
4650
1350
2550
1950
6450
5475
4050
375
1950
5550
1650
4650
5850
7050
2550
1650
100000
450
6450
7350
3225
100000
2850
3675
2550
9150
2850
1650
2250
4725
100000
1950
100000
2250
3450
2250
1050
1950
6150
2250
5850
5250
6450
1650
525
100000
750
750
750
3225
6450
4950
1650
5625
4350
5250
5550
100000
3750
100000
100000
8850
100000
1050
5025
2550
3150
6075
750
1050
3450
5550
6525
4950
2850
5850
3750
1350
750
100000
5250
8550
2250
2475
4350
8250
3750
3750
2550
7950
7950
6150
4950
750
4050
4650
4050
3750
1350
2550
100000
100000
3150
3375
675
3150
1650
2550
1050
100000
100000
1350
1350
100000
450
4350
1950
1950
8250
750
3150
7350
3150
750
1650
1350
675
1050
450
100000
2250
1650
3075
1875
100000
3150
100000
8550
1650
1875
2850
5850
3150
100000
3375
3750
9450
5550
3975
100000
9450
6450
6150
100000
3975
4350
975
4575
750
1275
9750
3450
2175
975
450
1875
1350
4950
1050
3150
3750
8250
4950
2775
1350
750
1950
3375
3450
2250
1050
2550
9750
375
7050
7350
5550
1650
9150
5250
1050
3375
100000
7950
4350
1650
5475
1350
2250
3750
6375
8250
4050
2550
3750
7650
4350
100000
5850
9750
8550
7350
3450
100000
450
5775
4350
7050
3750
8250
5850
3750
4350
5850
9150
4650
1050
1875
2250
1950
2775
5850
5550
4650
750
3150
9750
1725
100000
100000
1350
9225
4950
1650
4350
5625
100000
1650
1050
100000
4725
7425
3750
8250
1875
8550
100000
6225
7650
1650
1350
750
1950
1950
100000
7050
5550
8925
4350
5850
3825
3750
100000
1950
1950
4275
1050
3525
4650
8250
450
5025
7350
5250
100000
1350
3450
100000
100000
5850
100000
5850
5925
9225
1950
750
1575
2625
100000
2550
7950
750
450
1050
1050
100000
8250
825
5025
525
4725
2775
5250
2250
9150
6525
450
9675
450
2925
1050
3450
100000
4650
1050
100000
75
100000
9150
7950
1350
100000
5850
3675
1650
7050
1950
4050
5475
2250
100000
4350
5850
100000
1275
8850
2775
6750
3750
1575
8550
5775
100000
7950
9150
2550
450
3450
100000
100000
450
2250
450
3750
4575
4050
3975
100000
100000
3150
1050
2775
100000
7950
6450
5175
450
100000
3750
1275
4875
100000
1950
5775
5850
3975
2850
1650
100000
5550
675
1950
4050
1650
7275
2250
100000
1350
3750
5250
975
6975
2475
8550
1050
5550
3750
5850
100000
9525
1575
4350
1050
3975
100000
4350
3150
1875
2250
100000
4275
5775
1950
1650
8775
5175
8925
9750
825
9450
2550
750
4950
1950
2850
3675
1875
750
5775
2475
2775
9450
100000
450
5550
9150
4650
7050
3375
6075
100000
75
3450
1650
5550
100000
4275
100000
5850
4050
4575
6075
1950
3450
100000
100000
3675
375
4875
2175
100000
1050
3075
975
1050
3450
2475
1350
9075
100000
9075
5775
6150
2775
3075
9750
4275
2475
100000
2025
2475
2475
900
1200
600
2475
1575
2250
2775
675
9975
100000
5850
4575
5775
7950
4050
2850
100000
2775
4950
1350
100000
3750
6150
7125
2850
2250
7050
5850
100000
8850
5850
1650
3150
9450
2775
5850
525
750
4650
3150
4050
7650
1125
100000
3450
100000
2550
6750
1050
1050
1350
7575
8550
450
750
750
5850
750
4050
6750
3450
1950
1350
5550
750
750
100000
2250
6225
3975
750
3450
3450
2775
6450
525
9150
825
1350
1050
1050
2250
1050
8250
5550
100000
2850
100000
2850
6450
1050
100000
1350
6150
1950
1650
8550
1050
450
100000
9450
3750
100000
750
7725
750
100000
100000
100000
3450
100000
750
10150
6450
100000
7650
1950
4350
1950
4950
9750
4350
6075
6150
100000
4350
2250
100000
2550
6825
8250
100000
7725
100000
5250
4650
750
2550
1350
100000
100000
100000
6150
2325
100000
2850
5550
6150
750
6150
3450
1650
100000
1050
100000
100000
100000
100000
2550
4650
525
3750
8250
4650
6750
100000
6750
8850
3750
10150
3450
8550
5475
6450
100000
100000
1650
1650
100000
1650
1350
750
2250
8550
825
2025
450
2850
100000
6750
100000
100000
2850
100000
2850
2175
1275
100000
2850
100000
100000
100000
1650
7350
7125
1125
2850
100000
450
100000
100000
1950
750
100000
100000
1950
8550
525
100000
100000
8250
100000
1350
9150
450
4050
100000
9450
1650
2850
1650
3450
7050
2550
1650
4950
6150
100000
3750
100000
2250
100000
100000
4575
100000
100000
2250
1050
7875
2025
2250
5925
2250
10150
6150
3150
1350
1350
9750
100000
3750
7050
100000
100000
100000
3750
4950
2550
2250
7950
1650
2250
9150
100000
450
675
6450
450
3450
3450
8850
100000
1050
9150
7050
2550
9525
10150
100000
7950
3150
4350
100000
2550
3750
3450
1350
100000
7050
1650
825
1050
1350
100000
100000
1350
1350
4050
3150
4950
6450
3150
100000
2850
3150
4725
7950
1350
4650
100000
4650
100000
2850
4350
5550
2550
100000
1650
1050
2550
3450
100000
10150
4050
450
2550
100000
1650
6150
6150
6750
4350
5625
5625
7050
5550
5850
2025
4950
1425
100000
8250
525
9150
450
8850
7050
2550
2550
2550
4650
100000
4650
1650
1650
1950
975
6450
2550
2250
100000
2850
100000
5475
2850
100000
100000
4950
2550
100000
1875
3750
750
100000
100000
8550
1275
100000
4950
3075
4650
2550
2775
1050
4050
450
8250
7350
100000
975
2550
450
100000
7950
375
100000
2550
4950
9675
100000
100000
5475
100000
1650
1350
100000
7650
100000
5550
2775
5250
4275
8850
3750
100000
7350
3750
100000
7650
6450
3150
7050
6675
100000
2850
7575
4650
750
4050
750
1650
6450
4050
100000
1950
6750
100000
100000
7650
2850
9675
5325
2250
4950
4725
4725
3150
1950
8625
1725
3975
4950
100000
100000
7650
2475
6150
2625
4425
2325
975
1050
450
6150
750
100000
825
2550
100000
450
1350
825
5850
8850
2550
100000
3450
7950
3450
8250
6450
5250
100000
100000
100000
100000
3450
450
7650
1725
3450
6825
100000
1050
4050
7425
525
5250
7650
100000
2250
450
4050
750
1425
7725
2250
3825
1050
2550
6825
100000
450
6150
8850
2250
1050
2550
750
9750
825
7950
750
1650
4725
5025
2250
4350
100000
100000
1425
6150
100000
10150
8025
9450
2550
1050
1650
100000
9450
1650
1950
2250
9450
3450
8850
2625
2550
1350
7350
6750
2550
10150
8250
100000
3450
6525
450
2625
100000
1950
7050
1350
4650
6750
2925
1125
7050
2925
1050
6150
3225
7650
8625
5850
450
3525
7650
750
750
450
5625
100000
100000
1650
4950
4050
6150
100000
100000
100000
6150
2025
3225
8250
1350
4650
5250
1050
2850
4125
7050
8625
1950
100000
450
750
1650
5550
1350
750
4350
7050
3450
2250
4350
100000
7650
450
1050
1950
1650
1650
9150
3225
6750
4050
5850
6450
1125
1050
9750
1950
2175
100000
2025
450
5250
3150
6450
100000
4950
6450
2850
6750
7050
100000
6750
100000
100000
6225
4350
2925
825
100000
9750
9150
100000
450
450
1050
6150
1350
8550
5550
1050
3150
6450
5250
8925
2550
5250
100000
1650
7350
1125
4950
450
100000
1350
3750
1650
7725
6750
5550
7050
100000
2550
750
4950
100000
450
7350
9150
2850
4950
1050
4950
9450
5250
2250
2250
4350
6450
3450
4350
100000
2850
6525
1050
5250
4950
3750
3450
5250
1125
5550
2550
6150
750
2850
1350
1575
750
9450
1350
6150
6750
375
3150
1950
6825
1050
2250
3750
100000
8250
3150
100000
100000
100000
450
100000
1950
2250
1350
6375
5475
2025
1350
5550
750
750
2250
750
3750
2250
5550
100000
2850
4350
8550
750
2250
3150
1050
5250
9150
2175
2550
4050
450
5250
6750
5250
3450
10150
5550
6450
5550
1050
750
4650
1050
100000
4050
3150
1050
100000
2850
450
7650
100000
100000
750
2250
6150
1650
100000
1650
3450
6450
7050
5925
3150
1950
8325
7350
2550
750
1950
100000
10150
3750
5250
2250
2550
450
1950
1350
4725
2250
1725
3750
3750
1350
7350
100000
7050
2850
8550
1650
6450
5250
1650
4050
100000
1050
750
1125
1950
1650
100000
5550
1050
2850
4950
1950
8250
4650
5250
10150
4350
100000
4350
2250
100000
9525
1050
100000
3150
5550
2250
1050
2250
4350
7350
1950
100000
1050
9450
2325
3150
100000
6675
100000
7950
9450
100000
7950
100000
3225
100000
1425
4125
4950
6150
7650
1650
5850
100000
1950
3150
6150
375
6450
100000
2250
450
2850
4050
3450
1950
1950
750
4050
3750
4950
5250
4050
2025
1050
2550
525
2850
3450
6150
4275
100000
4050
2175
450
375
7650
3450
1050
1875
10150
8250
100000
450
2250
8550
5625
100000
1650
2250
9675
3750
5850
100000
1050
1950
4050
6450
3975
100000
10150
7050
6225
4050
3450
2775
100000
100000
750
750
4050
100000
1650
9150
1650
100000
1650
100000
4050
1050
1650
100000
5550
750
1650
9750
5775
2550
4650
1425
7950
3750
100000
100000
1050
3750
1575
9375
3075
1950
1275
100000
975
750
1650
2925
7350
2550
1650
5550
6750
9750
100000
7725
100000
1275
7050
2175
100000
2550
1125
4050
6075
450
5850
5550
2175
3450
8250
7950
100000
1050
1050
9750
1950
2850
6150
1650
100000
100000
3150
1950
100000
100000
2850
100000
1950
9450
1950
6750
5250
3975
100000
2550
1350
100000
3750
1575
2550
100000
5550
1650
9750
7050
6150
4050
100000
1650
100000
5550
3150
9750
2250
1350
2550
450
2850
5550
9750
5550
2775
100000
1350
3450
3225
1575
8850
525
2850
750
4875
450
2850
100000
1875
100000
2175
100000
3150
100000
100000
8850
1950
1650
100000
3150
6150
100000
450
1650
1650
100000
100000
100000
3150
1650
8850
3750
2250
2625
4050
1425
450
100000
5850
1650
1350
100000
100000
8925
5850
100000
5850
450
100000
10150
450
1650
8250
6150
6450
4275
5550
3450
6450
450
2550
100000
4050
2025
100000
1125
1650
100000
100000
675
1650
1650
1950
450
525
2925
750
450
1650
4875
100000
1275
100000
1050
1650
450
525
1050
825
7425
2850
5850
450
100000
1050
4350
2550
5850
6750
9450
100000
2250
2250
2550
3450
7350
1350
5625
100000
6750
2250
3525
3750
1275
2850
100000
100000
450
750
2550
1050
2925
6750
2850
8250
100000
5250
450
5850
1575
7575
100000
975
450
2850
750
375
3075
7050
750
4950
450
1050
975
3150
4650
1050
2550
4050
1350
7050
100000
3150
7650
2475
6750
975
975
2250
975
750
100000
7950
100000
750
450
5550
1050
1050
1350
1650
6150
375
1650
2550
1650
2250
100000
1050
4650
7275
7350
100000
4650
8850
4950
100000
5175
4050
100000
6150
2775
5550
2550
5175
2250
100000
8550
4950
1350
375
100000
6450
100000
3150
8850
6450
4650
9450
1575
450
1350
9450
4050
2850
6450
3975
5475
2250
6150
2250
7050
450
750
450
3450
750
4050
375
6450
2850
1050
4350
1350
2850
825
1050
2475
7050
2250
3675
1575
3375
100000
100000
750
2775
100000
1650
6675
100000
9675
4050
100000
7575
3975
100000
1050
100000
100000
100000
100000
7275
100000
100000
6075
1350
5550
2550
450
2775
6750
375
375
1650
6675
9375
6075
5475
2475
1350
1575
3750
5325
450
2550
5775
450
3975
100000
100000
100000
3075
2850
8250
100000
2850
1350
6075
100000
9975
5475
100000
675
1875
9975
1950
100000
8250
1875
8775
1050
2175
975
5475
1875
5850
4650
6075
6975
100000
7575
6300
6675
2250
10150
4575
7050
450
9675
3450
4050
5250
8025
2250
2550
1650
8250
100000
100000
1350
100000
1950
4950
3450
9150
1050
100000
7650
7875
3975
100000
9450
1050
9450
100000
100000
2250
4650
4050
3750
450
5250
450
2250
3375
6825
2850
8850
3450
4650
5925
750
2550
100000
1425
1950
7050
3150
4050
2775
100000
4650
100000
2850
100000
7950
100000
1575
5850
750
450
750
5550
7950
5250
2625
100000
3450
1050
7950
3375
100000
100000
1050
3450
5250
100000
7350
675
4050
7950
4275
7050
450
2550
4950
2250
450
4875
1350
3150
1650
3450
6675
2550
100000
7950
100000
5625
6975
4050
100000
9750
5850
750
5550
4650
1050
3225
1125
100000
4050
9075
100000
1350
1050
100000
1350
3750
5850
100000
1950
100000
100000
7950
100000
2250
100000
100000
2325
1950
1650
7050
100000
8850
750
2550
4950
2025
5250
4950
7950
2550
2325
2250
5250
1050
2550
4350
4950
5325
5025
5325
100000
3450
2250
5925
7650
1650
750
1650
2850
750
5850
100000
1650
2625
6675
2550
6450
825
8025
2250
450
2850
3450
5475
100000
5250
100000
5550
1275
2550
4650
2550
450
6975
100000
1950
6150
975
2850
3750
5850
1650
3675
5250
8475
2850
1350
2175
100000
100000
100000
100000
100000
1050
4950
675
5175
3975
5775
750
5175
375
3375
1050
1050
5550
3150
675
4050
675
6375
750
100000
4350
1050
100000
9150
8325
5175
450
5175
100000
2850
1875
100000
2775
100000
1650
3150
375
750
6150
3675
5250
100000
2550
3150
1050
2250
675
1875
1050
6150
3375
7350
1650
450
1050
100000
450
100000
1425
4350
8550
9150
100000
1050
5550
1050
100000
100000
1650
10150
675
750
1050
750
7950
100000
100000
6150
4050
100000
7050
9450
4575
7650
5175
450
1575
9750
4275
100000
3975
5550
3075
5475
4050
6450
6150
100000
100000
1950
375
750
100000
6750
100000
2850
8775
4950
1050
1275
5550
5175
3975
8550
1950
100000
4050
7950
4650
9075
8850
1350
1650
750
1575
1650
4050
5550
5250
1950
6375
100000
4950
1875
100000
750
2250
3450
5250
675
5475
100000
9450
975
100000
5850
100000
5550
9450
2775
6225
4650
100000
3525
4350
100000
4950
1950
6225
2550
2175
100000
1050
7950
100000
2250
5550
100000
4050
2250
4650
450
2850
3150
3525
1650
450
100000
100000
9225
2250
2550
1275
6825
1050
100000
1950
4050
450
525
1650
4050
4050
1950
1050
750
4650
4650
5850
2850
5850
4950
8550
2550
2250
2550
1950
2550
3450
4050
3450
7650
9750
5550
1425
5550
750
100000
1725
3150
100000
100000
9150
6750
1350
4950
3450
8550
100000
5925
100000
4875
3750
2250
3150
4350
750
1950
100000
1950
2850
3450
2550
100000
100000
3825
450
9150
5325
450
100000
4950
2250
2475
3450
375
1050
2175
4050
100000
5550
4950
375
3075
1350
7350
2250
1650
7050
3150
100000
675
2550
100000
2250
3075
6450
975
1875
5550
3450
2775
2550
4050
9750
3150
2475
7275
4350
100000
9975
1050
100000
100000
4275
4875
5550
2775
7575
100000
9150
4950
6375
450
100000
100000
100000
2850
5550
100000
750
9150
2550
1050
9375
1650
4275
1650
4050
100000
3450
6750
750
6450
6375
750
100000
1350
975
2550
3150
5850
100000
100000
2175
5775
4275
100000
525
5550
100000
1950
5550
100000
100000
3450
6750
7650
7950
1350
6450
5850
3225
3150
8250
4050
2025
10150
3750
4050
4350
7950
2550
2550
5025
2250
100000
5925
6450
8925
1350
100000
100000
7050
8850
9750
100000
100000
6525
4950
1050
2550
2550
100000
100000
4650
10150
100000
2250
1050
100000
100000
4650
100000
8550
100000
100000
4350
9450
2550
2850
100000
2250
4050
5550
3450
2850
5850
6750
9450
6750
4950
1350
2850
4350
1125
2250
100000
450
750
1275
2250
375
3450
5325
2850
3150
4950
7050
1050
9450
2250
100000
4650
100000
2250
2250
5550
100000
10150
100000
4050
450
5550
1650
3225
9450
8850
100000
100000
100000
750
1275
7275
1950
4950
450
4050
3150
3150
1950
7950
3150
1725
4950
5850
4950
1950
1050
10150
100000
3750
1350
4275
6150
2550
5625
4050
4050
3150
7050
3150
9750
100000
4950
8550
2025
750
1650
7350
450
4725
2775
1050
2550
5850
8025
3150
8850
3750
100000
2250
6450
2550
1050
1350
9150
3450
1950
3450
1650
6450
3450
750
10150
100000
1650
1350
3825
3150
8250
4050
9750
2025
750
1650
100000
9150
4350
2325
7950
2550
4050
2625
5550
3150
4050
100000
100000
9450
100000
5625
1050
100000
8250
450
4050
1950
100000
8850
10150
825
1050
100000
6150
1650
4350
3450
100000
450
100000
4350
450
9750
2250
5550
1050
1650
7050
100000
1650
100000
2550
4350
1875
8250
3450
100000
6150
6750
1950
100000
450
4050
2850
1350
100000
100000
450
100000
4875
1350
4050
3450
6150
5850
100000
1350
2250
1650
4425
4650
100000
2250
2850
3825
1650
6150
5550
750
3975
5550
2625
3450
450
3450
100000
1350
7650
5850
450
5925
5550
1050
1950
100000
4050
750
1275
100000
100000
4050
750
2775
4650
5550
3150
100000
7050
100000
2250
100000
750
1050
100000
9375
8250
1650
1950
100000
4875
2250
3450
6150
3450
5550
1050
750
2250
1050
9450
4050
5550
750
3975
4350
2250
2250
2250
450
100000
4050
9750
100000
6150
4650
100000
3750
10150
2550
4350
750
4650
100000
1950
4350
4950
375
9750
7050
8850
1650
750
675
450
6675
3975
1650
1050
2625
100000
3450
100000
2775
4350
2850
1950
3825
750
6150
3075
5250
750
2850
3450
5850
3750
100000
8850
100000
2250
1650
4950
1125
750
750
7950
100000
1650
6450
450
9375
3150
450
100000
100000
1950
6450
3450
5025
1050
100000
1725
100000
1650
100000
3150
100000
2850
100000
1650
100000
6150
4350
1350
1650
1050
8250
8550
450
6750
2850
6150
6150
1950
1950
750
2850
1050
4350
3450
100000
100000
3450
7950
9825
4050
3825
7950
750
3825
5850
6825
750
100000
100000
2550
2550
100000
100000
2025
5250
4350
4950
100000
7050
2250
3825
5325
2925
4350
4650
4350
1050
1350
1050
5850
1050
7350
100000
2850
100000
5925
450
525
3150
6450
100000
6225
7650
750
7650
6450
100000
1950
2550
7350
450
100000
8550
100000
2250
6825
450
2550
4125
100000
6225
6225
2025
4650
750
2250
7050
7350
1725
2250
100000
8250
100000
7650
3750
450
5625
9225
1350
4650
525
1725
1350
100000
1350
100000
100000
100000
3150
1050
2550
2250
3525
2025
100000
2850
4050
100000
100000
525
4650
750
4650
4425
3450
1950
5625
3150
1950
100000
4350
6150
100000
450
2850
5325
5625
450
1650
450
150
100000
3150
2625
100000
3750
3525
2550
100000
100000
100000
3750
3150
1350
4050
1350
100000
750
2250
6150
3450
3150
3750
5850
2850
750
1950
2925
6750
6750
100000
3150
7425
3150
1050
1050
1350
1950
1725
100000
4650
1950
100000
5250
9150
450
2850
4050
5550
750
525
9150
1050
1950
2250
3750
4350
100000
4950
5550
3750
3750
100000
9450
100000
825
3825
7950
7050
3750
450
4950
450
100000
3750
4725
100000
5250
4650
3225
1050
100000
100000
1950
1650
3150
4950
2550
4650
750
1950
2925
100000
2250
7425
2925
5850
2850
100000
2625
100000
750
1125
2250
750
1350
4875
4875
1350
1950
100000
6975
100000
3150
100000
1350
5550
2550
4950
825
1650
2475
5850
7650
1875
2175
450
8250
100000
7350
2250
7050
7650
7050
4650
4650
1650
4950
8175
9450
2250
3525
2550
3150
1875
100000
10150
4425
1350
6150
8850
1950
100000
2550
450
4050
6750
450
450
4350
1650
2850
6150
1650
1650
5250
2925
750
2850
2250
8850
9150
1350
4950
100000
4950
4950
7575
5250
2850
2175
2250
3750
100000
4650
4950
4050
2250
4650
7875
9675
5850
2550
3750
1350
3450
450
1650
1350
100000
450
7650
3450
100000
9750
5550
100000
3450
1650
3450
1950
5175
3525
825
100000
2625
750
3825
450
2325
100000
4350
3150
3825
7950
750
7650
6150
3225
3150
5850
4650
750
2250
1050
825
1950
6150
1350
1950
100000
100000
1350
100000
4125
3150
5850
7425
525
1350
1650
100000
8850
5025
450
1950
6450
100000
1350
100000
1725
3825
4425
9150
5850
9150
3525
450
1350
2775
4950
100000
5325
3750
2625
4950
5550
100000
2550
1350
2025
4950
5025
3450
1950
100000
3825
4650
2850
525
9150
100000
100000
6750
5250
100000
100000
2325
4650
6450
5325
3450
2250
450
3150
3750
1725
1425
2850
750
2775
100000
6225
7950
1950
450
100000
4350
8850
3450
1875
7350
825
1050
3150
975
7050
1725
2550
2850
4650
100000
8250
4950
100000
100000
6375
4950
100000
6150
2850
1050
1950
7050
100000
450
1050
7350
8250
1350
1650
750
4950
675
100000
450
6450
750
4050
3750
1650
750
2850
3975
3750
4650
2550
7575
100000
100000
5250
100000
9075
5625
7050
4650
5550
1650
6450
4050
100000
1050
4350
100000
1650
6750
9975
8850
8550
100000
2850
1050
100000
100000
750
100000
5250
1350
3375
5550
6150
3975
4050
100000
3150
100000
5025
100000
4950
4650
9675
100000
6150
100000
100000
5850
4350
100000
6150
6525
100000
1350
7425
3450
5850
7350
7050
7650
100000
3450
3750
100000
8850
750
5850
5025
3450
1650
1350
2550
4350
525
7950
9750
8250
2850
100000
750
3450
9750
1350
1125
6525
450
3150
100000
8550
2925
3450
1650
100000
825
8025
9450
4950
3150
100000
450
4050
100000
6750
2625
7350
7350
5325
1725
1050
7350
100000
1050
5250
1650
1350
5550
4950
100000
2775
4350
1950
100000
2850
7050
100000
2550
5250
3450
100000
3150
1050
100000
1950
4350
8250
100000
6750
7650
8550
5850
7275
8850
9750
100000
7650
100000
1950
1950
6150
5850
3150
1050
7950
1050
4050
1950
6450
3150
2250
10150
100000
5250
100000
1350
3450
2850
3450
5850
1050
7650
750
4350
1950
100000
4950
3150
3750
5850
2025
100000
1050
4950
1350
100000
5250
100000
1350
3750
100000
3150
450
4875
1050
4950
750
6450
5625
450
5850
7650
750
9450
450
3450
8925
1650
100000
3525
1050
2550
1650
1575
2250
7950
1350
7050
7725
7350
2925
2550
4050
8850
4950
100000
1350
4125
4650
100000
2850
6450
9450
4125
525
8550
1350
2550
525
1050
450
3450
2925
100000
7950
2250
2625
1125
100000
6450
3450
4950
100000
100000
8850
100000
10150
1650
9450
1350
6150
7950
750
3225
6150
100000
5850
100000
525
8550
4050
2925
375
100000
2550
100000
100000
100000
100000
7725
100000
5325
1650
7350
2850
5850
8550
1050
100000
100000
100000
3450
1650
825
2925
100000
3450
100000
2550
3450
2850
1950
8850
5025
750
3225
7050
2250
7650
1050
4950
2550
7950
4350
2250
1950
3450
1950
100000
100000
6450
100000
100000
100000
3450
100000
3750
750
100000
4050
2250
7650
450
675
450
750
8850
5250
5850
450
1950
825
5550
6150
450
3225
2775
1650
2250
2850
4050
1575
6750
2475
8325
3150
4050
4650
5250
4350
3225
8550
4350
100000
3150
450
3150
1950
7125
450
9450
10150
7050
5475
100000
100000
7275
10150
2850
1350
1050
2250
8850
100000
8550
100000
100000
2925
2850
100000
3750
4950
100000
1950
9750
450
2850
4950
100000
100000
4650
1650
5550
2250
4950
4575
9750
3150
4125
450
100000
1350
6750
8250
750
2850
2175
100000
7050
450
2850
9150
100000
5250
2850
5250
1350
2175
4350
8550
1350
750
975
2250
2850
4350
7050
2850
2250
1350
7275
6450
5850
6150
4125
1650
9750
2850
975
3750
2250
3150
1650
1575
5850
100000
750
750
100000
450
3150
750
7050
4950
9150
1350
100000
7275
525
100000
4350
3225
4650
100000
6750
3450
100000
3450
750
3450
4350
100000
5250
100000
100000
2250
7050
100000
4350
750
1350
2250
375
100000
100000
6150
3450
4950
4350
9750
2850
1275
1950
7350
6750
4275
2250
5775
3750
2850
4050
825
2550
100000
4650
1950
7650
2550
450
2550
6975
3150
1050
1050
2850
3075
450
675
825
7875
100000
2550
6225
100000
1650
100000
6450
100000
100000
1275
9375
1950
100000
100000
10150
1050
100000
100000
4350
100000
8550
4650
3450
1050
3450
7050
675
9450
100000
1275
10150
100000
1050
1575
9150
750
4650
375
750
1950
750
100000
450
450
100000
100000
4050
4050
1650
3150
100000
1950
2250
3150
1950
2850
2175
10150
2775
4950
750
100000
450
7650
7350
100000
3525
1125
4350
8925
750
750
7350
675
2850
2550
1950
10150
1050
1950
100000
750
8250
2250
750
8025
3750
3150
825
100000
1650
100000
5850
100000
450
4050
100000
450
3825
4050
9750
100000
9150
1425
1350
100000
750
5550
100000
1050
3750
2550
1350
3450
3150
7650
100000
6750
3450
2550
525
5250
2550
4125
750
7050
2550
1050
4950
750
3825
750
750
100000
8550
1050
8250
7650
1350
100000
750
750
3750
100000
4050
4725
8925
450
6750
3750
100000
4425
4050
2850
4350
100000
100000
8850
1950
4050
1950
5250
5025
750
4950
3450
1950
100000
3150
7050
5850
4350
1650
100000
5850
2850
2550
750
1650
100000
1125
2550
1950
3750
4350
1050
4950
450
2850
1050
100000
7050
100000
1650
2250
100000
6450
1050
1350
450
8850
1950
7950
100000
1575
3675
8550
1050
1350
1650
1050
450
8550
1950
9750
3075
100000
7950
750
4350
4650
100000
5250
450
100000
750
10150
3150
2250
100000
100000
2550
750
2325
1050
1650
100000
9825
2550
1950
100000
3450
9150
2550
3075
2850
8025
750
1350
3150
2325
4050
1650
100000
6450
3450
825
2850
7650
100000
5250
4650
2925
1725
1350
100000
6450
6150
3750
5025
2550
1350
2550
100000
100000
100000
100000
1950
7350
1950
100000
525
100000
2550
3150
3225
5850
100000
1575
1950
4350
7050
4050
450
1650
5250
100000
7950
3825
7350
1650
100000
7050
3150
375
8925
9225
100000
100000
1350
100000
750
7725
3825
5550
3450
825
6825
100000
100000
5550
2025
825
3150
1350
4650
1350
2850
450
2550
100000
4650
4725
5550
450
100000
1050
5550
2550
2250
3150
750
525
8850
4725
5550
3750
6450
9150
450
1050
1350
5250
5850
100000
2775
4650
2250
4050
10150
4350
6150
3150
2850
2550
100000
9750
6450
4275
450
6675
100000
750
100000
750
100000
2850
4650
3150
100000
3375
100000
100000
1350
6450
100000
4350
3750
9750
9150
7950
5550
8925
7950
6675
4050
450
375
7950
100000
6375
6750
1350
2550
4050
4950
3150
100000
8175
3750
1875
2250
3750
2550
450
4650
100000
7050
6750
4050
5250
9450
100000
675
1950
100000
2550
100000
750
7050
3750
5250
7650
750
375
100000
2475
100000
2475
2250
2400
375
450
100000
7650
100000
1950
4650
4050
750
6825
3450
8550
1425
5925
5850
5625
1950
100000
100000
9150
5850
4950
2550
100000
450
450
6750
1725
100000
100000
5925
1350
2925
750
5775
4050
450
1050
2925
3150
5550
5850
5550
6150
750
100000
1050
100000
3375
1050
450
2250
525
6450
3150
5250
4350
2250
1050
9075
750
6150
750
10150
9450
5550
100000
375
8550
2850
450
5250
1350
2850
450
100000
9750
100000
1950
3450
6150
2850
4125
8250
4950
5250
2025
100000
7050
2250
4650
100000
7125
375
1650
2175
1050
2550
3150
1350
3375
4350
750
75
100000
100000
4050
450
100000
4650
1950
4050
750
4050
4950
3750
2250
5775
8250
1050
8850
3825
100000
1350
4950
450
2550
450
825
1350
450
2250
5550
8850
3750
750
100000
100000
450
100000
450
9150
5250
3450
3450
3450
1950
5550
4950
100000
100000
100000
4650
2850
1950
1950
3750
3150
525
2250
750
2475
3150
100000
750
6750
4950
450
450
8025
1050
2550
2850
2475
450
4050
1050
4125
100000
100000
1050
1350
100000
1950
1050
8550
100000
1950
4650
7950
2250
2250
5250
9675
1350
2550
3150
3150
1650
9750
1950
6450
750
100000
1050
2250
5625
750
3150
8475
375
4050
3975
3975
100000
4050
100000
3150
4650
6675
1350
2850
675
6750
2550
1350
3075
2475
100000
5175
1575
1350
1350
8250
675
1050
4650
4650
100000
5250
7650
5550
975
100000
1050
750
100000
7275
100000
3150
8475
9150
1650
2175
6075
100000
1950
5250
1875
2175
450
3150
2250
3450
450
2850
4950
4050
3750
375
4650
5850
8550
3450
100000
3750
2250
100000
4275
100000
5250
2550
75
3975
9525
10150
100000
100000
4650
6750
2550
1650
100000
4875
975
7350
1050
2550
6150
1650
2550
4050
3750
1650
2475
6750
1275
100000
1050
1650
4350
4050
6150
4050
450
450
4950
100000
1050
6750
5550
750
2025
2625
1650
1425
3450
1350
5250
100000
6450
2625
9750
2550
2250
3450
7050
9750
1725
7350
6150
100000
7950
1125
100000
100000
9825
4650
6750
3750
450
100000
1650
4350
3450
4950
5925
3750
7350
1350
7650
4050
3150
7050
4050
3150
2550
5550
5025
8850
3450
8250
5550
3150
5250
3150
100000
750
100000
1950
2250
8025
100000
4950
450
100000
2850
100000
9750
4350
10150
5925
825
100000
1950
1125
7350
4650
100000
1350
2025
3525
100000
750
2850
100000
3975
