29736
10582
4336
8193
468
1247
28911
7013
14218
7033
1327
2520
3161
4617
10650
9689
7584
1013
6122
5248
6129
6157
4610
10343
755
2814
7916
1660
726
3433
14512
3105
7300
2472
19634
2837
3161
25623
7040
10586
19069
6400
1922
3446
3386
10640
999
3120
7044
4930
3464
2523
6703
2809
2257
4880
5526
6438
9724
13317
1339
394
6120
1328
8840
1319
425
5211
29813
4035
4020
8240
4643
389
2808
4576
3437
1918
3392
1326
9108
1010
2831
8791
13633
2487
6434
402
1047
8493
12175
9119
4642
12412
1906
3100
1003
3416
6950
5463
13033
6979
9076
1046
3116
6698
1270
6680
963
3978
7314
9141
6700
1926
1022
714
18425
395
20163
28581
710
6132
1337
14214
1032
3995
24084
696
11521
1639
6410
18696
1037
1029
1001
406
3757
3119
5484
4622
30154
9091
2804
10599
19340
8871
10015
15693
5836
1310
453
7651
2812
3719
8819
448
2869
3415
390
2821
2783
6416
4066
6999
10334
4874
5803
7287
1267
3099
2230
13921
17243
405
1892
11181
29702
1918
1045
24424
2179
10879
2445
394
1292
730
6056
2233
15988
1020
1837
24688
9694
4884
6110
10287
9380
3070
5457
1889
9068
973
12101
2155
9086
6396
8215
23842
3349
1902
5794
3368
12048
20751
3970
1252
8143
6694
991
1291
4618
6062
3980
5208
698
6436
3154
3959
3404
7010
983
1578
8811
2825
8210
6711
18685
2744
2218
10313
9076
19593
8763
401
1848
4865
1269
16892
6722
2795
2821
3674
6131
7289
2200
3142
30988
956
677
7882
381
14446
7614
12760
16623
6400
1973
2526
4049
393
3769
6756
5511
10033
1653
10681
2232
20786
8813
2512
9133
421
1917
7019
6722
7649
9408
11528
11822
1650
1049
427
5217
13011
26516
2465
12082
12418
7619
2850
14562
29834
6769
745
4683
18731
9391
743
2831
13287
5510
3164
22330
446
11222
8885
707
1032
1320
9389
4066
4027
7921
2280
2845
4617
1623
1036
4031
12421
1331
6131
1358
11260
10316
1943
9110
8243
18418
29755
6386
7947
18686
7022
1914
3109
2759
3422
1343
6695
3979
966
3725
8804
6153
18963
10315
5481
321
7239
3714
5181
7629
1028
3420
459
8273
1896
9444
5588
1311
5553
27
7850
658
401
1910
11140
6113
6096
10659
18129
2512
11235
9149
16036
6683
5218
1872
1341
8758
11795
1912
4297
11830
7007
5200
8783
690
11804
6141
14217
6405
3729
11195
6122
12093
2472
9101
4332
6091
4606
370
9722
6076
15079
12703
1015
6384
4619
12984
1346
5840
449
3071
1314
2160
2248
4354
5763
992
29714
5224
653
4006
5786
6371
2485
433
11236
7626
1609
408
2249
1551
10893
6683
5497
711
11212
8198
5829
1651
9733
717
2529
359
1895
10313
4601
1264
741
21711
16012
4618
4026
29487
8820
1618
9046
5478
1889
1593
1321
12666
3134
3078
7598
3139
3694
5217
7617
14241
3704
2775
5451
4319
11144
2500
4622
15452
3028
1920
9690
12660
4929
6997
2818
4299
9141
2427
409
6990
392
9682
2548
18681
2809
17248
7332
988
3071
5793
3688
7278
4327
8558
8828
8491
9089
1602
5504
4526
1227
5151
29733
9100
6095
1596
1261
11523
4321
7914
7904
10045
16916
17807
1587
12439
1305
433
6712
6402
2207
18696
1359
1036
9405
3725
5811
1976
723
7914
1053
19346
9152
2808
25929
1317
2852
4904
6434
3703
6700
7624
8214
7936
6732
2812
3110
366
727
10907
1303
405
10935
14197
1641
1302
3666
14822
15997
1312
9989
7631
3113
3685
3139
7337
1608
14770
3103
4614
1326
659
7893
2810
8807
4602
722
1339
7979
6456
2526
746
2491
1618
5182
3994
3410
9407
15410
711
683
1614
2490
6748
7329
3119
7326
29707
10886
5457
7011
5767
6401
12984
399
4332
392
4652
7905
968
1233
2808
998
2487
436
1300
2175
1626
9400
404
4895
971
1290
3701
4001
8780
15370
5485
2767
1352
8470
2441
8221
7305
998
1271
1919
7884
1898
987
1608
7374
5524
33055
3047
3746
3985
3662
2758
7943
22298
5204
417
377
7600
3074
11800
8137
6679
5780
1251
4259
4605
2220
6119
994
4824
35230
4868
4032
2771
5202
16297
2471
13881
675
2787
2204
4603
4878
4659
1274
3713
1922
5489
367
4810
8173
15109
738
746
744
7293
1884
1576
3087
990
694
6099
380
7000
718
431
4896
2193
4626
3399
2476
695
701
141
6430
1847
386
10002
9702
7894
3137
710
8220
5486
30461
1602
8227
1301
7588
1618
3396
4946
3139
7311
405
6084
1103
1587
4301
6783
8828
4033
1033
6728
3101
8841
8510
7881
426
32835
4607
14206
4324
732
2533
4290
4633
10059
1320
2521
8782
3732
4335
3415
6993
5536
406
12723
18126
400
2837
1017
5504
18429
2522
1314
1597
6754
397
15148
3129
1633
5212
1626
2782
1325
3425
6411
8214
2265
1936
1900
3399
993
7905
19292
2533
5508
4633
712
2198
398
4324
2775
6411
717
7027
4579
1334
1022
8808
10645
4022
4946
11522
29737
1544
959
1022
4301
3094
379
713
1929
1297
13050
3172
13314
10301
11752
4615
3155
7928
6984
2741
1629
3398
15980
1270
4613
398
1629
1564
5768
1292
1899
1626
5821
5259
4347
8226
6043
429
6099
993
22889
657
379
365
3999
1515
4602
6437
5500
3981
4065
6075
9685
1296
404
5517
4307
1295
1292
354
7308
3984
1932
4648
1274
1530
1610
15111
431
3090
4030
6416
6713
9377
3674
1248
371
6732
10002
4311
5819
5462
5198
6061
2210
5228
1376
3753
14226
5852
1327
682
2830
3596
9124
10615
3999
8201
436
681
1022
1315
4910
413
9085
717
1607
2162
403
1320
7017
5475
8821
651
5776
9442
4032
2481
1628
2825
6130
3416
6082
8215
1862
29754
12113
9107
1353
694
8244
3455
4317
374
5220
716
19316
3428
8808
4044
1962
1567
1293
431
1564
3400
1930
409
3689
1004
29833
12440
753
1023
23511
3420
8166
4641
738
2193
1617
28385
1096
3113
5564
22896
18406
3710
9452
434
1029
1557
6133
1301
5830
15702
26564
707
9371
16899
6426
1594
6999
714
2195
4661
2487
19628
3988
1925
1053
1602
9405
9971
12723
710
1023
18753
4575
4287
3422
10317
1933
458
9716
7277
7347
16312
1887
3107
5226
5756
29727
976
3431
416
3074
11225
12425
3749
8489
9122
733
1012
2167
9410
11236
3430
7317
13021
9703
5207
6714
11481
6676
709
4642
22026
386
5777
11230
4297
1060
9108
6378
5753
2197
11496
10332
705
3723
6373
1324
8814
3716
26557
11500
3969
388
1888
5238
4908
6089
2197
2516
992
25311
710
7045
2197
15109
9121
7050
10619
3705
5224
1001
423
9359
1891
4898
1580
4919
2205
1277
1301
13303
4924
16343
1892
1046
453
3695
646
5197
12982
1002
428
12386
1044
10629
24444
746
4904
380
6415
4609
42103
12394
3669
31302
2209
983
2506
19624
11224
2822
7039
3104
5547
1925
1338
995
1954
30041
13617
1616
448
1935
4013
11227
3734
1897
34905
2206
19314
27120
1622
5748
704
11810
5487
2502
679
10299
6740
3377
2845
1613
2803
13327
10918
3707
1321
419
1047
730
8537
7041
742
6073
3115
5528
13029
1010
3727
1919
3130
14206
1323
2188
31345
433
18696
6417
981
13930
3355
4344
460
10029
1599
2495
14195
10320
9107
12998
2231
2203
6998
9406
19270
9429
7909
3406
13009
451
2204
348
1612
10277
407
8518
20537
9105
21117
1932
5511
1896
7936
1315
737
15109
13298
1952
1586
2827
6433
1340
5834
2807
4954
8549
706
1300
10631
9372
7291
11206
3093
2226
1914
3398
430
12718
1003
3405
9455
6444
669
1632
6095
1069
12096
387
1594
3705
2502
11540
16901
2497
7577
12113
3106
748
6424
10908
23222
7882
7041
2204
3139
695
6404
994
1585
14251
962
29710
5197
6164
3709
30726
681
1272
1891
13906
4300
3084
8202
3118
8795
3711
5495
11152
1630
8789
6105
7001
3109
11839
2241
30697
8805
2214
3038
13904
6084
1310
3109
3680
3662
7626
6401
11516
24088
4288
6405
3401
6386
3673
1887
2771
4658
4888
19588
8210
4026
3978
7587
1878
3697
4016
9669
2769
3135
27710
1097
5232
16316
5186
9477
8513
6678
11172
2491
1871
2495
407
4608
4310
5201
4055
3117
5441
1318
5161
5814
1620
1310
1565
2830
984
10577
5506
5508
15409
7628
12413
1336
2226
4036
13894
10064
669
8188
2192
14200
1635
5220
1862
7636
8543
2555
728
444
2255
431
3755
3158
3158
2243
3413
5759
16044
5825
26573
7597
14803
743
399
4074
964
11491
3689
710
8219
4596
7594
5800
5521
5258
11246
996
6426
1059
4001
9122
2194
6432
1910
9431
5242
1573
6122
6123
3165
1609
1020
1035
937
2526
744
1280
5545
1920
2823
10326
6695
29819
1571
2515
2528
2226
2803
10625
12135
15443
982
2499
5490
1930
1313
2475
698
1593
426
18471
2800
701
5232
1585
671
5801
7311
6088
3096
4329
2779
3491
3342
4944
398
5275
4616
2838
6423
10016
7907
1023
5240
10062
3719
1603
5526
9438
2255
1032
9665
11846
6997
3105
1027
4018
4942
1327
6704
1276
1031
2191
3694
3725
14793
6112
3410
4044
8227
1313
3415
6104
3718
2768
2525
1645
1287
14218
994
5190
409
7039
1898
9709
7937
1924
9133
398
12731
4035
6684
11189
2187
1588
1334
2255
1364
1298
442
1295
12382
3774
1951
4944
7295
6119
1885
9116
12425
4833
6053
1644
4892
403
447
4622
3691
23513
7948
21131
3401
1649
6429
7306
2488
8253
13935
33701
11581
2852
4953
1052
5194
995
1323
2843
9418
5822
38838
5495
428
1623
421
6731
25297
1065
13940
2525
8522
1335
2525
744
4007
1344
1896
1658
11249
752
6154
4368
4650
3404
7915
1361
13611
2852
11820
4645
2506
8908
24120
479
2237
12089
2209
7907
18119
13962
1367
11226
3415
1584
34638
2815
9446
19885
10001
2558
4321
9696
962
4333
3371
753
3718
1644
4963
6148
4333
391
1327
4635
16372
5562
7912
19310
5783
18692
3149
1631
2213
1031
410
467
15102
4338
2508
3110
10888
10603
10516
3443
3395
1301
5815
1005
1045
10015
3140
3126
2828
7638
4285
1889
7280
2823
1929
4882
14831
12428
6098
4603
1335
4321
15700
18381
2175
1876
1588
6117
3746
4899
6976
2541
12074
1023
1881
27098
9766
2209
1319
4910
9139
19841
13324
5223
4301
13287
4922
2817
399
6731
9701
20804
10307
14180
3102
1611
999
9443
456
3449
8206
11546
11526
3734
18374
747
1002
3987
8807
12124
7920
2191
2247
14456
2769
5249
7913
707
3073
3724
1923
10595
3123
3692
1893
13888
6123
3400
1291
9098
7651
3691
6701
11237
1607
3110
1619
6753
6743
409
2206
4894
3387
1903
2205
10023
3719
5533
11813
1877
8190
9085
5521
9737
2234
3116
3425
31602
4286
2238
10336
437
735
1628
24742
7322
4581
12084
9071
3469
3118
3389
8217
8823
1929
2805
3979
8503
2522
4907
1875
975
13607
2205
2796
1875
6990
753
4007
11218
6433
13975
1354
3124
16607
416
7888
10905
9424
2176
3990
21989
3722
3161
1912
1918
9688
6977
3450
8781
1918
2287
726
3054
7580
17497
5852
9078
4291
1632
6764
32203
746
1232
1279
24116
3436
9373
3680
7347
1302
2491
11551
4898
8205
3077
4890
719
423
3370
8740
14531
10932
9103
5202
10901
2157
9722
9759
1605
6081
18399
1926
27383
1335
3085
745
8796
2805
1886
1658
2200
11199
9122
3077
7322
6158
3737
9132
7568
10339
4266
4303
3088
4583
5495
6436
6680
2549
1300
15350
4289
8552
1660
2787
4623
4606
4023
7269
9704
3723
420
27105
5788
3178
4896
1856
6102
2186
3943
2484
3663
9054
8499
1622
2169
19605
736
1035
7909
9997
347
5213
1631
13036
2203
4619
19026
3688
1897
10903
9123
4272
4595
5528
3395
31632
4640
1615
2240
2522
9408
8500
7292
1600
1940
1038
8811
1610
14762
1918
3359
1637
6722
6979
8802
436
11864
1603
13029
9420
6429
12075
10041
694
2516
3424
12419
5495
7585
3695
1902
6403
7317
6383
8224
1884
2202
1595
4911
2272
8514
1604
7577
2518
8221
3139
10010
2847
12431
7946
2215
10614
4604
7026
6415
6998
9057
29780
6458
30415
3713
3727
741
3447
4319
2489
1607
4016
752
25299
7342
14515
2224
4593
3120
8864
14849
25329
5830
13631
6170
10300
719
15113
4218
3379
6167
9697
3682
2845
7876
9124
5492
4316
1600
1286
6685
1899
22
17172
7905
11525
3150
6113
1547
2507
5508
1546
437
12727
1900
1317
709
391
24128
1607
3114
10924
9132
13930
3736
2213
17217
25297
6091
29711
9676
11185
2522
17464
1035
4854
5514
1296
4034
693
435
6754
6096
3141
6396
1951
1901
7638
739
416
1343
4001
1621
2461
43626
12722
7079
1885
3091
1325
1338
4319
727
22323
10955
1610
401
1292
6427
12717
12132
4865
7870
7322
10332
4913
370
3423
1552
2831
11223
5804
1322
4571
670
5487
4271
1297
6097
1632
4335
4332
3117
3788
753
1009
4250
712
12413
4923
12190
1904
4303
683
2169
24991
9996
3734
2605
10638
451
976
12130
4606
411
1621
3988
1630
2884
3213
8850
2245
3415
3977
1279
787
4973
4562
3157
3719
4350
742
1368
7986
9746
2542
16317
10614
5194
1002
6406
1955
1300
3751
1317
2204
662
2487
9439
4323
739
1979
429
18155
1638
4946
472
6484
12469
11539
806
2842
5850
3158
2444
495
1873
4720
4375
4687
4973
18421
2560
487
2236
15424
3096
2520
1336
7966
2837
4630
406
1641
7383
6799
3442
3135
10305
6173
8861
6160
3710
1057
1933
7937
8248
6436
7662
4625
15435
8888
10312
3117
3402
465
6763
1346
8520
1027
3464
13062
12164
4045
4648
4959
419
8574
3470
1055
2518
5529
2550
2578
10986
10977
2842
3172
6789
3687
11857
7954
1689
7972
1366
4052
4689
1965
464
8540
1914
3097
1316
2228
3456
6728
2561
1952
4635
7070
1019
6390
9728
13357
3050
29782
3972
6113
2542
3120
703
1926
1006
7268
1326
4888
1343
1311
1027
7897
1627
5265
3725
15455
8220
4880
3955
9091
1613
3408
424
1644
7641
8192
10332
7935
15437
11238
1913
4034
398
2825
3693
397
11785
1313
1681
6735
17800
3118
6436
12737
7624
1623
6760
1036
706
4058
2181
1333
21444
13262
29802
8830
12417
3113
6996
1918
6708
7050
2162
4040
1894
3417
3146
11818
1304
7008
15444
3455
6461
6420
6388
8207
5243
9152
468
6419
4352
11240
2202
442
5560
11196
3743
2518
3400
7008
7365
8163
5562
29712
1885
13024
3120
11555
6724
13886
2794
1339
3713
10316
2794
4300
5497
2235
11226
1924
5512
1324
7333
1632
4308
15087
25312
7340
7041
7003
1896
6433
4009
1597
10299
1351
5210
2556
2543
4032
410
2808
723
2515
5504
4241
6414
450
6098
3118
12732
4360
421
4917
9138
1919
4613
3405
3128
715
9421
13021
9717
1636
1921
8840
1892
1599
10053
1661
2212
15409
20493
4014
1603
18374
4633
4324
4361
739
4950
12470
1278
6147
14843
2190
1028
1930
6426
7631
20217
15427
3752
9674
1316
7648
2141
29739
9107
9986
10280
18999
6080
3989
391
16597
11501
3441
7607
3127
1348
2205
2168
3987
4286
4284
6413
10894
2494
1624
4009
2192
7902
10593
3709
3984
6696
6996
14210
714
1286
6371
5513
965
15380
2819
706
10302
680
27977
5191
3656
709
9383
5184
7305
4312
3119
7053
1859
23561
712
4591
12996
21088
5793
5829
3686
5797
4599
3092
1919
14196
9101
7003
4628
3711
7908
989
6135
1282
1274
7258
11512
340
997
1320
1877
3137
12389
2523
691
4009
30661
1926
1863
10013
9378
2798
12726
5194
1631
20825
14787
4871
3410
1942
10916
4920
2185
12113
714
5496
1334
2511
3387
1313
1924
5780
2853
8481
7270
12416
14505
1356
7318
5530
718
407
18105
1325
4882
1945
744
958
10874
1915
1323
6472
7865
35792
1325
6119
40327
3093
4001
1047
962
9402
7924
3443
10044
8839
4921
3384
4926
14845
3421
5500
7593
8816
6096
2499
2200
1330
1610
13011
4328
9082
15082
2483
3120
3672
1272
2515
365
10258
733
3907
9995
8816
6058
428
1360
15488
13076
11256
5895
7383
5559
7393
8604
456
1671
7068
4361
2819
4649
17535
786
2289
7902
9784
5866
3792
2511
3723
22958
5609
2603
1682
17229
2592
12210
13662
10379
13065
472
27209
5920
820
1613
13346
6483
999
14238
8263
4057
5552
1091
8581
3472
10644
8564
4307
6174
456
786
3770
7914
5233
3798
4958
22
1310
24468
1079
731
2825
7691
8558
1656
4360
6486
3814
4057
8
1627
1939
738
462
6476
762
3193
735
4958
7
4026
3741
8867
5006
6171
2583
3483
2311
20514
29765
402
407
9099
8221
7013
3410
10017
4298
994
14795
2770
9729
3118
9087
18702
1911
1577
679
15700
3716
19611
1591
21724
981
6373
396
2469
727
3437
16004
3380
9637
2512
12694
15419
2234
2172
24983
7938
5213
6699
1894
3713
2467
1917
8477
7592
3073
988
1336
1928
1833
24097
9037
15148
6703
2229
16339
17810
403
2815
1002
726
711
707
3347
6722
6395
4635
27690
439
1590
15410
5519
7649
11511
2767
8228
13326
7294
5239
42
2851
2526
4956
1044
3437
3744
5558
2855
431
1066
2543
1062
7330
21440
3171
1955
3462
10102
3130
9445
1647
2821
737
7346
757
17828
3137
4054
1323
734
802
27428
2575
3479
4919
5237
3761
4055
10682
1377
1045
4034
13035
2224
1359
1023
2259
6748
1055
9100
13624
3429
15465
6469
2518
427
8824
4368
1923
1909
426
8518
1341
3761
422
3093
7968
5239
7679
1638
1335
7656
4664
4074
4603
6174
16950
1363
9156
8573
9733
7943
7317
4047
5825
2264
13371
445
407
11238
7009
6668
4615
712
1000
2860
774
714
1071
13332
1311
7939
8293
1629
3739
6146
19009
2202
6700
3110
5524
11283
6163
8586
741
7035
2250
2239
3097
25016
22921
1292
1328
448
10656
3091
7035
26833
441
3123
722
696
7053
2812
2227
2186
3374
10269
15745
2814
3098
6705
9732
5822
1674
14832
9757
424
8808
4331
9429
2207
1619
3417
2826
1573
1329
3431
6705
7581
7930
3386
4368
428
1918
747
691
1917
15120
13967
10334
8215
7058
23242
744
10939
1373
9434
1893
3724
2221
3146
6405
7037
4621
5828
1360
6728
1301
25330
13008
442
1894
11819
2180
3766
2822
4947
1898
3404
6947
9388
3418
1313
5200
2799
1639
3158
1555
1933
725
6679
412
355
6113
4862
10947
4024
2785
13932
6372
5833
1276
4944
1921
1018
7319
2178
4586
2507
367
3679
13021
4309
5436
3099
15121
7277
6418
3125
1017
997
996
4904
1020
1036
3135
384
3400
3395
10603
1607
1900
11513
19626
16878
12408
385
3427
1634
7615
12434
7296
11221
8484
1881
5772
3082
3961
2789
21689
8793
15082
4599
4632
4269
17503
8795
4006
4611
673
414
3091
26541
13600
22312
6098
4001
415
2834
5179
3117
9659
5449
7299
13902
20184
434
664
1912
1290
2761
2469
5502
1600
4602
2493
14486
993
10343
12055
8794
1613
12708
10599
6106
2166
4027
4307
3694
15100
672
1589
15417
9718
1578
6699
8518
716
985
11218
3958
21712
416
2245
4618
7601
16641
5217
2230
21412
2206
5204
7603
704
11528
12393
6990
690
8829
3116
1625
1310
15406
1301
6086
3999
652
3132
1012
7635
721
6406
12732
6132
1913
5478
23228
18391
8204
2505
13592
1612
2538
1606
2826
15414
3967
3401
3972
19014
3077
1045
4565
686
7867
16919
707
2251
3371
441
695
6683
1555
3097
12151
3742
3716
1296
999
417
6140
2826
406
7940
3434
4041
452
9141
927
6450
401
2492
13617
18430
14474
2879
8828
1612
1299
696
1701
1904
2263
3767
4631
1610
21466
18427
737
11195
1931
418
7931
14539
1016
32542
3109
11569
7617
1936
5539
932
19617
4650
408
8822
19337
3106
13967
6745
8504
4308
2510
4603
743
7921
7310
5230
4269
15146
2525
727
735
1335
1631
4930
4373
3435
6110
4646
996
994
396
7909
2249
10060
745
1317
363
390
29769
4329
7264
1311
3707
5500
4014
2183
4276
4008
4346
7908
2548
15127
1290
1863
12651
9432
10612
1924
6413
11802
1325
1655
7901
6384
19604
707
671
8835
5524
17807
2828
14806
2788
1315
8184
11227
4054
13012
3416
2508
34561
2808
8859
1277
4600
7267
1923
19321
9978
1631
4899
1327
2221
1602
20252
1938
4610
1269
2541
14883
8813
1300
707
5523
16023
6122
1634
9977
5518
6105
7935
7047
2786
1639
1587
7267
2492
1572
3761
11840
4312
6075
6160
1287
4584
13608
29779
28582
412
2840
4885
9403
10292
421
23528
4928
3419
6718
3138
25323
12717
8785
1307
19910
7047
719
17502
26531
423
2205
4324
3425
5208
706
9431
1919
4001
10679
713
1882
15383
6687
6437
1295
433
12726
3724
1977
10876
996
757
6715
5820
4898
2239
10620
8824
23811
1602
407
410
3423
5804
3730
2832
32246
14825
2211
4063
710
1007
13006
19915
7614
3660
6407
3349
4033
5836
3735
5470
697
4640
5801
4579
4067
3393
670
2208
5205
4890
10299
3086
401
2179
994
2180
6108
7323
693
3681
8489
8179
6995
2245
7313
1874
6670
723
1284
7331
700
698
27121
3093
12467
7306
34616
1312
15986
5492
4619
5484
2796
20485
2194
2526
8558
1000
417
10643
5449
1931
4292
2773
12430
8457
4631
14471
22872
9944
6684
11503
1324
2807
4577
4300
11782
2803
996
1317
12677
5175
388
2510
4245
10608
4878
9396
444
2193
2488
8229
735
3127
1043
8204
382
415
6100
25905
9406
458
2259
2508
13902
1597
977
1297
1611
54
6077
6111
6770
2492
21137
750
1640
12720
4333
1592
391
3697
2789
4648
1648
1323
452
6737
7063
2505
8496
5239
8844
7523
1307
1044
3706
1593
6118
2227
3155
8203
1609
10895
8238
1659
16028
1892
413
7353
1329
3777
2527
5174
4053
1920
2549
22384
4605
2196
3156
17535
10895
5513
20808
989
3386
3452
25328
399
6732
8866
6410
443
2816
3411
2828
2796
4640
5539
472
3710
3772
5834
5512
7965
391
2281
426
395
2832
4596
5212
4914
5850
14529
2499
3124
1593
997
1301
2848
2820
5213
4916
9683
8006
4061
1629
7627
3363
465
7899
6092
7304
5560
7013
26518
2825
4363
10639
4871
3778
420
3103
731
4010
1310
3720
6725
3410
4015
1888
5779
669
1623
437
9435
8195
718
2802
4630
12451
2247
10922
14502
7009
5853
2201
12414
2215
4881
3375
3376
5223
13031
2842
7600
1647
2516
983
1041
6123
11564
5226
4051
12430
5831
1947
10959
4328
14807
1332
19979
699
10351
3751
3091
5539
3120
2509
1592
19626
10322
7004
7317
2556
9132
6128
1030
2545
7041
7973
5830
10029
5493
4361
458
5536
1319
5758
8241
4012
11238
4655
16924
715
7282
696
1307
12416
1546
34128
3335
4244
12
2399
10466
13779
1523
4555
4489
3629
2692
3978
592
7201
581
2390
332
3003
685
879
670
6656
10281
3650
13499
952
6926
4789
907
3947
352
6655
1511
1158
2394
1594
1193
963
2399
6640
3911
1506
11999
2106
2689
1504
14373
6570
19798
1230
328
7829
7558
9916
3322
6598
4491
13792
1492
620
3932
935
4220
406
3664
6331
2140
2991
899
4813
2428
1268
5459
3661
2427
8450
2707
2120
642
11099
3331
6295
8748
378
337
24
10172
3081
914
1851
6874
1796
4490
3941
912
1193
9348
2502
2719
9917
1831
2224
11454
4248
4555
6956
597
3024
1487
6944
12039
26
1308
5954
24677
17
4173
1854
7272
8191
3081
3262
4189
350
1499
3311
2879
2253
4354
2835
3735
1326
8535
17525
16055
9470
19598
1619
1338
5840
3745
1632
4930
17833
484
3704
1040
13966
2539
2192
9447
1350
2788
4317
12165
1289
5573
1317
4029
2205
4395
1934
1064
9422
1666
7635
14866
444
9453
5568
1923
6440
22052
1597
2533
6727
1615
3424
7930
9738
1613
1350
1033
1881
1343
3159
4055
16031
7595
749
3421
7332
3730
6395
9462
4654
12697
5239
4031
3437
3454
6747
2215
463
30151
4602
5558
12125
3707
436
783
2814
427
10354
1349
10067
3443
5565
4926
11827
3738
13602
29766
8219
19900
2560
687
4027
1019
14203
406
12085
13922
12060
4019
411
1621
2772
4337
730
1635
9105
2526
17829
4631
5513
7023
734
5841
3794
4622
4935
5807
4620
8512
4602
5528
411
4039
9463
4592
410
1939
4316
3404
4930
8826
3701
3128
435
389
5186
3152
11558
1654
2215
7640
8218
20531
3674
9091
5493
13005
1615
9758
13044
9419
3408
8544
5219
16663
2240
9745
13935
1647
1342
2788
25351
16622
2468
9429
416
15431
6762
3407
18145
1950
3434
2805
4930
1009
1619
7287
3735
5221
1607
2525
7030
8812
6710
2511
6418
19007
15980
1033
738
10592
3117
3411
1030
7902
3960
2225
692
968
5217
4290
5786
10312
11197
1860
3385
4916
399
4933
4636
3089
723
1298
8513
4031
1318
4909
1618
2474
10873
734
2224
6398
29224
22611
5803
3107
5826
12730
12397
21063
7287
7327
7289
3170
4320
12426
714
9128
7018
1304
17543
3436
3411
3700
5824
2490
1571
1295
3417
5810
5202
6080
4656
22314
712
4625
11823
17806
6440
2239
7966
727
3131
2243
3409
11877
7920
20249
1020
3675
1644
2529
9477
6149
415
2845
9727
752
6745
8501
6420
1057
4324
2227
12425
19300
8263
465
10021
21138
1945
10294
3423
10604
9732
8242
1346
2256
1902
7630
7635
3713
12736
1333
7949
35822
2527
1937
1640
411
1650
4911
15138
1383
5266
3728
4344
5807
4941
5545
4967
3119
13322
2506
4002
2864
3732
4317
5222
12956
10288
3154
10951
6409
3644
2241
17544
6171
19348
16671
1352
7933
1596
2520
16054
6097
6424
750
9411
3425
1275
5839
746
1341
10964
3416
432
13010
7016
3397
1056
1370
1352
2262
5275
21112
715
7284
6742
2765
4024
4057
12467
25317
3789
4620
415
2552
1896
5534
4032
3434
6126
1951
10351
7963
3491
6136
5517
8247
4911
1303
4622
1616
10341
7326
5222
8223
5567
714
2290
5530
10028
6393
13949
2213
25040
10651
437
5847
2508
12098
733
3431
1929
6442
4625
8820
5553
12720
3754
29250
9431
10919
4031
28036
4922
11850
21416
3976
8275
25290
743
1022
1953
5016
1325
12
2212
7345
2255
731
4
2795
5883
2555
8529
2507
3095
1291
6131
3768
1969
4624
12111
734
5
5491
2557
969
2783
2512
452
2276
1357
387
1327
6750
4332
9432
7032
759
6738
1327
4033
1328
7625
7645
3412
4666
4979
960
1572
24117
19916
1699
5522
18440
736
2532
4597
3183
10627
23
5223
3807
3477
9693
21
414
2523
4910
3433
4000
16609
734
15448
785
8590
1020
7345
16608
3392
7640
4018
6741
445
4305
4026
1289
4662
2479
18697
6
725
1610
13673
6456
8828
14237
4015
4624
3432
7941
1017
3148
6473
4887
6429
994
19031
755
748
8219
14779
1047
4068
8851
9120
4025
1942
7013
747
4888
25613
6147
1897
449
13336
752
22043
3728
1050
2239
1901
6453
2804
806
1327
5250
4672
5845
679
14550
4338
2547
734
2819
12732
3746
1319
8245
4879
6410
408
1036
6129
1020
1040
2838
6396
6104
10336
22916
3414
5533
4339
2527
10605
3480
8497
742
9202
7908
6745
997
675
2251
8841
1043
5556
1608
4346
1312
4578
389
2221
3443
6154
10364
1628
1323
6759
4066
11832
11230
7903
6399
3706
2200
4014
2244
743
2816
5849
8212
5180
25335
8853
1006
6101
2812
2215
5202
2546
14492
1051
20795
16865
2224
404
5488
7653
2194
2814
3396
3421
6079
741
702
11805
2507
1643
6439
969
20819
1026
4038
3686
8778
3705
2818
13930
7025
1015
1931
6413
3117
6107
7627
7028
5519
15726
2797
1949
15429
9745
7335
10892
3078
430
993
16943
2544
3126
4950
1584
4376
6409
22043
4592
6110
3714
1609
1314
2795
13041
9705
3386
1908
3134
15432
2520
385
8542
7909
1988
12711
4882
17193
1329
17825
403
7039
3728
1580
707
3713
1613
704
5494
10891
6993
1341
452
12130
5530
2226
2513
4039
6722
1926
1001
18458
6164
10086
2241
11828
2843
5848
2554
2554
2268
20463
2769
6133
4916
8511
770
10046
2815
386
7330
7616
13026
6151
3777
15458
15402
10027
4638
727
7599
10336
8238
728
3161
2495
1303
429
13019
4338
4331
713
20570
16361
733
24746
8532
1328
766
1009
1090
6445
6130
28343
15157
2244
2241
2247
690
2828
5226
2849
13925
1320
4081
4319
4922
7939
2834
9428
8837
10013
2834
3448
4645
5820
1632
7338
3123
3728
4632
2218
2425
8159
7908
6716
410
654
337
3149
5446
1606
2524
13871
711
4857
1060
6336
8232
977
13910
7939
1838
6176
4911
2815
14829
4049
757
1029
14538
1344
2813
1891
2199
1329
6106
17529
20856
3155
2258
3411
1318
9393
387
3437
3172
7592
2497
1006
2808
2217
6446
3728
2226
1320
11238
391
1630
5242
1333
1324
986
2491
2209
6127
7930
6708
1577
729
2523
19891
1922
34283
2157
7604
1886
9103
1029
640
2222
16594
4948
12430
4603
9151
3091
11204
5208
11186
10667
3138
21999
2198
1954
4022
726
3727
12755
437
697
8466
6099
29701
4585
4004
773
1862
6399
4607
6422
1884
13331
6401
3403
3421
4615
19898
3994
679
1273
3090
13005
1922
7031
431
4309
2501
3418
4627
8790
1931
12722
4304
3103
6078
20520
5786
6100
1004
3383
6352
1611
4913
728
9379
3695
2508
4890
4918
1620
1912
1596
8797
8814
1028
392
2526
368
9993
389
16910
2761
3089
440
14144
1268
4002
1609
389
15402
419
4897
1266
696
346
649
11229
1933
11177
3723
9694
2188
1612
1606
4007
2510
8213
9405
5197
3120
3110
5779
1304
710
1593
11194
21991
9127
3694
4875
14855
3401
7039
642
2474
8199
13266
8197
5155
4591
4647
1642
2808
2819
3720
1934
2532
10648
451
12150
7035
1321
1315
7632
8891
7023
8245
3141
8533
12164
1904
5830
3769
1620
3155
5868
6094
1684
2180
10000
2209
4647
4936
23546
771
3152
454
2882
8826
13045
11493
2809
9458
3097
2522
8804
5842
5171
12132
18444
5807
1901
1988
1321
1930
9761
4691
5552
9114
2838
1034
1012
4342
7072
3117
1058
461
5240
4325
1950
3431
1023
7620
7899
7323
3404
2238
1362
2173
1631
1353
12421
4665
4953
5841
3667
2851
1023
15434
1953
6129
7633
5818
3167
437
7951
23237
9433
3074
17445
29764
9708
9657
1315
1614
3099
5801
1883
722
10029
10658
5203
4030
7610
20542
6415
10627
1309
2480
3994
1570
12403
21713
10639
1601
2531
10859
2199
7025
2199
16321
982
10621
4615
730
3379
381
2495
2190
13342
695
434
3704
3104
997
5192
2521
2757
11829
2225
14792
12087
443
1012
17205
1606
16060
6093
401
708
2746
998
5808
6726
4310
6385
1374
4953
6422
3984
7884
4373
5518
9740
12081
2493
3684
9084
7250
9148
12115
3432
407
1007
2183
1604
6977
1911
9720
8807
14512
2754
6102
16582
9722
1886
16928
7951
961
13032
1028
1595
3132
7076
10041
1928
7923
4646
3150
27128
3697
42708
2804
3997
2531
8211
4904
22639
3724
2232
8252
761
442
1051
747
12720
6726
725
1328
3405
7324
8235
2538
22607
4943
3118
3763
9756
12452
8181
12379
3157
8541
7636
1893
8243
1350
2540
7032
3709
10907
722
4061
1894
3996
3409
25909
1304
8246
7967
3727
2225
15130
1362
19276
6410
4935
5496
14849
1603
6100
8528
4000
29704
695
1919
6667
10896
14209
999
5784
1273
3127
4918
2489
6418
4303
3391
8195
6957
10006
389
4287
4294
9419
430
10868
704
5448
11205
1575
4580
8495
9688
7904
9416
7939
369
712
4881
386
1357
1023
1562
9102
1280
2192
673
7626
4046
387
4303
8191
2794
7914
9941
3111
2810
1043
1302
5186
14228
6709
1915
7864
2159
1306
7592
17484
3996
10014
7918
2841
11533
2509
6982
7269
1582
5840
3103
6086
3994
6383
8804
5188
705
5213
4304
16317
2774
2822
361
2850
4010
6717
5740
922
2794
13001
1581
4295
396
2514
943
2800
2795
8754
5794
10002
6118
7867
3750
4646
6392
21199
1638
4950
20614
9154
5545
13941
7644
2854
1068
9773
1962
13097
4920
2240
9157
2196
2903
2302
8241
8261
4346
4961
4976
18103
9088
23229
6428
7631
4071
7681
1899
2286
4962
417
753
20541
7319
5876
677
3447
2864
3726
1040
2864
2267
6768
470
5543
768
427
4326
2870
1902
1661
20264
2849
18740
401
3191
7341
3169
1028
1352
7039
4075
7973
18151
1054
19351
2542
3764
2244
424
1042
2859
3104
439
4385
5862
1080
1972
3185
1079
747
1016
1969
2533
6171
9090
5580
26230
2777
3733
744
7936
2554
1653
32868
755
2208
702
3410
6456
2855
3760
5232
1658
10659
3779
4019
2851
1309
3111
3373
4027
2863
1327
3127
4968
2535
3718
22935
10360
7063
751
1000
2807
6158
1639
467
17526
413
1006
4957
7614
2836
455
5554
6124
992
17224
2565
12730
6418
3431
2225
10941
421
2246
5522
5803
3446
442
1327
1665
2218
12388
5833
1932
455
2232
1345
13685
2530
4918
20255
2824
1329
1062
424
3113
1654
700
3991
1382
3204
4051
4653
16677
3117
2190
6716
6998
2543
5242
2830
7068
1357
1375
6427
4985
18440
2207
4629
23502
414
2838
9705
436
1961
8480
2548
4038
1934
778
2526
2206
3386
10616
4604
5217
1298
11186
8745
400
3990
427
3673
1857
6384
6128
3109
419
2776
3418
389
432
2536
10300
10599
3099
710
408
8851
10304
4945
1609
10279
9103
4307
3412
4016
5223
14779
6390
16910
414
5508
8204
4033
2215
1325
971
14557
10351
10028
2505
6692
6700
13899
973
8198
7297
431
4609
11497
3071
706
6044
10001
7280
8810
6082
5504
4920
1297
6103
8808
1005
12701
3075
3679
4879
13897
3409
3691
5260
1012
9998
2194
2249
15758
3995
1906
999
3996
9084
3083
1002
2493
5210
4613
12367
4051
695
2820
3368
6743
1928
