7644
2267
4304
1344
1325
7897
444
1645
447
4315
1313
2535
730
1604
17230
997
6117
10946
9077
4905
7614
8546
9407
2809
2467
739
6744
4345
2518
2882
7316
5520
430
1291
8842
15731
2220
6426
7625
2236
3390
2841
16906
6456
751
10618
496
5230
3442
3426
4307
6722
5211
11527
4314
2223
2122
3708
9701
414
3166
11500
1637
1909
2227
4336
1052
10937
1014
1008
1340
11851
1579
5250
10930
6720
4583
7354
3730
23539
426
33712
6726
7633
4558
1612
7003
400
442
1869
1036
2859
1004
42952
27399
16872
5491
6371
5171
1894
2479
2201
2770
1265
4600
1888
6632
7006
691
938
1584
2480
6380
14207
5811
6999
4630
1589
11766
6372
6085
2173
4292
3999
18097
8436
378
404
3062
1595
9670
4296
27690
13309
10015
1231
2448
7885
4883
6969
4871
2718
29172
12405
703
386
9069
4294
20478
4302
7918
1009
7880
3376
1269
1001
1256
698
3077
8215
2480
2437
3987
3062
6954
4895
3956
4346
4311
5760
1262
4596
393
360
8208
1604
1256
7277
5533
7899
1618
3930
2189
14795
10621
4226
7884
26771
6376
88
1594
3781
1318
1612
1624
10305
4009
4037
20474
5249
7619
5825
453
1021
2188
1598
12088
9082
3733
14505
2831
8560
2793
8800
3719
2522
7334
12988
992
23202
719
1296
689
3427
1320
12423
2813
10313
14193
5841
5765
2199
6411
3425
5784
1842
4004
3666
3719
997
437
4645
741
13594
3150
11223
4284
348
717
3420
9164
14517
3701
1628
1918
1606
10023
1914
7554
3724
2804
12386
3718
8823
15995
4920
694
3414
1914
3731
1337
10536
10941
2222
5792
17234
764
447
994
426
3420
9117
7322
1352
2501
4281
1314
4335
3732
7053
4276
6131
10602
3390
4003
4905
19907
10587
4027
4050
1892
1917
5197
15153
1280
1913
1933
391
6704
9957
5554
11772
16001
2210
9438
4008
2515
9147
3974
18714
2821
5802
7050
17810
2227
6136
7004
8209
1009
10374
690
1309
2816
2219
15713
2233
4581
1902
2501
5198
10588
8837
8514
2825
9418
4284
10890
405
1006
1033
1643
466
8222
3132
9983
3410
2804
3132
1619
10904
6433
744
4631
8212
414
4008
2482
2513
9427
8546
1931
400
7349
7292
3111
9964
1013
3091
752
7016
10623
408
14235
2244
8790
1022
1376
750
2502
4567
2817
1649
713
3127
6074
7344
399
7035
5210
1350
1026
454
4601
23576
3152
1909
6397
9732
5556
406
2526
4032
3417
1929
11238
5844
3403
5815
5219
4286
2257
10312
1901
5520
4642
2530
2204
8819
5541
437
687
711
1279
3736
3118
4597
1620
2821
2251
7913
3391
394
4611
3102
9742
9747
9135
6742
1022
5204
5797
8811
5855
426
1647
7009
427
12119
390
1011
2233
758
10316
1299
1289
5846
7042
12744
432
10921
10307
8797
1352
1659
9149
3144
5211
3716
12086
11836
7645
7630
4905
4655
9434
19602
3746
10638
2209
8241
10055
420
11830
4032
3474
4337
7330
7058
4943
8237
1594
29784
2197
4906
428
28918
4301
1909
717
3081
7602
1643
3694
1919
424
6720
8218
4335
9710
6740
8241
13645
1278
4893
976
2820
1034
989
735
1303
7019
6123
691
9133
4900
10637
3702
770
8240
5205
8504
6401
3131
688
5245
1023
5540
401
8777
2228
2804
1322
10339
4303
13318
440
1048
2815
14213
2561
1030
32199
1296
6140
23210
5190
6445
3122
4928
2827
18365
1635
2799
5850
7921
6153
1040
13917
3699
1277
1004
1322
5499
22933
988
3399
5836
12148
719
2199
11217
8481
4622
9444
17526
9692
5481
24107
2226
726
20522
403
9110
983
995
2517
2531
1297
10031
1626
3970
8478
1309
1606
9398
1618
4616
4320
12149
6671
1013
4594
7535
5831
1903
6097
1617
1277
4909
710
715
5582
9727
21107
25647
1947
1604
6710
1023
1031
4598
1318
4931
448
4320
2522
10950
367
3696
23798
1898
11190
2219
978
3111
6417
1871
3685
412
756
1919
5811
404
2814
13642
4034
3141
1369
10659
12696
452
5524
22600
11244
7012
26605
6990
5260
1012
1028
4300
2482
6625
16909
5821
9703
757
2244
3425
1560
705
428
2535
2812
6396
2188
42685
980
6737
2235
5571
1925
5133
7070
712
2261
1651
18452
728
1966
8872
8232
11799
14856
2838
434
3475
3457
4343
5212
15103
715
10325
458
9440
7082
1914
444
4926
3434
1965
2860
1342
2571
4285
1919
1913
1352
1674
10347
3142
1047
2509
7687
4681
39073
7346
1339
778
777
3774
1664
9759
4620
441
742
12423
4637
6717
4033
7049
2542
761
1360
11822
7930
15119
9075
9163
2862
1327
3152
2236
1027
10855
1623
8867
3435
4613
8836
339
5530
13636
6764
11844
2232
2260
1623
8829
2177
4318
1601
3655
2560
749
3454
3355
1286
2470
23822
1608
18668
1624
1901
6700
6710
3393
427
4315
3141
5524
2523
19577
2787
2242
3094
3981
3404
6426
17498
5494
8568
10289
6421
14790
7588
3349
1022
3440
12711
1876
426
13310
2192
4355
15769
7011
9955
3410
1876
10044
14520
5785
15373
12100
2509
5190
7328
1044
1614
12048
1289
392
8508
4917
1017
1566
716
6440
7555
18358
676
2507
9103
5183
4320
7904
1949
7330
6422
7948
2486
6712
8779
1906
4633
1636
415
4015
1022
418
399
9425
3401
404
7332
1898
3128
7566
2209
5793
724
5499
1570
5783
403
3430
385
3697
3103
12411
2505
4568
9983
22620
393
1578
681
8479
12679
402
12683
3747
743
2816
401
2490
730
26506
705
10282
13000
4888
5205
2440
4264
2493
9107
1530
3441
5792
10274
416
3967
11216
3343
3064
1609
3745
7303
5808
7015
1276
13280
6730
385
3690
1925
4349
13586
7916
4006
747
7932
6669
4609
3971
479
3162
2798
7310
2510
3706
5788
1889
1015
964
2253
4035
3738
16630
1924
7599
2215
32521
9079
5467
3387
13022
6997
11492
4582
1310
2483
1936
6389
5460
4031
366
1914
5483
1616
4581
5845
6988
2489
1613
15735
440
6389
7330
3156
12423
2803
3618
2512
9115
2818
1615
2211
4651
10933
1949
11515
2212
3430
2244
1004
1917
6124
2211
5824
5184
6410
1603
462
10947
748
691
708
3163
6436
4931
1632
5551
4293
5207
5517
20524
3705
15734
10351
8825
25007
1009
4951
2509
3095
6060
701
1029
3435
5541
6451
4893
2826
5849
3733
1342
740
12453
5210
8525
2229
2473
4337
8189
3749
3731
2535
7880
7935
6111
4920
685
4018
4623
4009
3718
1308
2526
10916
13895
3113
3375
662
3123
1626
2530
996
12066
13618
1327
1316
29513
399
4303
1907
1933
8241
693
3092
7277
3101
703
1589
1286
649
989
415
19889
2244
1611
3073
1868
16574
3099
27427
8484
1584
1851
2818
5808
3112
10898
3361
3704
9409
5486
3966
12989
9411
6399
6097
14494
3972
4299
974
4575
677
1270
9724
3392
2152
944
424
1875
1308
4902
1017
3089
3686
8206
4888
2775
1314
709
1924
3370
3402
2212
990
2496
9703
359
6983
7307
5482
1591
9138
5201
1017
3346
16319
7880
4324
1588
5451
1337
2179
3709
6354
8189
4001
2499
3703
7588
4299
11485
5789
9715
8495
7315
3396
15688
398
5770
4314
6997
3703
8197
5785
3691
4279
5786
9081
4618
1040
1832
2228
1878
2762
5837
5537
4637
718
3139
9681
1680
15743
10944
1320
9165
4931
1633
4326
5568
11848
1622
1019
21425
4658
7353
3746
8223
1813
8505
11835
6152
7642
1590
1339
699
1915
1891
21133
7022
5527
8858
4348
5777
3759
3720
13210
1904
1925
4273
1027
3452
4628
8229
431
4964
7350
5192
25895
1317
3423
13020
15135
5817
23234
5849
5858
9155
1921
706
1573
2589
10314
2545
7913
688
446
1037
1022
16612
8231
788
4960
480
4675
2732
5235
2236
9117
6462
428
9675
397
2853
1034
3443
21686
4606
1021
29757
28
15945
9091
7879
1305
26481
5805
3667
1596
6987
1891
3985
5463
2223
16311
4280
5791
31604
1272
8827
2751
6677
3683
1572
8489
5756
16011
7936
9106
2495
394
3379
18087
21672
420
2219
384
3682
4565
4017
3971
11280
16359
3110
984
2763
25605
7894
6376
5174
420
10579
3683
1251
4848
12078
1942
5772
5784
3974
2790
1616
15437
5513
654
1899
4032
1616
7267
2209
13266
1301
3729
5182
945
6949
2473
8532
1015
5501
3715
5836
10877
9459
1524
4286
993
3971
29968
4328
3089
1846
2223
12699
4236
5768
1899
1608
8751
5154
8866
9715
755
9389
2476
722
4877
1901
2792
3662
1848
723
5775
2443
2739
9389
14489
384
5491
9086
4624
7020
3339
6036
39382
20
3393
1587
5477
13059
4262
13550
5797
4012
4537
6046
1918
3385
20434
10563
3664
365
4866
2122
18939
1001
3074
963
1020
3425
2467
1296
9037
37877
9046
5762
6077
2730
3045
9698
4269
2467
11490
1956
2459
2447
880
1161
590
2419
1529
2196
2763
656
9969
13253
5809
4573
5757
7887
4034
2784
15615
2756
4905
1322
14464
3709
6127
7061
2776
2176
7034
5794
17505
8843
5840
1593
3132
9400
2775
5802
460
746
4607
3136
4014
7602
1051
13648
3399
12119
2531
6718
1003
1036
1337
7558
8528
427
736
688
5832
746
4017
6731
3409
1929
1310
5515
705
744
19961
2242
6181
3975
704
3447
3400
2775
6444
451
9124
761
1343
1028
1023
2217
1014
8236
5504
16931
2836
13283
2835
6401
1041
15138
1285
6100
1942
1642
8525
995
401
16294
9433
3716
10315
745
7654
708
10329
11821
14776
3440
14225
697
10037
6442
12131
7625
1910
4320
1885
4925
9682
4320
6061
6105
31883
4281
2235
10335
2508
6753
8191
12709
7662
11220
5199
4593
730
2530
1311
10595
12724
14807
6107
2251
19341
2827
5487
6090
726
6098
3399
1609
12147
1030
22292
13037
10654
10582
2526
4600
465
3734
8191
4635
6724
18735
6695
8778
3706
10042
3432
8505
5469
6415
31062
17527
1628
1609
13948
1618
1278
686
2239
8518
766
1952
388
2812
24124
6743
22338
10624
2848
15102
2845
2166
1247
11230
2846
10606
16035
16034
1608
7346
7068
1105
2814
16657
446
19898
11254
1916
723
13075
15385
1914
8527
467
10576
15428
8193
25071
1280
9113
425
4031
17167
9418
1620
2806
1613
3444
6991
2510
1597
4943
6132
12409
3746
12165
2216
14232
14228
4569
15402
12119
2233
1009
7875
1959
2236
5854
2237
10005
6119
3109
1326
1276
9733
10646
3698
7017
10290
42428
11835
3743
4917
2507
2193
7895
1592
2236
9129
18695
423
663
6408
401
3448
3412
8826
10649
1010
9128
7005
2502
9480
10003
10652
7914
3148
4309
18419
2510
3706
3416
1348
18701
7040
1627
762
1005
1304
11484
34315
1282
1294
4028
3083
4921
6449
3113
22332
2830
3108
4652
7913
1330
4602
19598
4590
13313
2829
4332
5496
2500
13311
1598
983
2507
3447
10304
10015
4037
419
2496
16008
1593
6139
6126
6736
4318
5580
5553
7010
5502
5842
1973
4918
1355
18422
8208
467
9132
449
8847
6996
2504
2505
2503
4599
29747
4598
1594
1631
1893
973
6408
2482
2184
11793
2803
20548
5469
2841
10592
14497
4900
2505
26500
1871
3736
742
11191
10281
8491
1271
37926
4922
3043
4599
2483
2774
988
4044
395
8196
7345
19613
937
2501
398
15986
7889
368
14809
2523
4892
9674
11191
12108
5458
16604
1640
1340
18074
7616
12969
5515
2733
5187
4275
8819
3680
18383
7288
3737
10877
7610
6425
3093
6989
6648
36682
2790
7574
4629
698
4004
747
1626
6426
4015
13648
1896
6740
18456
16338
7636
2826
9659
5271
2235
4933
4671
4695
3141
1908
8591
1670
3965
4935
17470
22973
7629
2468
6100
2554
4358
2258
971
1030
427
6123
717
17226
787
2548
10640
435
1346
760
5834
8840
2533
19345
3438
7883
3443
8218
6420
5189
12752
12724
11515
11529
3425
412
7649
1652
3404
6784
13337
1024
4007
7360
456
5218
7609
13302
2211
419
4036
678
1355
7669
2241
3766
1031
2524
6785
10271
403
6121
8780
2226
1017
2506
743
9737
755
7946
748
1641
4654
4953
2239
4316
25344
22619
1352
6112
35210
10033
8014
9415
2510
1050
1618
14501
9426
1627
1935
2246
9430
3443
8814
2562
2541
1334
7320
6708
2546
10057
8233
18431
3410
6468
426
2578
10938
1936
7005
1342
4634
6735
2865
1056
7027
2860
992
6121
3182
7634
8572
5815
447
3465
7619
697
730
400
5580
20202
11254
1602
4914
4027
6130
12986
34343
10362
6146
1954
3158
8210
1322
4640
5242
1008
2825
4059
6993
8564
1931
15144
406
689
1612
5508
1350
750
4306
7044
3413
2248
4312
29762
7634
413
1031
1932
1592
1633
9097
3161
6706
4028
5844
6418
1059
1039
9699
1924
2170
15748
1951
442
5240
3105
6423
12097
4947
6396
2842
6711
7038
10578
6702
16945
10575
6153
4301
2869
754
28952
9707
9127
11555
402
386
1010
6088
1327
8479
5533
993
3088
6391
5208
8876
2528
5231
23526
1637
7344
1052
4887
387
13011
1283
3738
1623
7667
6687
5514
6998
15122
2525
708
4921
14836
419
7294
9112
2803
4891
1008
4891
9415
5194
2221
2225
4340
6429
3430
4276
14538
2845
6484
1025
5205
4882
3684
3434
5219
1088
5490
2495
6125
739
2813
1343
1570
697
9444
1331
6110
6726
367
3138
1899
6775
1030
2195
3696
12116
8238
3115
11209
16612
28337
421
19024
1923
2206
1321
6373
5471
1955
1332
5534
709
709
2230
712
3697
2250
5529
13013
2821
4286
8518
743
2206
3094
1012
5234
9095
2141
2532
4027
428
5237
6739
5193
3400
10046
5487
6440
5498
1043
692
4627
1049
13900
4035
3082
1047
11528
2812
414
7590
10341
35008
711
2239
6147
1595
14566
1608
3436
6416
7037
5856
3101
1907
8270
7342
2488
676
1925
11564
10020
3690
5220
2226
2512
387
1942
1342
4670
2197
1666
3702
3729
1307
7301
22012
6991
2818
8529
1626
6410
5209
1600
3990
13020
1050
738
1067
1938
1617
23256
5508
1002
2840
4909
1921
8240
4595
5190
10059
4295
18416
4319
2202
10932
9458
1001
38247
3096
5528
2239
1024
2250
4333
7314
1948
11816
1001
9382
2260
3150
14213
6663
31928
7943
9443
11813
7907
13611
3155
12105
1354
4078
4935
6122
7606
1617
5839
15710
1916
3126
6112
368
6393
16612
2182
411
2795
4034
3413
1929
1945
727
4003
3706
4927
5245
4026
1954
1012
2515
459
2826
3389
6129
4265
29702
3988
2165
415
375
7597
3435
1017
1874
9993
8183
11800
419
2200
8498
5551
10893
1576
2185
9670
3697
5799
14224
1041
1926
3996
6412
3960
24050
9989
6981
6176
3995
3400
2767
11501
12460
740
747
4004
10575
1619
9080
1594
17862
1583
13862
4043
1015
1603
10923
5519
681
1618
9700
5771
2542
4588
1359
7893
3707
12467
12432
1013
3726
1538
9343
3057
1935
1263
15677
965
715
1629
2881
7295
2533
1603
5490
6713
9686
20256
7662
17792
1274
6992
2164
27958
2535
1062
4023
6025
404
5797
5480
2156
3419
8248
7906
13327
984
1036
9694
1934
2782
6110
1617
11838
13626
3100
1900
12682
24978
2785
15651
1922
9387
1925
6713
5212
3969
19329
2504
1300
22629
3699
1575
2521
14806
5500
1601
9730
6995
6135
3999
14786
1607
12125
5522
3125
9686
2206
1282
2525
401
2823
5477
9695
5519
2751
13921
1321
3415
3152
1560
8826
454
2812
725
4870
402
2812
16897
1865
11827
2173
18710
3130
10319
22937
8812
1890
1587
11227
3109
6112
18421
403
1633
1642
10545
29770
10356
3116
1606
8817
3703
2225
2556
3996
1375
400
17210
5843
1612
1328
28325
19021
8881
5799
20253
5814
444
11233
10037
421
1613
8246
6101
6403
4259
5533
3389
6420
426
2534
21395
4001
1960
29208
1051
1634
15734
22058
659
1576
1596
1934
446
464
2851
731
413
1608
4862
11832
1258
14224
1028
1605
439
480
1034
759
7373
2843
5791
425
12779
1011
4349
2548
5847
6709
9417
11502
2224
2193
2526
3389
7324
1325
5557
18410
6747
2207
3462
3724
1275
2814
14541
12106
408
711
2513
1040
2860
6683
2822
8225
29710
5234
399
5781
1574
7569
15361
951
398
2814
677
366
3057
7009
692
4913
414
1007
965
3099
4604
1027
2482
3982
1297
6998
14823
3097
7577
2451
6739
964
923
2205
950
704
10881
7882
12049
694
415
5518
982
984
1279
1588
6098
354
1599
2490
1622
2201
13580
1018
4592
7259
7296
25578
4591
8814
4889
15099
5165
3994
13285
6086
2760
5508
2480
5158
2223
10893
8501
4904
1316
370
17784
6406
12394
3089
8777
6420
4625
9397
1551
403
1311
9378
3988
2808
6426
3974
5470
2204
6105
2200
6996
399
732
392
3380
734
4009
370
6391
2787
981
4312
1287
2819
756
1024
2457
7000
2188
3665
1562
3367
11182
11186
712
2769
29709
1597
6651
14429
9658
3999
10610
7547
3966
29779
995
12694
10605
12060
13273
7222
12718
12355
6024
1301
5487
2496
397
2725
6704
341
354
1614
6646
9374
6036
5461
2464
1294
1538
3717
5254
403
2478
5768
378
3954
11174
11179
13273
3058
2795
8209
24100
2779
1308
6069
15959
9953
5414
10269
644
1852
9962
1882
35451
8189
1867
8755
990
2169
962
5453
1857
5807
4635
6035
6962
14790
7575
6284
6662
2206
9989
4518
7019
402
9649
3408
4014
5207
7955
2228
2525
1588
8220
12112
10285
1309
20757
1891
4912
3429
9095
1014
17537
7604
7872
3952
16298
9402
1027
9443
13284
12721
2235
4576
4026
3744
414
5206
414
2207
3352
6765
2814
8787
3441
4586
5851
693
2506
16358
1399
1906
7005
3138
4000
2771
16611
4577
10698
2839
16379
7887
11796
1541
5820
713
407
708
5476
7931
5194
2600
18109
3436
1022
7933
3370
10914
14210
1018
3434
5237
19901
7323
656
4002
7876
4272
7031
405
2498
4900
2195
403
4870
1331
3085
1617
3403
6668
2520
15399
7935
13037
5552
6949
4024
11852
9746
5802
688
5518
4635
1042
3178
1067
33387
3994
9040
43039
1322
1019
12387
1307
3746
5787
16002
1936
28904
13592
7928
15104
2212
19921
22011
2290
1905
1634
7050
14540
8831
713
2549
4878
1953
5207
4921
7932
2544
2256
2248
5229
1039
2522
4329
4906
5251
4959
5253
16343
3396
2235
5871
7632
1627
715
1643
2785
746
5793
15076
1587
2554
6653
2537
6405
767
7998
2242
430
2797
3440
5467
29716
5176
24967
5505
1223
2501
4600
2501
391
6946
13050
1892
6086
964
2789
3699
5837
1580
3655
5210
8448
2796
1278
2171
14809
21079
27096
11800
10629
985
4917
633
5169
3962
5764
686
5156
359
3374
1001
977
5479
3088
655
4016
665
6341
692
13330
4290
992
13948
9125
8251
5136
427
5156
16322
2801
1857
23764
2757
27102
1638
3087
360
728
6093
3670
5190
10566
2497
3097
1014
2181
661
1871
1005
6087
3370
7293
1585
404
1003
12966
397
18088
1369
4311
8483
9107
15079
1010
5490
1001
18367
29707
1599
9990
675
697
982
713
7877
24695
14190
6109
4015
29784
7032
9390
4567
7586
5158
379
1556
9696
4244
12077
3965
5523
3063
5475
3981
6384
6086
10587
22303
1880
369
699
21110
6701
17227
2803
8774
4896
979
1262
5517
5164
3953
8518
1908
19277
4045
7906
4611
9054
8785
1293
1594
710
1540
1585
4015
5511
5176
1941
6362
33090
4936
1838
17175
695
2195
3401
5201
635
5457
12097
9400
964
11809
5802
13571
5510
9388
2763
6177
4582
12689
3456
4311
15440
4948
1925
6170
2482
2175
17201
1043
7945
12179
2245
5539
13346
3997
2197
4587
422
2800
3134
3456
1589
443
24411
23824
9158
2215
2509
1275
6755
981
13011
1897
4030
449
463
1607
4033
4014
1893
1018
719
4644
4594
5818
2802
5847
4930
8511
2525
2242
2520
1934
2477
3423
4000
3428
7645
9703
5519
1353
5549
718
16610
1695
3085
14203
11225
9126
6743
1276
4891
3426
8546
21467
5851
12374
4862
3706
2183
3108
4330
740
1913
11776
1910
2837
3419
2515
14521
13040
3751
428
9133
5310
402
29711
4889
2183
2472
3394
354
998
2162
4008
16901
5494
4885
355
3071
1282
7323
2226
1600
6984
3078
27688
661
2501
25569
2179
3059
6392
948
1848
5545
3429
2771
2520
3994
9676
3121
2461
7274
4304
15692
9954
998
23193
13878
4231
4857
5494
2752
7548
14745
9098
4908
6370
393
17492
11496
16843
2825
5523
15076
677
9145
2502
1020
9372
1580
4238
1610
4028
12714
3408
6700
686
6395
6353
689
14208
1280
974
2504
3132
5793
18385
14490
2171
5752
4268
15979
458
5483
18131
1913
5518
13073
16033
3413
6739
7621
7922
1336
6416
5833
3160
3112
8208
4024
1953
10010
3742
3976
4328
7904
2530
2548
4953
2215
11485
5879
6412
8852
1331
10329
10950
7038
8780
9720
21125
13566
6468
4946
1004
2513
2531
15727
16631
4582
10039
13588
2211
1039
18428
18419
4616
11831
8525
21718
11226
4327
9439
2528
2806
10638
2229
4017
5524
3434
2838
5835
6742
9423
6738
4906
1339
2846
4313
1058
2249
12130
401
750
1275
2177
357
3450
5252
2802
3122
4916
7039
986
9439
2188
20864
4637
12410
2216
2241
5476
16656
9985
10640
3984
410
5506
1618
3154
9424
8821
14795
12119
11817
699
1258
7261
1938
4916
426
4045
3126
3148
1907
7919
3123
1652
4935
5826
4920
1884
1010
9997
18128
3718
1340
4273
6138
2547
5577
3983
4012
3112
7016
3103
9730
18425
4887
8532
1958
735
1646
7318
427
4652
2774
991
2515
5842
7964
3097
8827
3725
12086
2249
6432
2517
1001
1307
9116
3421
1935
3414
1593
6434
3440
727
10005
19939
1621
1331
3774
3113
8230
4018
9703
1956
710
1584
29772
9124
4323
2262
7946
2532
3995
2562
5533
3123
3998
18421
12424
9432
17781
5562
978
15662
8217
429
3997
1903
13015
8820
10005
759
1018
10290
6142
1627
4301
3400
26497
404
13903
4320
399
9723
2237
5523
1018
1605
7027
27719
1606
25045
2522
4280
1873
8217
3429
12105
6096
6724
1939
14201
426
4019
2822
1311
22007
18384
376
11194
4868
1328
3988
3409
6088
5826
16357
1316
2191
1639
4352
4632
11234
2225
2820
3781
1588
6146
5497
704
3973
5521
2559
3393
407
3404
15047
1310
7602
5813
416
5856
5484
1014
1921
10619
3994
711
1270
11807
15991
4020
688
2767
4595
5483
3105
28927
6987
15691
2213
28619
723
1000
11501
9361
8227
1576
1908
17253
4875
2221
3409
6133
3412
5550
1010
686
2188
1049
9423
4045
5516
721
3959
4287
2225
2201
2225
412
10899
3996
9706
13016
6147
4616
12725
3728
10022
2483
4329
687
4616
14794
1899
4313
4878
349
9711
7006
8819
1608
713
658
415
6660
3967
1606
995
2554
21442
3425
18691
2773
4304
2799
1912
3777
708
6097
3049
5232
711
2790
3410
5814
3712
13315
8850
11216
2222
1603
4950
1083
716
690
7939
15697
1608
6403
427
9369
3131
417
11573
20539
1932
6414
3446
4968
986
12147
1698
14806
1601
13320
3110
20807
2819
13335
1636
21112
6123
4342
1310
1633
1042
8223
8532
436
6724
2833
6139
6132
1943
1881
698
2839
1034
4331
3414
19357
11870
3397
7948
9763
4035
3768
7936
701
3802
5811
6755
679
30696
15754
2541
2489
23138
18143
1978
5208
4290
4908
22899
7013
2225
3753
5286
2889
4331
4622
4316
1016
1314
1015
5811
1034
7312
11560
2808
12450
5859
423
484
3101
6435
13926
6172
7624
739
7586
6429
15463
1947
2522
7309
432
20163
8515
15154
2228
6761
389
2543
4075
12392
6152
6204
1959
4589
743
2208
7050
7310
1679
2232
21132
8227
14238
7627
3713
447
5564
9154
1296
4643
484
1657
1304
14224
1322
13615
11540
10630
3133
1050
2505
2247
3487
1977
11558
2836
4029
11850
15132
454
4636
727
4599
4377
3429
1907
5555
3088
1949
11218
4333
6132
22297
438
2820
5278
5556
406
1622
442
118
11866
3111
2552
13608
3707
3462
2490
13328
10928
13584
3733
3130
1342
4011
1309
16628
699
2229
6094
3379
3148
3731
5837
2791
737
1938
2871
6723
6743
21440
3117
7369
3117
1032
1019
1308
1920
1654
15391
4632
1942
10645
5217
9090
420
2803
4006
5512
708
468
9109
1017
1908
2235
3739
4321
11823
4944
5533
3710
3703
10340
9416
18409
786
3754
7949
7025
3723
434
4894
384
10639
3720
4659
12137
5223
4631
3151
1040
22304
12951
1898
1645
3120
4924
2489
4624
721
1920
2856
12425
2212
7365
2856
5818
2813
17519
2563
12713
726
1097
2215
709
1288
4873
4868
1300
1878
29217
6968
20490
3090
12972
1315
5511
2541
4923
770
1596
2470
5778
7606
1864
2167
421
8203
12404
7302
2191
6986
7577
7033
4601
4649
1581
4940
8172
9424
2214
3458
2504
3106
1873
16324
9995
4365
1316
6103
8787
1923
11780
2503
377
4007
6680
379
430
4292
1589
2836
6112
1639
1621
5229
2851
684
2828
2188
8802
9121
1302
4897
11237
4887
4876
7572
5225
2819
2169
2217
3689
10881
4609
4897
4039
2229
4616
7868
9674
5821
2476
3711
1327
3417
397
1607
1331
10607
414
7597
3431
13873
9731
5531
11790
3382
1610
3382
1902
5168
3454
765
17517
2578
732
3769
431
2280
16055
4296
3122
3770
7901
704
7623
6143
3161
3138
5809
4623
740
2228
1033
757
1928
6143
1340
1895
22933
10921
1294
13339
4073
3138
5832
7408
464
1335
1617
12411
8807
4968
429
1892
6438
10302
1321
12187
1657
3777
4378
9124
5833
9122
3469
400
1319
2772
4894
14516
5298
3692
2553
4947
5516
18123
2534
1306
1968
4945
4964
3399
1926
10618
3752
4613
2843
456
9142
14796
11856
6716
5226
11266
14486
2271
4636
6401
5276
3403
2217
434
3150
3738
1655
1369
2843
729
2761
30733
6163
7945
1912
397
12983
4278
8820
3394
1866
7325
753
1019
3114
972
7027
1652
2503
2826
4620
15094
8230
4892
14159
17487
6370
4893
30691
6078
2795
1020
1930
7013
10902
411
1007
7323
8221
1295
1595
729
4916
673
16875
408
6414
705
4036
3711
1641
694
2823
3970
3726
4619
2510
7575
19309
28624
5206
17224
9073
5573
6995
4576
5540
1597
6433
4005
21115
990
4325
12072
1596
6745
9964
8797
8545
11529
2777
1011
10879
16850
728
15059
5213
1332
3371
5476
6087
3966
4041
12462
3126
14814
4961
21697
4926
4641
9673
22323
6145
19646
17202
5807
4291
16933
6140
6505
12146
1314
7355
3407
5813
7276
7018
7625
17824
3436
3712
10306
8817
704
5820
4960
3432
1643
1349
2547
4349
482
7937
9724
8222
2816
22308
745
3406
9738
1321
1054
6458
438
3100
14521
8538
2884
3445
1639
15758
752
7985
9400
4927
3147
13968
433
4011
15451
6734
2600
7293
7319
5260
1682
1025
7304
15774
1013
5245
1631
1329
5548
4923
15687
2750
4298
1889
12354
2843
7029
11235
2508
5211
3434
21704
3130
1048
13621
1920
4294
8179
12125
6714
7612
8502
5809
7243
8836
9747
16924
7614
13029
1901
1897
6104
5842
3095
996
7911
1020
4019
1926
6444
3090
2223
10006
22000
5180
26214
1322
3380
2826
3440
5842
983
7602
745
4344
1943
20541
4937
3078
3745
5819
1970
14498
1010
4911
1329
18071
5216
16106
1317
3740
12123
3093
388
4875
1023
4944
699
6435
5552
420
5791
7583
729
9427
409
3383
8858
1634
12707
3459
986
2547
1602
1538
2231
7943
1318
7011
7651
7333
2859
2528
4031
8838
4943
13305
1297
4084
4624
11162
2835
6424
9413
4086
471
8522
1308
2497
459
1007
432
3421
2864
13345
7940
2197
2553
1052
15123
6438
3436
4927
11518
10291
8807
12108
10057
1609
9417
1335
6127
7933
747
3171
6145
10289
5828
20845
465
8522
4014
2876
369
17458
2503
13020
10564
19921
26175
7671
18113
5257
1617
7300
2792
5838
8548
1047
11833
26812
29708
3425
1631
762
2851
14471
3423
11538
2505
3401
2785
1883
8850
4975
709
3157
7000
2220
7601
976
4925
2541
7910
4332
2203
1924
3414
1923
30691
13603
6446
17529
12097
12130
3418
12747
3694
691
10601
3995
2215
7578
384
665
391
692
8830
5181
5802
391
1923
759
5510
6123
402
3169
2770
1607
2219
2812
4040
1568
6715
2468
8279
3149
4044
4606
5192
4322
3155
8511
4283
14801
3114
428
3115
1915
7069
376
9392
9997
7023
5462
11828
11211
7261
10061
2815
1310
1036
2207
8805
13293
8496
11496
18118
2858
2846
13848
3698
4943
34835
1901
9679
410
2821
4931
11817
19022
4594
1578
5507
2244
4893
4574
9702
3078
4064
379
10316
1324
6721
8218
682
2779
2165
16904
6998
388
2840
9143
13281
5248
2789
5178
1349
2119
4304
8532
1280
700
963
2221
2811
4303
6989
2801
2193
1307
7264
6377
5837
6101
4060
1605
9703
2803
941
3728
2176
3124
1610
1566
5840
16308
711
733
11205
389
3104
691
6989
4916
9096
1302
16593
7248
456
10631
4286
3161
4630
12123
6706
3405
11796
3387
714
3408
4298
10302
5226
11149
10259
2211
7022
10571
4281
727
1297
2221
360
29739
15386
6080
3377
4904
4314
9724
2814
1259
1904
7277
6711
4275
2188
5744
3685
2820
4005
751
2488
14227
4593
1910
7619
2520
384
2485
6952
3096
1007
1014
2806
3062
424
640
755
7870
13284
2498
6161
15091
1589
11156
6401
15664
11189
1254
9372
1923
19293
11154
9984
1049
14804
10590
4303
19605
8499
4585
3398
990
3376
6999
675
9433
13667
1258
9986
17267
1030
1546
9091
729
4639
341
699
1912
691
13902
401
404
17783
11213
4009
3984
1624
3096
21333
1903
2224
3079
1903
2802
2169
9983
2763
4945
678
29785
399
7647
7332
11223
3492
1095
4331
8898
706
729
7299
670
2832
2512
1922
10041
1042
1884
12405
716
8197
2228
730
7968
3724
3145
753
14550
1588
10937
5840
11836
418
4038
10348
417
3764
3995
9724
19612
9137
1353
1331
19006
680
5508
24744
1020
3712
2531
1343
3396
3104
7598
11588
6747
3380
2536
463
5225
2541
4066
700
7026
2543
1010
4924
702
3762
708
723
20536
8521
1002
8234
7632
1331
13641
705
722
3706
12110
4002
4667
8863
432
6745
3716
22952
4355
4026
2788
4294
19349
24721
8817
1908
4034
1883
5227
4961
717
4930
3440
1915
11214
3123
7016
5839
4311
1631
10950
5792
2817
2501
710
1605
17224
1053
2549
1910
3715
4279
1000
4884
426
2818
988
20519
7010
16035
1621
2201
12404
6406
1011
1276
433
8826
1898
7895
20795
1549
3666
8545
1028
1325
1648
1037
408
8518
1950
9721
3040
11212
7922
704
4332
4597
14823
5208
401
16953
722
10008
3128
2227
29548
10604
2528
706
2256
1008
1630
16926
9766
2511
1949
11799
3437
9111
2496
3064
2845
7979
722
1323
3127
2255
4032
1630
15380
6399
3407
755
2836
7598
10327
5197
4634
2857
1658
1329
18497
6426
6098
3750
4970
2526
1321
2548
13051
11802
17515
21137
1923
7337
1902
10343
459
16937
2548
3113
3155
5822
13323
1551
1940
4303
7008
4049
428
1614
5221
21745
7946
3754
7350
1614
14223
7037
3131
362
8874
9155
19619
10266
1325
11839
720
7675
3767
5548
3432
753
6788
14799
13627
5501
1969
764
3135
1319
4641
1349
2822
424
2527
24145
4596
4670
5519
416
11844
1041
5540
2482
2230
3082
738
451
8837
4671
5550
3743
6417
9099
383
1029
1321
5198
5831
11563
2775
4604
2183
4036
10006
4305
6090
3089
2804
2544
12395
9705
6398
4271
414
6666
17512
698
15992
711
18384
2809
4609
3080
11807
3350
17215
26804
1322
6407
22605
4282
3681
9695
9081
7945
5531
8865
7922
6633
4008
393
367
7920
12409
6358
6699
1296
2509
4021
4931
3083
14437
8167
3743
1854
2198
3732
2528
395
4595
15701
7013
6692
4006
5181
9432
10304
670
1927
32213
2487
22310
694
6982
3683
5204
7594
687
358
15411
2458
29702
2456
2237
2396
374
406
10951
7630
20549
1898
4583
4027
739
6758
3436
8514
1359
5867
5828
5559
1924
12405
12131
9108
5801
4925
2521
25285
425
418
6691
1656
12431
14848
5885
1316
2851
744
5762
3999
440
1002
2881
3095
5536
5787
5519
6122
735
21389
1006
16909
3354
1012
398
2247
453
6424
3112
5237
4343
2230
1040
9057
725
6148
726
9978
9412
5546
13051
354
8523
2794
440
5208
1336
2807
438
11249
9748
10324
1941
3404
6120
2837
4058
8193
4942
5240
1957
12400
7028
2249
4642
20796
7057
336
1613
2142
997
2517
3126
1293
3359
4305
730
71
29701
13033
3998
416
11502
4629
1905
4049
712
4039
4927
3709
2183
5753
8209
1048
8792
3755
25305
1325
4894
416
2528
376
757
1313
397
2216
5499
8778
3714
732
15418
18077
416
21711
404
9077
5235
3439
3425
3441
1911
5494
4927
10926
24153
10273
4593
2811
1911
1920
3727
3134
465
2181
700
2457
3086
17767
730
6703
4937
384
405
7961
1028
2482
2792
2470
412
4026
1034
4071
11824
11483
1025
1305
16618
1890
1002
8523
20214
1903
4623
7893
2208
2224
5221
9674
1281
2526
3080
3139
1600
9698
1907
6408
686
12058
1005
2231
5552
745
3113
8443
371
3991
3975
3968
29749
4000
23265
3078
4579
6663
1293
2825
659
6694
2515
1327
3072
2466
11810
5108
1575
1325
1338
8213
654
1017
4594
4594
23181
5211
7591
5479
965
35830
1000
738
19906
7269
11566
3082
8472
9077
1596
2164
6046
14244
1898
5233
1875
2161
406
3087
2192
3383
438
2778
4911
3998
3732
371
4576
5777
8480
3401
10303
3692
2176
10897
4268
16578
5215
2509
30
3953
9457
10033
18056
13007
4603
6714
2523
1590
11199
4867
954
7293
987
2486
6076
1599
2522
3999
3679
1588
2459
6735
1263
12393
1000
1599
4341
3991
6116
3988
417
417
4900
29707
1003
6750
5529
735
1962
2559
1646
1360
3442
1310
5241
13974
6402
2562
9735
2545
2234
3436
7042
9701
1667
7333
6100
26547
7929
1059
19945
15709
9753
4625
6717
3707
416
16348
1587
4308
3447
4936
5853
3719
7348
1336
7624
4034
3136
7002
4048
3114
2516
5524
4961
8850
3409
8218
5542
3131
5236
3117
11234
739
18118
1942
2233
7961
21164
4942
440
19247
2817
22038
9723
4295
10036
5858
783
17204
1923
1055
7322
4633
10936
1307
1971
3456
13038
717
2841
10958
3961
