599935
599934
599929
599933
599933
599930
599928
599927
599925
599938
599932
599932
599932
599930
599940
599931
599930
599933
599922
599913
599922
599939
599940
599921
599922
599939
599926
599932
599918
599933
599923
599926
599924
599927
599924
599916
599933
599938
599931
599923
599924
599933
599926
599932
599934
599914
599933
599949
599948
599933
599944
599926
599928
599886
599925
599932
599924
599933
599885
599932
