=============================================================================================================== 
LARREA_VANILLA_LG_CONSENSUS_RATE.result	          <->	          LARREA_EPOCH_LG_CONSENSUS_RATE.result
=============================================================================================================== 

LARREA_VANILLA_LG_CONSENSUS_RATE.result mean: 0.00 
LARREA_EPOCH_LG_CONSENSUS_RATE.result mean: 0.00 

Observed difference of two means: 0.00 
100000 out of 100000 experiments had a difference of two means greater than or equal to 0.00.
The chance of getting a difference of two means greater than or equal to 0.00 is 1.0.

=============================================================================================================== 
LARREA_VANILLA_LG_CONSENSUS_RATE.result	          <->	          AGUILERA_LG_CONSENSUS_RATE.result
=============================================================================================================== 

LARREA_VANILLA_LG_CONSENSUS_RATE.result mean: 0.00 
AGUILERA_LG_CONSENSUS_RATE.result mean: 0.00 

Observed difference of two means: 0.00 
100000 out of 100000 experiments had a difference of two means greater than or equal to 0.00.
The chance of getting a difference of two means greater than or equal to 0.00 is 1.0.

=============================================================================================================== 
LARREA_VANILLA_LG_CONSENSUS_RATE.result	          <->	          CHEN_LG_CONSENSUS_RATE.result
=============================================================================================================== 

LARREA_VANILLA_LG_CONSENSUS_RATE.result mean: 0.00 
CHEN_LG_CONSENSUS_RATE.result mean: 0.15 

Observed difference of two means: 0.15 
0 out of 100000 experiments had a difference of two means greater than or equal to 0.15.
The chance of getting a difference of two means greater than or equal to 0.15 is 0.0.

=============================================================================================================== 
LARREA_EPOCH_LG_CONSENSUS_RATE.result	          <->	          AGUILERA_LG_CONSENSUS_RATE.result
=============================================================================================================== 

LARREA_EPOCH_LG_CONSENSUS_RATE.result mean: 0.00 
AGUILERA_LG_CONSENSUS_RATE.result mean: 0.00 

Observed difference of two means: 0.00 
100000 out of 100000 experiments had a difference of two means greater than or equal to 0.00.
The chance of getting a difference of two means greater than or equal to 0.00 is 1.0.

=============================================================================================================== 
LARREA_EPOCH_LG_CONSENSUS_RATE.result	          <->	          CHEN_LG_CONSENSUS_RATE.result
=============================================================================================================== 

LARREA_EPOCH_LG_CONSENSUS_RATE.result mean: 0.00 
CHEN_LG_CONSENSUS_RATE.result mean: 0.15 

Observed difference of two means: 0.15 
0 out of 100000 experiments had a difference of two means greater than or equal to 0.15.
The chance of getting a difference of two means greater than or equal to 0.15 is 0.0.

=============================================================================================================== 
AGUILERA_LG_CONSENSUS_RATE.result	          <->	          CHEN_LG_CONSENSUS_RATE.result
=============================================================================================================== 

AGUILERA_LG_CONSENSUS_RATE.result mean: 0.00 
CHEN_LG_CONSENSUS_RATE.result mean: 0.15 

Observed difference of two means: 0.15 
0 out of 100000 experiments had a difference of two means greater than or equal to 0.15.
The chance of getting a difference of two means greater than or equal to 0.15 is 0.0.

=============================================================================================================== 
LARREA_VANILLA_FD_AVG_MISTAKE_RATE.result	          <->	          LARREA_EPOCH_FD_AVG_MISTAKE_RATE.result
=============================================================================================================== 

LARREA_VANILLA_FD_AVG_MISTAKE_RATE.result mean: 2.93 
LARREA_EPOCH_FD_AVG_MISTAKE_RATE.result mean: 2.91 

Observed difference of two means: -0.02 
34502 out of 100000 experiments had a difference of two means less than or equal to -0.02.
The chance of getting a difference of two means less than or equal to -0.02 is 0.34502.

=============================================================================================================== 
LARREA_VANILLA_FD_AVG_MISTAKE_RATE.result	          <->	          AGUILERA_FD_AVG_MISTAKE_RATE.result
=============================================================================================================== 

LARREA_VANILLA_FD_AVG_MISTAKE_RATE.result mean: 2.93 
AGUILERA_FD_AVG_MISTAKE_RATE.result mean: 6.92 

Observed difference of two means: 3.99 
0 out of 100000 experiments had a difference of two means greater than or equal to 3.99.
The chance of getting a difference of two means greater than or equal to 3.99 is 0.0.

=============================================================================================================== 
LARREA_VANILLA_FD_AVG_MISTAKE_RATE.result	          <->	          CHEN_FD_AVG_MISTAKE_RATE.result
=============================================================================================================== 

LARREA_VANILLA_FD_AVG_MISTAKE_RATE.result mean: 2.93 
CHEN_FD_AVG_MISTAKE_RATE.result mean: 0.00 

Observed difference of two means: -2.93 
0 out of 100000 experiments had a difference of two means less than or equal to -2.93.
The chance of getting a difference of two means less than or equal to -2.93 is 0.0.

=============================================================================================================== 
LARREA_EPOCH_FD_AVG_MISTAKE_RATE.result	          <->	          AGUILERA_FD_AVG_MISTAKE_RATE.result
=============================================================================================================== 

LARREA_EPOCH_FD_AVG_MISTAKE_RATE.result mean: 2.91 
AGUILERA_FD_AVG_MISTAKE_RATE.result mean: 6.92 

Observed difference of two means: 4.01 
0 out of 100000 experiments had a difference of two means greater than or equal to 4.01.
The chance of getting a difference of two means greater than or equal to 4.01 is 0.0.

=============================================================================================================== 
LARREA_EPOCH_FD_AVG_MISTAKE_RATE.result	          <->	          CHEN_FD_AVG_MISTAKE_RATE.result
=============================================================================================================== 

LARREA_EPOCH_FD_AVG_MISTAKE_RATE.result mean: 2.91 
CHEN_FD_AVG_MISTAKE_RATE.result mean: 0.00 

Observed difference of two means: -2.91 
0 out of 100000 experiments had a difference of two means less than or equal to -2.91.
The chance of getting a difference of two means less than or equal to -2.91 is 0.0.

=============================================================================================================== 
AGUILERA_FD_AVG_MISTAKE_RATE.result	          <->	          CHEN_FD_AVG_MISTAKE_RATE.result
=============================================================================================================== 

AGUILERA_FD_AVG_MISTAKE_RATE.result mean: 6.92 
CHEN_FD_AVG_MISTAKE_RATE.result mean: 0.00 

Observed difference of two means: -6.92 
0 out of 100000 experiments had a difference of two means less than or equal to -6.92.
The chance of getting a difference of two means less than or equal to -6.92 is 0.0.

=============================================================================================================== 
LARREA_VANILLA_FD_TG_SUM.result	          <->	          LARREA_EPOCH_FD_TG_SUM.result
=============================================================================================================== 

LARREA_VANILLA_FD_TG_SUM.result mean: 558091.57 
LARREA_EPOCH_FD_TG_SUM.result mean: 558372.90 

Observed difference of two means: 281.33 
32748 out of 100000 experiments had a difference of two means greater than or equal to 281.33.
The chance of getting a difference of two means greater than or equal to 281.33 is 0.32748.

=============================================================================================================== 
LARREA_VANILLA_FD_TG_SUM.result	          <->	          AGUILERA_FD_TG_SUM.result
=============================================================================================================== 

LARREA_VANILLA_FD_TG_SUM.result mean: 558091.57 
AGUILERA_FD_TG_SUM.result mean: 438466.57 

Observed difference of two means: -119625.00 
0 out of 100000 experiments had a difference of two means less than or equal to -119625.00.
The chance of getting a difference of two means less than or equal to -119625.00 is 0.0.

=============================================================================================================== 
LARREA_VANILLA_FD_TG_SUM.result	          <->	          CHEN_FD_TG_SUM.result
=============================================================================================================== 

LARREA_VANILLA_FD_TG_SUM.result mean: 558091.57 
CHEN_FD_TG_SUM.result mean: 39333.25 

Observed difference of two means: -518758.32 
0 out of 100000 experiments had a difference of two means less than or equal to -518758.32.
The chance of getting a difference of two means less than or equal to -518758.32 is 0.0.

=============================================================================================================== 
LARREA_EPOCH_FD_TG_SUM.result	          <->	          AGUILERA_FD_TG_SUM.result
=============================================================================================================== 

LARREA_EPOCH_FD_TG_SUM.result mean: 558372.90 
AGUILERA_FD_TG_SUM.result mean: 438466.57 

Observed difference of two means: -119906.33 
0 out of 100000 experiments had a difference of two means less than or equal to -119906.33.
The chance of getting a difference of two means less than or equal to -119906.33 is 0.0.

=============================================================================================================== 
LARREA_EPOCH_FD_TG_SUM.result	          <->	          CHEN_FD_TG_SUM.result
=============================================================================================================== 

LARREA_EPOCH_FD_TG_SUM.result mean: 558372.90 
CHEN_FD_TG_SUM.result mean: 39333.25 

Observed difference of two means: -519039.65 
0 out of 100000 experiments had a difference of two means less than or equal to -519039.65.
The chance of getting a difference of two means less than or equal to -519039.65 is 0.0.

=============================================================================================================== 
AGUILERA_FD_TG_SUM.result	          <->	          CHEN_FD_TG_SUM.result
=============================================================================================================== 

AGUILERA_FD_TG_SUM.result mean: 438466.57 
CHEN_FD_TG_SUM.result mean: 39333.25 

Observed difference of two means: -399133.32 
0 out of 100000 experiments had a difference of two means less than or equal to -399133.32.
The chance of getting a difference of two means less than or equal to -399133.32 is 0.0.

