31820
1577
731
750
1510
7897
221
7947
1424
3710
2450
4371
6821
4400
3000
11329
1079
22660
16827
1476
1779
2150
3021
700
974
4794
200
3000
4250
21081
2140
15150
2081
1374
2431
40
4750
556
1490
3074
831
1350
15271
4371
4297
1134
2587
371
2321
9300
1221
1679
2677
10421
17700
7100
8950
2350
2694
6879
2144
1179
3821
14571
550
2550
10350
18021
1371
1021
2571
3297
481
6450
50
447
1381
4550
371
6621
931
2171
21621
4471
847
3081
2947
1697
8327
1984
23881
9500
6997
5400
3721
5021
6997
12324
81
6803
5321
221
2821
9950
621
8274
1931
9200
2900
700
2050
7624
7050
3550
1871
10619
35450
21220
13250
1070
4850
170
13670
2501
3319
450
6201
100
4400
9350
16300
5120
2481
1301
2319
270
119
10901
4270
170
2070
970
1670
7370
4600
1420
1920
1651
9369
3250
6600
7440
1051
5450
12400
1290
9501
10369
3769
2981
24051
3400
5070
9651
8220
2051
30
1
4990
13151
669
6901
6980
2550
11151
6119
1701
19220
1770
120
2689
8501
1369
2399
5270
150
350
6500
2240
4050
100
400
349
431
7581
550
730
1350
2031
3289
601
519
13251
8770
11020
4251
320
101
219
4749
5820
7070
3520
2019
1930
690
12180
419
7651
2970
7151
2400
1770
13501
520
31470
2919
4851
3019
2201
4793
37958
10161
1500
6358
10750
4708
612
4700
4708
7242
9258
2700
12958
708
4058
11558
496
2731
20546
3458
4308
4719
10858
10642
5104
4400
13942
140
1858
9562
1269
458
19496
1708
27
6400
6858
558
800
4342
6708
3831
5758
808
6496
11369
5158
11008
4712
1308
750
2508
2258
12100
3200
2908
1658
17058
1608
1419
20668
169
1511
2500
1758
908
3739
4196
3312
1719
762
3300
700
408
3950
9073
9219
17742
8608
608
5258
1150
4408
21108
7658
6850
10658
7450
1800
1740
2658
2542
1000
619
1108
750
6354
5711
4446
423
7619
2989
1173
4919
4410
269
1019
108
808
1550
8450
6253
33641
2300
3930
1700
2130
322
50
1887
4950
2363
7717
50
7128
1030
11167
3200
3650
12780
300
4713
130
1500
867
5191
4130
1980
6180
2491
8500
5867
1530
1563
11700
1041
6089
2267
7230
9530
1200
23780
1017
3400
6713
413
1363
10441
1400
1513
7030
130
2880
167
1350
4467
3980
2367
267
663
5300
1067
1963
3600
563
8617
11570
550
1680
380
7991
1330
730
3280
330
11567
1491
750
3450
8717
10841
17
1600
2030
1680
6680
4730
663
3689
80
4717
983
3300
3550
500
839
1567
9130
2783
67
1750
2763
980
2730
3467
8563
2739
3080
10030
3100
1600
6300
2800
817
6791
1363
130
3200
2413
2050
3400
767
7967
828
380
1322
600
2389
37
4680
163
2680
14050
6767
650
13600
9230
13217
817
2730
2550
1163
8983
10080
2280
3700
5180
11430
939
3351
30860
3879
5811
4000
3723
13161
1461
665
21661
3392
6347
361
5511
3279
5561
3103
311
758
4350
2203
2912
8511
2500
9553
2188
4300
1900
1108
7203
15603
6753
900
7023
5408
761
2791
5753
5392
7303
1011
1665
361
211
511
4497
4653
2953
161
3753
1074
203
2653
953
6561
453
4003
1950
3903
4203
5403
1100
2788
4403
13592
753
12647
6650
3803
450
4400
2814
573
603
8803
1100
911
3
13838
1153
6511
253
3603
8053
5158
2050
203
7253
2700
200
3603
753
1403
3514
703
300
11
3879
1335
2650
1411
8703
1353
5150
853
1000
4508
2188
1671
3203
8139
9503
153
3450
6288
7300
5888
5108
261
4400
9365
850
4203
2803
150
553
2700
9188
1703
808
824
1726
11
503
592
108
16500
9350
1761
1474
700
353
6200
7261
9361
361
3503
3311
900
1103
1573
1461
7550
31552
3300
16895
2400
4981
250
796
4325
3
10500
406
450
6300
2050
2547
5118
3054
6503
175
956
2403
1901
13156
11100
1599
1947
8600
2555
1356
2550
4399
3296
907
1857
1847
3200
899
1854
6000
394
403
10718
12403
6353
4550
3454
5349
650
900
49
7204
849
5954
7751
2306
1406
2250
4950
5199
3754
3804
6778
5950
5350
100
951
3954
5454
2000
4693
4400
10304
1218
1006
2454
945
5404
3001
18
8006
4227
2931
8054
1000
5249
1800
3099
2600
804
50
10304
503
3251
8594
900
1052
1745
981
3019
3254
6744
8199
6344
1849
696
3999
2044
7500
1700
4649
899
923
4550
9850
8655
5181
2604
519
3100
6456
896
2799
1700
5904
1950
150
7150
1200
4104
296
46
681
1800
550
8149
450
1150
2793
7454
1946
3300
3000
300
2450
1350
3254
1468
504
1601
4152
8318
1606
200
1300
550
8199
4169
9293
35421
5576
10105
6326
2950
4276
4405
1226
1376
982
1979
1226
4705
4900
2558
5
2494
1026
19376
5176
7129
805
676
12542
1300
9776
976
13055
8626
950
2526
426
455
8726
7300
18844
6521
3576
126
100
18526
376
8071
4000
9126
126
19521
7426
2476
11444
3976
9276
1426
471
1276
1276
4576
1950
576
15076
6376
10250
126
10526
1284
4000
12726
14071
5526
3376
4250
10026
8626
1376
8826
18176
1026
10100
13221
1005
10976
7455
2176
3900
3176
9521
1844
655
850
7776
126
12576
17577
194
126
5026
2726
326
13495
4526
5215
31000
3289
13400
6596
13355
4105
150
3589
11450
1900
984
3700
4100
2395
14700
2839
4389
3700
6000
800
3689
345
650
450
7375
1409
45
5859
4711
9000
650
5550
4600
4255
4816
3650
3005
3550
3059
3289
8050
2334
345
2150
200
1620
14
2059
111
2670
7250
4084
100
2500
6789
3150
2550
3261
5804
11346
4805
6211
5
6539
761
6709
6650
4075
5050
7750
1905
195
3545
3805
2611
1605
13650
1855
1011
305
11761
3084
159
34
514
700
4639
900
550
3220
1559
1550
55
2800
950
1050
2400
2891
1255
4841
1539
10155
2889
9111
2655
4605
4100
6886
7155
950
3339
3625
2945
3661
3375
1450
7739
4800
6100
4100
3050
2441
3150
811
3205
1700
6105
1255
150
489
7395
45
7750
4850
11800
146
6600
17805
10730
10109
5005
1300
3530
191
32189
9722
6250
3712
4422
1722
60
7533
4672
4872
343
3122
2229
21000
21177
6950
5062
2588
7472
838
4222
400
6560
2043
2222
472
9111
5422
11672
7822
3122
122
1450
3362
9493
22029
12062
18539
3872
1750
6922
1122
8088
5377
10462
6293
1672
260
5362
7272
9412
5322
3950
672
14962
18022
16562
8922
15222
2222
11760
362
122
3072
1888
8639
1872
2700
1572
1050
3972
10172
8550
21222
6122
2022
522
1260
3060
2660
1922
1622
10012
24222
6300
1139
3400
500
4529
6983
622
3412
5372
1212
12651
48620
71
2031
2060
2650
2421
6031
15060
4184
7831
2081
4310
6931
27271
181
7431
581
471
781
7331
531
2181
221
2331
4031
2231
6381
1533
431
1190
20850
231
781
13081
7350
1600
10700
4421
7031
1121
321
5310
1531
288
2631
13931
260
11221
1960
550
15331
4634
2921
2231
150
4331
10081
5181
1581
821
13881
4231
13781
721
2481
181
2131
5581
3781
6131
2371
1121
2410
2681
3531
7381
3581
4710
3633
2021
2521
16410
481
15621
2481
1481
10281
6671
3000
5571
1831
9831
6581
4721
2010
4350
13931
4481
6081
181
15071
2131
6031
4550
521
331
2281
5250
1700
7371
11831
421
1581
4581
2850
1321
2071
33603
1100
4800
4555
5645
4050
17536
7400
900
850
2364
4200
2355
4650
5552
7450
11705
1653
11894
4750
2750
11050
1414
352
2547
200
703
7344
4647
645
4944
350
2255
289
3259
2903
353
2350
1655
11944
4650
7655
3103
8050
914
4305
1998
3158
8253
4386
8686
4761
4836
5736
11150
1108
2098
2298
14
5905
6814
353
647
13258
2705
3755
300
10700
800
14194
8
10553
308
6202
1964
5
500
2333
5994
3602
4136
6705
14255
2744
2514
1319
3414
511
1198
1944
3444
3055
400
7450
1800
1952
12050
4450
850
6806
5555
598
2053
164
1905
9600
2650
2136
144
3700
3147
22555
1755
1750
1753
1786
9050
136
3294
250
2750
100
5003
12644
450
503
9052
4408
155
44
5050
4500
3150
4653
4305
2800
2086
30359
5718
3768
3948
3916
3566
4266
600
609
1668
10000
3200
6332
7066
541
3148
4300
2666
1025
150
5166
1200
2375
2216
20268
4968
668
1350
5000
4648
3200
3916
216
5216
325
1050
3752
618
6466
7166
1866
2968
2300
7050
8068
2600
1368
8418
23400
1482
1998
716
3068
6716
416
750
316
1450
1250
8568
2448
8066
3991
13250
3750
13966
12618
6341
5216
1425
1768
8750
191
2566
366
866
6866
9566
3398
75
2500
918
866
4066
550
4366
11502
4516
3966
2116
282
3250
1016
7016
2502
818
6700
750
6852
1350
2434
6686
7809
3450
5850
125
75
7116
5468
13850
3025
2168
916
2868
668
5666
2850
15398
1200
2741
10666
4950
3500
6100
5766
9732
7450
1666
2266
2950
6416
616
9858
44649
650
900
4728
7801
4265
8472
13165
4772
865
6545
607
14222
12650
8895
1172
4436
7
7745
4472
6222
9857
2115
762
450
5900
4728
1750
2849
6265
50
2407
7722
2822
5750
795
3850
9172
6150
472
10777
2522
12550
1351
15445
12122
2114
16608
1822
10022
2772
29372
3222
8150
1200
4764
4350
3222
4364
658
16887
16257
3050
808
6072
2195
6872
7014
713
7022
6472
300
5895
950
672
908
358
3858
3922
9014
2808
16595
6800
12722
5322
3672
26850
8858
1172
14
3900
772
7064
8108
3572
714
172
2477
1300
2992
2443
32853
2051
3055
3451
8155
6455
4051
5150
7705
1162
8754
13005
405
3204
19205
5504
3651
3304
4755
2551
4305
5650
31405
3705
8955
3055
14693
24805
2800
500
555
2500
3054
25955
3355
3457
2554
10401
3505
1855
2105
1450
6300
14850
142
11354
2388
6654
8305
2355
10855
1305
351
11443
6343
6750
3655
304
5805
2955
749
3592
263
3000
2705
4951
3088
6312
504
7005
12304
21155
904
6193
7354
4355
351
2900
905
17904
1305
855
1905
2099
704
4700
3800
16800
8155
2512
1554
12550
11255
7154
8650
3745
31262
1629
979
10029
2279
2879
4671
662
779
11379
1029
4750
10779
917
11438
15962
13929
1771
16929
379
2429
8079
13262
3412
6200
1379
4244
162
1629
379
7329
629
10729
3412
23012
23429
3079
5191
17329
7050
4717
279
8179
6338
9579
9429
11179
11550
26117
24394
9179
2167
3459
9829
20962
500
1129
729
162
2479
4262
15129
591
2679
2850
5750
4450
4979
11100
735
6350
962
3479
129
3479
9229
600
11800
2179
1062
18412
15771
7079
800
6979
323
4833
1450
509
50002
1204
9254
1806
2223
305
306
248
9203
1454
452
227
4150
6252
6250
252
7623
406
1606
646
350
5450
904
1526
706
755
11856
3825
2854
300
2704
975
3204
1481
5150
202
2054
3199
354
81
4404
8100
8344
746
81
148
1073
7269
15124
12800
2050
3
2581
354
8704
1300
2450
9173
4056
1131
2674
3850
5106
5900
194
2400
1456
106
6104
2954
1098
1223
4654
404
9746
720
2354
4450
703
404
704
3527
2081
356
7204
2998
19573
18
503
10002
5998
10954
1994
10154
3554
5723
3900
1450
1650
5506
5650
3300
7654
1504
7000
9596
851
3373
2648
1853
5556
3152
2654
2925
5004
4253
7956
953
1274
954
6403
7500
5354
2903
6303
8850
9250
806
348
1077
1256
2577
3707
2256
10356
5148
2
5926
802
7251
5975
25372
32118
555
3273
3205
2618
2073
14255
4273
8605
6205
5273
10505
7853
19173
1800
4355
2292
7223
1458
923
1023
5723
373
2655
473
7026
6023
5223
16923
16850
2023
10023
30000
3292
1847
4618
8123
4573
1650
8573
1273
7968
6027
10700
173
7347
2723
12000
6355
3423
8473
23800
700
9850
2123
4605
7650
17747
22123
4973
1423
9973
1023
2473
6355
11523
1273
405
1905
10623
1505
3850
955
5273
13623
1618
3750
1723
2118
27723
18123
8368
4805
13273
4405
623
1668
1437
37749
14300
1004
3698
2354
291
154
952
698
7495
8750
5456
7000
2200
109
786
3516
3156
2000
548
1511
300
5264
200
2600
1206
4220
2806
9050
1350
1206
194
891
304
2285
4986
564
1556
2550
3861
6500
3705
7802
1005
1100
5464
206
5091
6050
1652
502
10641
2036
252
3600
1850
3886
1050
586
10344
2652
364
3346
3986
4564
4056
5050
3841
5391
1902
39
1400
5959
3106
8559
3756
5352
891
4700
100
1444
1146
241
3050
3855
7706
598
5150
850
950
1941
4014
2359
3465
2136
1700
1064
6991
41
100
3348
1070
1556
2280
514
6400
12850
1900
3650
5400
3498
4206
50
1456
4700
354
591
4106
1141
1041
1241
3691
5150
389
8170
6150
2148
150
3956
4506
5300
300
4000
3048
11500
4014
8550
5100
2400
2056
5230
836
370
820
10106
2586
548
1306
3450
4056
2198
341
1450
2150
206
6991
3200
3359
8450
4050
1700
8050
3250
148
1248
6406
1194
250
52
4244
2750
2645
1320
14786
60200
10349
9700
23199
4419
2500
2481
26100
4120
5811
20850
13750
12281
10580
8069
1588
1369
6781
2700
14031
12362
28312
1981
11619
26849
13500
25849
14070
2338
1
12969
50
7051
8469
18599
7438
2600
7419
1911
1519
3100
700
1600
3688
4939
419
1669
1489
10650
2901
8900
19899
8449
6949
1600
3038
3100
11861
1
8519
10738
1339
24169
1950
749
9741
30540
378
1800
5554
2108
4208
10000
6240
3754
858
8258
604
1158
5504
11154
3758
19504
814
2450
4958
608
1404
10504
6950
4408
3458
508
2804
1346
6908
1350
7846
6008
3858
10454
3108
54
4254
7554
54
6208
1946
3908
11208
7104
3050
108
26350
858
1808
6808
3608
6168
3700
2908
1858
7404
4958
1904
9604
58
9504
458
6954
1782
5608
3654
10458
886
14954
2554
2200
2408
6658
4054
2908
4608
4668
2954
5308
9058
600
1008
2104
18154
6608
16408
200
11854
43250
20508
2704
1958
5504
4808
904
2558
1208
5408
5268
2608
21365
39143
13605
6469
15943
22227
2125
3700
2250
582
3120
24595
11120
35788
3305
707
1305
3845
10652
8320
10688
25550
15820
2
21520
2550
14575
7725
4855
8398
6900
12412
4170
10705
4877
5025
4955
3375
8857
5227
20682
9077
16377
11125
3648
855
4505
25145
4020
16988
843
22375
16093
6100
2
1625
1093
30420
10255
9847
33479
1050
150
6350
2159
1734
3759
3550
1580
500
2779
2650
2909
9850
20441
634
11459
146
10330
3500
2938
3430
2800
3971
3009
5259
9409
7409
2809
3509
3509
1991
400
4809
650
3230
1500
2250
2909
16680
4859
5559
250
2359
1259
2909
700
2400
3150
5159
2659
1259
230
1109
11109
809
9909
2946
7850
2363
1530
2150
8334
6630
7041
6500
4509
26909
2200
650
3950
5009
509
2059
1759
209
6059
6959
2159
7259
4663
9380
3659
23030
2459
5000
17880
1950
16146
17109
1959
7559
413
4109
659
1909
2009
13609
7459
341
3830
2259
1359
1300
591
630
5059
5663
2230
7509
1450
1300
1480
3463
1180
15700
2950
304
5609
3059
10509
3322
30103
4154
977
7450
5050
350
1997
2353
3701
4550
3704
1603
5949
10177
452
1052
3853
5300
7100
2023
15276
1654
2327
1753
277
54
1152
4004
2853
3503
1303
3502
1350
12504
5703
3827
2754
503
2754
1054
2003
6223
2123
3350
1900
2902
1349
2327
2828
1103
13800
3653
126
2000
401
3900
797
147
351
5254
5103
3853
6503
3553
401
1526
10603
8802
4052
11002
6303
100
846
223
13625
10853
9177
2003
3203
3599
4500
502
4602
104
4103
3751
7050
6653
1303
452
103
703
949
403
453
3150
800
5699
7404
4003
601
528
10054
4201
25753
1799
204
853
3325
2252
5377
3128
301
97
1301
103
1949
12349
1950
4452
2352
452
3897
1975
1350
1150
6000
1952
7653
1100
12027
103
13102
703
2203
2950
7703
2252
22
8602
300
2101
3750
3723
4000
2001
5775
12125
2554
4649
1703
3393
30807
2743
6893
371
9101
3200
11451
1949
1293
3558
2607
799
3057
3957
100
2150
4301
7093
200
7357
556
2749
1600
1400
4943
6400
1900
1299
6792
2829
2244
2049
1600
3229
949
650
5750
1093
8564
2499
14
151
293
2492
1842
12751
4922
1164
450
2450
3150
299
10150
6150
1807
1778
1028
1657
100
2958
701
10193
857
3401
2900
6800
871
157
4372
6550
14
1264
1557
2507
9750
5999
4950
2800
807
11107
3043
4050
7
4779
12650
2679
2529
1350
799
2007
2192
600
1750
3907
700
13200
5950
1101
42
394
15501
121
907
2272
3756
1872
9429
450
207
1057
5193
621
6
2650
2743
14
1150
1979
806
5229
2743
4794
501
8221
7057
5750
72
1794
21
8906
1593
7150
851
293
4693
2443
957
401
3907
722
3657
514
507
3751
2749
3900
801
657
13721
2507
7750
3400
607
707
4492
400
7700
7601
150
3200
4293
836
179
2700
3243
451
829
1943
1250
843
5250
7150
2007
4251
4236
1929
3890
30516
19625
3050
316
8975
3025
7559
13650
475
2366
1325
975
8675
3425
425
2816
17316
1575
6075
11975
3509
6186
10559
4089
3250
5409
15166
15259
2166
9425
66
1025
1236
588
4925
6716
2400
466
1316
7875
3888
6286
1425
975
5266
188
850
9059
188
2622
6625
4825
2309
1266
1725
7086
7809
1634
4025
9786
4300
2550
13600
4825
5725
8200
17100
875
3716
6375
2175
5187
1775
3975
16559
10434
13238
4016
18416
625
9928
5859
1950
13250
925
516
6309
5000
925
712
966
4625
1625
1375
7075
1466
2725
989
3825
6125
2109
1387
3025
4625
8375
4575
10025
2466
16302
32676
1650
6898
4865
2465
2852
624
365
2015
5524
12267
6659
150
4409
2750
16965
4050
3215
5615
2065
4817
5415
967
174
665
3015
2115
2700
10717
3524
2148
3024
2165
1215
12900
5800
100
8815
5315
6815
115
5115
1450
3715
1900
474
1059
1300
2850
6067
2874
3602
1224
4250
1400
433
559
7452
13476
2809
8200
3465
5841
2
4624
1767
7641
13533
5315
15126
2976
2350
6185
226
16998
6515
12367
5976
6776
3274
1274
4548
11617
1333
400
1515
1167
1750
48
1924
6724
3215
14709
1200
1591
3765
5067
2724
1365
5600
926
15
2398
7709
1741
1450
9824
2250
3774
7000
17841
367
424
10765
2048
2450
3748
7026
335
985
1309
600
12624
1926
1365
517
8309
2835
835
6800
1315
674
1550
2741
450
2000
2157
36087
1325
3300
3925
4725
1864
13438
10825
835
4413
2625
6250
5775
3975
6363
1675
5888
4563
4813
6478
925
1888
18375
3663
2375
8725
2575
1626
1475
7425
6614
1713
2213
13875
3425
8064
13025
3275
7575
2275
825
8375
4725
34925
5887
3235
15928
1961
6663
1612
12375
6875
9761
125
9700
9025
1925
100
10222
3000
450
4350
4325
675
15414
10675
937
7875
9862
14125
6063
1175
3625
14025
5664
5925
11062
4561
1525
3350
4475
3525
325
7125
1025
1275
10375
10675
6025
1114
3125
10825
7088
8790
3775
3977
32566
2895
400
80
1562
7662
55
350
112
4400
12255
5912
6200
5338
3997
15712
9712
112
5912
750
3200
1617
7967
3962
6912
5412
3012
17250
1485
1053
2905
4267
1705
7550
1417
5295
19247
18938
1188
2867
2000
6995
1617
13235
105
550
2000
5100
4250
9945
312
5017
2870
6167
50
3233
1535
1095
2200
1450
16388
2350
6203
855
4900
11262
18265
1400
6380
5362
5912
4095
3280
1450
2305
300
1815
10805
4397
6050
588
1100
2050
1917
1750
2712
1867
1165
2455
80
620
2317
5867
7212
2788
100
1600
5450
3567
1662
8412
1417
3050
1735
1038
6953
4055
1167
662
7955
1050
10497
3412
3162
6065
2650
2320
867
1112
4015
9255
1497
262
4262
1912
2495
2962
15012
2212
3312
1762
1562
9847
1085
1577
36915
758
3250
14257
4558
4408
1308
4549
7
900
5535
17200
258
7015
758
450
1908
2558
4458
1193
1609
3915
750
12943
1800
12908
1300
450
278
8372
8422
8908
2208
10908
3508
1808
91
1309
815
5300
11358
758
1515
5008
608
3615
3591
4715
22265
1558
5899
965
315
207
8450
241
1115
7609
324
1191
1758
400
16670
3065
1130
7041
2508
5515
1591
808
958
3458
6665
350
6250
4050
115
1643
1008
5065
2133
15808
7515
7565
4558
5608
5400
3785
3200
10193
6465
4450
958
18800
142
1558
2174
1765
508
4758
3992
2150
600
150
1000
2100
3115
983
365
3709
4365
3150
908
1058
3258
8324
4958
3717
8158
3358
7715
8308
665
1874
415
3615
3408
858
3192
6108
958
1015
7408
708
2991
808
193
1208
6058
11924
2415
4144
30450
466
4
5934
17802
4152
7950
7702
13902
6302
3252
5352
4600
8602
10304
204
1850
7300
1306
5200
5252
4304
606
12302
5054
1154
6150
12102
8700
1600
3552
1906
4454
302
16352
5056
200
150
1002
1052
10102
1500
902
3706
2
298
252
2302
7068
7102
22356
6904
13202
3200
10552
702
602
2500
11850
250
2550
700
350
4838
1054
9602
2402
52
6402
15852
4152
25752
21202
2152
17400
750
11102
3050
18104
4352
5850
1998
8552
152
3018
5354
12800
4102
3450
28102
17052
402
10852
200
2343
31800
15187
5237
2362
17412
3900
37
3150
400
325
4700
300
737
2800
4933
1550
4367
3779
4407
674
16604
1926
2312
9887
5712
1307
600
3312
5512
2100
917
3258
2575
4357
2762
1600
1962
7812
3050
4912
1050
1082
950
262
7500
1237
5212
14443
4643
857
1962
9563
1450
2150
1112
3750
413
9333
3262
3483
8562
205
1500
6095
92
6950
2012
5183
4137
8925
3755
3830
4000
6554
430
5750
2804
9457
4812
6604
2850
3007
704
4096
2255
2257
6067
1007
100
2975
7017
12
6880
717
3012
687
217
3957
17313
1333
3196
2300
2945
1343
6487
43
6937
6205
687
212
3767
11507
9243
4612
1662
900
2050
1387
300
14150
1650
5696
5988
707
8237
1992
529
11208
4650
3267
1950
8400
2750
963
21
4454
3258
19000
2850
1117
1112
1481
31223
2954
5776
7650
7004
9400
3154
15096
9692
7704
3912
3050
2862
1700
300
7904
4504
400
304
2836
2412
9604
300
7776
6012
12204
1558
2646
3950
1162
1938
2928
2674
604
8954
4504
8804
250
2958
2750
2754
1654
6154
5354
3254
950
146
10062
2426
1450
554
2304
11154
7462
9204
562
6576
7076
3354
304
1096
1054
6854
1958
11154
4362
5322
7854
4004
2204
1150
1504
1300
2474
3604
2400
2274
754
14162
3554
550
1000
4712
308
20304
1662
4800
11258
104
4750
1278
1212
5962
800
14476
3004
2012
2050
212
7154
1392
4904
3058
576
6858
2004
6672
3496
204
3804
4788
4
1626
11212
812
754
1512
904
3504
1904
4300
1522
1712
3062
2092
8404
2976
7342
3728
362
1104
4054
5562
4276
522
250
6276
5900
5454
1026
36
1124
1473
31331
9866
7200
535
3950
13368
12751
1735
1765
1300
4265
485
2917
2032
2431
100
700
6500
3919
7716
432
2365
2700
5482
8032
13834
2431
8367
7932
1016
4166
4115
882
4282
450
7100
5400
12732
5550
2917
4531
4016
100
484
582
1800
3000
9816
6850
1034
882
1481
5150
1350
2150
450
766
616
4050
616
1366
282
5535
632
1482
7565
232
300
1685
1750
2600
4635
10165
1465
50
1382
15650
2818
4166
3832
7451
2365
282
615
9615
8566
1568
19900
1766
7350
5517
12250
4850
1531
6650
916
11000
550
1000
1316
3532
8500
5400
835
4635
3435
1266
6316
3351
35
5750
650
5216
7316
50
2866
3081
3850
1585
12268
701
1000
6550
2682
1185
6016
5550
3866
2550
4150
6182
6000
4599
716
268
2966
1700
16066
2168
266
759
39393
830
13280
1330
2820
1000
15580
830
3420
530
630
720
2970
1480
600
4300
8730
14650
5070
1510
1930
130
580
5750
173
20530
430
1080
4243
1380
2380
7120
3470
70
4870
1680
3320
2467
1500
3280
7830
70
13870
1150
6560
3250
1160
5937
10520
2880
8480
2930
2470
2380
7510
1430
9087
6060
8380
4370
1030
2300
5560
6194
3120
6180
3330
880
9433
3030
3537
1980
14630
1087
8187
130
2330
2480
2360
1770
2280
8930
9770
10630
9430
1180
8773
10350
12420
13430
4570
750
1080
1230
16980
970
6930
2930
3960
2380
1380
6230
1970
880
4830
507
7820
12210
15930
730
2760
3430
170
1887
130
1920
3080
810
16293
6550
1793
3020
1228
60466
1932
27582
1168
13968
9500
1
1252
16483
9982
6952
31950
3198
18682
18833
8780
12300
2333
2448
9380
15
2933
8653
17632
9830
1
12880
16502
8034
9248
17948
23780
3250
5398
20132
21980
12284
6318
25330
1151
16482
2230
17982
29684
7850
2200
11950
7018
14568
2733
5394
32992
918
68
10750
15809
3350
2633
5383
1550
13133
1100
5033
3033
2783
1415
1433
3083
7668
983
8983
2133
11133
20685
2992
6650
1565
1615
8191
1792
6483
2665
7158
6533
3233
9605
4433
733
5183
1600
3418
1295
6333
65
2465
14233
4533
3833
3865
13333
8700
1233
1800
4150
3095
12417
2250
4333
284
245
16750
4568
1700
15065
1815
2465
1633
7815
4665
9283
2734
2918
1933
21665
9783
15583
883
2200
20195
1615
683
11918
14383
565
19718
2268
8233
1400
515
133
2133
3765
2665
1133
15200
4133
4533
315
2333
8083
6088
183
4745
1833
1450
1368
13215
47017
1176
1800
15400
2117
3599
20300
3266
1466
12116
1625
13766
217
5567
2801
6850
4433
12817
7917
1026
1867
23616
15399
9417
1150
7190
1967
9867
3617
13316
13167
1410
7367
2367
2617
21527
2967
4040
12351
1326
24549
8840
31617
6976
7367
10909
2200
100
4316
2167
2127
6450
3567
2760
8227
14526
6027
11990
1250
767
8900
19559
4517
740
1126
391
6667
9626
2749
217
8433
1091
783
9
1467
7450
20717
1850
19576
2525
32490
129
1229
13300
3963
529
4413
12549
5979
34
11566
613
600
5829
2729
266
9179
300
7916
4984
12029
14200
4640
829
1684
1829
550
295
6366
1229
2129
17900
12729
3316
15879
1029
12079
2539
10829
16079
2316
1384
10300
10379
4613
12879
8629
10916
1879
5190
829
1479
1479
1900
12191
5979
200
9813
13196
1329
929
2090
579
1566
2279
17529
8913
1000
10045
13934
2134
14689
3384
1379
2479
7013
4979
12416
5584
340
29
4250
1479
3639
79
679
12979
26329
4329
4550
6034
713
9100
10879
18416
4566
129
1531
39396
250
913
3681
12494
2100
4036
3363
1530
9650
567
1680
15080
7080
6780
5067
5530
3800
5667
1200
2218
3513
595
3117
10235
130
4431
6631
18500
13031
13380
1330
1030
1580
4631
10100
2735
12213
9730
14867
2117
130
163
6680
967
4287
14800
1235
11268
300
2380
12467
4913
700
13030
1830
2717
6380
3330
1300
17930
11417
1680
3730
17850
2030
180
1930
3580
5530
680
4530
50
4080
4867
730
2880
2781
7480
1380
313
1983
6286
5733
11263
3336
6050
5200
5030
3936
67
2480
300
2330
7767
22930
6530
2280
217
3955
4700
19930
21413
2498
35454
275
2150
7704
979
4814
13080
11550
6236
1998
900
3600
7664
5631
8929
6050
4454
2250
4400
2446
256
4650
4150
400
3725
2186
2
1464
1125
7044
6386
3030
96
1136
2950
5004
12325
1350
1425
202
6800
3480
300
196
546
2296
14
15546
1298
3900
13100
3200
6580
175
3036
5586
3204
875
2196
2100
2175
3525
4706
479
7250
986
2850
464
954
3954
2125
10571
1100
225
5575
3186
3050
3630
2206
1770
1025
13700
2154
1046
4514
7144
2446
2896
1900
796
2875
2100
1725
8125
996
4036
46
950
8550
4961
1456
1125
9436
8650
850
2650
6550
950
7150
1275
2082
8446
21
9414
4431
75
1870
9761
4056
2331
2529
775
100
1350
5764
14900
150
1150
3100
1046
10386
4200
5631
511
3246
1306
811
1375
500
3150
4450
506
1329
2281
11
4196
7550
3582
13730
7344
825
4856
1691
30794
500
6407
13457
532
61
7744
11900
21226
3076
876
7626
8326
6876
3676
13576
50
1607
1507
3307
6026
16526
50
5619
326
7700
6226
332
8444
776
5150
2569
876
5037
15857
6776
7737
1326
2826
11926
9326
16576
426
2826
10526
219
4026
537
9969
13576
6569
2257
13250
7657
8850
7426
5407
226
8407
476
1869
576
276
1919
2426
2657
4619
15719
12557
676
9107
1544
10900
4400
3157
10176
2100
9850
19626
4876
4557
22150
876
5726
12657
8107
8500
1250
5294
5157
2200
3076
4076
10105
30708
5307
8950
5536
1150
7008
43
3943
1500
900
5108
1608
414
8100
3657
1693
984
3308
442
771
807
441
300
1683
22286
3008
4650
908
2336
1951
43
2841
2700
4436
17291
2700
1693
823
408
2558
2429
3386
1200
8142
2600
5007
5
2408
950
5650
1816
1259
2207
1157
3757
19743
1250
1100
2200
28
9714
3558
7150
3350
301
6050
1800
10714
1866
2050
558
5043
358
300
2536
4608
15141
2136
4950
7441
10600
5691
950
800
2708
2241
1658
6616
8479
1750
2286
5817
2379
13191
12084
2251
8079
350
591
414
567
1322
3158
9029
2543
14
3822
751
1291
7591
2409
2550
4950
4742
359
4986
800
342
9
436
1284
11150
4159
3458
2157
3759
5509
5067
1958
2850
4083
6034
1442
5950
6650
1209
150
1317
5508
358
6900
8850
12293
1351
12500
1892
341
3700
9887
32821
5371
5396
4414
3221
1225
11664
5171
4721
4979
9450
1057
6200
24671
11700
8041
4221
8421
71
12321
5150
13046
3450
7346
4696
530
557
31986
1350
1021
2664
714
4671
2507
1321
15421
5914
4071
7857
5171
4764
3821
1164
6621
17857
14496
8621
17150
6721
17514
2671
4121
14457
64
18557
379
1121
22771
621
2914
7464
1030
16021
17071
6171
3221
5691
3671
5400
12821
4271
421
10664
4921
8221
6021
1050
471
171
4546
1421
16071
1043
2364
3200
2242
31094
799
16270
5471
2585
8535
901
7470
8570
1576
4650
2984
1650
5620
8870
10086
621
1420
3900
3420
1600
4170
1450
834
28400
470
1114
5570
1200
10500
1120
11821
534
5750
5594
6600
7120
2070
3594
2200
1350
3771
12870
4334
5770
1920
900
2770
115
1570
320
10635
2914
19600
550
3200
1400
1044
351
2644
1770
1800
120
676
230
4170
2536
820
2270
13521
1234
820
5750
1420
6870
2200
570
200
720
5070
4320
70
2900
11820
1270
1800
2270
5070
12670
3971
284
11235
3184
14720
5720
28000
11384
10600
8250
1070
7470
1800
10970
270
5400
6126
934
4470
176
1384
6120
5334
420
1434
12070
1634
5580
15399
684
8232
36360
1550
4567
1817
8300
1467
1890
4163
12267
7717
117
12567
1517
10810
9467
15216
107
1592
2042
4050
13367
2497
11167
1407
4366
5160
983
3367
1057
2290
5450
3950
4917
1860
14267
2317
21210
617
4517
12617
2807
7810
5417
4967
50
5767
4525
1317
17947
2142
3167
6750
5617
1800
750
20217
5557
19350
407
1817
7325
8417
3317
300
12817
3367
360
5017
2070
11767
6110
4017
2800
1017
17167
8467
3300
4657
1340
4467
14800
1350
5393
1510
2250
260
6817
817
1700
4010
9907
3775
19957
2933
3960
13367
5017
667
2207
8690
257
5074
32313
18905
3113
25705
8655
1648
7154
22843
6753
6659
2455
4950
13798
19662
2013
1364
4653
4689
25462
15952
41
12157
6903
1950
5764
18462
6605
4212
8862
19002
2353
1050
15764
2705
1450
9912
27562
1100
12150
1803
1241
1714
26905
3048
12900
2453
2403
1198
2105
1550
8550
4253
2850
6050
18439
4302
155
14102
9539
29855
16055
16339
14059
2303
6342
30261
6400
2967
4160
2817
2667
9057
1600
4210
2460
17117
3767
3210
10117
750
7767
557
7857
15517
30460
907
2267
910
3167
2407
1317
1767
4160
4057
2200
14217
6217
2590
217
5572
3017
5160
2267
367
2267
1360
7267
3067
7417
1960
3217
12960
6717
750
2722
8810
4067
8035
5000
2717
7507
8600
635
2350
6700
582
867
6967
3610
1217
4667
710
1257
3067
1957
18860
3167
11665
1110
11182
3007
4640
30860
26417
5317
550
6607
3790
3357
3250
3307
10772
4867
1167
3610
15817
600
1607
1235
7707
3367
14507
467
12957
5657
4810
14067
48
31289
5703
612
2750
4405
47
10500
5664
9605
10753
2652
11852
18402
1802
8250
5052
3960
4915
702
753
4050
15902
552
5502
12988
1798
1505
5017
8152
12355
12153
6800
47
3300
18302
452
900
1253
2003
7802
3850
3702
3542
1252
4003
7214
6302
4003
2250
152
1800
1150
8450
2905
3350
10502
1150
6888
2352
3102
10336
9400
2102
805
10903
7900
6705
11614
1050
2050
5152
6002
18950
14702
21352
3998
1302
11088
2348
6252
3650
702
905
2764
11052
10652
5800
3748
3242
18752
302
1305
13464
4792
552
6908
1347
5
2514
6438
650
3042
151
35537
6912
2421
2009
11071
2350
4341
8721
3759
1721
18021
6512
409
4259
2421
9500
3771
8221
11721
9200
7321
271
5621
12420
1571
12890
871
6571
871
2941
8409
1221
3891
6808
6101
2370
16859
31458
1612
2021
8671
6350
13938
6309
8721
7721
1162
1159
3612
2771
309
2671
10962
14821
1721
1212
1671
621
800
5412
241
1021
4938
7709
6971
14649
13712
5721
5221
1409
13612
1899
20270
2659
34409
9209
7121
9571
3071
23321
900
4459
3521
1250
1321
3241
4818
1212
2021
570
426
53605
1144
4
25263
12059
105650
27309
11959
72500
90909
10549
57199
28547
24359
30701
47597
42750
12102
8656
5554
5950
856
2956
504
9
139
16900
6656
614
15306
10252
8306
1256
250
4956
5300
13600
12102
550
2606
956
11852
4256
10856
27261
13656
13850
2706
4500
5586
7304
11350
3606
3202
9306
19354
15106
852
18806
5556
12802
856
1002
1304
218
552
13556
21806
6756
4056
1952
7402
1056
14506
9904
10341
4100
17652
20156
9256
27206
1806
906
5056
8956
15706
4256
5494
31065
8718
168
3769
3078
4617
718
8518
332
9
5001
8878
3000
17450
5592
1400
1041
4450
100
2699
1560
2819
3100
2818
527
2600
1119
1933
7401
3867
4468
1899
4151
9500
4751
6223
6967
4700
4700
1268
173
117
11018
3700
3468
2069
7549
4817
2650
60
3051
118
2309
5369
2167
7818
1018
23168
2590
4968
2583
7400
4517
4818
1490
5740
5118
4099
1517
4267
7967
77
7117
2200
4118
2785
11317
2268
3267
1718
8
6001
6640
3668
6417
1868
6449
467
1950
367
817
3490
251
8917
4868
2468
2717
1669
1150
9450
1150
4977
251
3217
9650
9419
8368
4427
936
2282
3918
1667
4173
1118
717
14342
4568
5867
3583
1728
168
2990
3042
4301
3717
1000
1717
2568
440
6668
6017
167
6050
5618
4782
267
7577
168
677
232
16849
3677
30301
1350
2501
3579
270
681
2600
29
1999
329
2130
1200
251
251
1901
8070
2700
961
19701
1251
1219
801
9111
1871
8299
2751
9561
7151
2601
2450
450
8771
389
901
10000
8000
1440
6350
3081
9149
1301
7550
329
1771
14811
1101
999
4039
10150
419
1071
5550
140
2450
6601
251
401
2000
8001
3601
1851
421
1850
1950
2261
6870
2690
4301
4301
6400
1571
250
8551
2199
1779
2800
49
16061
20
2280
1449
5200
1650
3880
479
6761
3100
1150
351
251
3851
3471
1971
7571
3401
2700
7700
531
551
50
820
501
2901
2051
5671
621
2721
3521
2171
10501
3851
3420
29
771
1749
8121
301
2300
31
11700
330
600
8771
3051
850
550
700
1010
20
3350
2201
14451
1551
3421
800
800
9951
3771
3201
2201
6371
1720
80
5171
461
1621
5840
2950
700
7880
640
2051
2281
2171
2430
949
9550
1670
5549
2099
2399
1950
1271
2401
5251
400
900
19
4200
750
2251
5230
1149
631
2493
30655
2550
2000
7263
3786
4005
1550
1955
2755
2455
3755
1513
15395
3900
5100
3305
1755
5855
3488
10005
6000
1955
2355
5762
5613
4000
3613
4195
9464
13750
9200
2163
9405
4055
6505
2586
2313
9550
3987
21405
3545
5758
5045
5695
2005
1355
3000
7513
4762
1250
2050
1543
855
1600
2650
1650
1605
1855
655
6900
8
6000
1488
200
6305
7843
1005
400
1305
3427
4663
9964
3305
1700
6013
742
1250
15093
3255
1505
1692
3105
6242
905
555
1400
14705
150
5200
7405
25350
3350
15620
10213
11105
1705
813
6405
1200
5255
3205
9958
3042
1255
3395
286
4500
5755
4000
2255
1213
3063
7643
2350
1743
6895
4038
6245
1612
2258
10388
3700
3612
1900
33394
12550
6396
4608
3602
2619
1708
319
6294
9099
19
3947
3215
4650
2000
3750
951
2488
2842
3200
5203
1818
1500
5227
2769
8899
532
4350
7200
4850
5851
1248
796
1115
1206
669
6250
208
5358
250
3098
1100
1250
302
1241
1250
251
551
5246
4819
2850
7603
2412
1315
8308
8219
1888
4050
48
1046
6798
4498
2958
2377
2127
7669
3500
300
3346
2594
906
219
3053
2792
1097
1592
6841
200
5248
8508
304
10546
935
696
377
11400
1699
1542
2706
2250
568
7496
350
4038
2
15627
1303
902
3291
618
250
8801
4498
750
2900
700
2458
1427
5692
1950
1354
1208
8421
5992
5894
1151
3601
698
4350
3506
3127
1404
6244
900
2350
9202
1206
1819
350
1296
8508
169
2500
451
400
10952
9219
48
1099
150
4696
3700
2800
300
4100
4048
1142
3301
1696
5806
5262
4171
6250
5438
3651
1850
500
842
999
1302
4301
8950
4748
2400
351
10038
2900
1800
5092
33014
6800
408
658
4308
8658
600
2114
5986
9050
2308
10208
3400
11514
37
9717
414
19708
21208
4308
858
5263
3914
8408
12058
7358
1933
836
208
2908
5358
5208
6700
6650
1550
13858
4244
14558
7658
231
2350
2500
2608
3500
2308
300
1836
3150
69
7006
658
4000
16358
7283
28008
2950
2158
12958
3114
1658
1258
1708
350
1763
3614
2394
5158
2558
6908
2758
14008
3845
1850
2292
850
7258
7244
1350
8363
4414
8767
314
5358
1100
3408
5650
4050
7200
4258
6208
13805
1764
4258
8995
1263
456
2508
10558
108
208
8494
4158
6844
17250
8208
3764
2855
214
805
3442
34850
17394
2750
1697
1400
3250
1200
308
256
1058
247
3200
5050
2050
53
13553
2850
192
5450
217
10406
2377
1367
16106
2142
5886
530
500
12897
1280
2050
2000
2941
1197
1197
7500
6153
692
2997
506
50
44
1200
2050
5333
50
7973
1106
700
6583
1750
203
1700
6100
900
1258
1006
8150
692
867
3556
9220
2717
870
6206
1800
3867
297
2750
8853
450
8900
3450
3097
4000
1850
4850
5450
6006
400
4750
650
4600
10550
2900
3494
6800
850
4053
2847
3000
50
2673
1253
1100
11311
3633
4256
1250
5950
2400
1000
650
2297
811
17700
10100
453
12567
6014
1450
4617
27400
1153
892
417
3956
142
2603
11
491
27
150
6650
2492
7000
394
3120
211
56
18492
7500
5150
2808
3856
2306
1442
5450
5303
1150
1489
8
2303
3650
5050
6606
1367
4742
2453
2053
5900
5500
367
306
192
36250
50
3672
3970
5662
362
680
1390
3262
5462
3862
2000
12412
712
1550
5888
2320
3190
1590
3372
162
1670
7972
562
6870
3612
22
220
540
462
2462
2400
1162
6812
7112
450
7712
2138
1012
12112
1750
4672
4470
5500
3362
1640
6500
1262
1300
4908
8310
70
600
4612
572
620
7788
4712
900
830
958
2500
712
4312
1750
2792
2970
912
250
20
2112
1350
3550
1662
5440
1120
6912
9420
3700
6912
3058
2200
2762
2758
562
6350
1362
11562
10912
590
3600
2962
2478
470
5500
7320
3712
1050
5650
1570
1400
2750
3342
372
12
4140
6812
570
7620
70
1012
462
1970
2680
7160
988
900
4350
5150
970
3320
3412
312
3562
208
7900
2478
9462
420
7300
20062
3550
70
912
3020
8720
5872
6362
1610
6262
2820
13200
2720
12012
11312
4390
10012
1012
3920
5758
14392
1325
29935
3700
4457
200
5107
2400
1109
1418
4159
468
2752
5900
1093
300
300
2550
2907
1757
5000
5850
9652
13957
557
5409
3391
3157
6350
650
3200
1559
507
12257
2307
107
1168
307
2307
1707
2800
2585
1407
4268
3322
11100
800
13107
1857
457
1307
1198
389
4307
6109
1257
3035
11259
1159
1450
2707
5257
1457
1407
4211
2793
2639
315
5559
15059
207
7989
2309
909
5759
6200
2020
26
3750
8000
1257
3543
6650
5750
7885
996
7659
550
3707
309
2609
7759
1609
5068
10257
3659
2307
5150
2057
550
10557
7339
5559
1907
4957
2189
5793
2000
12907
1491
13918
10409
3739
509
4007
257
3739
16909
4350
7809
1450
1200
7657
20909
2957
2457
4407
107
3302
4400
1507
3809
2048
776
3607
1143
1250
1057
6209
2150
9207
3157
550
2128
3957
863
31679
17023
7800
5700
1400
2548
1023
1123
1223
4450
4946
2689
325
854
13323
300
3975
50
1450
375
11427
10300
2173
3323
8773
4873
18329
4927
3500
9236
2004
1750
27
2850
1223
7173
1100
9600
17834
3423
50
3939
3327
4884
4123
4000
648
5652
2277
2673
423
4473
1500
2227
2900
2723
27
350
2977
3273
11073
2198
3648
12950
3300
6123
2300
1848
6923
9673
4300
1223
1875
948
1650
4523
4750
323
5773
2723
11273
2223
4450
4475
8427
9775
323
4200
1150
5750
1127
8352
16727
2200
3850
4177
2223
1073
4075
3923
1450
423
1573
10473
4927
4923
2489
2450
3977
173
3423
1311
6350
550
11998
623
879
2527
1900
21823
5600
2248
3473
17893
4939
10539
