=============================================================================================================== 
LARREA_VANILLA_LG_CONSENSUS_RATE.result	          <->	          LARREA_EPOCH_LG_CONSENSUS_RATE.result
=============================================================================================================== 

LARREA_VANILLA_LG_CONSENSUS_RATE.result mean: 0.00 
LARREA_EPOCH_LG_CONSENSUS_RATE.result mean: 0.00 

Observed difference of two means: 0.00 
50201 out of 100000 experiments had a difference of two means greater than or equal to 0.00.
The chance of getting a difference of two means greater than or equal to 0.00 is 0.50201.

=============================================================================================================== 
LARREA_VANILLA_LG_CONSENSUS_RATE.result	          <->	          AGUILERA_LG_CONSENSUS_RATE.result
=============================================================================================================== 

LARREA_VANILLA_LG_CONSENSUS_RATE.result mean: 0.00 
AGUILERA_LG_CONSENSUS_RATE.result mean: 0.00 

Observed difference of two means: 0.00 
2017 out of 100000 experiments had a difference of two means greater than or equal to 0.00.
The chance of getting a difference of two means greater than or equal to 0.00 is 0.02017.

=============================================================================================================== 
LARREA_VANILLA_LG_CONSENSUS_RATE.result	          <->	          CHEN_LG_CONSENSUS_RATE.result
=============================================================================================================== 

LARREA_VANILLA_LG_CONSENSUS_RATE.result mean: 0.00 
CHEN_LG_CONSENSUS_RATE.result mean: 0.78 

Observed difference of two means: 0.78 
0 out of 100000 experiments had a difference of two means greater than or equal to 0.78.
The chance of getting a difference of two means greater than or equal to 0.78 is 0.0.

=============================================================================================================== 
LARREA_EPOCH_LG_CONSENSUS_RATE.result	          <->	          AGUILERA_LG_CONSENSUS_RATE.result
=============================================================================================================== 

LARREA_EPOCH_LG_CONSENSUS_RATE.result mean: 0.00 
AGUILERA_LG_CONSENSUS_RATE.result mean: 0.00 

Observed difference of two means: 0.00 
4692 out of 100000 experiments had a difference of two means greater than or equal to 0.00.
The chance of getting a difference of two means greater than or equal to 0.00 is 0.04692.

=============================================================================================================== 
LARREA_EPOCH_LG_CONSENSUS_RATE.result	          <->	          CHEN_LG_CONSENSUS_RATE.result
=============================================================================================================== 

LARREA_EPOCH_LG_CONSENSUS_RATE.result mean: 0.00 
CHEN_LG_CONSENSUS_RATE.result mean: 0.78 

Observed difference of two means: 0.78 
0 out of 100000 experiments had a difference of two means greater than or equal to 0.78.
The chance of getting a difference of two means greater than or equal to 0.78 is 0.0.

=============================================================================================================== 
AGUILERA_LG_CONSENSUS_RATE.result	          <->	          CHEN_LG_CONSENSUS_RATE.result
=============================================================================================================== 

AGUILERA_LG_CONSENSUS_RATE.result mean: 0.00 
CHEN_LG_CONSENSUS_RATE.result mean: 0.78 

Observed difference of two means: 0.78 
0 out of 100000 experiments had a difference of two means greater than or equal to 0.78.
The chance of getting a difference of two means greater than or equal to 0.78 is 0.0.

=============================================================================================================== 
LARREA_VANILLA_FD_AVG_MISTAKE_RATE.result	          <->	          LARREA_EPOCH_FD_AVG_MISTAKE_RATE.result
=============================================================================================================== 

LARREA_VANILLA_FD_AVG_MISTAKE_RATE.result mean: 10.54 
LARREA_EPOCH_FD_AVG_MISTAKE_RATE.result mean: 10.16 

Observed difference of two means: -0.38 
2434 out of 100000 experiments had a difference of two means less than or equal to -0.38.
The chance of getting a difference of two means less than or equal to -0.38 is 0.02434.

=============================================================================================================== 
LARREA_VANILLA_FD_AVG_MISTAKE_RATE.result	          <->	          AGUILERA_FD_AVG_MISTAKE_RATE.result
=============================================================================================================== 

LARREA_VANILLA_FD_AVG_MISTAKE_RATE.result mean: 10.54 
AGUILERA_FD_AVG_MISTAKE_RATE.result mean: 13.90 

Observed difference of two means: 3.36 
0 out of 100000 experiments had a difference of two means greater than or equal to 3.36.
The chance of getting a difference of two means greater than or equal to 3.36 is 0.0.

=============================================================================================================== 
LARREA_VANILLA_FD_AVG_MISTAKE_RATE.result	          <->	          CHEN_FD_AVG_MISTAKE_RATE.result
=============================================================================================================== 

LARREA_VANILLA_FD_AVG_MISTAKE_RATE.result mean: 10.54 
CHEN_FD_AVG_MISTAKE_RATE.result mean: 0.03 

Observed difference of two means: -10.51 
0 out of 100000 experiments had a difference of two means less than or equal to -10.51.
The chance of getting a difference of two means less than or equal to -10.51 is 0.0.

=============================================================================================================== 
LARREA_EPOCH_FD_AVG_MISTAKE_RATE.result	          <->	          AGUILERA_FD_AVG_MISTAKE_RATE.result
=============================================================================================================== 

LARREA_EPOCH_FD_AVG_MISTAKE_RATE.result mean: 10.16 
AGUILERA_FD_AVG_MISTAKE_RATE.result mean: 13.90 

Observed difference of two means: 3.74 
0 out of 100000 experiments had a difference of two means greater than or equal to 3.74.
The chance of getting a difference of two means greater than or equal to 3.74 is 0.0.

=============================================================================================================== 
LARREA_EPOCH_FD_AVG_MISTAKE_RATE.result	          <->	          CHEN_FD_AVG_MISTAKE_RATE.result
=============================================================================================================== 

LARREA_EPOCH_FD_AVG_MISTAKE_RATE.result mean: 10.16 
CHEN_FD_AVG_MISTAKE_RATE.result mean: 0.03 

Observed difference of two means: -10.13 
0 out of 100000 experiments had a difference of two means less than or equal to -10.13.
The chance of getting a difference of two means less than or equal to -10.13 is 0.0.

=============================================================================================================== 
AGUILERA_FD_AVG_MISTAKE_RATE.result	          <->	          CHEN_FD_AVG_MISTAKE_RATE.result
=============================================================================================================== 

AGUILERA_FD_AVG_MISTAKE_RATE.result mean: 13.90 
CHEN_FD_AVG_MISTAKE_RATE.result mean: 0.03 

Observed difference of two means: -13.87 
0 out of 100000 experiments had a difference of two means less than or equal to -13.87.
The chance of getting a difference of two means less than or equal to -13.87 is 0.0.

=============================================================================================================== 
LARREA_VANILLA_FD_TG_SUM.result	          <->	          LARREA_EPOCH_FD_TG_SUM.result
=============================================================================================================== 

LARREA_VANILLA_FD_TG_SUM.result mean: 399789.08 
LARREA_EPOCH_FD_TG_SUM.result mean: 394364.47 

Observed difference of two means: -5424.62 
31631 out of 100000 experiments had a difference of two means less than or equal to -5424.62.
The chance of getting a difference of two means less than or equal to -5424.62 is 0.31631.

=============================================================================================================== 
LARREA_VANILLA_FD_TG_SUM.result	          <->	          AGUILERA_FD_TG_SUM.result
=============================================================================================================== 

LARREA_VANILLA_FD_TG_SUM.result mean: 399789.08 
AGUILERA_FD_TG_SUM.result mean: 435786.28 

Observed difference of two means: 35997.20 
1 out of 100000 experiments had a difference of two means greater than or equal to 35997.20.
The chance of getting a difference of two means greater than or equal to 35997.20 is 1e-05.

=============================================================================================================== 
LARREA_VANILLA_FD_TG_SUM.result	          <->	          CHEN_FD_TG_SUM.result
=============================================================================================================== 

LARREA_VANILLA_FD_TG_SUM.result mean: 399789.08 
CHEN_FD_TG_SUM.result mean: 599656.53 

Observed difference of two means: 199867.45 
0 out of 100000 experiments had a difference of two means greater than or equal to 199867.45.
The chance of getting a difference of two means greater than or equal to 199867.45 is 0.0.

=============================================================================================================== 
LARREA_EPOCH_FD_TG_SUM.result	          <->	          AGUILERA_FD_TG_SUM.result
=============================================================================================================== 

LARREA_EPOCH_FD_TG_SUM.result mean: 394364.47 
AGUILERA_FD_TG_SUM.result mean: 435786.28 

Observed difference of two means: 41421.82 
0 out of 100000 experiments had a difference of two means greater than or equal to 41421.82.
The chance of getting a difference of two means greater than or equal to 41421.82 is 0.0.

=============================================================================================================== 
LARREA_EPOCH_FD_TG_SUM.result	          <->	          CHEN_FD_TG_SUM.result
=============================================================================================================== 

LARREA_EPOCH_FD_TG_SUM.result mean: 394364.47 
CHEN_FD_TG_SUM.result mean: 599656.53 

Observed difference of two means: 205292.07 
0 out of 100000 experiments had a difference of two means greater than or equal to 205292.07.
The chance of getting a difference of two means greater than or equal to 205292.07 is 0.0.

=============================================================================================================== 
AGUILERA_FD_TG_SUM.result	          <->	          CHEN_FD_TG_SUM.result
=============================================================================================================== 

AGUILERA_FD_TG_SUM.result mean: 435786.28 
CHEN_FD_TG_SUM.result mean: 599656.53 

Observed difference of two means: 163870.25 
0 out of 100000 experiments had a difference of two means greater than or equal to 163870.25.
The chance of getting a difference of two means greater than or equal to 163870.25 is 0.0.

