=============================================================================================================== 
LARREA_VANILLA_LG_CONSENSUS_RATE.result	          <->	          LARREA_EPOCH_LG_CONSENSUS_RATE.result
=============================================================================================================== 

LARREA_VANILLA_LG_CONSENSUS_RATE.result mean: 0.00 
LARREA_EPOCH_LG_CONSENSUS_RATE.result mean: 0.00 

Observed difference of two means: 0.00 
100000 out of 100000 experiments had a difference of two means greater than or equal to 0.00.
The chance of getting a difference of two means greater than or equal to 0.00 is 1.0.

=============================================================================================================== 
LARREA_VANILLA_LG_CONSENSUS_RATE.result	          <->	          AGUILERA_LG_CONSENSUS_RATE.result
=============================================================================================================== 

LARREA_VANILLA_LG_CONSENSUS_RATE.result mean: 0.00 
AGUILERA_LG_CONSENSUS_RATE.result mean: 0.00 

Observed difference of two means: 0.00 
100000 out of 100000 experiments had a difference of two means greater than or equal to 0.00.
The chance of getting a difference of two means greater than or equal to 0.00 is 1.0.

=============================================================================================================== 
LARREA_VANILLA_LG_CONSENSUS_RATE.result	          <->	          CHEN_LG_CONSENSUS_RATE.result
=============================================================================================================== 

LARREA_VANILLA_LG_CONSENSUS_RATE.result mean: 0.00 
CHEN_LG_CONSENSUS_RATE.result mean: 0.00 

Observed difference of two means: 0.00 
100000 out of 100000 experiments had a difference of two means greater than or equal to 0.00.
The chance of getting a difference of two means greater than or equal to 0.00 is 1.0.

=============================================================================================================== 
LARREA_EPOCH_LG_CONSENSUS_RATE.result	          <->	          AGUILERA_LG_CONSENSUS_RATE.result
=============================================================================================================== 

LARREA_EPOCH_LG_CONSENSUS_RATE.result mean: 0.00 
AGUILERA_LG_CONSENSUS_RATE.result mean: 0.00 

Observed difference of two means: 0.00 
100000 out of 100000 experiments had a difference of two means greater than or equal to 0.00.
The chance of getting a difference of two means greater than or equal to 0.00 is 1.0.

=============================================================================================================== 
LARREA_EPOCH_LG_CONSENSUS_RATE.result	          <->	          CHEN_LG_CONSENSUS_RATE.result
=============================================================================================================== 

LARREA_EPOCH_LG_CONSENSUS_RATE.result mean: 0.00 
CHEN_LG_CONSENSUS_RATE.result mean: 0.00 

Observed difference of two means: 0.00 
100000 out of 100000 experiments had a difference of two means greater than or equal to 0.00.
The chance of getting a difference of two means greater than or equal to 0.00 is 1.0.

=============================================================================================================== 
AGUILERA_LG_CONSENSUS_RATE.result	          <->	          CHEN_LG_CONSENSUS_RATE.result
=============================================================================================================== 

AGUILERA_LG_CONSENSUS_RATE.result mean: 0.00 
CHEN_LG_CONSENSUS_RATE.result mean: 0.00 

Observed difference of two means: 0.00 
100000 out of 100000 experiments had a difference of two means greater than or equal to 0.00.
The chance of getting a difference of two means greater than or equal to 0.00 is 1.0.

=============================================================================================================== 
LARREA_VANILLA_FD_AVG_MISTAKE_RATE.result	          <->	          LARREA_EPOCH_FD_AVG_MISTAKE_RATE.result
=============================================================================================================== 

LARREA_VANILLA_FD_AVG_MISTAKE_RATE.result mean: 8.73 
LARREA_EPOCH_FD_AVG_MISTAKE_RATE.result mean: 9.09 

Observed difference of two means: 0.37 
11047 out of 100000 experiments had a difference of two means greater than or equal to 0.37.
The chance of getting a difference of two means greater than or equal to 0.37 is 0.11047.

=============================================================================================================== 
LARREA_VANILLA_FD_AVG_MISTAKE_RATE.result	          <->	          AGUILERA_FD_AVG_MISTAKE_RATE.result
=============================================================================================================== 

LARREA_VANILLA_FD_AVG_MISTAKE_RATE.result mean: 8.73 
AGUILERA_FD_AVG_MISTAKE_RATE.result mean: 13.22 

Observed difference of two means: 4.49 
0 out of 100000 experiments had a difference of two means greater than or equal to 4.49.
The chance of getting a difference of two means greater than or equal to 4.49 is 0.0.

=============================================================================================================== 
LARREA_VANILLA_FD_AVG_MISTAKE_RATE.result	          <->	          CHEN_FD_AVG_MISTAKE_RATE.result
=============================================================================================================== 

LARREA_VANILLA_FD_AVG_MISTAKE_RATE.result mean: 8.73 
CHEN_FD_AVG_MISTAKE_RATE.result mean: 3.19 

Observed difference of two means: -5.54 
0 out of 100000 experiments had a difference of two means less than or equal to -5.54.
The chance of getting a difference of two means less than or equal to -5.54 is 0.0.

=============================================================================================================== 
LARREA_EPOCH_FD_AVG_MISTAKE_RATE.result	          <->	          AGUILERA_FD_AVG_MISTAKE_RATE.result
=============================================================================================================== 

LARREA_EPOCH_FD_AVG_MISTAKE_RATE.result mean: 9.09 
AGUILERA_FD_AVG_MISTAKE_RATE.result mean: 13.22 

Observed difference of two means: 4.13 
0 out of 100000 experiments had a difference of two means greater than or equal to 4.13.
The chance of getting a difference of two means greater than or equal to 4.13 is 0.0.

=============================================================================================================== 
LARREA_EPOCH_FD_AVG_MISTAKE_RATE.result	          <->	          CHEN_FD_AVG_MISTAKE_RATE.result
=============================================================================================================== 

LARREA_EPOCH_FD_AVG_MISTAKE_RATE.result mean: 9.09 
CHEN_FD_AVG_MISTAKE_RATE.result mean: 3.19 

Observed difference of two means: -5.91 
0 out of 100000 experiments had a difference of two means less than or equal to -5.91.
The chance of getting a difference of two means less than or equal to -5.91 is 0.0.

=============================================================================================================== 
AGUILERA_FD_AVG_MISTAKE_RATE.result	          <->	          CHEN_FD_AVG_MISTAKE_RATE.result
=============================================================================================================== 

AGUILERA_FD_AVG_MISTAKE_RATE.result mean: 13.22 
CHEN_FD_AVG_MISTAKE_RATE.result mean: 3.19 

Observed difference of two means: -10.03 
0 out of 100000 experiments had a difference of two means less than or equal to -10.03.
The chance of getting a difference of two means less than or equal to -10.03 is 0.0.

=============================================================================================================== 
LARREA_VANILLA_FD_TG_SUM.result	          <->	          LARREA_EPOCH_FD_TG_SUM.result
=============================================================================================================== 

LARREA_VANILLA_FD_TG_SUM.result mean: 157761.00 
LARREA_EPOCH_FD_TG_SUM.result mean: 165306.75 

Observed difference of two means: 7545.75 
19305 out of 100000 experiments had a difference of two means greater than or equal to 7545.75.
The chance of getting a difference of two means greater than or equal to 7545.75 is 0.19305.

=============================================================================================================== 
LARREA_VANILLA_FD_TG_SUM.result	          <->	          AGUILERA_FD_TG_SUM.result
=============================================================================================================== 

LARREA_VANILLA_FD_TG_SUM.result mean: 157761.00 
AGUILERA_FD_TG_SUM.result mean: 137139.23 

Observed difference of two means: -20621.77 
18 out of 100000 experiments had a difference of two means less than or equal to -20621.77.
The chance of getting a difference of two means less than or equal to -20621.77 is 0.00018.

=============================================================================================================== 
LARREA_VANILLA_FD_TG_SUM.result	          <->	          CHEN_FD_TG_SUM.result
=============================================================================================================== 

LARREA_VANILLA_FD_TG_SUM.result mean: 157761.00 
CHEN_FD_TG_SUM.result mean: 521574.67 

Observed difference of two means: 363813.67 
0 out of 100000 experiments had a difference of two means greater than or equal to 363813.67.
The chance of getting a difference of two means greater than or equal to 363813.67 is 0.0.

=============================================================================================================== 
LARREA_EPOCH_FD_TG_SUM.result	          <->	          AGUILERA_FD_TG_SUM.result
=============================================================================================================== 

LARREA_EPOCH_FD_TG_SUM.result mean: 165306.75 
AGUILERA_FD_TG_SUM.result mean: 137139.23 

Observed difference of two means: -28167.52 
0 out of 100000 experiments had a difference of two means less than or equal to -28167.52.
The chance of getting a difference of two means less than or equal to -28167.52 is 0.0.

=============================================================================================================== 
LARREA_EPOCH_FD_TG_SUM.result	          <->	          CHEN_FD_TG_SUM.result
=============================================================================================================== 

LARREA_EPOCH_FD_TG_SUM.result mean: 165306.75 
CHEN_FD_TG_SUM.result mean: 521574.67 

Observed difference of two means: 356267.92 
0 out of 100000 experiments had a difference of two means greater than or equal to 356267.92.
The chance of getting a difference of two means greater than or equal to 356267.92 is 0.0.

=============================================================================================================== 
AGUILERA_FD_TG_SUM.result	          <->	          CHEN_FD_TG_SUM.result
=============================================================================================================== 

AGUILERA_FD_TG_SUM.result mean: 137139.23 
CHEN_FD_TG_SUM.result mean: 521574.67 

Observed difference of two means: 384435.43 
0 out of 100000 experiments had a difference of two means greater than or equal to 384435.43.
The chance of getting a difference of two means greater than or equal to 384435.43 is 0.0.

