=============================================================================================================== 
LARREA_VANILLA_LG_CONSENSUS_RATE.result	          <->	          LARREA_EPOCH_LG_CONSENSUS_RATE.result
=============================================================================================================== 

LARREA_VANILLA_LG_CONSENSUS_RATE.result mean: 0.04 
LARREA_EPOCH_LG_CONSENSUS_RATE.result mean: 0.04 

Observed difference of two means: 0.00 
47280 out of 100000 experiments had a difference of two means greater than or equal to 0.00.
The chance of getting a difference of two means greater than or equal to 0.00 is 0.4728.

=============================================================================================================== 
LARREA_VANILLA_LG_CONSENSUS_RATE.result	          <->	          AGUILERA_LG_CONSENSUS_RATE.result
=============================================================================================================== 

LARREA_VANILLA_LG_CONSENSUS_RATE.result mean: 0.04 
AGUILERA_LG_CONSENSUS_RATE.result mean: 0.00 

Observed difference of two means: -0.03 
0 out of 100000 experiments had a difference of two means less than or equal to -0.03.
The chance of getting a difference of two means less than or equal to -0.03 is 0.0.

=============================================================================================================== 
LARREA_VANILLA_LG_CONSENSUS_RATE.result	          <->	          CHEN_LG_CONSENSUS_RATE.result
=============================================================================================================== 

LARREA_VANILLA_LG_CONSENSUS_RATE.result mean: 0.04 
CHEN_LG_CONSENSUS_RATE.result mean: 0.18 

Observed difference of two means: 0.15 
0 out of 100000 experiments had a difference of two means greater than or equal to 0.15.
The chance of getting a difference of two means greater than or equal to 0.15 is 0.0.

=============================================================================================================== 
LARREA_EPOCH_LG_CONSENSUS_RATE.result	          <->	          AGUILERA_LG_CONSENSUS_RATE.result
=============================================================================================================== 

LARREA_EPOCH_LG_CONSENSUS_RATE.result mean: 0.04 
AGUILERA_LG_CONSENSUS_RATE.result mean: 0.00 

Observed difference of two means: -0.03 
0 out of 100000 experiments had a difference of two means less than or equal to -0.03.
The chance of getting a difference of two means less than or equal to -0.03 is 0.0.

=============================================================================================================== 
LARREA_EPOCH_LG_CONSENSUS_RATE.result	          <->	          CHEN_LG_CONSENSUS_RATE.result
=============================================================================================================== 

LARREA_EPOCH_LG_CONSENSUS_RATE.result mean: 0.04 
CHEN_LG_CONSENSUS_RATE.result mean: 0.18 

Observed difference of two means: 0.15 
0 out of 100000 experiments had a difference of two means greater than or equal to 0.15.
The chance of getting a difference of two means greater than or equal to 0.15 is 0.0.

=============================================================================================================== 
AGUILERA_LG_CONSENSUS_RATE.result	          <->	          CHEN_LG_CONSENSUS_RATE.result
=============================================================================================================== 

AGUILERA_LG_CONSENSUS_RATE.result mean: 0.00 
CHEN_LG_CONSENSUS_RATE.result mean: 0.18 

Observed difference of two means: 0.18 
0 out of 100000 experiments had a difference of two means greater than or equal to 0.18.
The chance of getting a difference of two means greater than or equal to 0.18 is 0.0.

=============================================================================================================== 
LARREA_VANILLA_FD_AVG_MISTAKE_RATE.result	          <->	          LARREA_EPOCH_FD_AVG_MISTAKE_RATE.result
=============================================================================================================== 

LARREA_VANILLA_FD_AVG_MISTAKE_RATE.result mean: 3.52 
LARREA_EPOCH_FD_AVG_MISTAKE_RATE.result mean: 3.51 

Observed difference of two means: -0.01 
43513 out of 100000 experiments had a difference of two means less than or equal to -0.01.
The chance of getting a difference of two means less than or equal to -0.01 is 0.43513.

=============================================================================================================== 
LARREA_VANILLA_FD_AVG_MISTAKE_RATE.result	          <->	          AGUILERA_FD_AVG_MISTAKE_RATE.result
=============================================================================================================== 

LARREA_VANILLA_FD_AVG_MISTAKE_RATE.result mean: 3.52 
AGUILERA_FD_AVG_MISTAKE_RATE.result mean: 4.39 

Observed difference of two means: 0.87 
0 out of 100000 experiments had a difference of two means greater than or equal to 0.87.
The chance of getting a difference of two means greater than or equal to 0.87 is 0.0.

=============================================================================================================== 
LARREA_VANILLA_FD_AVG_MISTAKE_RATE.result	          <->	          CHEN_FD_AVG_MISTAKE_RATE.result
=============================================================================================================== 

LARREA_VANILLA_FD_AVG_MISTAKE_RATE.result mean: 3.52 
CHEN_FD_AVG_MISTAKE_RATE.result mean: 0.85 

Observed difference of two means: -2.67 
0 out of 100000 experiments had a difference of two means less than or equal to -2.67.
The chance of getting a difference of two means less than or equal to -2.67 is 0.0.

=============================================================================================================== 
LARREA_EPOCH_FD_AVG_MISTAKE_RATE.result	          <->	          AGUILERA_FD_AVG_MISTAKE_RATE.result
=============================================================================================================== 

LARREA_EPOCH_FD_AVG_MISTAKE_RATE.result mean: 3.51 
AGUILERA_FD_AVG_MISTAKE_RATE.result mean: 4.39 

Observed difference of two means: 0.88 
0 out of 100000 experiments had a difference of two means greater than or equal to 0.88.
The chance of getting a difference of two means greater than or equal to 0.88 is 0.0.

=============================================================================================================== 
LARREA_EPOCH_FD_AVG_MISTAKE_RATE.result	          <->	          CHEN_FD_AVG_MISTAKE_RATE.result
=============================================================================================================== 

LARREA_EPOCH_FD_AVG_MISTAKE_RATE.result mean: 3.51 
CHEN_FD_AVG_MISTAKE_RATE.result mean: 0.85 

Observed difference of two means: -2.66 
0 out of 100000 experiments had a difference of two means less than or equal to -2.66.
The chance of getting a difference of two means less than or equal to -2.66 is 0.0.

=============================================================================================================== 
AGUILERA_FD_AVG_MISTAKE_RATE.result	          <->	          CHEN_FD_AVG_MISTAKE_RATE.result
=============================================================================================================== 

AGUILERA_FD_AVG_MISTAKE_RATE.result mean: 4.39 
CHEN_FD_AVG_MISTAKE_RATE.result mean: 0.85 

Observed difference of two means: -3.54 
0 out of 100000 experiments had a difference of two means less than or equal to -3.54.
The chance of getting a difference of two means less than or equal to -3.54 is 0.0.

=============================================================================================================== 
LARREA_VANILLA_FD_TG_SUM.result	          <->	          LARREA_EPOCH_FD_TG_SUM.result
=============================================================================================================== 

LARREA_VANILLA_FD_TG_SUM.result mean: 416259.62 
LARREA_EPOCH_FD_TG_SUM.result mean: 409640.80 

Observed difference of two means: -6618.82 
27850 out of 100000 experiments had a difference of two means less than or equal to -6618.82.
The chance of getting a difference of two means less than or equal to -6618.82 is 0.2785.

=============================================================================================================== 
LARREA_VANILLA_FD_TG_SUM.result	          <->	          AGUILERA_FD_TG_SUM.result
=============================================================================================================== 

LARREA_VANILLA_FD_TG_SUM.result mean: 416259.62 
AGUILERA_FD_TG_SUM.result mean: 439035.62 

Observed difference of two means: 22776.00 
232 out of 100000 experiments had a difference of two means greater than or equal to 22776.00.
The chance of getting a difference of two means greater than or equal to 22776.00 is 0.00232.

=============================================================================================================== 
LARREA_VANILLA_FD_TG_SUM.result	          <->	          CHEN_FD_TG_SUM.result
=============================================================================================================== 

LARREA_VANILLA_FD_TG_SUM.result mean: 416259.62 
CHEN_FD_TG_SUM.result mean: 571448.32 

Observed difference of two means: 155188.70 
0 out of 100000 experiments had a difference of two means greater than or equal to 155188.70.
The chance of getting a difference of two means greater than or equal to 155188.70 is 0.0.

=============================================================================================================== 
LARREA_EPOCH_FD_TG_SUM.result	          <->	          AGUILERA_FD_TG_SUM.result
=============================================================================================================== 

LARREA_EPOCH_FD_TG_SUM.result mean: 409640.80 
AGUILERA_FD_TG_SUM.result mean: 439035.62 

Observed difference of two means: 29394.82 
20 out of 100000 experiments had a difference of two means greater than or equal to 29394.82.
The chance of getting a difference of two means greater than or equal to 29394.82 is 0.0002.

=============================================================================================================== 
LARREA_EPOCH_FD_TG_SUM.result	          <->	          CHEN_FD_TG_SUM.result
=============================================================================================================== 

LARREA_EPOCH_FD_TG_SUM.result mean: 409640.80 
CHEN_FD_TG_SUM.result mean: 571448.32 

Observed difference of two means: 161807.52 
0 out of 100000 experiments had a difference of two means greater than or equal to 161807.52.
The chance of getting a difference of two means greater than or equal to 161807.52 is 0.0.

=============================================================================================================== 
AGUILERA_FD_TG_SUM.result	          <->	          CHEN_FD_TG_SUM.result
=============================================================================================================== 

AGUILERA_FD_TG_SUM.result mean: 439035.62 
CHEN_FD_TG_SUM.result mean: 571448.32 

Observed difference of two means: 132412.70 
0 out of 100000 experiments had a difference of two means greater than or equal to 132412.70.
The chance of getting a difference of two means greater than or equal to 132412.70 is 0.0.

