=============================================================================================================== 
LARREA_VANILLA_LG_CONSENSUS_RATE.result	          <->	          LARREA_EPOCH_LG_CONSENSUS_RATE.result
=============================================================================================================== 

LARREA_VANILLA_LG_CONSENSUS_RATE.result mean: 4.02 
LARREA_EPOCH_LG_CONSENSUS_RATE.result mean: 4.28 

Observed difference of two means: 0.26 
4212 out of 100000 experiments had a difference of two means greater than or equal to 0.26.
The chance of getting a difference of two means greater than or equal to 0.26 is 0.04212.

=============================================================================================================== 
LARREA_VANILLA_LG_CONSENSUS_RATE.result	          <->	          AGUILERA_LG_CONSENSUS_RATE.result
=============================================================================================================== 

LARREA_VANILLA_LG_CONSENSUS_RATE.result mean: 4.02 
AGUILERA_LG_CONSENSUS_RATE.result mean: 4.29 

Observed difference of two means: 0.27 
5663 out of 100000 experiments had a difference of two means greater than or equal to 0.27.
The chance of getting a difference of two means greater than or equal to 0.27 is 0.05663.

=============================================================================================================== 
LARREA_VANILLA_LG_CONSENSUS_RATE.result	          <->	          CHEN_LG_CONSENSUS_RATE.result
=============================================================================================================== 

LARREA_VANILLA_LG_CONSENSUS_RATE.result mean: 4.02 
CHEN_LG_CONSENSUS_RATE.result mean: 8.88 

Observed difference of two means: 4.86 
0 out of 100000 experiments had a difference of two means greater than or equal to 4.86.
The chance of getting a difference of two means greater than or equal to 4.86 is 0.0.

=============================================================================================================== 
LARREA_EPOCH_LG_CONSENSUS_RATE.result	          <->	          AGUILERA_LG_CONSENSUS_RATE.result
=============================================================================================================== 

LARREA_EPOCH_LG_CONSENSUS_RATE.result mean: 4.28 
AGUILERA_LG_CONSENSUS_RATE.result mean: 4.29 

Observed difference of two means: 0.01 
46975 out of 100000 experiments had a difference of two means greater than or equal to 0.01.
The chance of getting a difference of two means greater than or equal to 0.01 is 0.46975.

=============================================================================================================== 
LARREA_EPOCH_LG_CONSENSUS_RATE.result	          <->	          CHEN_LG_CONSENSUS_RATE.result
=============================================================================================================== 

LARREA_EPOCH_LG_CONSENSUS_RATE.result mean: 4.28 
CHEN_LG_CONSENSUS_RATE.result mean: 8.88 

Observed difference of two means: 4.60 
0 out of 100000 experiments had a difference of two means greater than or equal to 4.60.
The chance of getting a difference of two means greater than or equal to 4.60 is 0.0.

=============================================================================================================== 
AGUILERA_LG_CONSENSUS_RATE.result	          <->	          CHEN_LG_CONSENSUS_RATE.result
=============================================================================================================== 

AGUILERA_LG_CONSENSUS_RATE.result mean: 4.29 
CHEN_LG_CONSENSUS_RATE.result mean: 8.88 

Observed difference of two means: 4.59 
0 out of 100000 experiments had a difference of two means greater than or equal to 4.59.
The chance of getting a difference of two means greater than or equal to 4.59 is 0.0.

=============================================================================================================== 
LARREA_VANILLA_FD_AVG_MISTAKE_RATE.result	          <->	          LARREA_EPOCH_FD_AVG_MISTAKE_RATE.result
=============================================================================================================== 

LARREA_VANILLA_FD_AVG_MISTAKE_RATE.result mean: 1.14 
LARREA_EPOCH_FD_AVG_MISTAKE_RATE.result mean: 1.17 

Observed difference of two means: 0.04 
20878 out of 100000 experiments had a difference of two means greater than or equal to 0.04.
The chance of getting a difference of two means greater than or equal to 0.04 is 0.20878.

=============================================================================================================== 
LARREA_VANILLA_FD_AVG_MISTAKE_RATE.result	          <->	          AGUILERA_FD_AVG_MISTAKE_RATE.result
=============================================================================================================== 

LARREA_VANILLA_FD_AVG_MISTAKE_RATE.result mean: 1.14 
AGUILERA_FD_AVG_MISTAKE_RATE.result mean: 0.96 

Observed difference of two means: -0.18 
0 out of 100000 experiments had a difference of two means less than or equal to -0.18.
The chance of getting a difference of two means less than or equal to -0.18 is 0.0.

=============================================================================================================== 
LARREA_VANILLA_FD_AVG_MISTAKE_RATE.result	          <->	          CHEN_FD_AVG_MISTAKE_RATE.result
=============================================================================================================== 

LARREA_VANILLA_FD_AVG_MISTAKE_RATE.result mean: 1.14 
CHEN_FD_AVG_MISTAKE_RATE.result mean: 0.04 

Observed difference of two means: -1.09 
0 out of 100000 experiments had a difference of two means less than or equal to -1.09.
The chance of getting a difference of two means less than or equal to -1.09 is 0.0.

=============================================================================================================== 
LARREA_EPOCH_FD_AVG_MISTAKE_RATE.result	          <->	          AGUILERA_FD_AVG_MISTAKE_RATE.result
=============================================================================================================== 

LARREA_EPOCH_FD_AVG_MISTAKE_RATE.result mean: 1.17 
AGUILERA_FD_AVG_MISTAKE_RATE.result mean: 0.96 

Observed difference of two means: -0.22 
0 out of 100000 experiments had a difference of two means less than or equal to -0.22.
The chance of getting a difference of two means less than or equal to -0.22 is 0.0.

=============================================================================================================== 
LARREA_EPOCH_FD_AVG_MISTAKE_RATE.result	          <->	          CHEN_FD_AVG_MISTAKE_RATE.result
=============================================================================================================== 

LARREA_EPOCH_FD_AVG_MISTAKE_RATE.result mean: 1.17 
CHEN_FD_AVG_MISTAKE_RATE.result mean: 0.04 

Observed difference of two means: -1.13 
0 out of 100000 experiments had a difference of two means less than or equal to -1.13.
The chance of getting a difference of two means less than or equal to -1.13 is 0.0.

=============================================================================================================== 
AGUILERA_FD_AVG_MISTAKE_RATE.result	          <->	          CHEN_FD_AVG_MISTAKE_RATE.result
=============================================================================================================== 

AGUILERA_FD_AVG_MISTAKE_RATE.result mean: 0.96 
CHEN_FD_AVG_MISTAKE_RATE.result mean: 0.04 

Observed difference of two means: -0.91 
0 out of 100000 experiments had a difference of two means less than or equal to -0.91.
The chance of getting a difference of two means less than or equal to -0.91 is 0.0.

=============================================================================================================== 
LARREA_VANILLA_FD_TG_SUM.result	          <->	          LARREA_EPOCH_FD_TG_SUM.result
=============================================================================================================== 

LARREA_VANILLA_FD_TG_SUM.result mean: 538099.25 
LARREA_EPOCH_FD_TG_SUM.result mean: 535275.78 

Observed difference of two means: -2823.47 
37483 out of 100000 experiments had a difference of two means less than or equal to -2823.47.
The chance of getting a difference of two means less than or equal to -2823.47 is 0.37483.

=============================================================================================================== 
LARREA_VANILLA_FD_TG_SUM.result	          <->	          AGUILERA_FD_TG_SUM.result
=============================================================================================================== 

LARREA_VANILLA_FD_TG_SUM.result mean: 538099.25 
AGUILERA_FD_TG_SUM.result mean: 569990.53 

Observed difference of two means: 31891.28 
0 out of 100000 experiments had a difference of two means greater than or equal to 31891.28.
The chance of getting a difference of two means greater than or equal to 31891.28 is 0.0.

=============================================================================================================== 
LARREA_VANILLA_FD_TG_SUM.result	          <->	          CHEN_FD_TG_SUM.result
=============================================================================================================== 

LARREA_VANILLA_FD_TG_SUM.result mean: 538099.25 
CHEN_FD_TG_SUM.result mean: 598733.53 

Observed difference of two means: 60634.28 
0 out of 100000 experiments had a difference of two means greater than or equal to 60634.28.
The chance of getting a difference of two means greater than or equal to 60634.28 is 0.0.

=============================================================================================================== 
LARREA_EPOCH_FD_TG_SUM.result	          <->	          AGUILERA_FD_TG_SUM.result
=============================================================================================================== 

LARREA_EPOCH_FD_TG_SUM.result mean: 535275.78 
AGUILERA_FD_TG_SUM.result mean: 569990.53 

Observed difference of two means: 34714.75 
0 out of 100000 experiments had a difference of two means greater than or equal to 34714.75.
The chance of getting a difference of two means greater than or equal to 34714.75 is 0.0.

=============================================================================================================== 
LARREA_EPOCH_FD_TG_SUM.result	          <->	          CHEN_FD_TG_SUM.result
=============================================================================================================== 

LARREA_EPOCH_FD_TG_SUM.result mean: 535275.78 
CHEN_FD_TG_SUM.result mean: 598733.53 

Observed difference of two means: 63457.75 
0 out of 100000 experiments had a difference of two means greater than or equal to 63457.75.
The chance of getting a difference of two means greater than or equal to 63457.75 is 0.0.

=============================================================================================================== 
AGUILERA_FD_TG_SUM.result	          <->	          CHEN_FD_TG_SUM.result
=============================================================================================================== 

AGUILERA_FD_TG_SUM.result mean: 569990.53 
CHEN_FD_TG_SUM.result mean: 598733.53 

Observed difference of two means: 28743.00 
0 out of 100000 experiments had a difference of two means greater than or equal to 28743.00.
The chance of getting a difference of two means greater than or equal to 28743.00 is 0.0.

