=============================================================================================================== 
LARREA_VANILLA_LG_CONSENSUS_RATE.result	          <->	          LARREA_EPOCH_LG_CONSENSUS_RATE.result
=============================================================================================================== 

LARREA_VANILLA_LG_CONSENSUS_RATE.result mean: 0.00 
LARREA_EPOCH_LG_CONSENSUS_RATE.result mean: 0.00 

Observed difference of two means: 0.00 
50190 out of 100000 experiments had a difference of two means greater than or equal to 0.00.
The chance of getting a difference of two means greater than or equal to 0.00 is 0.5019.

=============================================================================================================== 
LARREA_VANILLA_LG_CONSENSUS_RATE.result	          <->	          AGUILERA_LG_CONSENSUS_RATE.result
=============================================================================================================== 

LARREA_VANILLA_LG_CONSENSUS_RATE.result mean: 0.00 
AGUILERA_LG_CONSENSUS_RATE.result mean: 0.07 

Observed difference of two means: 0.07 
4306 out of 100000 experiments had a difference of two means greater than or equal to 0.07.
The chance of getting a difference of two means greater than or equal to 0.07 is 0.04306.

=============================================================================================================== 
LARREA_VANILLA_LG_CONSENSUS_RATE.result	          <->	          CHEN_LG_CONSENSUS_RATE.result
=============================================================================================================== 

LARREA_VANILLA_LG_CONSENSUS_RATE.result mean: 0.00 
CHEN_LG_CONSENSUS_RATE.result mean: 9.42 

Observed difference of two means: 9.42 
385 out of 100000 experiments had a difference of two means greater than or equal to 9.42.
The chance of getting a difference of two means greater than or equal to 9.42 is 0.00385.

=============================================================================================================== 
LARREA_EPOCH_LG_CONSENSUS_RATE.result	          <->	          AGUILERA_LG_CONSENSUS_RATE.result
=============================================================================================================== 

LARREA_EPOCH_LG_CONSENSUS_RATE.result mean: 0.00 
AGUILERA_LG_CONSENSUS_RATE.result mean: 0.07 

Observed difference of two means: 0.07 
6365 out of 100000 experiments had a difference of two means greater than or equal to 0.07.
The chance of getting a difference of two means greater than or equal to 0.07 is 0.06365.

=============================================================================================================== 
LARREA_EPOCH_LG_CONSENSUS_RATE.result	          <->	          CHEN_LG_CONSENSUS_RATE.result
=============================================================================================================== 

LARREA_EPOCH_LG_CONSENSUS_RATE.result mean: 0.00 
CHEN_LG_CONSENSUS_RATE.result mean: 9.42 

Observed difference of two means: 9.42 
405 out of 100000 experiments had a difference of two means greater than or equal to 9.42.
The chance of getting a difference of two means greater than or equal to 9.42 is 0.00405.

=============================================================================================================== 
AGUILERA_LG_CONSENSUS_RATE.result	          <->	          CHEN_LG_CONSENSUS_RATE.result
=============================================================================================================== 

AGUILERA_LG_CONSENSUS_RATE.result mean: 0.07 
CHEN_LG_CONSENSUS_RATE.result mean: 9.42 

Observed difference of two means: 9.35 
385 out of 100000 experiments had a difference of two means greater than or equal to 9.35.
The chance of getting a difference of two means greater than or equal to 9.35 is 0.00385.

=============================================================================================================== 
LARREA_VANILLA_FD_AVG_MISTAKE_RATE.result	          <->	          LARREA_EPOCH_FD_AVG_MISTAKE_RATE.result
=============================================================================================================== 

LARREA_VANILLA_FD_AVG_MISTAKE_RATE.result mean: 10.27 
LARREA_EPOCH_FD_AVG_MISTAKE_RATE.result mean: 4.79 

Observed difference of two means: -5.48 
4280 out of 100000 experiments had a difference of two means less than or equal to -5.48.
The chance of getting a difference of two means less than or equal to -5.48 is 0.0428.

=============================================================================================================== 
LARREA_VANILLA_FD_AVG_MISTAKE_RATE.result	          <->	          AGUILERA_FD_AVG_MISTAKE_RATE.result
=============================================================================================================== 

LARREA_VANILLA_FD_AVG_MISTAKE_RATE.result mean: 10.27 
AGUILERA_FD_AVG_MISTAKE_RATE.result mean: 13.20 

Observed difference of two means: 2.93 
17837 out of 100000 experiments had a difference of two means greater than or equal to 2.93.
The chance of getting a difference of two means greater than or equal to 2.93 is 0.17837.

=============================================================================================================== 
LARREA_VANILLA_FD_AVG_MISTAKE_RATE.result	          <->	          CHEN_FD_AVG_MISTAKE_RATE.result
=============================================================================================================== 

LARREA_VANILLA_FD_AVG_MISTAKE_RATE.result mean: 10.27 
CHEN_FD_AVG_MISTAKE_RATE.result mean: 0.00 

Observed difference of two means: -10.27 
320 out of 100000 experiments had a difference of two means less than or equal to -10.27.
The chance of getting a difference of two means less than or equal to -10.27 is 0.0032.

=============================================================================================================== 
LARREA_EPOCH_FD_AVG_MISTAKE_RATE.result	          <->	          AGUILERA_FD_AVG_MISTAKE_RATE.result
=============================================================================================================== 

LARREA_EPOCH_FD_AVG_MISTAKE_RATE.result mean: 4.79 
AGUILERA_FD_AVG_MISTAKE_RATE.result mean: 13.20 

Observed difference of two means: 8.41 
287 out of 100000 experiments had a difference of two means greater than or equal to 8.41.
The chance of getting a difference of two means greater than or equal to 8.41 is 0.00287.

=============================================================================================================== 
LARREA_EPOCH_FD_AVG_MISTAKE_RATE.result	          <->	          CHEN_FD_AVG_MISTAKE_RATE.result
=============================================================================================================== 

LARREA_EPOCH_FD_AVG_MISTAKE_RATE.result mean: 4.79 
CHEN_FD_AVG_MISTAKE_RATE.result mean: 0.00 

Observed difference of two means: -4.79 
400 out of 100000 experiments had a difference of two means less than or equal to -4.79.
The chance of getting a difference of two means less than or equal to -4.79 is 0.004.

=============================================================================================================== 
AGUILERA_FD_AVG_MISTAKE_RATE.result	          <->	          CHEN_FD_AVG_MISTAKE_RATE.result
=============================================================================================================== 

AGUILERA_FD_AVG_MISTAKE_RATE.result mean: 13.20 
CHEN_FD_AVG_MISTAKE_RATE.result mean: 0.00 

Observed difference of two means: -13.20 
352 out of 100000 experiments had a difference of two means less than or equal to -13.20.
The chance of getting a difference of two means less than or equal to -13.20 is 0.00352.

=============================================================================================================== 
LARREA_VANILLA_FD_TG_SUM.result	          <->	          LARREA_EPOCH_FD_TG_SUM.result
=============================================================================================================== 

LARREA_VANILLA_FD_TG_SUM.result mean: 541621.80 
LARREA_EPOCH_FD_TG_SUM.result mean: 566752.60 

Observed difference of two means: 25130.80 
26755 out of 100000 experiments had a difference of two means greater than or equal to 25130.80.
The chance of getting a difference of two means greater than or equal to 25130.80 is 0.26755.

=============================================================================================================== 
LARREA_VANILLA_FD_TG_SUM.result	          <->	          AGUILERA_FD_TG_SUM.result
=============================================================================================================== 

LARREA_VANILLA_FD_TG_SUM.result mean: 541621.80 
AGUILERA_FD_TG_SUM.result mean: 571121.60 

Observed difference of two means: 29499.80 
22325 out of 100000 experiments had a difference of two means greater than or equal to 29499.80.
The chance of getting a difference of two means greater than or equal to 29499.80 is 0.22325.

=============================================================================================================== 
LARREA_VANILLA_FD_TG_SUM.result	          <->	          CHEN_FD_TG_SUM.result
=============================================================================================================== 

LARREA_VANILLA_FD_TG_SUM.result mean: 541621.80 
CHEN_FD_TG_SUM.result mean: 599920.60 

Observed difference of two means: 58298.80 
370 out of 100000 experiments had a difference of two means greater than or equal to 58298.80.
The chance of getting a difference of two means greater than or equal to 58298.80 is 0.0037.

=============================================================================================================== 
LARREA_EPOCH_FD_TG_SUM.result	          <->	          AGUILERA_FD_TG_SUM.result
=============================================================================================================== 

LARREA_EPOCH_FD_TG_SUM.result mean: 566752.60 
AGUILERA_FD_TG_SUM.result mean: 571121.60 

Observed difference of two means: 4369.00 
49871 out of 100000 experiments had a difference of two means greater than or equal to 4369.00.
The chance of getting a difference of two means greater than or equal to 4369.00 is 0.49871.

=============================================================================================================== 
LARREA_EPOCH_FD_TG_SUM.result	          <->	          CHEN_FD_TG_SUM.result
=============================================================================================================== 

LARREA_EPOCH_FD_TG_SUM.result mean: 566752.60 
CHEN_FD_TG_SUM.result mean: 599920.60 

Observed difference of two means: 33168.00 
374 out of 100000 experiments had a difference of two means greater than or equal to 33168.00.
The chance of getting a difference of two means greater than or equal to 33168.00 is 0.00374.

=============================================================================================================== 
AGUILERA_FD_TG_SUM.result	          <->	          CHEN_FD_TG_SUM.result
=============================================================================================================== 

AGUILERA_FD_TG_SUM.result mean: 571121.60 
CHEN_FD_TG_SUM.result mean: 599920.60 

Observed difference of two means: 28799.00 
389 out of 100000 experiments had a difference of two means greater than or equal to 28799.00.
The chance of getting a difference of two means greater than or equal to 28799.00 is 0.00389.

