=============================================================================================================== 
LARREA_VANILLA_LG_CONSENSUS_RATE.result	          <->	          LARREA_EPOCH_LG_CONSENSUS_RATE.result
=============================================================================================================== 

LARREA_VANILLA_LG_CONSENSUS_RATE.result mean: 0.00 
LARREA_EPOCH_LG_CONSENSUS_RATE.result mean: 0.00 

Observed difference of two means: 0.00 
100000 out of 100000 experiments had a difference of two means greater than or equal to 0.00.
The chance of getting a difference of two means greater than or equal to 0.00 is 1.0.

=============================================================================================================== 
LARREA_VANILLA_LG_CONSENSUS_RATE.result	          <->	          AGUILERA_LG_CONSENSUS_RATE.result
=============================================================================================================== 

LARREA_VANILLA_LG_CONSENSUS_RATE.result mean: 0.00 
AGUILERA_LG_CONSENSUS_RATE.result mean: 0.00 

Observed difference of two means: 0.00 
100000 out of 100000 experiments had a difference of two means greater than or equal to 0.00.
The chance of getting a difference of two means greater than or equal to 0.00 is 1.0.

=============================================================================================================== 
LARREA_VANILLA_LG_CONSENSUS_RATE.result	          <->	          CHEN_LG_CONSENSUS_RATE.result
=============================================================================================================== 

LARREA_VANILLA_LG_CONSENSUS_RATE.result mean: 0.00 
CHEN_LG_CONSENSUS_RATE.result mean: 0.00 

Observed difference of two means: 0.00 
100000 out of 100000 experiments had a difference of two means greater than or equal to 0.00.
The chance of getting a difference of two means greater than or equal to 0.00 is 1.0.

=============================================================================================================== 
LARREA_EPOCH_LG_CONSENSUS_RATE.result	          <->	          AGUILERA_LG_CONSENSUS_RATE.result
=============================================================================================================== 

LARREA_EPOCH_LG_CONSENSUS_RATE.result mean: 0.00 
AGUILERA_LG_CONSENSUS_RATE.result mean: 0.00 

Observed difference of two means: 0.00 
100000 out of 100000 experiments had a difference of two means greater than or equal to 0.00.
The chance of getting a difference of two means greater than or equal to 0.00 is 1.0.

=============================================================================================================== 
LARREA_EPOCH_LG_CONSENSUS_RATE.result	          <->	          CHEN_LG_CONSENSUS_RATE.result
=============================================================================================================== 

LARREA_EPOCH_LG_CONSENSUS_RATE.result mean: 0.00 
CHEN_LG_CONSENSUS_RATE.result mean: 0.00 

Observed difference of two means: 0.00 
100000 out of 100000 experiments had a difference of two means greater than or equal to 0.00.
The chance of getting a difference of two means greater than or equal to 0.00 is 1.0.

=============================================================================================================== 
AGUILERA_LG_CONSENSUS_RATE.result	          <->	          CHEN_LG_CONSENSUS_RATE.result
=============================================================================================================== 

AGUILERA_LG_CONSENSUS_RATE.result mean: 0.00 
CHEN_LG_CONSENSUS_RATE.result mean: 0.00 

Observed difference of two means: 0.00 
100000 out of 100000 experiments had a difference of two means greater than or equal to 0.00.
The chance of getting a difference of two means greater than or equal to 0.00 is 1.0.

=============================================================================================================== 
LARREA_VANILLA_FD_AVG_MISTAKE_RATE.result	          <->	          LARREA_EPOCH_FD_AVG_MISTAKE_RATE.result
=============================================================================================================== 

LARREA_VANILLA_FD_AVG_MISTAKE_RATE.result mean: 17.46 
LARREA_EPOCH_FD_AVG_MISTAKE_RATE.result mean: 16.46 

Observed difference of two means: -0.99 
40938 out of 100000 experiments had a difference of two means less than or equal to -0.99.
The chance of getting a difference of two means less than or equal to -0.99 is 0.40938.

=============================================================================================================== 
LARREA_VANILLA_FD_AVG_MISTAKE_RATE.result	          <->	          AGUILERA_FD_AVG_MISTAKE_RATE.result
=============================================================================================================== 

LARREA_VANILLA_FD_AVG_MISTAKE_RATE.result mean: 17.46 
AGUILERA_FD_AVG_MISTAKE_RATE.result mean: 25.06 

Observed difference of two means: 7.60 
2494 out of 100000 experiments had a difference of two means greater than or equal to 7.60.
The chance of getting a difference of two means greater than or equal to 7.60 is 0.02494.

=============================================================================================================== 
LARREA_VANILLA_FD_AVG_MISTAKE_RATE.result	          <->	          CHEN_FD_AVG_MISTAKE_RATE.result
=============================================================================================================== 

LARREA_VANILLA_FD_AVG_MISTAKE_RATE.result mean: 17.46 
CHEN_FD_AVG_MISTAKE_RATE.result mean: 0.72 

Observed difference of two means: -16.73 
326 out of 100000 experiments had a difference of two means less than or equal to -16.73.
The chance of getting a difference of two means less than or equal to -16.73 is 0.00326.

=============================================================================================================== 
LARREA_EPOCH_FD_AVG_MISTAKE_RATE.result	          <->	          AGUILERA_FD_AVG_MISTAKE_RATE.result
=============================================================================================================== 

LARREA_EPOCH_FD_AVG_MISTAKE_RATE.result mean: 16.46 
AGUILERA_FD_AVG_MISTAKE_RATE.result mean: 25.06 

Observed difference of two means: 8.60 
827 out of 100000 experiments had a difference of two means greater than or equal to 8.60.
The chance of getting a difference of two means greater than or equal to 8.60 is 0.00827.

=============================================================================================================== 
LARREA_EPOCH_FD_AVG_MISTAKE_RATE.result	          <->	          CHEN_FD_AVG_MISTAKE_RATE.result
=============================================================================================================== 

LARREA_EPOCH_FD_AVG_MISTAKE_RATE.result mean: 16.46 
CHEN_FD_AVG_MISTAKE_RATE.result mean: 0.72 

Observed difference of two means: -15.74 
381 out of 100000 experiments had a difference of two means less than or equal to -15.74.
The chance of getting a difference of two means less than or equal to -15.74 is 0.00381.

=============================================================================================================== 
AGUILERA_FD_AVG_MISTAKE_RATE.result	          <->	          CHEN_FD_AVG_MISTAKE_RATE.result
=============================================================================================================== 

AGUILERA_FD_AVG_MISTAKE_RATE.result mean: 25.06 
CHEN_FD_AVG_MISTAKE_RATE.result mean: 0.72 

Observed difference of two means: -24.34 
75 out of 100000 experiments had a difference of two means less than or equal to -24.34.
The chance of getting a difference of two means less than or equal to -24.34 is 0.00075.

=============================================================================================================== 
LARREA_VANILLA_FD_TG_SUM.result	          <->	          LARREA_EPOCH_FD_TG_SUM.result
=============================================================================================================== 

LARREA_VANILLA_FD_TG_SUM.result mean: 152754.80 
LARREA_EPOCH_FD_TG_SUM.result mean: 178084.80 

Observed difference of two means: 25330.00 
26974 out of 100000 experiments had a difference of two means greater than or equal to 25330.00.
The chance of getting a difference of two means greater than or equal to 25330.00 is 0.26974.

=============================================================================================================== 
LARREA_VANILLA_FD_TG_SUM.result	          <->	          AGUILERA_FD_TG_SUM.result
=============================================================================================================== 

LARREA_VANILLA_FD_TG_SUM.result mean: 152754.80 
AGUILERA_FD_TG_SUM.result mean: 134672.40 

Observed difference of two means: -18082.40 
44290 out of 100000 experiments had a difference of two means less than or equal to -18082.40.
The chance of getting a difference of two means less than or equal to -18082.40 is 0.4429.

=============================================================================================================== 
LARREA_VANILLA_FD_TG_SUM.result	          <->	          CHEN_FD_TG_SUM.result
=============================================================================================================== 

LARREA_VANILLA_FD_TG_SUM.result mean: 152754.80 
CHEN_FD_TG_SUM.result mean: 591664.60 

Observed difference of two means: 438909.80 
415 out of 100000 experiments had a difference of two means greater than or equal to 438909.80.
The chance of getting a difference of two means greater than or equal to 438909.80 is 0.00415.

=============================================================================================================== 
LARREA_EPOCH_FD_TG_SUM.result	          <->	          AGUILERA_FD_TG_SUM.result
=============================================================================================================== 

LARREA_EPOCH_FD_TG_SUM.result mean: 178084.80 
AGUILERA_FD_TG_SUM.result mean: 134672.40 

Observed difference of two means: -43412.40 
15783 out of 100000 experiments had a difference of two means less than or equal to -43412.40.
The chance of getting a difference of two means less than or equal to -43412.40 is 0.15783.

=============================================================================================================== 
LARREA_EPOCH_FD_TG_SUM.result	          <->	          CHEN_FD_TG_SUM.result
=============================================================================================================== 

LARREA_EPOCH_FD_TG_SUM.result mean: 178084.80 
CHEN_FD_TG_SUM.result mean: 591664.60 

Observed difference of two means: 413579.80 
399 out of 100000 experiments had a difference of two means greater than or equal to 413579.80.
The chance of getting a difference of two means greater than or equal to 413579.80 is 0.00399.

=============================================================================================================== 
AGUILERA_FD_TG_SUM.result	          <->	          CHEN_FD_TG_SUM.result
=============================================================================================================== 

AGUILERA_FD_TG_SUM.result mean: 134672.40 
CHEN_FD_TG_SUM.result mean: 591664.60 

Observed difference of two means: 456992.20 
411 out of 100000 experiments had a difference of two means greater than or equal to 456992.20.
The chance of getting a difference of two means greater than or equal to 456992.20 is 0.00411.

