=============================================================================================================== 
LARREA_VANILLA_LG_CONSENSUS_RATE.result	          <->	          LARREA_EPOCH_LG_CONSENSUS_RATE.result
=============================================================================================================== 

LARREA_VANILLA_LG_CONSENSUS_RATE.result mean: 0.00 
LARREA_EPOCH_LG_CONSENSUS_RATE.result mean: 0.00 

Observed difference of two means: 0.00 
100000 out of 100000 experiments had a difference of two means greater than or equal to 0.00.
The chance of getting a difference of two means greater than or equal to 0.00 is 1.0.

=============================================================================================================== 
LARREA_VANILLA_LG_CONSENSUS_RATE.result	          <->	          AGUILERA_LG_CONSENSUS_RATE.result
=============================================================================================================== 

LARREA_VANILLA_LG_CONSENSUS_RATE.result mean: 0.00 
AGUILERA_LG_CONSENSUS_RATE.result mean: 0.00 

Observed difference of two means: 0.00 
100000 out of 100000 experiments had a difference of two means greater than or equal to 0.00.
The chance of getting a difference of two means greater than or equal to 0.00 is 1.0.

=============================================================================================================== 
LARREA_VANILLA_LG_CONSENSUS_RATE.result	          <->	          CHEN_LG_CONSENSUS_RATE.result
=============================================================================================================== 

LARREA_VANILLA_LG_CONSENSUS_RATE.result mean: 0.00 
CHEN_LG_CONSENSUS_RATE.result mean: 1.02 

Observed difference of two means: 1.02 
361 out of 100000 experiments had a difference of two means greater than or equal to 1.02.
The chance of getting a difference of two means greater than or equal to 1.02 is 0.00361.

=============================================================================================================== 
LARREA_EPOCH_LG_CONSENSUS_RATE.result	          <->	          AGUILERA_LG_CONSENSUS_RATE.result
=============================================================================================================== 

LARREA_EPOCH_LG_CONSENSUS_RATE.result mean: 0.00 
AGUILERA_LG_CONSENSUS_RATE.result mean: 0.00 

Observed difference of two means: 0.00 
100000 out of 100000 experiments had a difference of two means greater than or equal to 0.00.
The chance of getting a difference of two means greater than or equal to 0.00 is 1.0.

=============================================================================================================== 
LARREA_EPOCH_LG_CONSENSUS_RATE.result	          <->	          CHEN_LG_CONSENSUS_RATE.result
=============================================================================================================== 

LARREA_EPOCH_LG_CONSENSUS_RATE.result mean: 0.00 
CHEN_LG_CONSENSUS_RATE.result mean: 1.02 

Observed difference of two means: 1.02 
397 out of 100000 experiments had a difference of two means greater than or equal to 1.02.
The chance of getting a difference of two means greater than or equal to 1.02 is 0.00397.

=============================================================================================================== 
AGUILERA_LG_CONSENSUS_RATE.result	          <->	          CHEN_LG_CONSENSUS_RATE.result
=============================================================================================================== 

AGUILERA_LG_CONSENSUS_RATE.result mean: 0.00 
CHEN_LG_CONSENSUS_RATE.result mean: 1.02 

Observed difference of two means: 1.02 
382 out of 100000 experiments had a difference of two means greater than or equal to 1.02.
The chance of getting a difference of two means greater than or equal to 1.02 is 0.00382.

=============================================================================================================== 
LARREA_VANILLA_FD_AVG_MISTAKE_RATE.result	          <->	          LARREA_EPOCH_FD_AVG_MISTAKE_RATE.result
=============================================================================================================== 

LARREA_VANILLA_FD_AVG_MISTAKE_RATE.result mean: 38.36 
LARREA_EPOCH_FD_AVG_MISTAKE_RATE.result mean: 36.75 

Observed difference of two means: -1.61 
39213 out of 100000 experiments had a difference of two means less than or equal to -1.61.
The chance of getting a difference of two means less than or equal to -1.61 is 0.39213.

=============================================================================================================== 
LARREA_VANILLA_FD_AVG_MISTAKE_RATE.result	          <->	          AGUILERA_FD_AVG_MISTAKE_RATE.result
=============================================================================================================== 

LARREA_VANILLA_FD_AVG_MISTAKE_RATE.result mean: 38.36 
AGUILERA_FD_AVG_MISTAKE_RATE.result mean: 59.05 

Observed difference of two means: 20.69 
384 out of 100000 experiments had a difference of two means greater than or equal to 20.69.
The chance of getting a difference of two means greater than or equal to 20.69 is 0.00384.

=============================================================================================================== 
LARREA_VANILLA_FD_AVG_MISTAKE_RATE.result	          <->	          CHEN_FD_AVG_MISTAKE_RATE.result
=============================================================================================================== 

LARREA_VANILLA_FD_AVG_MISTAKE_RATE.result mean: 38.36 
CHEN_FD_AVG_MISTAKE_RATE.result mean: 0.00 

Observed difference of two means: -38.36 
377 out of 100000 experiments had a difference of two means less than or equal to -38.36.
The chance of getting a difference of two means less than or equal to -38.36 is 0.00377.

=============================================================================================================== 
LARREA_EPOCH_FD_AVG_MISTAKE_RATE.result	          <->	          AGUILERA_FD_AVG_MISTAKE_RATE.result
=============================================================================================================== 

LARREA_EPOCH_FD_AVG_MISTAKE_RATE.result mean: 36.75 
AGUILERA_FD_AVG_MISTAKE_RATE.result mean: 59.05 

Observed difference of two means: 22.30 
393 out of 100000 experiments had a difference of two means greater than or equal to 22.30.
The chance of getting a difference of two means greater than or equal to 22.30 is 0.00393.

=============================================================================================================== 
LARREA_EPOCH_FD_AVG_MISTAKE_RATE.result	          <->	          CHEN_FD_AVG_MISTAKE_RATE.result
=============================================================================================================== 

LARREA_EPOCH_FD_AVG_MISTAKE_RATE.result mean: 36.75 
CHEN_FD_AVG_MISTAKE_RATE.result mean: 0.00 

Observed difference of two means: -36.75 
397 out of 100000 experiments had a difference of two means less than or equal to -36.75.
The chance of getting a difference of two means less than or equal to -36.75 is 0.00397.

=============================================================================================================== 
AGUILERA_FD_AVG_MISTAKE_RATE.result	          <->	          CHEN_FD_AVG_MISTAKE_RATE.result
=============================================================================================================== 

AGUILERA_FD_AVG_MISTAKE_RATE.result mean: 59.05 
CHEN_FD_AVG_MISTAKE_RATE.result mean: 0.00 

Observed difference of two means: -59.05 
431 out of 100000 experiments had a difference of two means less than or equal to -59.05.
The chance of getting a difference of two means less than or equal to -59.05 is 0.00431.

=============================================================================================================== 
LARREA_VANILLA_FD_TG_SUM.result	          <->	          LARREA_EPOCH_FD_TG_SUM.result
=============================================================================================================== 

LARREA_VANILLA_FD_TG_SUM.result mean: 403808.00 
LARREA_EPOCH_FD_TG_SUM.result mean: 432843.80 

Observed difference of two means: 29035.80 
28511 out of 100000 experiments had a difference of two means greater than or equal to 29035.80.
The chance of getting a difference of two means greater than or equal to 29035.80 is 0.28511.

=============================================================================================================== 
LARREA_VANILLA_FD_TG_SUM.result	          <->	          AGUILERA_FD_TG_SUM.result
=============================================================================================================== 

LARREA_VANILLA_FD_TG_SUM.result mean: 403808.00 
AGUILERA_FD_TG_SUM.result mean: 415037.80 

Observed difference of two means: 11229.80 
40678 out of 100000 experiments had a difference of two means greater than or equal to 11229.80.
The chance of getting a difference of two means greater than or equal to 11229.80 is 0.40678.

=============================================================================================================== 
LARREA_VANILLA_FD_TG_SUM.result	          <->	          CHEN_FD_TG_SUM.result
=============================================================================================================== 

LARREA_VANILLA_FD_TG_SUM.result mean: 403808.00 
CHEN_FD_TG_SUM.result mean: 599925.80 

Observed difference of two means: 196117.80 
363 out of 100000 experiments had a difference of two means greater than or equal to 196117.80.
The chance of getting a difference of two means greater than or equal to 196117.80 is 0.00363.

=============================================================================================================== 
LARREA_EPOCH_FD_TG_SUM.result	          <->	          AGUILERA_FD_TG_SUM.result
=============================================================================================================== 

LARREA_EPOCH_FD_TG_SUM.result mean: 432843.80 
AGUILERA_FD_TG_SUM.result mean: 415037.80 

Observed difference of two means: -17806.00 
39322 out of 100000 experiments had a difference of two means less than or equal to -17806.00.
The chance of getting a difference of two means less than or equal to -17806.00 is 0.39322.

=============================================================================================================== 
LARREA_EPOCH_FD_TG_SUM.result	          <->	          CHEN_FD_TG_SUM.result
=============================================================================================================== 

LARREA_EPOCH_FD_TG_SUM.result mean: 432843.80 
CHEN_FD_TG_SUM.result mean: 599925.80 

Observed difference of two means: 167082.00 
402 out of 100000 experiments had a difference of two means greater than or equal to 167082.00.
The chance of getting a difference of two means greater than or equal to 167082.00 is 0.00402.

=============================================================================================================== 
AGUILERA_FD_TG_SUM.result	          <->	          CHEN_FD_TG_SUM.result
=============================================================================================================== 

AGUILERA_FD_TG_SUM.result mean: 415037.80 
CHEN_FD_TG_SUM.result mean: 599925.80 

Observed difference of two means: 184888.00 
394 out of 100000 experiments had a difference of two means greater than or equal to 184888.00.
The chance of getting a difference of two means greater than or equal to 184888.00 is 0.00394.

