=============================================================================================================== 
LARREA_VANILLA_LG_CONSENSUS_RATE.result	          <->	          LARREA_EPOCH_LG_CONSENSUS_RATE.result
=============================================================================================================== 

LARREA_VANILLA_LG_CONSENSUS_RATE.result mean: 0.00 
LARREA_EPOCH_LG_CONSENSUS_RATE.result mean: 0.00 

Observed difference of two means: 0.00 
100000 out of 100000 experiments had a difference of two means greater than or equal to 0.00.
The chance of getting a difference of two means greater than or equal to 0.00 is 1.0.

=============================================================================================================== 
LARREA_VANILLA_LG_CONSENSUS_RATE.result	          <->	          AGUILERA_LG_CONSENSUS_RATE.result
=============================================================================================================== 

LARREA_VANILLA_LG_CONSENSUS_RATE.result mean: 0.00 
AGUILERA_LG_CONSENSUS_RATE.result mean: 0.00 

Observed difference of two means: 0.00 
100000 out of 100000 experiments had a difference of two means greater than or equal to 0.00.
The chance of getting a difference of two means greater than or equal to 0.00 is 1.0.

=============================================================================================================== 
LARREA_VANILLA_LG_CONSENSUS_RATE.result	          <->	          CHEN_LG_CONSENSUS_RATE.result
=============================================================================================================== 

LARREA_VANILLA_LG_CONSENSUS_RATE.result mean: 0.00 
CHEN_LG_CONSENSUS_RATE.result mean: 0.00 

Observed difference of two means: 0.00 
100000 out of 100000 experiments had a difference of two means greater than or equal to 0.00.
The chance of getting a difference of two means greater than or equal to 0.00 is 1.0.

=============================================================================================================== 
LARREA_EPOCH_LG_CONSENSUS_RATE.result	          <->	          AGUILERA_LG_CONSENSUS_RATE.result
=============================================================================================================== 

LARREA_EPOCH_LG_CONSENSUS_RATE.result mean: 0.00 
AGUILERA_LG_CONSENSUS_RATE.result mean: 0.00 

Observed difference of two means: 0.00 
100000 out of 100000 experiments had a difference of two means greater than or equal to 0.00.
The chance of getting a difference of two means greater than or equal to 0.00 is 1.0.

=============================================================================================================== 
LARREA_EPOCH_LG_CONSENSUS_RATE.result	          <->	          CHEN_LG_CONSENSUS_RATE.result
=============================================================================================================== 

LARREA_EPOCH_LG_CONSENSUS_RATE.result mean: 0.00 
CHEN_LG_CONSENSUS_RATE.result mean: 0.00 

Observed difference of two means: 0.00 
100000 out of 100000 experiments had a difference of two means greater than or equal to 0.00.
The chance of getting a difference of two means greater than or equal to 0.00 is 1.0.

=============================================================================================================== 
AGUILERA_LG_CONSENSUS_RATE.result	          <->	          CHEN_LG_CONSENSUS_RATE.result
=============================================================================================================== 

AGUILERA_LG_CONSENSUS_RATE.result mean: 0.00 
CHEN_LG_CONSENSUS_RATE.result mean: 0.00 

Observed difference of two means: 0.00 
100000 out of 100000 experiments had a difference of two means greater than or equal to 0.00.
The chance of getting a difference of two means greater than or equal to 0.00 is 1.0.

=============================================================================================================== 
LARREA_VANILLA_FD_AVG_MISTAKE_RATE.result	          <->	          LARREA_EPOCH_FD_AVG_MISTAKE_RATE.result
=============================================================================================================== 

LARREA_VANILLA_FD_AVG_MISTAKE_RATE.result mean: 8.53 
LARREA_EPOCH_FD_AVG_MISTAKE_RATE.result mean: 8.11 

Observed difference of two means: -0.42 
18059 out of 100000 experiments had a difference of two means less than or equal to -0.42.
The chance of getting a difference of two means less than or equal to -0.42 is 0.18059.

=============================================================================================================== 
LARREA_VANILLA_FD_AVG_MISTAKE_RATE.result	          <->	          AGUILERA_FD_AVG_MISTAKE_RATE.result
=============================================================================================================== 

LARREA_VANILLA_FD_AVG_MISTAKE_RATE.result mean: 8.53 
AGUILERA_FD_AVG_MISTAKE_RATE.result mean: 12.97 

Observed difference of two means: 4.44 
336 out of 100000 experiments had a difference of two means greater than or equal to 4.44.
The chance of getting a difference of two means greater than or equal to 4.44 is 0.00336.

=============================================================================================================== 
LARREA_VANILLA_FD_AVG_MISTAKE_RATE.result	          <->	          CHEN_FD_AVG_MISTAKE_RATE.result
=============================================================================================================== 

LARREA_VANILLA_FD_AVG_MISTAKE_RATE.result mean: 8.53 
CHEN_FD_AVG_MISTAKE_RATE.result mean: 3.33 

Observed difference of two means: -5.20 
155 out of 100000 experiments had a difference of two means less than or equal to -5.20.
The chance of getting a difference of two means less than or equal to -5.20 is 0.00155.

=============================================================================================================== 
LARREA_EPOCH_FD_AVG_MISTAKE_RATE.result	          <->	          AGUILERA_FD_AVG_MISTAKE_RATE.result
=============================================================================================================== 

LARREA_EPOCH_FD_AVG_MISTAKE_RATE.result mean: 8.11 
AGUILERA_FD_AVG_MISTAKE_RATE.result mean: 12.97 

Observed difference of two means: 4.86 
320 out of 100000 experiments had a difference of two means greater than or equal to 4.86.
The chance of getting a difference of two means greater than or equal to 4.86 is 0.0032.

=============================================================================================================== 
LARREA_EPOCH_FD_AVG_MISTAKE_RATE.result	          <->	          CHEN_FD_AVG_MISTAKE_RATE.result
=============================================================================================================== 

LARREA_EPOCH_FD_AVG_MISTAKE_RATE.result mean: 8.11 
CHEN_FD_AVG_MISTAKE_RATE.result mean: 3.33 

Observed difference of two means: -4.78 
278 out of 100000 experiments had a difference of two means less than or equal to -4.78.
The chance of getting a difference of two means less than or equal to -4.78 is 0.00278.

=============================================================================================================== 
AGUILERA_FD_AVG_MISTAKE_RATE.result	          <->	          CHEN_FD_AVG_MISTAKE_RATE.result
=============================================================================================================== 

AGUILERA_FD_AVG_MISTAKE_RATE.result mean: 12.97 
CHEN_FD_AVG_MISTAKE_RATE.result mean: 3.33 

Observed difference of two means: -9.63 
214 out of 100000 experiments had a difference of two means less than or equal to -9.63.
The chance of getting a difference of two means less than or equal to -9.63 is 0.00214.

=============================================================================================================== 
LARREA_VANILLA_FD_TG_SUM.result	          <->	          LARREA_EPOCH_FD_TG_SUM.result
=============================================================================================================== 

LARREA_VANILLA_FD_TG_SUM.result mean: 140530.20 
LARREA_EPOCH_FD_TG_SUM.result mean: 122394.20 

Observed difference of two means: -18136.00 
12911 out of 100000 experiments had a difference of two means less than or equal to -18136.00.
The chance of getting a difference of two means less than or equal to -18136.00 is 0.12911.

=============================================================================================================== 
LARREA_VANILLA_FD_TG_SUM.result	          <->	          AGUILERA_FD_TG_SUM.result
=============================================================================================================== 

LARREA_VANILLA_FD_TG_SUM.result mean: 140530.20 
AGUILERA_FD_TG_SUM.result mean: 133451.80 

Observed difference of two means: -7078.40 
31281 out of 100000 experiments had a difference of two means less than or equal to -7078.40.
The chance of getting a difference of two means less than or equal to -7078.40 is 0.31281.

=============================================================================================================== 
LARREA_VANILLA_FD_TG_SUM.result	          <->	          CHEN_FD_TG_SUM.result
=============================================================================================================== 

LARREA_VANILLA_FD_TG_SUM.result mean: 140530.20 
CHEN_FD_TG_SUM.result mean: 522361.20 

Observed difference of two means: 381831.00 
399 out of 100000 experiments had a difference of two means greater than or equal to 381831.00.
The chance of getting a difference of two means greater than or equal to 381831.00 is 0.00399.

=============================================================================================================== 
LARREA_EPOCH_FD_TG_SUM.result	          <->	          AGUILERA_FD_TG_SUM.result
=============================================================================================================== 

LARREA_EPOCH_FD_TG_SUM.result mean: 122394.20 
AGUILERA_FD_TG_SUM.result mean: 133451.80 

Observed difference of two means: 11057.60 
15347 out of 100000 experiments had a difference of two means greater than or equal to 11057.60.
The chance of getting a difference of two means greater than or equal to 11057.60 is 0.15347.

=============================================================================================================== 
LARREA_EPOCH_FD_TG_SUM.result	          <->	          CHEN_FD_TG_SUM.result
=============================================================================================================== 

LARREA_EPOCH_FD_TG_SUM.result mean: 122394.20 
CHEN_FD_TG_SUM.result mean: 522361.20 

Observed difference of two means: 399967.00 
400 out of 100000 experiments had a difference of two means greater than or equal to 399967.00.
The chance of getting a difference of two means greater than or equal to 399967.00 is 0.004.

=============================================================================================================== 
AGUILERA_FD_TG_SUM.result	          <->	          CHEN_FD_TG_SUM.result
=============================================================================================================== 

AGUILERA_FD_TG_SUM.result mean: 133451.80 
CHEN_FD_TG_SUM.result mean: 522361.20 

Observed difference of two means: 388909.40 
403 out of 100000 experiments had a difference of two means greater than or equal to 388909.40.
The chance of getting a difference of two means greater than or equal to 388909.40 is 0.00403.

