=============================================================================================================== 
LARREA_VANILLA_LG_CONSENSUS_RATE.result	          <->	          LARREA_EPOCH_LG_CONSENSUS_RATE.result
=============================================================================================================== 

LARREA_VANILLA_LG_CONSENSUS_RATE.result mean: 0.89 
LARREA_EPOCH_LG_CONSENSUS_RATE.result mean: 0.69 

Observed difference of two means: -0.20 
21758 out of 100000 experiments had a difference of two means less than or equal to -0.20.
The chance of getting a difference of two means less than or equal to -0.20 is 0.21758.

=============================================================================================================== 
LARREA_VANILLA_LG_CONSENSUS_RATE.result	          <->	          AGUILERA_LG_CONSENSUS_RATE.result
=============================================================================================================== 

LARREA_VANILLA_LG_CONSENSUS_RATE.result mean: 0.89 
AGUILERA_LG_CONSENSUS_RATE.result mean: 1.68 

Observed difference of two means: 0.80 
1885 out of 100000 experiments had a difference of two means greater than or equal to 0.80.
The chance of getting a difference of two means greater than or equal to 0.80 is 0.01885.

=============================================================================================================== 
LARREA_VANILLA_LG_CONSENSUS_RATE.result	          <->	          CHEN_LG_CONSENSUS_RATE.result
=============================================================================================================== 

LARREA_VANILLA_LG_CONSENSUS_RATE.result mean: 0.89 
CHEN_LG_CONSENSUS_RATE.result mean: 9.65 

Observed difference of two means: 8.77 
365 out of 100000 experiments had a difference of two means greater than or equal to 8.77.
The chance of getting a difference of two means greater than or equal to 8.77 is 0.00365.

=============================================================================================================== 
LARREA_EPOCH_LG_CONSENSUS_RATE.result	          <->	          AGUILERA_LG_CONSENSUS_RATE.result
=============================================================================================================== 

LARREA_EPOCH_LG_CONSENSUS_RATE.result mean: 0.69 
AGUILERA_LG_CONSENSUS_RATE.result mean: 1.68 

Observed difference of two means: 0.99 
553 out of 100000 experiments had a difference of two means greater than or equal to 0.99.
The chance of getting a difference of two means greater than or equal to 0.99 is 0.00553.

=============================================================================================================== 
LARREA_EPOCH_LG_CONSENSUS_RATE.result	          <->	          CHEN_LG_CONSENSUS_RATE.result
=============================================================================================================== 

LARREA_EPOCH_LG_CONSENSUS_RATE.result mean: 0.69 
CHEN_LG_CONSENSUS_RATE.result mean: 9.65 

Observed difference of two means: 8.96 
379 out of 100000 experiments had a difference of two means greater than or equal to 8.96.
The chance of getting a difference of two means greater than or equal to 8.96 is 0.00379.

=============================================================================================================== 
AGUILERA_LG_CONSENSUS_RATE.result	          <->	          CHEN_LG_CONSENSUS_RATE.result
=============================================================================================================== 

AGUILERA_LG_CONSENSUS_RATE.result mean: 1.68 
CHEN_LG_CONSENSUS_RATE.result mean: 9.65 

Observed difference of two means: 7.97 
394 out of 100000 experiments had a difference of two means greater than or equal to 7.97.
The chance of getting a difference of two means greater than or equal to 7.97 is 0.00394.

=============================================================================================================== 
LARREA_VANILLA_FD_AVG_MISTAKE_RATE.result	          <->	          LARREA_EPOCH_FD_AVG_MISTAKE_RATE.result
=============================================================================================================== 

LARREA_VANILLA_FD_AVG_MISTAKE_RATE.result mean: 3.35 
LARREA_EPOCH_FD_AVG_MISTAKE_RATE.result mean: 3.44 

Observed difference of two means: 0.09 
39642 out of 100000 experiments had a difference of two means greater than or equal to 0.09.
The chance of getting a difference of two means greater than or equal to 0.09 is 0.39642.

=============================================================================================================== 
LARREA_VANILLA_FD_AVG_MISTAKE_RATE.result	          <->	          AGUILERA_FD_AVG_MISTAKE_RATE.result
=============================================================================================================== 

LARREA_VANILLA_FD_AVG_MISTAKE_RATE.result mean: 3.35 
AGUILERA_FD_AVG_MISTAKE_RATE.result mean: 3.08 

Observed difference of two means: -0.27 
33173 out of 100000 experiments had a difference of two means less than or equal to -0.27.
The chance of getting a difference of two means less than or equal to -0.27 is 0.33173.

=============================================================================================================== 
LARREA_VANILLA_FD_AVG_MISTAKE_RATE.result	          <->	          CHEN_FD_AVG_MISTAKE_RATE.result
=============================================================================================================== 

LARREA_VANILLA_FD_AVG_MISTAKE_RATE.result mean: 3.35 
CHEN_FD_AVG_MISTAKE_RATE.result mean: 0.00 

Observed difference of two means: -3.35 
362 out of 100000 experiments had a difference of two means less than or equal to -3.35.
The chance of getting a difference of two means less than or equal to -3.35 is 0.00362.

=============================================================================================================== 
LARREA_EPOCH_FD_AVG_MISTAKE_RATE.result	          <->	          AGUILERA_FD_AVG_MISTAKE_RATE.result
=============================================================================================================== 

LARREA_EPOCH_FD_AVG_MISTAKE_RATE.result mean: 3.44 
AGUILERA_FD_AVG_MISTAKE_RATE.result mean: 3.08 

Observed difference of two means: -0.36 
23317 out of 100000 experiments had a difference of two means less than or equal to -0.36.
The chance of getting a difference of two means less than or equal to -0.36 is 0.23317.

=============================================================================================================== 
LARREA_EPOCH_FD_AVG_MISTAKE_RATE.result	          <->	          CHEN_FD_AVG_MISTAKE_RATE.result
=============================================================================================================== 

LARREA_EPOCH_FD_AVG_MISTAKE_RATE.result mean: 3.44 
CHEN_FD_AVG_MISTAKE_RATE.result mean: 0.00 

Observed difference of two means: -3.44 
286 out of 100000 experiments had a difference of two means less than or equal to -3.44.
The chance of getting a difference of two means less than or equal to -3.44 is 0.00286.

=============================================================================================================== 
AGUILERA_FD_AVG_MISTAKE_RATE.result	          <->	          CHEN_FD_AVG_MISTAKE_RATE.result
=============================================================================================================== 

AGUILERA_FD_AVG_MISTAKE_RATE.result mean: 3.08 
CHEN_FD_AVG_MISTAKE_RATE.result mean: 0.00 

Observed difference of two means: -3.08 
378 out of 100000 experiments had a difference of two means less than or equal to -3.08.
The chance of getting a difference of two means less than or equal to -3.08 is 0.00378.

=============================================================================================================== 
LARREA_VANILLA_FD_TG_SUM.result	          <->	          LARREA_EPOCH_FD_TG_SUM.result
=============================================================================================================== 

LARREA_VANILLA_FD_TG_SUM.result mean: 531117.40 
LARREA_EPOCH_FD_TG_SUM.result mean: 545403.00 

Observed difference of two means: 14285.60 
33403 out of 100000 experiments had a difference of two means greater than or equal to 14285.60.
The chance of getting a difference of two means greater than or equal to 14285.60 is 0.33403.

=============================================================================================================== 
LARREA_VANILLA_FD_TG_SUM.result	          <->	          AGUILERA_FD_TG_SUM.result
=============================================================================================================== 

LARREA_VANILLA_FD_TG_SUM.result mean: 531117.40 
AGUILERA_FD_TG_SUM.result mean: 570600.20 

Observed difference of two means: 39482.80 
5971 out of 100000 experiments had a difference of two means greater than or equal to 39482.80.
The chance of getting a difference of two means greater than or equal to 39482.80 is 0.05971.

=============================================================================================================== 
LARREA_VANILLA_FD_TG_SUM.result	          <->	          CHEN_FD_TG_SUM.result
=============================================================================================================== 

LARREA_VANILLA_FD_TG_SUM.result mean: 531117.40 
CHEN_FD_TG_SUM.result mean: 599924.80 

Observed difference of two means: 68807.40 
417 out of 100000 experiments had a difference of two means greater than or equal to 68807.40.
The chance of getting a difference of two means greater than or equal to 68807.40 is 0.00417.

=============================================================================================================== 
LARREA_EPOCH_FD_TG_SUM.result	          <->	          AGUILERA_FD_TG_SUM.result
=============================================================================================================== 

LARREA_EPOCH_FD_TG_SUM.result mean: 545403.00 
AGUILERA_FD_TG_SUM.result mean: 570600.20 

Observed difference of two means: 25197.20 
7870 out of 100000 experiments had a difference of two means greater than or equal to 25197.20.
The chance of getting a difference of two means greater than or equal to 25197.20 is 0.0787.

=============================================================================================================== 
LARREA_EPOCH_FD_TG_SUM.result	          <->	          CHEN_FD_TG_SUM.result
=============================================================================================================== 

LARREA_EPOCH_FD_TG_SUM.result mean: 545403.00 
CHEN_FD_TG_SUM.result mean: 599924.80 

Observed difference of two means: 54521.80 
366 out of 100000 experiments had a difference of two means greater than or equal to 54521.80.
The chance of getting a difference of two means greater than or equal to 54521.80 is 0.00366.

=============================================================================================================== 
AGUILERA_FD_TG_SUM.result	          <->	          CHEN_FD_TG_SUM.result
=============================================================================================================== 

AGUILERA_FD_TG_SUM.result mean: 570600.20 
CHEN_FD_TG_SUM.result mean: 599924.80 

Observed difference of two means: 29324.60 
353 out of 100000 experiments had a difference of two means greater than or equal to 29324.60.
The chance of getting a difference of two means greater than or equal to 29324.60 is 0.00353.

