=============================================================================================================== 
LARREA_VANILLA_LG_CONSENSUS_RATE.result	          <->	          LARREA_EPOCH_LG_CONSENSUS_RATE.result
=============================================================================================================== 

LARREA_VANILLA_LG_CONSENSUS_RATE.result mean: 0.00 
LARREA_EPOCH_LG_CONSENSUS_RATE.result mean: 0.00 

Observed difference of two means: 0.00 
100000 out of 100000 experiments had a difference of two means greater than or equal to 0.00.
The chance of getting a difference of two means greater than or equal to 0.00 is 1.0.

=============================================================================================================== 
LARREA_VANILLA_LG_CONSENSUS_RATE.result	          <->	          AGUILERA_LG_CONSENSUS_RATE.result
=============================================================================================================== 

LARREA_VANILLA_LG_CONSENSUS_RATE.result mean: 0.00 
AGUILERA_LG_CONSENSUS_RATE.result mean: 0.00 

Observed difference of two means: 0.00 
100000 out of 100000 experiments had a difference of two means greater than or equal to 0.00.
The chance of getting a difference of two means greater than or equal to 0.00 is 1.0.

=============================================================================================================== 
LARREA_VANILLA_LG_CONSENSUS_RATE.result	          <->	          CHEN_LG_CONSENSUS_RATE.result
=============================================================================================================== 

LARREA_VANILLA_LG_CONSENSUS_RATE.result mean: 0.00 
CHEN_LG_CONSENSUS_RATE.result mean: 6.87 

Observed difference of two means: 6.87 
354 out of 100000 experiments had a difference of two means greater than or equal to 6.87.
The chance of getting a difference of two means greater than or equal to 6.87 is 0.00354.

=============================================================================================================== 
LARREA_EPOCH_LG_CONSENSUS_RATE.result	          <->	          AGUILERA_LG_CONSENSUS_RATE.result
=============================================================================================================== 

LARREA_EPOCH_LG_CONSENSUS_RATE.result mean: 0.00 
AGUILERA_LG_CONSENSUS_RATE.result mean: 0.00 

Observed difference of two means: 0.00 
100000 out of 100000 experiments had a difference of two means greater than or equal to 0.00.
The chance of getting a difference of two means greater than or equal to 0.00 is 1.0.

=============================================================================================================== 
LARREA_EPOCH_LG_CONSENSUS_RATE.result	          <->	          CHEN_LG_CONSENSUS_RATE.result
=============================================================================================================== 

LARREA_EPOCH_LG_CONSENSUS_RATE.result mean: 0.00 
CHEN_LG_CONSENSUS_RATE.result mean: 6.87 

Observed difference of two means: 6.87 
376 out of 100000 experiments had a difference of two means greater than or equal to 6.87.
The chance of getting a difference of two means greater than or equal to 6.87 is 0.00376.

=============================================================================================================== 
AGUILERA_LG_CONSENSUS_RATE.result	          <->	          CHEN_LG_CONSENSUS_RATE.result
=============================================================================================================== 

AGUILERA_LG_CONSENSUS_RATE.result mean: 0.00 
CHEN_LG_CONSENSUS_RATE.result mean: 6.87 

Observed difference of two means: 6.87 
400 out of 100000 experiments had a difference of two means greater than or equal to 6.87.
The chance of getting a difference of two means greater than or equal to 6.87 is 0.004.

=============================================================================================================== 
LARREA_VANILLA_FD_AVG_MISTAKE_RATE.result	          <->	          LARREA_EPOCH_FD_AVG_MISTAKE_RATE.result
=============================================================================================================== 

LARREA_VANILLA_FD_AVG_MISTAKE_RATE.result mean: 35.60 
LARREA_EPOCH_FD_AVG_MISTAKE_RATE.result mean: 45.14 

Observed difference of two means: 9.55 
13377 out of 100000 experiments had a difference of two means greater than or equal to 9.55.
The chance of getting a difference of two means greater than or equal to 9.55 is 0.13377.

=============================================================================================================== 
LARREA_VANILLA_FD_AVG_MISTAKE_RATE.result	          <->	          AGUILERA_FD_AVG_MISTAKE_RATE.result
=============================================================================================================== 

LARREA_VANILLA_FD_AVG_MISTAKE_RATE.result mean: 35.60 
AGUILERA_FD_AVG_MISTAKE_RATE.result mean: 79.28 

Observed difference of two means: 43.68 
130 out of 100000 experiments had a difference of two means greater than or equal to 43.68.
The chance of getting a difference of two means greater than or equal to 43.68 is 0.0013.

=============================================================================================================== 
LARREA_VANILLA_FD_AVG_MISTAKE_RATE.result	          <->	          CHEN_FD_AVG_MISTAKE_RATE.result
=============================================================================================================== 

LARREA_VANILLA_FD_AVG_MISTAKE_RATE.result mean: 35.60 
CHEN_FD_AVG_MISTAKE_RATE.result mean: 0.00 

Observed difference of two means: -35.60 
381 out of 100000 experiments had a difference of two means less than or equal to -35.60.
The chance of getting a difference of two means less than or equal to -35.60 is 0.00381.

=============================================================================================================== 
LARREA_EPOCH_FD_AVG_MISTAKE_RATE.result	          <->	          AGUILERA_FD_AVG_MISTAKE_RATE.result
=============================================================================================================== 

LARREA_EPOCH_FD_AVG_MISTAKE_RATE.result mean: 45.14 
AGUILERA_FD_AVG_MISTAKE_RATE.result mean: 79.28 

Observed difference of two means: 34.14 
395 out of 100000 experiments had a difference of two means greater than or equal to 34.14.
The chance of getting a difference of two means greater than or equal to 34.14 is 0.00395.

=============================================================================================================== 
LARREA_EPOCH_FD_AVG_MISTAKE_RATE.result	          <->	          CHEN_FD_AVG_MISTAKE_RATE.result
=============================================================================================================== 

LARREA_EPOCH_FD_AVG_MISTAKE_RATE.result mean: 45.14 
CHEN_FD_AVG_MISTAKE_RATE.result mean: 0.00 

Observed difference of two means: -45.14 
242 out of 100000 experiments had a difference of two means less than or equal to -45.14.
The chance of getting a difference of two means less than or equal to -45.14 is 0.00242.

=============================================================================================================== 
AGUILERA_FD_AVG_MISTAKE_RATE.result	          <->	          CHEN_FD_AVG_MISTAKE_RATE.result
=============================================================================================================== 

AGUILERA_FD_AVG_MISTAKE_RATE.result mean: 79.28 
CHEN_FD_AVG_MISTAKE_RATE.result mean: 0.00 

Observed difference of two means: -79.28 
420 out of 100000 experiments had a difference of two means less than or equal to -79.28.
The chance of getting a difference of two means less than or equal to -79.28 is 0.0042.

=============================================================================================================== 
LARREA_VANILLA_FD_TG_SUM.result	          <->	          LARREA_EPOCH_FD_TG_SUM.result
=============================================================================================================== 

LARREA_VANILLA_FD_TG_SUM.result mean: 542771.00 
LARREA_EPOCH_FD_TG_SUM.result mean: 514204.00 

Observed difference of two means: -28567.00 
8776 out of 100000 experiments had a difference of two means less than or equal to -28567.00.
The chance of getting a difference of two means less than or equal to -28567.00 is 0.08776.

=============================================================================================================== 
LARREA_VANILLA_FD_TG_SUM.result	          <->	          AGUILERA_FD_TG_SUM.result
=============================================================================================================== 

LARREA_VANILLA_FD_TG_SUM.result mean: 542771.00 
AGUILERA_FD_TG_SUM.result mean: 471756.20 

Observed difference of two means: -71014.80 
380 out of 100000 experiments had a difference of two means less than or equal to -71014.80.
The chance of getting a difference of two means less than or equal to -71014.80 is 0.0038.

=============================================================================================================== 
LARREA_VANILLA_FD_TG_SUM.result	          <->	          CHEN_FD_TG_SUM.result
=============================================================================================================== 

LARREA_VANILLA_FD_TG_SUM.result mean: 542771.00 
CHEN_FD_TG_SUM.result mean: 599940.00 

Observed difference of two means: 57169.00 
383 out of 100000 experiments had a difference of two means greater than or equal to 57169.00.
The chance of getting a difference of two means greater than or equal to 57169.00 is 0.00383.

=============================================================================================================== 
LARREA_EPOCH_FD_TG_SUM.result	          <->	          AGUILERA_FD_TG_SUM.result
=============================================================================================================== 

LARREA_EPOCH_FD_TG_SUM.result mean: 514204.00 
AGUILERA_FD_TG_SUM.result mean: 471756.20 

Observed difference of two means: -42447.80 
1168 out of 100000 experiments had a difference of two means less than or equal to -42447.80.
The chance of getting a difference of two means less than or equal to -42447.80 is 0.01168.

=============================================================================================================== 
LARREA_EPOCH_FD_TG_SUM.result	          <->	          CHEN_FD_TG_SUM.result
=============================================================================================================== 

LARREA_EPOCH_FD_TG_SUM.result mean: 514204.00 
CHEN_FD_TG_SUM.result mean: 599940.00 

Observed difference of two means: 85736.00 
394 out of 100000 experiments had a difference of two means greater than or equal to 85736.00.
The chance of getting a difference of two means greater than or equal to 85736.00 is 0.00394.

=============================================================================================================== 
AGUILERA_FD_TG_SUM.result	          <->	          CHEN_FD_TG_SUM.result
=============================================================================================================== 

AGUILERA_FD_TG_SUM.result mean: 471756.20 
CHEN_FD_TG_SUM.result mean: 599940.00 

Observed difference of two means: 128183.80 
390 out of 100000 experiments had a difference of two means greater than or equal to 128183.80.
The chance of getting a difference of two means greater than or equal to 128183.80 is 0.0039.

