=============================================================================================================== 
LARREA_VANILLA_LG_CONSENSUS_RATE.result	          <->	          LARREA_EPOCH_LG_CONSENSUS_RATE.result
=============================================================================================================== 

LARREA_VANILLA_LG_CONSENSUS_RATE.result mean: 0.00 
LARREA_EPOCH_LG_CONSENSUS_RATE.result mean: 0.00 

Observed difference of two means: 0.00 
100000 out of 100000 experiments had a difference of two means greater than or equal to 0.00.
The chance of getting a difference of two means greater than or equal to 0.00 is 1.0.

=============================================================================================================== 
LARREA_VANILLA_LG_CONSENSUS_RATE.result	          <->	          AGUILERA_LG_CONSENSUS_RATE.result
=============================================================================================================== 

LARREA_VANILLA_LG_CONSENSUS_RATE.result mean: 0.00 
AGUILERA_LG_CONSENSUS_RATE.result mean: 0.00 

Observed difference of two means: 0.00 
100000 out of 100000 experiments had a difference of two means greater than or equal to 0.00.
The chance of getting a difference of two means greater than or equal to 0.00 is 1.0.

=============================================================================================================== 
LARREA_VANILLA_LG_CONSENSUS_RATE.result	          <->	          CHEN_LG_CONSENSUS_RATE.result
=============================================================================================================== 

LARREA_VANILLA_LG_CONSENSUS_RATE.result mean: 0.00 
CHEN_LG_CONSENSUS_RATE.result mean: 5.74 

Observed difference of two means: 5.74 
401 out of 100000 experiments had a difference of two means greater than or equal to 5.74.
The chance of getting a difference of two means greater than or equal to 5.74 is 0.00401.

=============================================================================================================== 
LARREA_EPOCH_LG_CONSENSUS_RATE.result	          <->	          AGUILERA_LG_CONSENSUS_RATE.result
=============================================================================================================== 

LARREA_EPOCH_LG_CONSENSUS_RATE.result mean: 0.00 
AGUILERA_LG_CONSENSUS_RATE.result mean: 0.00 

Observed difference of two means: 0.00 
100000 out of 100000 experiments had a difference of two means greater than or equal to 0.00.
The chance of getting a difference of two means greater than or equal to 0.00 is 1.0.

=============================================================================================================== 
LARREA_EPOCH_LG_CONSENSUS_RATE.result	          <->	          CHEN_LG_CONSENSUS_RATE.result
=============================================================================================================== 

LARREA_EPOCH_LG_CONSENSUS_RATE.result mean: 0.00 
CHEN_LG_CONSENSUS_RATE.result mean: 5.74 

Observed difference of two means: 5.74 
414 out of 100000 experiments had a difference of two means greater than or equal to 5.74.
The chance of getting a difference of two means greater than or equal to 5.74 is 0.00414.

=============================================================================================================== 
AGUILERA_LG_CONSENSUS_RATE.result	          <->	          CHEN_LG_CONSENSUS_RATE.result
=============================================================================================================== 

AGUILERA_LG_CONSENSUS_RATE.result mean: 0.00 
CHEN_LG_CONSENSUS_RATE.result mean: 5.74 

Observed difference of two means: 5.74 
378 out of 100000 experiments had a difference of two means greater than or equal to 5.74.
The chance of getting a difference of two means greater than or equal to 5.74 is 0.00378.

=============================================================================================================== 
LARREA_VANILLA_FD_AVG_MISTAKE_RATE.result	          <->	          LARREA_EPOCH_FD_AVG_MISTAKE_RATE.result
=============================================================================================================== 

LARREA_VANILLA_FD_AVG_MISTAKE_RATE.result mean: 31.45 
LARREA_EPOCH_FD_AVG_MISTAKE_RATE.result mean: 32.40 

Observed difference of two means: 0.95 
48295 out of 100000 experiments had a difference of two means greater than or equal to 0.95.
The chance of getting a difference of two means greater than or equal to 0.95 is 0.48295.

=============================================================================================================== 
LARREA_VANILLA_FD_AVG_MISTAKE_RATE.result	          <->	          AGUILERA_FD_AVG_MISTAKE_RATE.result
=============================================================================================================== 

LARREA_VANILLA_FD_AVG_MISTAKE_RATE.result mean: 31.45 
AGUILERA_FD_AVG_MISTAKE_RATE.result mean: 125.37 

Observed difference of two means: 93.93 
112 out of 100000 experiments had a difference of two means greater than or equal to 93.93.
The chance of getting a difference of two means greater than or equal to 93.93 is 0.00112.

=============================================================================================================== 
LARREA_VANILLA_FD_AVG_MISTAKE_RATE.result	          <->	          CHEN_FD_AVG_MISTAKE_RATE.result
=============================================================================================================== 

LARREA_VANILLA_FD_AVG_MISTAKE_RATE.result mean: 31.45 
CHEN_FD_AVG_MISTAKE_RATE.result mean: 0.00 

Observed difference of two means: -31.45 
370 out of 100000 experiments had a difference of two means less than or equal to -31.45.
The chance of getting a difference of two means less than or equal to -31.45 is 0.0037.

=============================================================================================================== 
LARREA_EPOCH_FD_AVG_MISTAKE_RATE.result	          <->	          AGUILERA_FD_AVG_MISTAKE_RATE.result
=============================================================================================================== 

LARREA_EPOCH_FD_AVG_MISTAKE_RATE.result mean: 32.40 
AGUILERA_FD_AVG_MISTAKE_RATE.result mean: 125.37 

Observed difference of two means: 92.97 
131 out of 100000 experiments had a difference of two means greater than or equal to 92.97.
The chance of getting a difference of two means greater than or equal to 92.97 is 0.00131.

=============================================================================================================== 
LARREA_EPOCH_FD_AVG_MISTAKE_RATE.result	          <->	          CHEN_FD_AVG_MISTAKE_RATE.result
=============================================================================================================== 

LARREA_EPOCH_FD_AVG_MISTAKE_RATE.result mean: 32.40 
CHEN_FD_AVG_MISTAKE_RATE.result mean: 0.00 

Observed difference of two means: -32.40 
374 out of 100000 experiments had a difference of two means less than or equal to -32.40.
The chance of getting a difference of two means less than or equal to -32.40 is 0.00374.

=============================================================================================================== 
AGUILERA_FD_AVG_MISTAKE_RATE.result	          <->	          CHEN_FD_AVG_MISTAKE_RATE.result
=============================================================================================================== 

AGUILERA_FD_AVG_MISTAKE_RATE.result mean: 125.37 
CHEN_FD_AVG_MISTAKE_RATE.result mean: 0.00 

Observed difference of two means: -125.37 
128 out of 100000 experiments had a difference of two means less than or equal to -125.37.
The chance of getting a difference of two means less than or equal to -125.37 is 0.00128.

=============================================================================================================== 
LARREA_VANILLA_FD_TG_SUM.result	          <->	          LARREA_EPOCH_FD_TG_SUM.result
=============================================================================================================== 

LARREA_VANILLA_FD_TG_SUM.result mean: 565691.60 
LARREA_EPOCH_FD_TG_SUM.result mean: 565599.80 

Observed difference of two means: -91.80 
50288 out of 100000 experiments had a difference of two means less than or equal to -91.80.
The chance of getting a difference of two means less than or equal to -91.80 is 0.50288.

=============================================================================================================== 
LARREA_VANILLA_FD_TG_SUM.result	          <->	          AGUILERA_FD_TG_SUM.result
=============================================================================================================== 

LARREA_VANILLA_FD_TG_SUM.result mean: 565691.60 
AGUILERA_FD_TG_SUM.result mean: 390771.60 

Observed difference of two means: -174920.00 
397 out of 100000 experiments had a difference of two means less than or equal to -174920.00.
The chance of getting a difference of two means less than or equal to -174920.00 is 0.00397.

=============================================================================================================== 
LARREA_VANILLA_FD_TG_SUM.result	          <->	          CHEN_FD_TG_SUM.result
=============================================================================================================== 

LARREA_VANILLA_FD_TG_SUM.result mean: 565691.60 
CHEN_FD_TG_SUM.result mean: 599931.40 

Observed difference of two means: 34239.80 
367 out of 100000 experiments had a difference of two means greater than or equal to 34239.80.
The chance of getting a difference of two means greater than or equal to 34239.80 is 0.00367.

=============================================================================================================== 
LARREA_EPOCH_FD_TG_SUM.result	          <->	          AGUILERA_FD_TG_SUM.result
=============================================================================================================== 

LARREA_EPOCH_FD_TG_SUM.result mean: 565599.80 
AGUILERA_FD_TG_SUM.result mean: 390771.60 

Observed difference of two means: -174828.20 
316 out of 100000 experiments had a difference of two means less than or equal to -174828.20.
The chance of getting a difference of two means less than or equal to -174828.20 is 0.00316.

=============================================================================================================== 
LARREA_EPOCH_FD_TG_SUM.result	          <->	          CHEN_FD_TG_SUM.result
=============================================================================================================== 

LARREA_EPOCH_FD_TG_SUM.result mean: 565599.80 
CHEN_FD_TG_SUM.result mean: 599931.40 

Observed difference of two means: 34331.60 
387 out of 100000 experiments had a difference of two means greater than or equal to 34331.60.
The chance of getting a difference of two means greater than or equal to 34331.60 is 0.00387.

=============================================================================================================== 
AGUILERA_FD_TG_SUM.result	          <->	          CHEN_FD_TG_SUM.result
=============================================================================================================== 

AGUILERA_FD_TG_SUM.result mean: 390771.60 
CHEN_FD_TG_SUM.result mean: 599931.40 

Observed difference of two means: 209159.80 
418 out of 100000 experiments had a difference of two means greater than or equal to 209159.80.
The chance of getting a difference of two means greater than or equal to 209159.80 is 0.00418.

