=============================================================================================================== 
LARREA_VANILLA_LG_CONSENSUS_RATE.result	          <->	          LARREA_EPOCH_LG_CONSENSUS_RATE.result
=============================================================================================================== 

LARREA_VANILLA_LG_CONSENSUS_RATE.result mean: 5.09 
LARREA_EPOCH_LG_CONSENSUS_RATE.result mean: 5.84 

Observed difference of two means: 0.76 
11988 out of 100000 experiments had a difference of two means greater than or equal to 0.76.
The chance of getting a difference of two means greater than or equal to 0.76 is 0.11988.

=============================================================================================================== 
LARREA_VANILLA_LG_CONSENSUS_RATE.result	          <->	          AGUILERA_LG_CONSENSUS_RATE.result
=============================================================================================================== 

LARREA_VANILLA_LG_CONSENSUS_RATE.result mean: 5.09 
AGUILERA_LG_CONSENSUS_RATE.result mean: 9.43 

Observed difference of two means: 4.34 
0 out of 100000 experiments had a difference of two means greater than or equal to 4.34.
The chance of getting a difference of two means greater than or equal to 4.34 is 0.0.

=============================================================================================================== 
LARREA_VANILLA_LG_CONSENSUS_RATE.result	          <->	          CHEN_LG_CONSENSUS_RATE.result
=============================================================================================================== 

LARREA_VANILLA_LG_CONSENSUS_RATE.result mean: 5.09 
CHEN_LG_CONSENSUS_RATE.result mean: 12.31 

Observed difference of two means: 7.22 
0 out of 100000 experiments had a difference of two means greater than or equal to 7.22.
The chance of getting a difference of two means greater than or equal to 7.22 is 0.0.

=============================================================================================================== 
LARREA_EPOCH_LG_CONSENSUS_RATE.result	          <->	          AGUILERA_LG_CONSENSUS_RATE.result
=============================================================================================================== 

LARREA_EPOCH_LG_CONSENSUS_RATE.result mean: 5.84 
AGUILERA_LG_CONSENSUS_RATE.result mean: 9.43 

Observed difference of two means: 3.59 
0 out of 100000 experiments had a difference of two means greater than or equal to 3.59.
The chance of getting a difference of two means greater than or equal to 3.59 is 0.0.

=============================================================================================================== 
LARREA_EPOCH_LG_CONSENSUS_RATE.result	          <->	          CHEN_LG_CONSENSUS_RATE.result
=============================================================================================================== 

LARREA_EPOCH_LG_CONSENSUS_RATE.result mean: 5.84 
CHEN_LG_CONSENSUS_RATE.result mean: 12.31 

Observed difference of two means: 6.47 
0 out of 100000 experiments had a difference of two means greater than or equal to 6.47.
The chance of getting a difference of two means greater than or equal to 6.47 is 0.0.

=============================================================================================================== 
AGUILERA_LG_CONSENSUS_RATE.result	          <->	          CHEN_LG_CONSENSUS_RATE.result
=============================================================================================================== 

AGUILERA_LG_CONSENSUS_RATE.result mean: 9.43 
CHEN_LG_CONSENSUS_RATE.result mean: 12.31 

Observed difference of two means: 2.88 
0 out of 100000 experiments had a difference of two means greater than or equal to 2.88.
The chance of getting a difference of two means greater than or equal to 2.88 is 0.0.

=============================================================================================================== 
LARREA_VANILLA_FD_AVG_MISTAKE_RATE.result	          <->	          LARREA_EPOCH_FD_AVG_MISTAKE_RATE.result
=============================================================================================================== 

LARREA_VANILLA_FD_AVG_MISTAKE_RATE.result mean: 0.12 
LARREA_EPOCH_FD_AVG_MISTAKE_RATE.result mean: 0.14 

Observed difference of two means: 0.02 
37176 out of 100000 experiments had a difference of two means greater than or equal to 0.02.
The chance of getting a difference of two means greater than or equal to 0.02 is 0.37176.

=============================================================================================================== 
LARREA_VANILLA_FD_AVG_MISTAKE_RATE.result	          <->	          AGUILERA_FD_AVG_MISTAKE_RATE.result
=============================================================================================================== 

LARREA_VANILLA_FD_AVG_MISTAKE_RATE.result mean: 0.12 
AGUILERA_FD_AVG_MISTAKE_RATE.result mean: 0.15 

Observed difference of two means: 0.04 
29387 out of 100000 experiments had a difference of two means greater than or equal to 0.04.
The chance of getting a difference of two means greater than or equal to 0.04 is 0.29387.

=============================================================================================================== 
LARREA_VANILLA_FD_AVG_MISTAKE_RATE.result	          <->	          CHEN_FD_AVG_MISTAKE_RATE.result
=============================================================================================================== 

LARREA_VANILLA_FD_AVG_MISTAKE_RATE.result mean: 0.12 
CHEN_FD_AVG_MISTAKE_RATE.result mean: 0.00 

Observed difference of two means: -0.12 
3 out of 100000 experiments had a difference of two means less than or equal to -0.12.
The chance of getting a difference of two means less than or equal to -0.12 is 3e-05.

=============================================================================================================== 
LARREA_EPOCH_FD_AVG_MISTAKE_RATE.result	          <->	          AGUILERA_FD_AVG_MISTAKE_RATE.result
=============================================================================================================== 

LARREA_EPOCH_FD_AVG_MISTAKE_RATE.result mean: 0.14 
AGUILERA_FD_AVG_MISTAKE_RATE.result mean: 0.15 

Observed difference of two means: 0.02 
40452 out of 100000 experiments had a difference of two means greater than or equal to 0.02.
The chance of getting a difference of two means greater than or equal to 0.02 is 0.40452.

=============================================================================================================== 
LARREA_EPOCH_FD_AVG_MISTAKE_RATE.result	          <->	          CHEN_FD_AVG_MISTAKE_RATE.result
=============================================================================================================== 

LARREA_EPOCH_FD_AVG_MISTAKE_RATE.result mean: 0.14 
CHEN_FD_AVG_MISTAKE_RATE.result mean: 0.00 

Observed difference of two means: -0.14 
1 out of 100000 experiments had a difference of two means less than or equal to -0.14.
The chance of getting a difference of two means less than or equal to -0.14 is 1e-05.

=============================================================================================================== 
AGUILERA_FD_AVG_MISTAKE_RATE.result	          <->	          CHEN_FD_AVG_MISTAKE_RATE.result
=============================================================================================================== 

AGUILERA_FD_AVG_MISTAKE_RATE.result mean: 0.15 
CHEN_FD_AVG_MISTAKE_RATE.result mean: 0.00 

Observed difference of two means: -0.15 
3 out of 100000 experiments had a difference of two means less than or equal to -0.15.
The chance of getting a difference of two means less than or equal to -0.15 is 3e-05.

=============================================================================================================== 
LARREA_VANILLA_FD_TG_SUM.result	          <->	          LARREA_EPOCH_FD_TG_SUM.result
=============================================================================================================== 

LARREA_VANILLA_FD_TG_SUM.result mean: 599282.42 
LARREA_EPOCH_FD_TG_SUM.result mean: 599542.90 

Observed difference of two means: 260.48 
36896 out of 100000 experiments had a difference of two means greater than or equal to 260.48.
The chance of getting a difference of two means greater than or equal to 260.48 is 0.36896.

=============================================================================================================== 
LARREA_VANILLA_FD_TG_SUM.result	          <->	          AGUILERA_FD_TG_SUM.result
=============================================================================================================== 

LARREA_VANILLA_FD_TG_SUM.result mean: 599282.42 
AGUILERA_FD_TG_SUM.result mean: 596507.82 

Observed difference of two means: -2774.60 
330 out of 100000 experiments had a difference of two means less than or equal to -2774.60.
The chance of getting a difference of two means less than or equal to -2774.60 is 0.0033.

=============================================================================================================== 
LARREA_VANILLA_FD_TG_SUM.result	          <->	          CHEN_FD_TG_SUM.result
=============================================================================================================== 

LARREA_VANILLA_FD_TG_SUM.result mean: 599282.42 
CHEN_FD_TG_SUM.result mean: 599892.40 

Observed difference of two means: 609.98 
171 out of 100000 experiments had a difference of two means greater than or equal to 609.98.
The chance of getting a difference of two means greater than or equal to 609.98 is 0.00171.

=============================================================================================================== 
LARREA_EPOCH_FD_TG_SUM.result	          <->	          AGUILERA_FD_TG_SUM.result
=============================================================================================================== 

LARREA_EPOCH_FD_TG_SUM.result mean: 599542.90 
AGUILERA_FD_TG_SUM.result mean: 596507.82 

Observed difference of two means: -3035.08 
47 out of 100000 experiments had a difference of two means less than or equal to -3035.08.
The chance of getting a difference of two means less than or equal to -3035.08 is 0.00047.

=============================================================================================================== 
LARREA_EPOCH_FD_TG_SUM.result	          <->	          CHEN_FD_TG_SUM.result
=============================================================================================================== 

LARREA_EPOCH_FD_TG_SUM.result mean: 599542.90 
CHEN_FD_TG_SUM.result mean: 599892.40 

Observed difference of two means: 349.50 
404 out of 100000 experiments had a difference of two means greater than or equal to 349.50.
The chance of getting a difference of two means greater than or equal to 349.50 is 0.00404.

=============================================================================================================== 
AGUILERA_FD_TG_SUM.result	          <->	          CHEN_FD_TG_SUM.result
=============================================================================================================== 

AGUILERA_FD_TG_SUM.result mean: 596507.82 
CHEN_FD_TG_SUM.result mean: 599892.40 

Observed difference of two means: 3384.58 
3 out of 100000 experiments had a difference of two means greater than or equal to 3384.58.
The chance of getting a difference of two means greater than or equal to 3384.58 is 3e-05.

