=============================================================================================================== 
LARREA_VANILLA_LG_CONSENSUS_RATE.result	          <->	          LARREA_EPOCH_LG_CONSENSUS_RATE.result
=============================================================================================================== 

LARREA_VANILLA_LG_CONSENSUS_RATE.result mean: 0.00 
LARREA_EPOCH_LG_CONSENSUS_RATE.result mean: 0.00 

Observed difference of two means: 0.00 
100000 out of 100000 experiments had a difference of two means greater than or equal to 0.00.
The chance of getting a difference of two means greater than or equal to 0.00 is 1.0.

=============================================================================================================== 
LARREA_VANILLA_LG_CONSENSUS_RATE.result	          <->	          AGUILERA_LG_CONSENSUS_RATE.result
=============================================================================================================== 

LARREA_VANILLA_LG_CONSENSUS_RATE.result mean: 0.00 
AGUILERA_LG_CONSENSUS_RATE.result mean: 0.02 

Observed difference of two means: 0.02 
409 out of 100000 experiments had a difference of two means greater than or equal to 0.02.
The chance of getting a difference of two means greater than or equal to 0.02 is 0.00409.

=============================================================================================================== 
LARREA_VANILLA_LG_CONSENSUS_RATE.result	          <->	          CHEN_LG_CONSENSUS_RATE.result
=============================================================================================================== 

LARREA_VANILLA_LG_CONSENSUS_RATE.result mean: 0.00 
CHEN_LG_CONSENSUS_RATE.result mean: 5.80 

Observed difference of two means: 5.80 
358 out of 100000 experiments had a difference of two means greater than or equal to 5.80.
The chance of getting a difference of two means greater than or equal to 5.80 is 0.00358.

=============================================================================================================== 
LARREA_EPOCH_LG_CONSENSUS_RATE.result	          <->	          AGUILERA_LG_CONSENSUS_RATE.result
=============================================================================================================== 

LARREA_EPOCH_LG_CONSENSUS_RATE.result mean: 0.00 
AGUILERA_LG_CONSENSUS_RATE.result mean: 0.02 

Observed difference of two means: 0.02 
382 out of 100000 experiments had a difference of two means greater than or equal to 0.02.
The chance of getting a difference of two means greater than or equal to 0.02 is 0.00382.

=============================================================================================================== 
LARREA_EPOCH_LG_CONSENSUS_RATE.result	          <->	          CHEN_LG_CONSENSUS_RATE.result
=============================================================================================================== 

LARREA_EPOCH_LG_CONSENSUS_RATE.result mean: 0.00 
CHEN_LG_CONSENSUS_RATE.result mean: 5.80 

Observed difference of two means: 5.80 
324 out of 100000 experiments had a difference of two means greater than or equal to 5.80.
The chance of getting a difference of two means greater than or equal to 5.80 is 0.00324.

=============================================================================================================== 
AGUILERA_LG_CONSENSUS_RATE.result	          <->	          CHEN_LG_CONSENSUS_RATE.result
=============================================================================================================== 

AGUILERA_LG_CONSENSUS_RATE.result mean: 0.02 
CHEN_LG_CONSENSUS_RATE.result mean: 5.80 

Observed difference of two means: 5.79 
356 out of 100000 experiments had a difference of two means greater than or equal to 5.79.
The chance of getting a difference of two means greater than or equal to 5.79 is 0.00356.

=============================================================================================================== 
LARREA_VANILLA_FD_AVG_MISTAKE_RATE.result	          <->	          LARREA_EPOCH_FD_AVG_MISTAKE_RATE.result
=============================================================================================================== 

LARREA_VANILLA_FD_AVG_MISTAKE_RATE.result mean: 7.48 
LARREA_EPOCH_FD_AVG_MISTAKE_RATE.result mean: 6.77 

Observed difference of two means: -0.72 
30098 out of 100000 experiments had a difference of two means less than or equal to -0.72.
The chance of getting a difference of two means less than or equal to -0.72 is 0.30098.

=============================================================================================================== 
LARREA_VANILLA_FD_AVG_MISTAKE_RATE.result	          <->	          AGUILERA_FD_AVG_MISTAKE_RATE.result
=============================================================================================================== 

LARREA_VANILLA_FD_AVG_MISTAKE_RATE.result mean: 7.48 
AGUILERA_FD_AVG_MISTAKE_RATE.result mean: 14.28 

Observed difference of two means: 6.80 
370 out of 100000 experiments had a difference of two means greater than or equal to 6.80.
The chance of getting a difference of two means greater than or equal to 6.80 is 0.0037.

=============================================================================================================== 
LARREA_VANILLA_FD_AVG_MISTAKE_RATE.result	          <->	          CHEN_FD_AVG_MISTAKE_RATE.result
=============================================================================================================== 

LARREA_VANILLA_FD_AVG_MISTAKE_RATE.result mean: 7.48 
CHEN_FD_AVG_MISTAKE_RATE.result mean: 0.04 

Observed difference of two means: -7.45 
404 out of 100000 experiments had a difference of two means less than or equal to -7.45.
The chance of getting a difference of two means less than or equal to -7.45 is 0.00404.

=============================================================================================================== 
LARREA_EPOCH_FD_AVG_MISTAKE_RATE.result	          <->	          AGUILERA_FD_AVG_MISTAKE_RATE.result
=============================================================================================================== 

LARREA_EPOCH_FD_AVG_MISTAKE_RATE.result mean: 6.77 
AGUILERA_FD_AVG_MISTAKE_RATE.result mean: 14.28 

Observed difference of two means: 7.52 
403 out of 100000 experiments had a difference of two means greater than or equal to 7.52.
The chance of getting a difference of two means greater than or equal to 7.52 is 0.00403.

=============================================================================================================== 
LARREA_EPOCH_FD_AVG_MISTAKE_RATE.result	          <->	          CHEN_FD_AVG_MISTAKE_RATE.result
=============================================================================================================== 

LARREA_EPOCH_FD_AVG_MISTAKE_RATE.result mean: 6.77 
CHEN_FD_AVG_MISTAKE_RATE.result mean: 0.04 

Observed difference of two means: -6.73 
257 out of 100000 experiments had a difference of two means less than or equal to -6.73.
The chance of getting a difference of two means less than or equal to -6.73 is 0.00257.

=============================================================================================================== 
AGUILERA_FD_AVG_MISTAKE_RATE.result	          <->	          CHEN_FD_AVG_MISTAKE_RATE.result
=============================================================================================================== 

AGUILERA_FD_AVG_MISTAKE_RATE.result mean: 14.28 
CHEN_FD_AVG_MISTAKE_RATE.result mean: 0.04 

Observed difference of two means: -14.25 
385 out of 100000 experiments had a difference of two means less than or equal to -14.25.
The chance of getting a difference of two means less than or equal to -14.25 is 0.00385.

=============================================================================================================== 
LARREA_VANILLA_FD_TG_SUM.result	          <->	          LARREA_EPOCH_FD_TG_SUM.result
=============================================================================================================== 

LARREA_VANILLA_FD_TG_SUM.result mean: 557730.00 
LARREA_EPOCH_FD_TG_SUM.result mean: 563349.60 

Observed difference of two means: 5619.60 
26232 out of 100000 experiments had a difference of two means greater than or equal to 5619.60.
The chance of getting a difference of two means greater than or equal to 5619.60 is 0.26232.

=============================================================================================================== 
LARREA_VANILLA_FD_TG_SUM.result	          <->	          AGUILERA_FD_TG_SUM.result
=============================================================================================================== 

LARREA_VANILLA_FD_TG_SUM.result mean: 557730.00 
AGUILERA_FD_TG_SUM.result mean: 496759.60 

Observed difference of two means: -60970.40 
369 out of 100000 experiments had a difference of two means less than or equal to -60970.40.
The chance of getting a difference of two means less than or equal to -60970.40 is 0.00369.

=============================================================================================================== 
LARREA_VANILLA_FD_TG_SUM.result	          <->	          CHEN_FD_TG_SUM.result
=============================================================================================================== 

LARREA_VANILLA_FD_TG_SUM.result mean: 557730.00 
CHEN_FD_TG_SUM.result mean: 599664.60 

Observed difference of two means: 41934.60 
390 out of 100000 experiments had a difference of two means greater than or equal to 41934.60.
The chance of getting a difference of two means greater than or equal to 41934.60 is 0.0039.

=============================================================================================================== 
LARREA_EPOCH_FD_TG_SUM.result	          <->	          AGUILERA_FD_TG_SUM.result
=============================================================================================================== 

LARREA_EPOCH_FD_TG_SUM.result mean: 563349.60 
AGUILERA_FD_TG_SUM.result mean: 496759.60 

Observed difference of two means: -66590.00 
390 out of 100000 experiments had a difference of two means less than or equal to -66590.00.
The chance of getting a difference of two means less than or equal to -66590.00 is 0.0039.

=============================================================================================================== 
LARREA_EPOCH_FD_TG_SUM.result	          <->	          CHEN_FD_TG_SUM.result
=============================================================================================================== 

LARREA_EPOCH_FD_TG_SUM.result mean: 563349.60 
CHEN_FD_TG_SUM.result mean: 599664.60 

Observed difference of two means: 36315.00 
373 out of 100000 experiments had a difference of two means greater than or equal to 36315.00.
The chance of getting a difference of two means greater than or equal to 36315.00 is 0.00373.

=============================================================================================================== 
AGUILERA_FD_TG_SUM.result	          <->	          CHEN_FD_TG_SUM.result
=============================================================================================================== 

AGUILERA_FD_TG_SUM.result mean: 496759.60 
CHEN_FD_TG_SUM.result mean: 599664.60 

Observed difference of two means: 102905.00 
386 out of 100000 experiments had a difference of two means greater than or equal to 102905.00.
The chance of getting a difference of two means greater than or equal to 102905.00 is 0.00386.

