=============================================================================================================== 
LARREA_VANILLA_LG_CONSENSUS_RATE.result	          <->	          LARREA_EPOCH_LG_CONSENSUS_RATE.result
=============================================================================================================== 

LARREA_VANILLA_LG_CONSENSUS_RATE.result mean: 0.00 
LARREA_EPOCH_LG_CONSENSUS_RATE.result mean: 0.00 

Observed difference of two means: 0.00 
100000 out of 100000 experiments had a difference of two means greater than or equal to 0.00.
The chance of getting a difference of two means greater than or equal to 0.00 is 1.0.

=============================================================================================================== 
LARREA_VANILLA_LG_CONSENSUS_RATE.result	          <->	          AGUILERA_LG_CONSENSUS_RATE.result
=============================================================================================================== 

LARREA_VANILLA_LG_CONSENSUS_RATE.result mean: 0.00 
AGUILERA_LG_CONSENSUS_RATE.result mean: 0.00 

Observed difference of two means: 0.00 
100000 out of 100000 experiments had a difference of two means greater than or equal to 0.00.
The chance of getting a difference of two means greater than or equal to 0.00 is 1.0.

=============================================================================================================== 
LARREA_VANILLA_LG_CONSENSUS_RATE.result	          <->	          CHEN_LG_CONSENSUS_RATE.result
=============================================================================================================== 

LARREA_VANILLA_LG_CONSENSUS_RATE.result mean: 0.00 
CHEN_LG_CONSENSUS_RATE.result mean: 7.02 

Observed difference of two means: 7.02 
331 out of 100000 experiments had a difference of two means greater than or equal to 7.02.
The chance of getting a difference of two means greater than or equal to 7.02 is 0.00331.

=============================================================================================================== 
LARREA_EPOCH_LG_CONSENSUS_RATE.result	          <->	          AGUILERA_LG_CONSENSUS_RATE.result
=============================================================================================================== 

LARREA_EPOCH_LG_CONSENSUS_RATE.result mean: 0.00 
AGUILERA_LG_CONSENSUS_RATE.result mean: 0.00 

Observed difference of two means: 0.00 
100000 out of 100000 experiments had a difference of two means greater than or equal to 0.00.
The chance of getting a difference of two means greater than or equal to 0.00 is 1.0.

=============================================================================================================== 
LARREA_EPOCH_LG_CONSENSUS_RATE.result	          <->	          CHEN_LG_CONSENSUS_RATE.result
=============================================================================================================== 

LARREA_EPOCH_LG_CONSENSUS_RATE.result mean: 0.00 
CHEN_LG_CONSENSUS_RATE.result mean: 7.02 

Observed difference of two means: 7.02 
342 out of 100000 experiments had a difference of two means greater than or equal to 7.02.
The chance of getting a difference of two means greater than or equal to 7.02 is 0.00342.

=============================================================================================================== 
AGUILERA_LG_CONSENSUS_RATE.result	          <->	          CHEN_LG_CONSENSUS_RATE.result
=============================================================================================================== 

AGUILERA_LG_CONSENSUS_RATE.result mean: 0.00 
CHEN_LG_CONSENSUS_RATE.result mean: 7.02 

Observed difference of two means: 7.02 
354 out of 100000 experiments had a difference of two means greater than or equal to 7.02.
The chance of getting a difference of two means greater than or equal to 7.02 is 0.00354.

=============================================================================================================== 
LARREA_VANILLA_FD_AVG_MISTAKE_RATE.result	          <->	          LARREA_EPOCH_FD_AVG_MISTAKE_RATE.result
=============================================================================================================== 

LARREA_VANILLA_FD_AVG_MISTAKE_RATE.result mean: 45.21 
LARREA_EPOCH_FD_AVG_MISTAKE_RATE.result mean: 33.07 

Observed difference of two means: -12.14 
7916 out of 100000 experiments had a difference of two means less than or equal to -12.14.
The chance of getting a difference of two means less than or equal to -12.14 is 0.07916.

=============================================================================================================== 
LARREA_VANILLA_FD_AVG_MISTAKE_RATE.result	          <->	          AGUILERA_FD_AVG_MISTAKE_RATE.result
=============================================================================================================== 

LARREA_VANILLA_FD_AVG_MISTAKE_RATE.result mean: 45.21 
AGUILERA_FD_AVG_MISTAKE_RATE.result mean: 115.43 

Observed difference of two means: 70.22 
446 out of 100000 experiments had a difference of two means greater than or equal to 70.22.
The chance of getting a difference of two means greater than or equal to 70.22 is 0.00446.

=============================================================================================================== 
LARREA_VANILLA_FD_AVG_MISTAKE_RATE.result	          <->	          CHEN_FD_AVG_MISTAKE_RATE.result
=============================================================================================================== 

LARREA_VANILLA_FD_AVG_MISTAKE_RATE.result mean: 45.21 
CHEN_FD_AVG_MISTAKE_RATE.result mean: 0.00 

Observed difference of two means: -45.21 
397 out of 100000 experiments had a difference of two means less than or equal to -45.21.
The chance of getting a difference of two means less than or equal to -45.21 is 0.00397.

=============================================================================================================== 
LARREA_EPOCH_FD_AVG_MISTAKE_RATE.result	          <->	          AGUILERA_FD_AVG_MISTAKE_RATE.result
=============================================================================================================== 

LARREA_EPOCH_FD_AVG_MISTAKE_RATE.result mean: 33.07 
AGUILERA_FD_AVG_MISTAKE_RATE.result mean: 115.43 

Observed difference of two means: 82.36 
397 out of 100000 experiments had a difference of two means greater than or equal to 82.36.
The chance of getting a difference of two means greater than or equal to 82.36 is 0.00397.

=============================================================================================================== 
LARREA_EPOCH_FD_AVG_MISTAKE_RATE.result	          <->	          CHEN_FD_AVG_MISTAKE_RATE.result
=============================================================================================================== 

LARREA_EPOCH_FD_AVG_MISTAKE_RATE.result mean: 33.07 
CHEN_FD_AVG_MISTAKE_RATE.result mean: 0.00 

Observed difference of two means: -33.07 
131 out of 100000 experiments had a difference of two means less than or equal to -33.07.
The chance of getting a difference of two means less than or equal to -33.07 is 0.00131.

=============================================================================================================== 
AGUILERA_FD_AVG_MISTAKE_RATE.result	          <->	          CHEN_FD_AVG_MISTAKE_RATE.result
=============================================================================================================== 

AGUILERA_FD_AVG_MISTAKE_RATE.result mean: 115.43 
CHEN_FD_AVG_MISTAKE_RATE.result mean: 0.00 

Observed difference of two means: -115.43 
407 out of 100000 experiments had a difference of two means less than or equal to -115.43.
The chance of getting a difference of two means less than or equal to -115.43 is 0.00407.

=============================================================================================================== 
LARREA_VANILLA_FD_TG_SUM.result	          <->	          LARREA_EPOCH_FD_TG_SUM.result
=============================================================================================================== 

LARREA_VANILLA_FD_TG_SUM.result mean: 543910.40 
LARREA_EPOCH_FD_TG_SUM.result mean: 567044.80 

Observed difference of two means: 23134.40 
409 out of 100000 experiments had a difference of two means greater than or equal to 23134.40.
The chance of getting a difference of two means greater than or equal to 23134.40 is 0.00409.

=============================================================================================================== 
LARREA_VANILLA_FD_TG_SUM.result	          <->	          AGUILERA_FD_TG_SUM.result
=============================================================================================================== 

LARREA_VANILLA_FD_TG_SUM.result mean: 543910.40 
AGUILERA_FD_TG_SUM.result mean: 423646.40 

Observed difference of two means: -120264.00 
400 out of 100000 experiments had a difference of two means less than or equal to -120264.00.
The chance of getting a difference of two means less than or equal to -120264.00 is 0.004.

=============================================================================================================== 
LARREA_VANILLA_FD_TG_SUM.result	          <->	          CHEN_FD_TG_SUM.result
=============================================================================================================== 

LARREA_VANILLA_FD_TG_SUM.result mean: 543910.40 
CHEN_FD_TG_SUM.result mean: 599928.40 

Observed difference of two means: 56018.00 
357 out of 100000 experiments had a difference of two means greater than or equal to 56018.00.
The chance of getting a difference of two means greater than or equal to 56018.00 is 0.00357.

=============================================================================================================== 
LARREA_EPOCH_FD_TG_SUM.result	          <->	          AGUILERA_FD_TG_SUM.result
=============================================================================================================== 

LARREA_EPOCH_FD_TG_SUM.result mean: 567044.80 
AGUILERA_FD_TG_SUM.result mean: 423646.40 

Observed difference of two means: -143398.40 
399 out of 100000 experiments had a difference of two means less than or equal to -143398.40.
The chance of getting a difference of two means less than or equal to -143398.40 is 0.00399.

=============================================================================================================== 
LARREA_EPOCH_FD_TG_SUM.result	          <->	          CHEN_FD_TG_SUM.result
=============================================================================================================== 

LARREA_EPOCH_FD_TG_SUM.result mean: 567044.80 
CHEN_FD_TG_SUM.result mean: 599928.40 

Observed difference of two means: 32883.60 
415 out of 100000 experiments had a difference of two means greater than or equal to 32883.60.
The chance of getting a difference of two means greater than or equal to 32883.60 is 0.00415.

=============================================================================================================== 
AGUILERA_FD_TG_SUM.result	          <->	          CHEN_FD_TG_SUM.result
=============================================================================================================== 

AGUILERA_FD_TG_SUM.result mean: 423646.40 
CHEN_FD_TG_SUM.result mean: 599928.40 

Observed difference of two means: 176282.00 
379 out of 100000 experiments had a difference of two means greater than or equal to 176282.00.
The chance of getting a difference of two means greater than or equal to 176282.00 is 0.00379.

