=============================================================================================================== 
LARREA_VANILLA_LG_CONSENSUS_RATE.result	          <->	          LARREA_EPOCH_LG_CONSENSUS_RATE.result
=============================================================================================================== 

LARREA_VANILLA_LG_CONSENSUS_RATE.result mean: 0.00 
LARREA_EPOCH_LG_CONSENSUS_RATE.result mean: 0.00 

Observed difference of two means: 0.00 
49636 out of 100000 experiments had a difference of two means greater than or equal to 0.00.
The chance of getting a difference of two means greater than or equal to 0.00 is 0.49636.

=============================================================================================================== 
LARREA_VANILLA_LG_CONSENSUS_RATE.result	          <->	          AGUILERA_LG_CONSENSUS_RATE.result
=============================================================================================================== 

LARREA_VANILLA_LG_CONSENSUS_RATE.result mean: 0.00 
AGUILERA_LG_CONSENSUS_RATE.result mean: 0.01 

Observed difference of two means: 0.01 
20011 out of 100000 experiments had a difference of two means greater than or equal to 0.01.
The chance of getting a difference of two means greater than or equal to 0.01 is 0.20011.

=============================================================================================================== 
LARREA_VANILLA_LG_CONSENSUS_RATE.result	          <->	          CHEN_LG_CONSENSUS_RATE.result
=============================================================================================================== 

LARREA_VANILLA_LG_CONSENSUS_RATE.result mean: 0.00 
CHEN_LG_CONSENSUS_RATE.result mean: 12.43 

Observed difference of two means: 12.42 
133 out of 100000 experiments had a difference of two means greater than or equal to 12.42.
The chance of getting a difference of two means greater than or equal to 12.42 is 0.00133.

=============================================================================================================== 
LARREA_EPOCH_LG_CONSENSUS_RATE.result	          <->	          AGUILERA_LG_CONSENSUS_RATE.result
=============================================================================================================== 

LARREA_EPOCH_LG_CONSENSUS_RATE.result mean: 0.00 
AGUILERA_LG_CONSENSUS_RATE.result mean: 0.01 

Observed difference of two means: 0.01 
32052 out of 100000 experiments had a difference of two means greater than or equal to 0.01.
The chance of getting a difference of two means greater than or equal to 0.01 is 0.32052.

=============================================================================================================== 
LARREA_EPOCH_LG_CONSENSUS_RATE.result	          <->	          CHEN_LG_CONSENSUS_RATE.result
=============================================================================================================== 

LARREA_EPOCH_LG_CONSENSUS_RATE.result mean: 0.00 
CHEN_LG_CONSENSUS_RATE.result mean: 12.43 

Observed difference of two means: 12.42 
122 out of 100000 experiments had a difference of two means greater than or equal to 12.42.
The chance of getting a difference of two means greater than or equal to 12.42 is 0.00122.

=============================================================================================================== 
AGUILERA_LG_CONSENSUS_RATE.result	          <->	          CHEN_LG_CONSENSUS_RATE.result
=============================================================================================================== 

AGUILERA_LG_CONSENSUS_RATE.result mean: 0.01 
CHEN_LG_CONSENSUS_RATE.result mean: 12.43 

Observed difference of two means: 12.41 
112 out of 100000 experiments had a difference of two means greater than or equal to 12.41.
The chance of getting a difference of two means greater than or equal to 12.41 is 0.00112.

=============================================================================================================== 
LARREA_VANILLA_FD_AVG_MISTAKE_RATE.result	          <->	          LARREA_EPOCH_FD_AVG_MISTAKE_RATE.result
=============================================================================================================== 

LARREA_VANILLA_FD_AVG_MISTAKE_RATE.result mean: 14.38 
LARREA_EPOCH_FD_AVG_MISTAKE_RATE.result mean: 16.97 

Observed difference of two means: 2.59 
12794 out of 100000 experiments had a difference of two means greater than or equal to 2.59.
The chance of getting a difference of two means greater than or equal to 2.59 is 0.12794.

=============================================================================================================== 
LARREA_VANILLA_FD_AVG_MISTAKE_RATE.result	          <->	          AGUILERA_FD_AVG_MISTAKE_RATE.result
=============================================================================================================== 

LARREA_VANILLA_FD_AVG_MISTAKE_RATE.result mean: 14.38 
AGUILERA_FD_AVG_MISTAKE_RATE.result mean: 30.37 

Observed difference of two means: 15.99 
378 out of 100000 experiments had a difference of two means greater than or equal to 15.99.
The chance of getting a difference of two means greater than or equal to 15.99 is 0.00378.

=============================================================================================================== 
LARREA_VANILLA_FD_AVG_MISTAKE_RATE.result	          <->	          CHEN_FD_AVG_MISTAKE_RATE.result
=============================================================================================================== 

LARREA_VANILLA_FD_AVG_MISTAKE_RATE.result mean: 14.38 
CHEN_FD_AVG_MISTAKE_RATE.result mean: 0.00 

Observed difference of two means: -14.38 
385 out of 100000 experiments had a difference of two means less than or equal to -14.38.
The chance of getting a difference of two means less than or equal to -14.38 is 0.00385.

=============================================================================================================== 
LARREA_EPOCH_FD_AVG_MISTAKE_RATE.result	          <->	          AGUILERA_FD_AVG_MISTAKE_RATE.result
=============================================================================================================== 

LARREA_EPOCH_FD_AVG_MISTAKE_RATE.result mean: 16.97 
AGUILERA_FD_AVG_MISTAKE_RATE.result mean: 30.37 

Observed difference of two means: 13.40 
374 out of 100000 experiments had a difference of two means greater than or equal to 13.40.
The chance of getting a difference of two means greater than or equal to 13.40 is 0.00374.

=============================================================================================================== 
LARREA_EPOCH_FD_AVG_MISTAKE_RATE.result	          <->	          CHEN_FD_AVG_MISTAKE_RATE.result
=============================================================================================================== 

LARREA_EPOCH_FD_AVG_MISTAKE_RATE.result mean: 16.97 
CHEN_FD_AVG_MISTAKE_RATE.result mean: 0.00 

Observed difference of two means: -16.97 
259 out of 100000 experiments had a difference of two means less than or equal to -16.97.
The chance of getting a difference of two means less than or equal to -16.97 is 0.00259.

=============================================================================================================== 
AGUILERA_FD_AVG_MISTAKE_RATE.result	          <->	          CHEN_FD_AVG_MISTAKE_RATE.result
=============================================================================================================== 

AGUILERA_FD_AVG_MISTAKE_RATE.result mean: 30.37 
CHEN_FD_AVG_MISTAKE_RATE.result mean: 0.00 

Observed difference of two means: -30.37 
423 out of 100000 experiments had a difference of two means less than or equal to -30.37.
The chance of getting a difference of two means less than or equal to -30.37 is 0.00423.

=============================================================================================================== 
LARREA_VANILLA_FD_TG_SUM.result	          <->	          LARREA_EPOCH_FD_TG_SUM.result
=============================================================================================================== 

LARREA_VANILLA_FD_TG_SUM.result mean: 553106.60 
LARREA_EPOCH_FD_TG_SUM.result mean: 536411.40 

Observed difference of two means: -16695.20 
21374 out of 100000 experiments had a difference of two means less than or equal to -16695.20.
The chance of getting a difference of two means less than or equal to -16695.20 is 0.21374.

=============================================================================================================== 
LARREA_VANILLA_FD_TG_SUM.result	          <->	          AGUILERA_FD_TG_SUM.result
=============================================================================================================== 

LARREA_VANILLA_FD_TG_SUM.result mean: 553106.60 
AGUILERA_FD_TG_SUM.result mean: 483370.80 

Observed difference of two means: -69735.80 
408 out of 100000 experiments had a difference of two means less than or equal to -69735.80.
The chance of getting a difference of two means less than or equal to -69735.80 is 0.00408.

=============================================================================================================== 
LARREA_VANILLA_FD_TG_SUM.result	          <->	          CHEN_FD_TG_SUM.result
=============================================================================================================== 

LARREA_VANILLA_FD_TG_SUM.result mean: 553106.60 
CHEN_FD_TG_SUM.result mean: 599929.20 

Observed difference of two means: 46822.60 
374 out of 100000 experiments had a difference of two means greater than or equal to 46822.60.
The chance of getting a difference of two means greater than or equal to 46822.60 is 0.00374.

=============================================================================================================== 
LARREA_EPOCH_FD_TG_SUM.result	          <->	          AGUILERA_FD_TG_SUM.result
=============================================================================================================== 

LARREA_EPOCH_FD_TG_SUM.result mean: 536411.40 
AGUILERA_FD_TG_SUM.result mean: 483370.80 

Observed difference of two means: -53040.60 
790 out of 100000 experiments had a difference of two means less than or equal to -53040.60.
The chance of getting a difference of two means less than or equal to -53040.60 is 0.0079.

=============================================================================================================== 
LARREA_EPOCH_FD_TG_SUM.result	          <->	          CHEN_FD_TG_SUM.result
=============================================================================================================== 

LARREA_EPOCH_FD_TG_SUM.result mean: 536411.40 
CHEN_FD_TG_SUM.result mean: 599929.20 

Observed difference of two means: 63517.80 
381 out of 100000 experiments had a difference of two means greater than or equal to 63517.80.
The chance of getting a difference of two means greater than or equal to 63517.80 is 0.00381.

=============================================================================================================== 
AGUILERA_FD_TG_SUM.result	          <->	          CHEN_FD_TG_SUM.result
=============================================================================================================== 

AGUILERA_FD_TG_SUM.result mean: 483370.80 
CHEN_FD_TG_SUM.result mean: 599929.20 

Observed difference of two means: 116558.40 
389 out of 100000 experiments had a difference of two means greater than or equal to 116558.40.
The chance of getting a difference of two means greater than or equal to 116558.40 is 0.00389.

