=============================================================================================================== 
LARREA_VANILLA_LG_CONSENSUS_RATE.result	          <->	          LARREA_EPOCH_LG_CONSENSUS_RATE.result
=============================================================================================================== 

LARREA_VANILLA_LG_CONSENSUS_RATE.result mean: 0.19 
LARREA_EPOCH_LG_CONSENSUS_RATE.result mean: 0.18 

Observed difference of two means: -0.01 
31469 out of 100000 experiments had a difference of two means less than or equal to -0.01.
The chance of getting a difference of two means less than or equal to -0.01 is 0.31469.

=============================================================================================================== 
LARREA_VANILLA_LG_CONSENSUS_RATE.result	          <->	          AGUILERA_LG_CONSENSUS_RATE.result
=============================================================================================================== 

LARREA_VANILLA_LG_CONSENSUS_RATE.result mean: 0.19 
AGUILERA_LG_CONSENSUS_RATE.result mean: 0.56 

Observed difference of two means: 0.36 
0 out of 100000 experiments had a difference of two means greater than or equal to 0.36.
The chance of getting a difference of two means greater than or equal to 0.36 is 0.0.

=============================================================================================================== 
LARREA_VANILLA_LG_CONSENSUS_RATE.result	          <->	          CHEN_LG_CONSENSUS_RATE.result
=============================================================================================================== 

LARREA_VANILLA_LG_CONSENSUS_RATE.result mean: 0.19 
CHEN_LG_CONSENSUS_RATE.result mean: 5.41 

Observed difference of two means: 5.22 
0 out of 100000 experiments had a difference of two means greater than or equal to 5.22.
The chance of getting a difference of two means greater than or equal to 5.22 is 0.0.

=============================================================================================================== 
LARREA_EPOCH_LG_CONSENSUS_RATE.result	          <->	          AGUILERA_LG_CONSENSUS_RATE.result
=============================================================================================================== 

LARREA_EPOCH_LG_CONSENSUS_RATE.result mean: 0.18 
AGUILERA_LG_CONSENSUS_RATE.result mean: 0.56 

Observed difference of two means: 0.38 
0 out of 100000 experiments had a difference of two means greater than or equal to 0.38.
The chance of getting a difference of two means greater than or equal to 0.38 is 0.0.

=============================================================================================================== 
LARREA_EPOCH_LG_CONSENSUS_RATE.result	          <->	          CHEN_LG_CONSENSUS_RATE.result
=============================================================================================================== 

LARREA_EPOCH_LG_CONSENSUS_RATE.result mean: 0.18 
CHEN_LG_CONSENSUS_RATE.result mean: 5.41 

Observed difference of two means: 5.23 
0 out of 100000 experiments had a difference of two means greater than or equal to 5.23.
The chance of getting a difference of two means greater than or equal to 5.23 is 0.0.

=============================================================================================================== 
AGUILERA_LG_CONSENSUS_RATE.result	          <->	          CHEN_LG_CONSENSUS_RATE.result
=============================================================================================================== 

AGUILERA_LG_CONSENSUS_RATE.result mean: 0.56 
CHEN_LG_CONSENSUS_RATE.result mean: 5.41 

Observed difference of two means: 4.86 
0 out of 100000 experiments had a difference of two means greater than or equal to 4.86.
The chance of getting a difference of two means greater than or equal to 4.86 is 0.0.

=============================================================================================================== 
LARREA_VANILLA_FD_AVG_MISTAKE_RATE.result	          <->	          LARREA_EPOCH_FD_AVG_MISTAKE_RATE.result
=============================================================================================================== 

LARREA_VANILLA_FD_AVG_MISTAKE_RATE.result mean: 3.04 
LARREA_EPOCH_FD_AVG_MISTAKE_RATE.result mean: 2.77 

Observed difference of two means: -0.27 
2240 out of 100000 experiments had a difference of two means less than or equal to -0.27.
The chance of getting a difference of two means less than or equal to -0.27 is 0.0224.

=============================================================================================================== 
LARREA_VANILLA_FD_AVG_MISTAKE_RATE.result	          <->	          AGUILERA_FD_AVG_MISTAKE_RATE.result
=============================================================================================================== 

LARREA_VANILLA_FD_AVG_MISTAKE_RATE.result mean: 3.04 
AGUILERA_FD_AVG_MISTAKE_RATE.result mean: 4.13 

Observed difference of two means: 1.09 
0 out of 100000 experiments had a difference of two means greater than or equal to 1.09.
The chance of getting a difference of two means greater than or equal to 1.09 is 0.0.

=============================================================================================================== 
LARREA_VANILLA_FD_AVG_MISTAKE_RATE.result	          <->	          CHEN_FD_AVG_MISTAKE_RATE.result
=============================================================================================================== 

LARREA_VANILLA_FD_AVG_MISTAKE_RATE.result mean: 3.04 
CHEN_FD_AVG_MISTAKE_RATE.result mean: 0.16 

Observed difference of two means: -2.87 
0 out of 100000 experiments had a difference of two means less than or equal to -2.87.
The chance of getting a difference of two means less than or equal to -2.87 is 0.0.

=============================================================================================================== 
LARREA_EPOCH_FD_AVG_MISTAKE_RATE.result	          <->	          AGUILERA_FD_AVG_MISTAKE_RATE.result
=============================================================================================================== 

LARREA_EPOCH_FD_AVG_MISTAKE_RATE.result mean: 2.77 
AGUILERA_FD_AVG_MISTAKE_RATE.result mean: 4.13 

Observed difference of two means: 1.36 
0 out of 100000 experiments had a difference of two means greater than or equal to 1.36.
The chance of getting a difference of two means greater than or equal to 1.36 is 0.0.

=============================================================================================================== 
LARREA_EPOCH_FD_AVG_MISTAKE_RATE.result	          <->	          CHEN_FD_AVG_MISTAKE_RATE.result
=============================================================================================================== 

LARREA_EPOCH_FD_AVG_MISTAKE_RATE.result mean: 2.77 
CHEN_FD_AVG_MISTAKE_RATE.result mean: 0.16 

Observed difference of two means: -2.61 
0 out of 100000 experiments had a difference of two means less than or equal to -2.61.
The chance of getting a difference of two means less than or equal to -2.61 is 0.0.

=============================================================================================================== 
AGUILERA_FD_AVG_MISTAKE_RATE.result	          <->	          CHEN_FD_AVG_MISTAKE_RATE.result
=============================================================================================================== 

AGUILERA_FD_AVG_MISTAKE_RATE.result mean: 4.13 
CHEN_FD_AVG_MISTAKE_RATE.result mean: 0.16 

Observed difference of two means: -3.96 
0 out of 100000 experiments had a difference of two means less than or equal to -3.96.
The chance of getting a difference of two means less than or equal to -3.96 is 0.0.

=============================================================================================================== 
LARREA_VANILLA_FD_TG_SUM.result	          <->	          LARREA_EPOCH_FD_TG_SUM.result
=============================================================================================================== 

LARREA_VANILLA_FD_TG_SUM.result mean: 546421.55 
LARREA_EPOCH_FD_TG_SUM.result mean: 554913.35 

Observed difference of two means: 8491.80 
2354 out of 100000 experiments had a difference of two means greater than or equal to 8491.80.
The chance of getting a difference of two means greater than or equal to 8491.80 is 0.02354.

=============================================================================================================== 
LARREA_VANILLA_FD_TG_SUM.result	          <->	          AGUILERA_FD_TG_SUM.result
=============================================================================================================== 

LARREA_VANILLA_FD_TG_SUM.result mean: 546421.55 
AGUILERA_FD_TG_SUM.result mean: 528504.37 

Observed difference of two means: -17917.18 
0 out of 100000 experiments had a difference of two means less than or equal to -17917.18.
The chance of getting a difference of two means less than or equal to -17917.18 is 0.0.

=============================================================================================================== 
LARREA_VANILLA_FD_TG_SUM.result	          <->	          CHEN_FD_TG_SUM.result
=============================================================================================================== 

LARREA_VANILLA_FD_TG_SUM.result mean: 546421.55 
CHEN_FD_TG_SUM.result mean: 596073.57 

Observed difference of two means: 49652.02 
0 out of 100000 experiments had a difference of two means greater than or equal to 49652.02.
The chance of getting a difference of two means greater than or equal to 49652.02 is 0.0.

=============================================================================================================== 
LARREA_EPOCH_FD_TG_SUM.result	          <->	          AGUILERA_FD_TG_SUM.result
=============================================================================================================== 

LARREA_EPOCH_FD_TG_SUM.result mean: 554913.35 
AGUILERA_FD_TG_SUM.result mean: 528504.37 

Observed difference of two means: -26408.98 
0 out of 100000 experiments had a difference of two means less than or equal to -26408.98.
The chance of getting a difference of two means less than or equal to -26408.98 is 0.0.

=============================================================================================================== 
LARREA_EPOCH_FD_TG_SUM.result	          <->	          CHEN_FD_TG_SUM.result
=============================================================================================================== 

LARREA_EPOCH_FD_TG_SUM.result mean: 554913.35 
CHEN_FD_TG_SUM.result mean: 596073.57 

Observed difference of two means: 41160.22 
0 out of 100000 experiments had a difference of two means greater than or equal to 41160.22.
The chance of getting a difference of two means greater than or equal to 41160.22 is 0.0.

=============================================================================================================== 
AGUILERA_FD_TG_SUM.result	          <->	          CHEN_FD_TG_SUM.result
=============================================================================================================== 

AGUILERA_FD_TG_SUM.result mean: 528504.37 
CHEN_FD_TG_SUM.result mean: 596073.57 

Observed difference of two means: 67569.20 
0 out of 100000 experiments had a difference of two means greater than or equal to 67569.20.
The chance of getting a difference of two means greater than or equal to 67569.20 is 0.0.

