100000
675
300
3525
2925
1800
1050
1275
1275
825
375
600
900
450
825
1950
2475
2250
675
675
1800
225
900
600
375
1425
1425
1950
3375
300
825
1050
225
1425
3450
900
225
450
75
600
3300
2100
3075
1350
900
1800
2100
825
900
2775
2700
900
450
450
825
4200
1200
1200
1200
450
300
825
2475
1050
4350
450
450
300
75
1125
2325
4575
2025
2175
450
225
225
1800
3225
1050
1425
1650
2400
1050
450
900
675
225
1125
3525
3300
2700
2100
675
1500
225
900
2625
2775
525
300
1200
525
4950
3000
1725
1350
2475
750
3825
825
1500
1800
2250
750
600
5400
1650
2775
4200
3450
900
6825
450
2325
75
150
1650
825
75
1350
900
4125
675
450
450
450
2625
300
525
2025
1125
1425
2025
975
150
675
3900
825
825
300
450
150
2025
150
2100
525
1050
750
1725
1425
1050
975
2250
1800
450
600
675
2775
3300
300
1725
225
225
1050
75
750
1500
1275
3525
2025
2250
450
225
300
1575
1050
150
675
1050
900
600
3900
1425
675
4650
2550
100000
75
5850
525
3225
825
1125
1275
750
225
1950
1425
450
7650
3450
150
450
900
450
300
750
225
1275
225
1125
3000
1050
4050
3750
1200
2625
825
1125
750
600
600
2550
300
675
1875
1650
600
4350
2550
450
1650
2700
4575
450
675
2850
1500
600
1500
1125
375
2550
225
1950
975
2025
225
750
675
1050
150
2700
1050
6225
225
525
450
450
9075
1350
450
1425
1875
900
5025
750
150
600
4650
450
675
7050
300
2175
1125
450
825
300
825
225
1725
450
3675
1425
3300
675
225
3000
375
300
1050
1500
75
75
1800
1125
825
675
525
1875
1275
150
750
2625
7500
300
1200
825
1050
75
1725
300
1800
675
1050
675
600
225
225
675
1425
525
225
675
825
1575
600
450
375
1125
2175
1950
4500
1350
675
1500
825
225
1125
1800
2250
1500
4800
100000
1125
150
2475
1200
1350
1350
525
900
2775
825
450
1800
375
1500
3450
600
1425
1575
1575
2475
450
3225
150
900
75
1050
600
1125
675
300
600
1725
1125
675
825
3000
450
825
225
450
4275
75
75
450
375
525
1200
450
375
1950
375
5250
1725
2700
1875
900
975
75
600
525
225
900
450
2250
1800
750
750
225
825
675
2100
1350
4800
1200
1050
1800
75
300
225
1650
675
2025
375
3600
1500
150
3600
225
3300
150
1125
450
450
1650
1200
675
1575
825
375
1800
225
6300
3300
1125
2250
3825
900
675
825
3000
1200
4650
600
9450
6150
450
900
1125
450
1800
1950
900
750
825
150
300
450
2850
225
4350
1725
1800
825
1125
75
1200
300
1950
3150
525
1800
1650
1350
1050
675
300
2250
300
2400
3075
675
1200
150
1725
900
375
3300
3300
1500
600
2100
2100
1350
750
450
900
900
225
675
1050
150
675
750
5700
300
900
2325
2700
600
675
2250
2250
2100
2550
1950
300
2025
675
525
675
3075
1050
900
900
2100
300
1500
75
75
600
3825
1425
2850
6750
3150
225
300
4050
600
900
1200
1350
7875
1725
150
1500
1650
1650
900
2325
750
900
5775
1950
375
75
600
4050
2025
1575
1125
3075
2100
600
2100
2100
300
225
300
4800
4050
2400
975
225
4125
4950
600
600
150
1125
1500
1800
1350
675
2925
2700
225
1350
975
75
825
525
1125
4650
525
225
1650
150
3825
4125
3000
675
1950
1500
450
825
1425
900
75
1350
375
2700
825
2250
3300
3225
8025
825
2100
300
75
1650
900
750
825
450
1875
2400
1650
1275
150
525
600
1800
1800
450
1725
225
450
2025
1500
450
675
2025
525
1725
375
3075
6150
600
1125
300
450
900
3375
2250
2925
300
600
1725
225
1275
450
75
1050
2025
1275
1950
300
675
2175
900
225
225
1425
900
750
1650
900
1800
1425
1275
1500
600
1425
1050
900
300
375
225
450
1500
1500
100000
5325
1125
600
450
225
150
450
1650
3825
525
2850
450
1050
2925
2250
450
975
2025
1500
225
225
75
1275
825
2550
2400
1500
4200
3150
975
825
1500
2775
1500
2400
525
375
825
1500
1425
150
825
2775
225
375
1125
675
225
1950
3150
825
1425
1125
1125
3675
900
2625
825
1950
1275
750
675
825
825
1050
2550
825
750
5625
1125
1875
3450
1725
375
2250
1950
525
1350
1575
1875
4725
225
6825
225
1800
450
1800
900
150
1500
1650
225
825
2625
825
9075
1125
75
1050
1200
2250
5175
3675
225
75
3525
1050
1425
525
525
3450
6300
450
3600
1725
3825
225
2625
1950
600
4200
2475
1575
2025
2400
4650
4650
450
1125
975
1650
7425
2250
2775
750
1725
225
1875
2625
1875
750
1350
450
825
1050
75
450
3825
75
1125
2025
2550
600
1275
2250
225
525
1125
675
300
2175
300
375
2250
75
1350
75
75
750
1275
2025
2175
1800
225
6000
2850
2550
225
225
1050
1200
900
1800
1050
5250
2850
1950
1575
1800
2625
3150
1125
1200
600
4200
225
450
2775
1875
1125
4725
1200
2850
450
6525
2775
4200
3225
75
600
1275
5100
450
2100
600
1200
900
150
4500
4200
1425
1950
7650
2850
1350
150
675
600
6150
975
450
4200
525
675
600
75
525
2025
900
2475
3825
3300
1500
1650
75
3300
2925
1800
375
1275
375
825
1875
3900
750
225
1575
225
225
1500
450
2625
600
450
825
3600
225
1725
3750
225
450
450
2325
2250
75
825
1500
75
2250
1350
600
3900
450
1650
1275
375
600
1200
2100
2175
1350
4575
1425
2400
3975
825
375
4425
5550
1350
825
2100
600
225
2325
3750
225
7425
375
1650
100000
900
75
5025
1350
2250
675
2025
600
75
1575
225
375
300
375
4650
1425
2025
1125
225
450
2100
375
450
1650
1650
750
1500
900
525
4950
900
1650
9075
8400
1200
225
4500
600
1125
600
825
1125
525
1800
300
2400
525
5400
7350
6150
1875
1050
1650
3000
5325
1125
3450
2250
600
975
525
1425
300
2925
1350
1200
300
2850
600
525
3300
4350
1125
975
1575
750
2925
750
2700
375
750
1350
2400
4950
1950
375
1350
450
750
2325
375
5925
1050
5250
450
3675
225
2925
1050
1425
375
750
375
975
3900
525
900
2025
525
4500
1575
1275
150
675
1350
900
150
225
4725
1125
750
525
1875
1875
225
1575
1200
300
600
2100
825
525
4650
1125
375
75
1575
2325
2250
3375
2025
75
675
375
600
1275
375
900
5550
1200
3750
6750
75
1725
375
75
750
750
2025
75
4650
450
100000
1350
3975
975
750
900
825
1575
1575
4275
450
975
1725
1650
2025
525
2325
2550
75
2400
225
2550
2325
1725
2100
5100
1575
75
1800
1125
1350
1275
1350
2700
225
75
150
100000
300
2700
2775
600
450
1050
1275
1500
75
2100
600
4125
4425
1125
5400
750
4275
675
1200
2325
3225
1200
3600
1800
750
675
3525
825
225
1875
1725
225
2325
1125
2775
1425
3975
975
5475
525
150
300
1425
2550
6750
3450
525
5325
1350
1575
525
2550
6150
75
4350
2625
1800
1800
1050
600
300
150
3000
6825
2100
5175
1800
450
300
3600
675
4275
3525
2400
1725
1125
1125
75
4800
7725
1050
2100
3600
675
100000
1125
375
1275
150
225
1650
750
1350
750
2700
1200
300
375
1650
825
150
1275
3150
1125
1200
300
1200
525
225
2025
1875
3750
825
300
450
3525
1275
1650
4425
2175
750
975
1800
2550
4800
1200
75
525
1875
225
600
450
750
600
5025
1575
2925
825
1125
825
975
4350
75
1650
3675
1050
1950
3750
6750
1650
375
975
3450
1125
1425
1275
450
825
2025
375
2700
4050
3750
3075
1950
1650
1950
450
75
1650
1575
225
150
1125
3450
450
225
5475
375
3750
1350
2850
2250
150
825
2625
1425
1275
3750
1050
525
975
2325
1200
1875
1950
300
150
2625
1800
4800
4125
225
300
150
1350
3450
1125
75
1725
1275
1050
675
600
2850
1575
1950
1650
4200
2850
750
225
750
2700
2025
2025
3675
2250
450
225
1950
750
900
1500
225
3225
75
525
900
450
300
600
1425
2700
75
900
3225
150
1575
525
900
1200
1200
2400
1950
1425
300
300
450
900
4950
375
2175
450
2400
675
1050
825
1050
525
2325
1500
300
450
2250
2025
525
450
1050
150
150
1050
300
375
1500
4275
525
825
1725
900
825
675
2400
300
3375
900
675
7050
75
750
2475
525
1500
825
75
3750
225
450
2925
1275
225
600
2400
3075
2625
300
5250
825
1950
1200
3300
3225
4275
75
600
300
450
375
1950
1950
300
1650
4950
75
150
750
225
150
3000
375
525
300
900
225
3225
75
1725
825
5175
1950
1800
750
525
675
1050
525
2250
375
225
1200
825
375
750
1950
3750
525
600
5775
9225
675
4800
2325
75
2025
525
1725
1275
1050
600
1275
4800
900
1875
1050
225
75
4650
525
225
1050
1950
2175
3375
1800
1050
1875
225
75
450
1200
1125
2325
825
450
1875
3600
450
675
1875
1575
975
1875
2250
525
300
75
450
1650
3225
825
300
2550
3900
675
300
1275
75
300
4200
1650
5850
1050
600
2025
375
1425
1800
100000
6450
1800
525
600
225
2700
4200
300
675
75
2925
1725
975
1050
3150
3600
825
1200
1575
75
4575
1650
6225
1275
1050
1275
975
1575
300
1350
225
1050
3525
450
1200
1500
1200
2400
1650
1350
1200
825
1125
900
3600
750
825
4425
75
2250
1050
1125
2475
675
675
1200
225
4800
825
1650
3075
150
300
225
675
3450
3150
1275
5700
150
2025
3225
225
450
975
375
4050
825
1650
2775
1500
525
975
2625
4875
2700
3600
2025
450
450
1200
1275
150
2175
1650
375
1125
2850
7500
750
3075
2700
225
3000
1350
2325
1575
750
3000
225
4500
1500
225
450
525
1125
5400
4800
1575
525
4875
1125
8100
75
1800
975
1200
2025
6000
2850
225
5850
2775
1275
2175
825
75
225
2925
1200
600
75
5475
525
2325
3525
1950
4425
750
5550
2700
3975
2625
900
1275
675
3075
450
1200
4800
150
5775
3375
1050
450
1875
225
525
1800
525
3225
1575
1875
600
825
2025
4050
2250
4575
75
600
2400
3000
675
4875
4950
3300
525
975
675
750
1500
3900
1200
3825
225
525
1650
3300
3300
525
675
2850
2400
1425
450
525
5625
225
5325
2925
900
3600
1125
675
1275
7050
1725
825
300
1800
2025
4875
2100
2325
1800
1350
4125
1575
1800
1800
825
3075
75
75
1125
2625
375
1875
3000
6000
600
225
2625
2925
1650
2325
1800
4425
750
3900
2100
5025
675
1725
450
300
8175
1050
3900
225
2625
450
600
600
600
375
225
7800
6300
1050
1725
100000
2025
525
900
825
1275
1050
675
1200
825
1050
900
825
1650
600
375
4875
1500
150
825
75
1725
3000
525
1050
675
1200
1200
1350
2700
75
150
1125
2625
825
150
2475
1200
3000
1950
600
2325
600
1200
750
225
825
225
675
2775
1875
975
2250
75
375
1425
2325
1425
2625
1650
3300
300
2100
900
450
825
675
600
525
1650
2325
600
1425
150
675
1425
2325
600
1200
375
1575
3300
1425
1275
450
1725
1800
300
3000
225
2775
1125
1800
525
3825
1200
300
150
2700
1275
225
525
1800
600
150
2025
450
2550
3450
1050
2175
3600
75
1425
3675
450
375
1275
5850
1425
2850
75
1275
1500
1575
150
1050
5625
75
675
1650
7425
2400
1125
150
675
1125
1125
600
2625
1275
2325
900
525
2025
225
225
2400
750
225
2100
225
1050
1650
600
1800
6675
825
450
825
1650
300
750
675
3450
375
5025
2025
675
600
450
1425
375
525
450
2250
1575
1275
600
3600
525
2025
825
225
2100
450
2250
1800
150
1500
975
1500
75
600
300
225
1200
450
600
900
225
1650
750
900
1500
1200
750
75
3000
750
1050
1425
1650
525
1425
4650
2400
675
825
600
75
525
825
1875
1275
2475
375
1350
1050
4350
900
675
2475
900
1725
675
825
450
450
4725
2250
225
4650
225
600
825
1200
2625
1125
225
1800
600
2400
1875
450
825
75
3450
3450
2475
300
300
1950
3075
600
600
1500
825
2475
825
825
600
75
600
1500
675
600
75
675
1800
3075
600
450
1125
1350
2700
2400
75
600
675
1725
1050
1425
3225
2475
3300
975
825
75
900
2250
2775
2025
2100
2850
525
1500
675
450
2700
1500
225
675
525
825
300
1425
675
1650
5850
2475
450
1650
75
525
4125
1800
600
450
1050
1800
1500
4650
450
375
225
225
1500
750
900
1500
600
2100
1050
1275
750
450
5025
825
2625
75
1200
300
1050
1050
1425
3300
1425
750
600
1050
1050
825
3300
1275
825
75
450
600
2100
900
225
2475
1350
675
3225
225
1650
225
1050
600
1200
2025
2400
750
300
900
1275
450
100000
300
1125
1575
1725
900
675
225
3450
450
900
1350
1800
2175
675
75
7425
3150
2925
150
7425
2400
1050
600
1425
225
2925
225
4425
6900
1425
100000
225
1425
1050
3600
1875
825
3075
1425
1200
1050
3075
2250
1800
3600
2550
825
1275
2550
675
450
150
900
450
975
5475
150
375
75
1050
1125
825
3225
2475
1500
1500
1725
1425
1425
1875
1200
525
5925
225
1050
300
675
525
1350
1350
300
525
6150
7125
900
5400
1650
2400
3525
1200
450
525
300
1050
75
3600
75
2400
825
525
1125
1575
375
900
750
825
1125
600
1950
525
3975
2925
1125
4875
1350
1050
225
750
3600
450
450
900
375
1425
225
1500
300
75
750
525
2175
3075
5550
2475
1050
150
675
150
975
2700
3525
600
150
2400
3075
975
7200
600
8775
225
3300
600
525
5325
675
3675
600
900
2475
5400
4500
1575
3525
2325
225
1950
225
825
225
1050
1050
1425
225
1275
5625
2775
600
525
1125
4575
1125
450
300
600
900
5325
975
225
450
8025
2250
5025
4800
75
225
1950
1050
825
1425
900
1500
900
2100
1650
1200
1800
3450
1650
2250
1200
750
1125
1425
7050
150
1725
6000
1425
1425
675
375
675
750
1500
1800
150
825
1125
675
5775
3075
150
4275
1350
1425
3900
1425
450
3525
5325
225
225
6000
675
1725
2325
375
1725
2400
2925
675
1950
750
5025
1050
1725
300
750
1800
1425
1050
3900
7275
3900
600
3000
4275
450
600
1350
750
2850
750
6600
300
6450
825
525
225
975
2250
75
1350
5550
450
450
75
150
675
600
100000
75
3075
600
450
1050
225
675
450
2175
675
450
300
825
375
525
3525
2025
375
750
900
225
975
525
525
3675
450
1575
1500
2100
2625
675
75
450
600
825
825
1650
3075
2400
1350
1125
2700
1650
2925
1350
2100
225
5325
825
1500
375
2250
1050
225
225
1050
225
75
2325
825
1350
1125
525
1350
3075
3450
1050
2100
1050
525
1050
4725
825
1500
300
1725
2250
4500
3450
2475
300
2025
300
900
450
300
4275
4050
4050
150
1275
1875
750
300
1350
150
450
525
225
300
525
375
2100
1650
2250
1125
2700
975
750
1275
4125
450
1800
750
1425
3600
600
750
1425
5400
1650
975
450
2700
750
450
4050
1800
900
2025
3150
1125
600
150
1425
825
3000
2925
300
600
3000
675
525
675
375
300
300
1200
675
4125
225
600
5550
75
375
75
975
5100
75
750
225
225
2400
75
75
2850
825
525
825
1125
1650
750
1125
1275
750
4950
300
4800
450
1575
225
1650
1350
750
4950
450
600
1875
675
600
225
300
225
375
300
225
2325
825
375
675
1725
450
300
2025
1425
75
300
450
600
5400
2550
900
450
225
225
450
1125
2175
2025
450
525
825
2400
225
975
3225
2400
2175
1125
2400
900
600
75
900
3300
825
900
375
150
900
375
525
600
2250
3300
4425
75
2250
2625
450
1875
675
4575
225
3150
5550
450
375
2400
750
3075
1275
1425
2325
975
1500
525
1350
75
2100
900
825
2325
525
3375
1050
1650
1650
1725
1275
3750
675
1350
1050
2325
6975
375
300
1275
1950
750
1350
1425
4425
150
1650
525
1875
225
525
450
375
300
1875
3525
4575
1650
675
1050
1350
450
1650
2550
1650
1500
4650
375
4200
2325
225
3300
150
3375
1275
150
1050
1875
600
2475
75
1050
1275
1050
2850
2475
2850
1200
1200
450
600
2400
300
525
225
525
3000
750
825
2850
750
1125
825
75
1575
525
375
5325
900
4425
375
1800
1575
675
675
450
1050
75
1425
525
1650
1200
100000
2925
375
1125
1650
75
300
600
75
150
750
2250
825
675
5025
1950
4350
225
1725
825
375
225
675
3825
450
1050
1050
225
825
1425
300
225
1350
450
600
225
1875
225
3300
525
1650
1200
2625
1275
1650
1425
525
600
75
3825
2175
1050
1650
825
3000
525
1875
900
975
4275
750
225
225
900
1875
75
3000
2025
375
825
375
300
900
1800
225
1875
75
1050
3600
225
300
4875
75
2625
600
675
375
75
675
1425
2250
450
75
2625
675
1125
75
825
1875
450
1950
1500
75
1650
2625
825
2250
1050
4050
2100
2250
3300
675
450
1725
300
225
750
600
2850
375
825
525
750
1275
2400
75
825
750
1875
450
450
450
300
450
600
450
375
825
5475
1050
1425
900
1050
225
675
450
225
4650
1575
1650
4050
225
75
750
1650
225
225
225
2700
225
450
1200
675
1200
1800
600
825
450
600
525
450
825
2100
825
900
3825
5400
300
1875
675
1050
675
1275
1875
2475
225
525
1650
450
1950
2025
1500
825
825
1650
150
5625
600
1650
2250
750
7125
975
75
825
2925
2325
825
1425
1275
1425
450
1575
525
2100
225
4650
525
225
6150
600
900
1800
2925
75
900
600
825
450
2400
750
525
300
2325
675
675
1425
1350
825
1200
225
450
600
1650
1200
4350
2250
2850
75
75
600
600
225
375
525
1050
7425
525
4050
675
4650
225
225
450
300
525
1650
10150
675
825
75
675
5625
75
600
1050
150
675
225
825
825
375
675
225
675
150
1425
600
1725
300
825
1425
375
825
450
825
225
825
2475
1050
1800
3075
675
1350
225
1275
675
825
1125
450
675
1050
450
225
600
1425
2025
3900
300
2100
1800
1275
450
75
2250
1050
1275
225
450
600
75
2250
1050
825
1425
1050
75
900
975
825
1425
675
600
2250
150
1050
225
825
825
1725
975
75
2325
825
375
2250
5625
450
825
450
75
75
75
1875
825
2250
4350
75
75
450
1875
975
225
225
75
375
2325
1050
675
225
450
1875
450
1650
1275
525
750
225
3450
225
4650
75
1650
825
225
450
675
1875
1650
3075
1875
1350
675
1425
2025
825
375
1050
675
225
825
75
1425
1425
1200
300
1050
2100
600
675
75
2550
825
825
100000
2925
1800
2400
1725
300
900
675
600
2925
675
675
975
1875
825
1650
2100
1125
1800
825
1575
7725
4050
375
2625
1275
1350
900
2850
675
450
3375
300
525
3075
1500
1500
225
1050
4050
675
300
2925
1275
225
75
1425
600
600
1650
150
4875
525
600
2175
225
225
1725
4875
225
1125
2550
1875
1050
1575
2775
3450
3525
1950
450
1200
300
1200
300
3075
450
1200
2475
375
6900
525
300
4200
450
300
2550
525
5625
3450
750
900
975
4050
3450
3750
2175
7500
300
600
1125
825
600
600
375
75
150
1500
1950
1575
675
375
1575
3900
4425
225
1125
1425
3600
1725
450
2325
675
1800
1275
1800
1725
450
1500
1050
1875
375
1200
300
600
825
825
450
4725
225
1800
1650
450
5250
300
225
5775
600
1125
2100
4425
450
2550
4725
1425
600
600
825
825
2700
2175
2250
2925
450
375
1350
975
225
2625
825
3600
600
1725
3375
975
825
450
1650
1875
975
450
2925
225
1275
4950
2025
300
225
1275
5250
4350
900
3450
5025
150
1650
2250
1425
1050
4800
1275
3000
525
1050
1275
2250
1575
100000
1650
450
600
3075
525
3300
1425
2100
300
1200
675
2625
525
825
1875
1950
1350
1875
2400
4575
150
750
1275
1125
1050
225
975
750
1350
1050
525
1050
1050
900
600
2250
2325
750
525
225
1200
1275
3525
225
2775
1050
1650
375
1425
450
75
1875
1200
3675
1650
75
1800
1725
600
1275
900
1425
300
1500
750
1050
225
3375
2250
3075
1875
2475
600
225
1200
4350
2475
975
4125
1800
1125
1500
225
3900
225
5925
450
1050
1125
1500
2400
375
450
1125
300
225
3375
4200
225
225
525
1275
675
225
1350
3225
2400
150
2475
4125
900
675
1200
100000
2025
1350
450
300
450
975
825
450
75
2250
225
825
1725
975
75
75
525
225
675
1200
75
75
450
3225
675
1200
3225
225
1350
1425
1200
1425
450
975
1125
825
2025
225
450
750
450
900
2850
450
825
2025
75
2775
675
75
1050
825
450
600
3000
1875
450
675
450
150
450
2100
825
1125
2625
750
1050
450
75
825
900
2850
375
1725
300
300
375
1500
1275
1425
5775
75
3525
1650
2475
3000
2475
450
3225
1275
1050
150
75
900
3000
225
825
375
1425
1575
225
825
675
450
675
825
450
2025
225
225
600
2700
675
1050
225
1125
6225
450
675
5250
2025
825
2625
1500
1200
1050
2250
1275
225
450
225
225
675
1650
225
450
450
2025
600
975
675
450
5250
2025
1875
2025
1425
75
1200
1425
1425
1050
300
450
975
225
1050
600
1950
300
1650
1275
3075
450
2100
1425
2400
225
300
1425
675
675
4275
450
825
675
3375
450
225
825
1050
225
2475
1500
450
2100
2550
1350
450
450
1500
1275
1575
375
1050
450
1050
525
1800
825
75
900
825
750
75
75
1800
225
600
675
150
375
225
1650
1800
750
675
1875
225
1275
1200
300
825
1575
450
1050
1050
675
825
750
1800
1500
1350
675
1050
375
1275
975
975
3225
1050
1650
450
450
1650
600
2250
600
600
450
1350
600
75
1050
225
450
1875
1425
1500
2025
450
1575
1050
2550
675
1275
2250
375
675
825
225
1275
1500
1050
900
1050
375
825
600
450
300
1725
900
600
450
825
1950
450
450
1275
1425
450
1425
600
4875
1050
1800
1500
750
900
225
2550
1650
825
225
450
2100
1425
75
450
825
450
2025
1725
900
300
450
225
150
675
450
1950
1275
1050
1275
150
675
225
1200
75
1650
3000
1050
1575
1875
1050
1050
300
1050
450
450
2475
1425
150
675
1200
600
75
1650
1800
375
1425
450
600
600
1800
2025
1050
225
675
1200
600
1050
225
450
975
450
525
1650
1425
825
675
3225
1650
5475
1875
1800
1200
675
1425
1275
1500
1575
1050
225
825
2100
450
600
1275
1950
75
225
1200
600
1200
450
300
375
900
1425
150
450
225
600
900
450
825
4875
375
300
1800
525
450
1500
900
225
225
825
300
450
5400
1050
675
600
1800
1725
300
1350
4275
1275
2250
1650
2025
1650
825
1650
450
1050
600
225
225
1050
1650
75
675
375
300
825
1050
600
3075
375
150
75
975
2400
1875
2400
675
1800
450
1425
100000
975
825
3300
300
750
1500
225
3000
1050
1575
75
2250
375
2100
300
3000
1800
450
975
975
2175
900
2175
600
300
3225
600
750
675
2850
825
2475
2625
3975
2550
1125
750
2100
300
300
675
9450
1800
9975
3225
2775
600
375
1425
225
450
900
3975
1050
225
525
2250
2475
1350
1875
225
300
750
3225
3975
2400
450
900
2700
450
6450
1050
5850
900
300
750
150
1125
1050
2550
300
1200
750
225
1500
1500
3225
1725
600
1725
450
75
300
2100
2250
375
1800
5775
1050
4575
675
825
900
3525
450
675
2775
600
825
600
75
1050
375
375
2400
1575
300
675
525
825
1575
525
5400
7575
3600
975
1050
975
225
3825
3225
825
825
6075
975
2250
2550
5100
1050
825
75
75
1050
1050
750
450
2025
375
225
1050
1500
600
3000
525
3825
825
1650
2625
525
7500
450
525
675
1425
2850
300
4425
4725
3000
450
1425
75
450
1125
75
75
300
1050
2625
600
450
225
75
900
1275
1125
525
600
900
375
825
450
675
1425
825
4800
1800
1275
1425
1500
4200
1275
1500
1650
600
450
675
675
825
150
225
1575
750
300
750
1800
1800
2175
1350
1050
450
6225
2775
1050
4050
900
750
4650
375
225
1125
1050
75
450
1650
1650
300
600
825
1050
225
375
5250
75
2175
225
2550
3600
1500
525
375
5175
450
2475
3150
1275
600
750
75
825
3675
225
3225
2700
1800
675
2025
1350
2250
225
600
1275
2625
1650
1050
6075
1275
1650
3075
375
300
450
4425
450
825
1725
675
3150
1875
225
1950
1425
600
3600
1050
1575
1950
2400
450
1050
1725
225
1425
75
2025
4500
900
2250
975
75
5925
1875
750
1275
3075
1275
750
675
6975
3075
975
225
1050
3825
3375
2250
1800
825
1650
1800
100000
2250
225
450
1200
375
825
975
2550
1050
1650
750
525
450
1425
1350
900
3000
900
2550
1575
3600
375
300
1050
225
4275
1875
375
1875
2475
750
1650
6450
900
675
1500
2250
2100
4200
3375
1800
2925
525
675
1200
225
975
2550
375
825
3000
375
1875
525
3300
525
1125
600
4725
600
1800
1125
2925
75
2550
2925
675
1650
1275
1725
2850
1650
75
1200
675
1575
375
450
750
975
1200
450
3300
2775
1875
225
225
825
975
525
900
375
2850
1275
1125
3225
1425
900
450
75
1725
825
825
600
675
3000
2175
1650
1575
1125
375
750
975
5700
1500
1050
600
5025
375
1650
300
2625
975
225
2625
525
450
375
900
1500
675
75
3300
1200
675
75
1200
7800
1500
600
2700
1275
675
825
2325
2250
1200
2250
2700
900
225
300
900
3075
975
1425
1050
1500
150
2250
300
675
750
1050
525
3900
4125
1875
4875
2775
3825
3450
1500
1800
600
900
675
1200
600
4650
1800
2550
525
1425
1950
2175
750
1200
225
450
6450
525
1650
825
225
525
675
750
2400
1500
3300
3300
225
750
2100
1275
2625
1125
825
975
675
900
1200
2325
1725
2325
225
225
525
1425
1800
1425
1800
450
1050
1650
2175
525
4050
600
1125
1725
2475
300
1650
900
5100
2100
2550
675
1125
1425
6900
225
1725
1650
4275
1050
1275
75
5625
75
1800
1050
525
150
1725
2700
900
300
2025
2475
525
825
1200
2325
525
525
6150
975
1875
1650
975
3225
225
225
225
1500
6825
675
1200
375
450
1425
450
1050
300
2025
1275
1275
1125
1800
450
825
900
2025
75
5100
2850
750
3450
1050
5625
1200
600
2475
3225
300
4650
1800
1200
75
450
2775
150
600
4425
975
1500
1125
4650
1050
2400
75
150
1425
5400
75
150
375
2550
5700
75
525
300
525
525
825
1125
1800
300
100000
900
2100
3675
225
2775
3750
900
1725
300
1350
450
675
2250
3150
1050
1050
3450
1275
450
450
825
1500
4875
675
900
1875
6300
9450
900
1125
4125
1875
1725
525
1725
1650
1575
600
3075
825
1425
1125
5625
1800
375
600
525
1650
7725
100000
4500
600
975
825
7350
225
3375
1200
3000
75
1650
2625
3000
900
225
825
525
1125
75
2400
825
150
5400
600
300
2475
1800
975
6450
1200
900
300
1275
1050
1425
1725
675
1050
1950
900
900
2025
900
1050
1875
2325
1050
2025
150
1800
1725
2850
75
900
1050
3225
5250
7800
825
1125
2475
600
1350
3450
1800
2625
2025
1425
975
450
1950
2025
600
2250
975
450
975
150
675
2025
225
1575
975
3075
1350
375
1650
1650
375
4500
1500
4650
4200
300
1575
7200
600
4575
3675
1650
375
2550
1125
3525
825
1875
375
2625
1050
150
2475
1050
2550
675
3000
450
1875
8775
300
75
450
2025
300
4500
450
4500
1125
2400
1350
1050
750
1575
300
1350
1650
375
375
1500
100000
1200
1050
1500
1200
1275
1800
1500
375
3300
1050
900
2850
675
450
900
1500
1650
300
150
2175
100000
375
1125
4800
75
5250
1125
1200
225
975
1275
1650
600
3225
300
5925
975
4800
2850
750
375
300
2175
3975
600
150
75
7275
2775
375
150
1500
6000
300
225
2175
450
5850
2325
4575
100000
5925
1725
825
450
225
3750
1425
4425
2025
3525
2025
1800
225
4350
2700
1050
525
375
100000
525
1575
300
3600
675
375
1875
825
2475
3075
1575
2400
825
450
450
1725
1275
150
675
1350
900
900
1425
375
75
825
2025
375
225
300
675
300
3150
1275
2925
2250
1125
2175
1125
150
1875
1425
75
375
2100
1575
1875
300
375
225
2925
600
3525
900
1950
900
375
2625
1575
675
525
900
3375
1875
1800
2475
675
1275
450
300
1950
2400
3150
675
750
900
300
300
5325
3450
300
1575
1650
975
2550
150
975
900
900
2025
1650
450
5100
450
525
2400
75
675
450
225
1500
2475
75
975
1875
2550
900
1050
600
1650
825
750
4500
450
150
225
225
600
1200
225
4200
750
450
1650
300
3675
1500
1050
1275
375
75
375
225
600
975
75
600
2025
1650
1800
1200
375
975
3825
975
4275
450
600
375
150
75
675
3300
150
1200
450
3825
525
1200
1575
5400
525
525
225
1050
750
300
1425
1350
225
5550
300
300
375
300
450
150
750
2325
1950
450
225
225
1200
1200
975
3375
1575
1050
1350
2250
1950
5025
300
375
4050
5250
1275
825
2175
1425
675
825
2400
2700
1125
450
375
225
4125
600
375
3675
675
75
5475
1425
4275
450
5925
1350
525
375
450
2100
900
2775
525
2475
1950
900
1050
525
225
3000
2025
825
900
2550
2100
3450
1275
600
1425
300
3075
1500
3075
450
3975
4950
450
225
3825
4350
300
2175
450
1200
4500
3900
4275
1050
4050
1575
375
300
600
600
2400
375
900
3300
300
1200
675
2325
300
1050
825
2325
1050
2250
1725
2775
750
375
300
1425
1500
1425
6750
525
1800
300
525
1350
3225
3825
1200
1575
1500
675
2250
225
3300
1500
1950
2250
1350
1800
2325
375
3675
300
1725
6075
2025
450
525
1725
1125
675
5625
450
150
1425
2250
825
525
3075
7425
3450
2400
75
450
825
225
1200
2400
525
900
5700
75
975
1725
450
1950
450
525
450
3000
1575
1650
100000
3675
4050
1050
1425
6600
3825
450
2325
1500
1125
2925
1950
1725
1725
825
900
75
3150
750
600
1575
1350
1425
2475
1950
300
1200
225
150
1500
75
450
2325
8625
3675
150
3000
3600
1350
2025
3150
6075
225
225
825
1275
225
150
1200
3300
1425
3075
1500
600
1950
375
450
1200
2100
2325
900
1725
225
225
4725
1275
600
450
3000
1350
1200
3825
2100
2625
300
2250
1425
1125
225
300
1275
1875
600
1275
3525
675
1050
2925
1125
675
75
1500
675
525
2250
1275
900
4275
900
600
825
900
1800
2325
675
2250
450
825
2700
750
600
450
1275
4500
2850
375
2175
750
1650
3600
2475
675
900
5775
825
1650
75
2175
300
2325
1050
225
225
2925
450
225
5100
1575
900
900
150
75
75
1575
225
450
1800
375
225
75
6225
600
1725
375
375
1950
2700
3375
1275
1275
1275
2100
1425
225
3600
3225
3000
900
75
2475
1275
3375
1050
7350
225
900
825
825
1875
975
3075
2175
6000
2475
3675
6450
450
1725
600
1350
3150
225
600
450
525
1125
1200
2325
1125
675
300
1650
450
300
2700
900
1950
600
4875
75
450
3075
1275
375
3075
1650
225
750
750
2025
2475
2850
300
1725
3375
525
600
975
375
3375
5400
1800
525
600
450
75
300
1875
2400
675
2700
1275
3675
1575
600
975
2925
450
675
1875
1275
2775
1875
225
2550
2475
1950
375
450
75
1500
1125
1500
525
2175
1575
900
4875
1725
225
1800
2100
1350
1125
750
375
75
1425
375
4275
525
4650
225
375
600
150
525
1125
3375
750
225
675
1650
825
150
7800
3000
3525
3075
675
2025
225
300
1500
2625
1650
750
1050
675
1050
1575
2400
825
450
300
450
525
1725
8100
600
75
675
225
2250
975
2250
825
1425
4125
450
600
750
100000
2025
375
975
2100
2250
225
1875
525
825
3750
1125
4425
525
825
1575
600
450
300
225
900
225
525
75
2925
3225
2475
1275
1875
225
1875
825
75
525
1275
2025
600
1275
825
1200
7200
450
675
450
225
825
1800
2175
525
2550
1050
225
375
2850
300
825
450
675
1575
1950
2775
225
1275
4050
1650
600
1875
450
3825
1800
450
1050
375
1875
750
1500
4200
750
600
1650
1650
450
1200
3000
75
1050
750
300
600
525
2175
1575
600
3225
825
675
3900
600
600
1500
1650
75
4125
1950
1050
75
300
2400
225
150
1725
675
600
600
825
525
900
2475
1125
1875
1050
1650
225
450
1650
225
675
1500
2100
300
450
600
1725
2475
825
225
900
675
1800
1050
150
1050
2175
1200
2100
750
450
675
225
75
2775
2475
3675
2550
4650
675
450
675
375
450
75
825
1350
1725
2025
150
3000
1200
1725
600
225
2850
750
2250
375
300
300
6075
1575
1275
2550
900
1425
75
750
3825
1425
450
1200
300
1350
5325
675
4050
900
300
600
1650
1350
300
1050
975
3450
3075
225
225
1125
750
75
2325
750
1725
450
525
2025
3825
2775
375
1725
1050
450
600
1800
825
150
525
1350
225
3450
1125
2775
450
1200
975
225
450
2625
2175
2175
75
300
1200
75
2325
75
600
4200
3000
75
450
300
675
225
1125
225
375
1125
6675
1200
1500
525
750
5250
3750
750
225
1425
300
675
1275
375
900
1050
825
1125
1800
825
2850
3900
225
375
4425
225
450
675
525
975
4350
675
300
450
225
3450
2250
1950
3075
450
450
1050
900
2025
3075
450
2250
450
1575
225
675
2700
2025
300
1425
1425
2175
3525
1950
2100
300
1650
1500
4650
1275
300
75
600
450
3150
675
375
6750
75
1275
900
2250
825
900
1050
675
750
2400
3900
750
1875
2100
1725
3300
2925
1200
525
1350
4200
300
450
300
600
450
1650
375
450
75
600
2100
5025
75
900
1500
525
375
1875
1125
675
375
750
1275
375
675
1650
1275
75
750
1575
750
1125
675
2400
825
975
825
1050
2475
1875
450
675
100000
1275
300
825
900
1050
750
975
1875
1125
600
1275
1800
75
525
4650
225
825
2700
450
375
975
675
1350
675
600
1050
2850
825
1425
1275
450
600
1050
1725
1425
3000
300
150
75
1725
2175
825
6300
900
750
1125
1050
1875
5700
300
675
600
4650
3225
300
1125
1425
750
150
1725
2850
1125
1125
2700
225
1875
1575
5625
1050
1050
600
2025
1725
2025
450
75
825
975
1425
2025
825
825
750
1875
450
1575
6225
450
1050
225
1650
1650
300
3600
600
2100
6600
1200
450
675
300
375
2475
975
750
3375
1200
1125
1500
2625
1650
600
975
300
900
975
1200
975
600
1950
225
1425
1650
1725
2100
675
300
3675
675
300
450
450
600
450
1200
525
900
150
975
3375
675
1875
225
825
75
4800
3450
6225
225
3900
2025
525
1050
150
825
1800
1125
1800
600
1650
825
1050
225
1950
2550
1650
1050
1950
450
3675
1500
1425
2400
1125
1200
1650
450
150
1275
450
750
2025
1650
1500
3450
225
3300
300
900
1800
1125
450
675
3450
675
2400
1425
2250
150
1050
2550
3900
3450
825
525
675
525
2025
225
600
1200
3600
150
1650
900
1950
975
1575
1275
600
150
75
750
225
2775
675
225
825
3675
1050
825
75
225
450
675
375
1725
1425
750
375
975
4725
2250
2025
1875
375
4575
225
525
3000
1800
225
975
525
2250
225
675
3000
825
2250
75
750
225
1050
675
1275
675
1350
225
675
150
150
225
3450
750
375
1800
225
825
300
375
4875
1950
600
1050
225
375
1650
1200
450
525
1425
2850
1875
825
1050
450
1875
2250
1050
1875
1050
300
375
1050
2250
375
1800
150
2625
1350
900
1800
3000
3300
375
225
450
1050
2100
4050
375
4650
675
675
1200
1275
675
600
1725
2400
2700
300
1875
1425
1425
150
1875
2250
1050
450
4200
2400
225
1200
1350
75
900
1875
450
900
225
450
450
600
225
450
1725
225
750
1125
1125
2400
75
2100
225
450
300
225
1800
1050
825
750
1125
75
600
2400
375
675
1575
450
1725
825
2700
375
1950
1275
450
750
1875
2100
225
825
300
300
150
450
1275
150
600
900
4425
225
600
100000
900
1125
450
2025
600
300
825
1575
2100
5250
150
675
750
525
675
1650
450
300
975
1500
2850
75
2175
900
450
750
3225
2400
375
1500
450
1800
2250
1275
3000
825
450
225
2625
1425
450
675
600
825
1050
1800
225
375
225
1425
75
1050
450
2400
1050
300
1050
4425
225
675
600
2475
450
525
3600
1050
300
825
300
675
5475
450
450
1500
450
75
900
300
675
900
1800
75
1425
3600
2550
900
1650
2850
600
450
1350
600
1125
375
1425
2475
3000
5625
1575
225
1425
1425
2550
1200
2400
225
1200
300
600
450
2025
825
150
450
450
2025
675
375
75
600
2025
1800
75
5175
1575
1050
225
675
975
2475
1650
375
600
3075
1050
1425
675
2025
2475
1575
300
450
1650
75
1050
300
5925
1950
225
150
2550
6675
5475
1650
1350
3225
300
1875
675
1050
3525
900
75
450
675
75
525
1800
825
1800
1275
1800
375
1050
2475
525
975
6000
300
1050
300
675
300
525
525
225
525
75
900
675
1200
1200
2025
375
300
825
975
675
3300
150
3600
150
300
3675
3000
1575
1650
3675
825
750
1125
3900
450
1125
1725
1650
1875
1200
3900
3000
4200
2700
225
675
1500
1650
1875
2025
750
3675
450
1500
1500
3000
2100
900
1500
1200
825
1275
600
1425
1125
825
2175
1800
750
1200
225
1575
1875
2100
1200
2250
300
825
4050
1575
225
4875
975
3000
675
3825
1050
1050
600
300
900
225
1050
2100
75
150
75
75
525
900
900
1050
600
750
4875
1425
1575
1275
1275
2850
75
600
1950
825
1200
450
225
600
450
1500
1650
675
225
1875
2250
2250
1575
1275
600
525
150
1425
2925
450
2250
825
1725
450
1500
2625
525
1200
450
600
3150
1650
3075
2625
75
1425
2700
300
1200
600
2025
675
300
675
2625
2850
450
225
600
750
225
900
300
1575
225
675
1050
300
1200
2250
2400
1050
3675
450
900
300
300
675
3225
2025
375
675
225
750
3300
1050
450
1275
825
900
1050
300
300
1050
1425
375
675
3675
300
2025
1800
1425
1425
2475
1500
750
2025
2475
2775
1875
100000
3450
2850
525
750
2025
1050
225
1050
4200
2025
2850
300
1350
5925
5775
1350
450
750
1200
525
300
1050
2850
450
2100
1050
2250
375
1050
1650
375
675
1425
750
375
1650
4725
4125
300
225
900
2025
2025
2100
825
600
675
2100
225
4650
300
3150
450
3825
1125
2250
225
525
900
2250
150
150
1350
1200
150
4050
600
750
825
1050
900
225
1350
1050
2175
975
450
75
1200
2025
225
750
6375
450
1800
300
1800
3300
2850
750
1650
2325
1575
1650
75
825
450
1050
2625
1650
1425
525
4575
2175
225
1950
2325
1350
750
4725
225
1350
3225
1725
150
3300
4875
525
6825
900
1050
1500
1725
4500
900
100000
2625
1350
525
450
1350
300
750
1575
825
225
1125
600
525
1050
225
225
1050
2475
1500
750
75
975
300
1875
150
225
2625
2550
100000
450
1350
150
1275
2550
825
1200
225
5925
75
600
2250
225
1125
1425
450
75
150
1350
1500
225
150
1950
3075
1050
1275
3000
300
1950
2400
300
300
3750
225
1350
1725
900
2175
675
3900
1125
1200
2100
2025
2550
1575
4575
300
3600
900
1050
3225
450
1650
2250
750
3525
4050
600
750
2400
3450
525
525
1725
8700
750
825
3450
600
600
3600
825
225
825
75
225
300
1650
300
1125
3975
3525
2550
825
2850
2550
4725
75
2625
75
375
1650
2850
825
450
225
2700
2475
150
450
7425
3075
4800
1650
3150
5850
2550
2550
225
2100
825
2850
5625
1200
900
1650
900
3450
450
825
900
2925
1050
1575
1050
1350
600
375
675
300
600
375
7350
1950
5925
75
150
750
2775
1425
2250
2100
2250
150
1050
3225
1275
1275
1200
3150
600
1500
1950
900
600
1950
1200
100000
2700
2625
2550
1650
300
1350
525
1575
1200
2100
2925
2250
3450
75
3000
225
1725
1875
300
825
450
3075
675
975
675
300
600
1800
2475
225
1650
1500
75
2850
600
225
225
375
375
450
1500
825
6000
2400
750
300
1200
675
75
750
3150
825
450
900
300
1050
3000
300
375
1425
1800
825
1650
1425
225
1350
75
225
1575
4875
2400
900
150
675
1050
2400
300
975
1050
2175
825
525
450
225
1050
1275
2700
75
825
600
1650
1200
75
3150
2475
525
2400
1575
675
525
525
4725
750
900
525
900
225
2775
450
675
225
600
1875
975
300
225
525
825
1800
300
225
5025
1500
225
1650
7575
300
600
3450
675
1425
900
1050
450
1800
1200
1500
2100
1275
3225
2550
225
450
1650
1275
825
750
1650
1350
1875
225
1350
1275
1050
450
600
1875
2550
975
825
600
3000
300
3000
3525
5250
75
3300
4275
450
1575
2250
3300
675
225
900
1125
75
150
2175
150
975
450
1200
5850
2400
450
1875
6825
5100
1500
675
1200
1725
225
825
1050
225
1500
525
525
300
600
1950
3225
75
1275
150
5475
375
2550
600
750
750
150
1350
2550
2025
600
300
5625
2175
1575
1575
2550
4425
2250
900
150
5250
4650
2850
525
600
450
1575
1275
4500
1200
525
300
600
1725
225
2850
225
225
300
1200
3075
1425
225
1950
825
2325
825
300
225
1500
75
675
2250
600
300
150
2250
6150
525
1050
1425
1425
375
1650
2475
825
675
150
600
1650
3525
375
825
900
900
1800
675
1725
750
1050
150
2625
2850
1050
375
1200
600
3150
1500
675
1500
3450
2475
675
600
450
1875
3675
1650
1425
3225
525
900
1425
1275
450
2850
75
75
525
450
1350
1050
1125
1050
2250
75
3150
450
1725
375
3000
1050
1200
900
1050
2025
3975
1500
1200
300
600
600
3000
675
750
2250
600
2700
600
375
1275
1800
4950
675
300
1050
1425
4125
600
2025
1725
900
600
300
1350
1050
2325
1575
1875
4500
300
100000
1950
75
225
900
600
2475
900
300
2400
1425
1425
75
975
900
300
75
1500
450
825
1050
225
675
3150
750
300
2250
1575
2475
1050
750
5700
300
900
450
4275
2325
1050
600
75
2475
900
900
1275
675
2700
1500
675
525
900
300
1500
4200
3675
975
5400
825
1500
450
900
2250
3150
2550
2100
600
1950
225
75
525
3150
75
75
825
2550
1350
600
1350
300
675
675
450
1725
1575
4500
2025
1425
225
5700
1275
1425
825
375
3225
375
3075
150
75
450
225
900
2025
600
150
2250
900
2475
1275
3075
1500
1200
300
300
150
1575
3975
300
4500
675
1650
3000
75
1350
3750
1950
375
1575
750
675
450
825
825
1425
900
2175
900
4125
3450
300
1050
2475
825
1425
4200
1050
1275
75
2550
4125
150
2925
1425
225
1275
750
1125
675
1125
3000
5250
675
300
3600
75
75
1800
675
1275
1275
225
1350
2175
300
900
2925
1050
900
300
975
1725
75
2700
525
1275
1050
3300
4500
75
1125
2625
450
1500
225
1050
1875
2400
225
1050
1800
1050
75
1200
900
1350
3975
75
75
150
675
2250
2325
1425
375
2025
675
900
1800
1200
1125
300
1275
3225
2550
3900
450
900
750
675
1725
75
75
825
1575
75
600
75
2250
3150
75
525
675
1050
1875
300
375
900
2100
300
600
1575
1650
150
1875
375
225
375
2250
1650
2625
600
1425
675
1275
75
1050
750
750
1200
225
675
300
750
2025
4050
3225
225
4575
2700
1650
900
2025
450
675
600
2325
2100
3300
300
750
2475
75
750
1875
2325
900
75
2400
675
2100
225
900
825
375
750
4875
2475
2400
75
3600
1425
3225
2325
1650
1200
375
1125
1275
675
2775
600
4500
1800
1125
150
3450
2250
975
5100
7050
150
450
225
2325
7200
450
1050
450
300
2250
3075
300
300
1200
1500
525
1200
900
450
3825
75
2100
825
2700
1275
375
2100
225
1650
4800
1200
1200
225
900
75
2850
75
3525
300
5625
300
825
300
1200
825
100000
1275
525
4800
3600
900
1725
1050
5925
150
900
1875
75
300
975
600
300
975
225
1125
3150
5100
2325
1500
9525
3900
450
675
750
1200
675
75
150
450
150
825
225
450
1275
6150
150
300
1425
3450
300
450
675
900
150
1350
4200
1350
3150
450
525
225
1500
1500
1500
300
3450
450
600
450
450
1050
900
975
1800
2400
750
525
600
525
300
600
675
375
2700
2400
825
1650
900
2025
3975
750
225
150
2400
3975
300
1875
675
1050
3375
1500
1050
1425
1350
300
450
1650
450
375
900
900
450
600
600
1725
1725
525
6450
600
150
525
1125
3600
300
2625
2775
975
3375
675
600
675
150
150
150
300
525
2325
3600
300
600
75
1575
600
2325
2100
525
450
1875
1050
1125
1650
1500
2850
825
975
300
75
975
1125
525
75
2925
600
300
3300
225
375
1725
1350
600
375
1125
1950
5025
450
300
225
1125
2025
3525
2400
450
1725
2550
7575
1575
2025
525
375
375
375
1650
3825
4725
450
1950
1575
1350
2775
1200
7650
4800
1650
375
600
3450
525
825
750
450
375
300
300
100000
1425
1050
7500
1950
975
900
3375
4800
450
525
675
1050
3225
1875
225
600
450
75
1425
1050
1500
1200
600
375
600
450
375
750
225
825
525
2400
4725
1275
2775
450
2100
1575
1125
525
1575
300
1500
1200
1725
675
2700
300
1950
1350
1125
600
2025
2850
2400
75
4425
450
300
75
1050
4425
7200
6450
5100
525
1875
450
225
300
450
1800
2025
150
2175
300
300
675
5025
600
7125
1575
150
600
2775
2700
1725
225
2400
5250
675
75
150
1425
1350
300
375
4050
300
1200
1200
450
1575
2250
525
1875
375
300
3300
750
525
750
900
1200
1275
4650
1725
1200
375
525
1200
3900
3900
4725
300
3450
825
600
300
2100
1800
375
1725
75
300
1500
1125
825
3075
100000
100000
2025
2925
1425
6225
225
2250
750
1200
2700
1125
225
2400
150
1050
900
1950
3225
1425
225
8025
150
3300
1125
75
825
525
2025
3825
75
2400
3000
1800
1050
1350
2250
1650
1275
2250
1125
600
600
1425
1125
675
975
2700
2025
4200
1500
1800
1875
225
1425
375
825
1425
600
1425
1050
1725
825
1575
225
825
225
2925
750
1275
3750
1050
375
1650
975
1050
600
300
2325
375
2250
2850
675
3150
1425
1575
750
1950
75
1950
3300
75
225
3825
750
1875
1800
2025
450
5100
525
3450
1650
3000
3075
1350
150
750
2025
825
1125
3000
675
600
1125
675
600
1275
225
675
1950
825
2700
150
450
675
675
1200
150
150
1650
450
225
1725
225
675
4050
225
450
3675
3975
900
2550
1425
3300
4125
1575
525
825
525
225
1050
1050
1950
1950
4275
150
1200
2475
450
2400
1500
450
150
9450
525
450
4650
75
1200
1950
5400
3000
4425
1125
1200
900
225
1950
825
1650
1725
225
900
600
75
825
3900
150
1500
4650
225
1800
1125
75
450
150
75
300
75
1950
675
675
600
75
2325
150
975
450
2250
1275
1650
3450
1500
4050
1950
225
6075
225
8550
2325
1425
450
4050
600
150
3000
600
825
225
600
3450
300
2100
825
1950
2925
600
75
150
1425
2625
75
825
1050
2250
750
1875
1050
5025
1200
3225
450
750
150
5025
675
675
1650
375
1950
825
75
600
1200
1050
750
2400
1425
2550
1425
675
3300
600
1500
825
7350
75
150
1425
4500
450
900
7650
2250
525
1950
3750
2025
750
3075
225
1125
2250
3750
1725
1650
7875
2625
450
2325
1125
3825
1050
525
1125
3450
1125
4950
3300
825
2250
600
450
750
1650
150
2550
975
450
2550
2325
300
375
75
225
900
225
100000
1800
825
1200
1275
2775
3450
75
1050
2625
450
75
4650
450
825
900
600
375
1425
450
675
75
3450
2025
450
600
825
7650
900
600
300
450
5025
75
825
825
75
6225
2850
300
1575
825
1050
450
225
225
825
1050
1425
225
825
225
450
3075
825
225
3825
1650
3225
825
75
675
75
2625
1050
450
6825
225
825
1575
225
600
3225
825
3825
2850
4275
5625
2850
1800
2850
1050
825
4425
2025
1650
1425
675
2100
1200
4875
600
2400
225
75
1425
2025
6825
1875
1275
1650
600
2250
75
675
2250
1875
2400
600
1200
3225
1875
2025
225
450
1425
225
1275
3075
450
225
450
1050
825
675
450
675
4875
5625
75
2100
2625
2625
1425
1650
1425
1050
1875
2100
450
1275
300
75
225
225
225
1050
1200
2475
450
1275
150
2400
4200
1650
5250
1875
900
225
3825
1050
1200
1125
3000
450
975
3000
1425
900
600
825
825
1425
225
2250
75
1425
225
4050
2025
1050
4425
3075
1200
225
1500
1650
675
2025
3450
150
225
2850
1200
75
450
5025
1200
300
2250
675
3000
3225
225
225
225
2025
225
1050
900
1425
600
1275
450
1050
450
1275
1425
3450
4050
450
675
225
2475
75
2400
1800
300
1425
225
1425
450
6450
1125
3000
450
675
6225
1725
1575
1425
4125
2100
825
825
225
2400
225
300
1425
1050
5025
450
1425
1650
300
825
825
75
2250
825
2250
450
75
2025
2475
675
1425
3825
1650
1650
300
1200
1650
1650
3225
525
1650
8775
5250
3600
825
600
2850
825
3450
2400
825
300
225
2625
600
1650
2850
2625
75
825
1125
300
3450
1425
2475
300
450
600
75
2025
7050
4050
675
5850
600
1200
2025
2400
450
1050
2850
1425
1050
2625
5025
675
1050
675
675
3825
100000
975
1125
1050
225
1425
1500
825
1125
1425
1425
300
1125
2625
825
3900
750
9600
750
675
1050
1500
225
450
225
900
225
3975
600
5025
75
525
1425
225
1275
150
450
1500
1050
450
4650
225
6750
525
75
450
450
225
225
150
600
5850
2700
3825
1050
1500
975
3000
2175
1050
675
2325
825
975
3150
450
1125
1500
3600
1125
1350
375
225
3000
225
300
600
900
600
2250
3450
2325
750
1200
825
1200
75
975
825
600
1200
225
375
1425
225
6225
1350
225
1650
75
750
1650
450
2100
1425
1725
450
900
1200
450
3450
3900
1050
1350
2775
1650
450
1575
225
150
600
3225
3225
300
1725
300
2025
5250
2175
525
2475
825
2925
900
2550
750
225
450
150
825
225
75
75
2700
1200
1125
1500
225
2775
225
675
1800
1425
3225
2400
1350
225
2475
900
225
2625
2100
525
525
1350
450
1125
225
525
1650
300
3450
1875
1200
1350
675
1725
2325
600
2925
225
525
4500
675
300
2850
675
1500
2850
3075
2850
1050
1050
1275
1275
1125
375
825
1350
975
3075
4275
1650
300
3450
600
975
1125
300
2025
825
450
375
225
5700
825
1275
300
4050
6075
1425
300
975
1275
600
5850
675
450
300
1875
4050
75
3300
1950
525
1050
375
225
900
1350
1950
1050
2700
1500
375
3000
450
900
1500
150
150
2250
1350
1875
3000
225
2850
75
150
375
1125
450
2475
1125
375
375
1800
1650
825
225
300
600
825
3525
5775
3375
6450
1425
1200
1650
1425
1125
3000
225
1425
825
600
2925
2175
1200
4800
825
2850
3300
150
1650
225
75
2025
225
1950
300
750
900
1425
1500
3675
675
6000
225
900
300
900
2625
1725
1275
300
1425
1050
750
75
600
2100
2850
1050
600
1500
675
675
750
1500
225
1125
1050
675
2325
75
150
300
75
300
1125
3525
1050
3975
975
825
900
3975
2400
300
675
900
225
900
3300
1500
1500
2250
5700
75
825
450
825
675
100000
600
525
1650
2100
3975
75
3075
1200
225
825
225
2250
675
300
675
3600
1125
1050
1125
375
2625
225
450
900
375
300
975
225
1350
1050
2025
825
225
1125
675
1650
450
1500
600
600
825
450
1350
825
450
300
1275
1050
450
2250
450
450
2475
75
600
3000
1800
2025
1425
150
225
450
1800
150
75
75
375
600
1500
225
1650
975
75
5025
2025
2100
975
825
1050
225
450
1050
300
300
1125
75
300
825
300
450
75
2475
2325
1650
1425
2475
2100
2025
2025
75
900
1050
450
1050
825
3450
1650
1425
1275
450
1050
300
675
300
675
1425
2325
1650
825
825
675
2025
1275
4050
825
825
825
450
675
2025
1500
300
300
1425
600
450
1050
1050
1650
675
2025
300
225
825
1875
675
1050
825
1275
525
450
75
1425
675
1875
1425
900
375
450
225
5025
1350
75
150
525
450
600
2025
450
1500
75
1500
2250
1800
1275
825
375
3450
450
225
900
450
900
450
1050
675
1050
450
1425
1425
1275
375
75
375
750
1575
9225
300
525
900
1650
900
750
375
1875
2700
1425
1200
825
450
900
1050
5025
900
600
225
1650
1125
6075
75
1050
75
75
825
225
2850
1425
600
1125
450
75
375
450
1650
675
225
75
300
3225
1125
1125
600
675
900
2400
2625
1575
825
675
825
3450
1650
2625
375
675
450
900
3525
1800
375
225
375
2625
1575
225
450
750
2475
2250
600
1125
225
2025
75
1050
1200
1725
450
750
1575
2400
2700
3300
225
1425
300
450
1050
450
300
3000
2025
225
75
75
300
975
1275
3000
75
1200
1200
300
75
1200
3450
825
375
600
600
1800
75
525
225
900
3375
1425
1050
825
1425
1275
2475
1200
675
1050
75
1425
3225
825
2250
300
600
300
1050
825
1650
2325
225
450
675
525
225
975
2850
2175
3300
675
225
225
1650
1050
825
75
300
2025
225
300
5025
225
1425
3525
225
750
1050
225
75
150
1200
3825
1125
900
2475
3600
2025
1050
1425
75
225
1350
450
675
1125
1200
225
750
1800
2025
1050
975
5250
150
1050
1725
1275
1050
975
3675
675
300
3000
450
225
675
1800
75
450
1200
1575
450
1200
525
5250
450
1875
1200
6225
450
675
2475
1650
1875
975
225
75
600
150
1875
1950
450
225
1500
225
1050
225
1200
750
3000
2925
825
900
4050
75
225
1800
100000
1125
150
600
2025
150
3975
2325
75
150
1950
900
300
3150
300
4350
3900
2475
6150
750
7050
2700
525
150
1050
4950
300
2925
300
2250
450
1950
825
2775
300
975
450
1800
600
225
450
3150
2400
1350
600
900
1050
2175
3750
525
1725
450
375
3225
1875
3975
2175
2250
600
1500
4800
525
75
2550
975
225
2625
600
2925
300
225
3000
4125
3300
1800
450
825
300
2475
2100
1500
225
225
1125
2700
450
375
450
1275
6075
6000
1350
75
6975
6225
1500
675
450
975
225
4275
450
1275
1200
675
6750
1350
4425
600
375
1050
1875
450
2850
1650
1500
3750
1200
3300
375
900
600
300
975
1575
1800
750
825
3600
75
1200
3825
2025
3375
600
375
2100
1725
1800
75
375
225
1950
225
900
825
4575
1950
750
450
1125
6450
975
900
150
1125
825
9900
1800
600
675
1050
4575
975
2325
4725
750
975
450
150
2400
375
600
3300
1275
1275
1725
375
600
600
3450
150
1050
2100
1800
225
1125
1275
750
825
750
1425
75
2550
2175
1275
3075
1425
2250
450
375
675
675
825
675
525
1800
2850
675
1950
75
75
2025
600
1500
450
675
825
3000
900
3000
1050
900
675
2175
1800
900
450
5550
2400
2250
2775
1050
2475
3225
4050
1350
75
100000
1800
2025
750
4875
450
1425
1950
450
2700
1575
1200
1200
300
3000
225
2550
900
2925
3225
750
375
2925
375
4950
1125
1500
525
4050
525
4200
1800
1575
4500
1800
2325
1575
1350
2250
3825
1575
3600
900
1800
4200
75
75
900
1800
2700
4500
1050
2250
3150
75
1200
2025
900
3750
2025
675
5100
3375
3375
100000
450
1125
675
975
75
75
225
1050
825
375
2475
300
675
225
450
825
450
825
3075
975
3750
75
450
300
225
825
1875
300
2100
75
150
1725
1050
450
75
525
4125
300
900
1875
975
75
900
1275
450
1425
1425
75
750
1725
1725
825
3600
225
225
225
150
225
750
2850
375
1425
300
225
600
225
225
675
825
1350
825
675
675
900
1050
2625
1425
1800
1350
1350
1650
75
375
225
2475
300
75
1425
300
75
150
225
525
450
450
225
150
825
225
75
975
450
825
75
450
825
450
450
450
450
150
675
450
450
2250
2175
225
300
4050
1275
675
450
225
225
525
375
450
675
450
1125
1800
1650
825
300
75
1800
450
450
900
1425
225
75
525
450
150
450
450
2100
450
3825
150
75
1350
375
1425
75
1050
225
150
75
2100
675
1350
75
225
1050
75
450
300
225
675
75
675
225
2025
2325
225
225
525
300
525
225
3225
300
1200
750
2550
1425
1050
825
2025
675
1575
600
2025
225
3300
1650
225
225
675
225
2475
225
450
1350
450
375
225
600
1050
225
1950
225
300
225
1725
225
225
2025
450
225
2025
825
2025
75
450
525
75
825
975
450
75
525
450
225
1650
225
75
825
450
1050
225
4425
825
1500
225
300
675
225
225
1350
1425
525
225
450
825
300
825
375
600
450
450
825
1200
225
1050
1050
450
600
1275
225
1350
825
825
450
3150
225
825
75
525
450
2250
225
225
1050
75
150
600
225
75
75
450
450
2100
300
3075
900
225
675
1350
450
600
225
225
300
600
675
450
75
300
600
225
675
900
75
3450
2250
75
825
1050
600
75
825
675
1875
75
825
450
825
300
450
825
2025
225
1050
450
225
225
1800
450
300
75
525
150
1275
825
1050
150
75
75
525
1200
1875
300
225
1200
75
1875
450
375
1800
450
600
75
1425
1050
1200
2850
2475
825
225
300
450
1200
450
600
300
450
3225
750
225
1275
225
900
1050
150
75
825
1425
225
450
450
225
225
150
975
450
450
1050
1050
600
600
375
225
1125
1425
150
75
525
2250
1125
825
825
825
150
675
975
450
75
600
675
2625
1350
1050
675
75
1050
675
825
1425
1500
450
75
1050
1650
1425
1050
225
225
75
150
1875
1350
75
225
1050
225
150
225
300
3825
1275
225
450
1050
75
225
225
825
1425
375
450
2850
825
225
1425
2100
3225
2475
525
4875
450
150
1275
225
450
150
2325
300
2250
1425
450
1200
450
300
750
75
525
150
225
1050
1050
225
450
675
75
1650
2250
2850
450
225
675
1425
2025
225
1050
825
1200
600
675
600
600
75
825
1650
75
825
75
825
600
1050
75
450
675
225
1350
1800
825
1650
1050
1875
1050
1050
1050
300
2100
675
1425
675
450
75
1050
600
600
75
2475
1275
1050
225
1275
2025
450
1050
750
225
675
225
1425
75
1875
225
900
3075
2250
1275
150
525
150
225
300
375
450
1650
450
450
2250
1275
225
225
600
75
375
825
450
225
1500
825
525
450
975
75
3000
75
1425
1275
1425
1800
150
525
450
1875
1050
100000
3300
3450
1725
375
300
2850
5325
750
75
2325
675
1650
2025
1950
450
450
75
300
1275
1650
1050
300
1725
375
3600
225
75
900
3450
1275
1275
75
1500
1350
525
1725
675
450
450
1800
300
300
1425
1050
825
6150
300
1200
225
1500
225
2100
300
1425
1350
4950
900
1500
1500
2700
300
75
3225
1275
6750
2250
525
900
2100
1200
1050
2925
300
2625
1200
225
600
450
2400
450
375
450
3375
1875
300
750
450
225
900
975
825
300
1575
600
3300
1800
1575
1425
1050
3300
4350
975
750
1350
675
1200
525
750
225
825
675
600
1875
750
2625
975
2025
375
1725
675
225
450
75
1650
1050
600
825
2400
150
1500
900
2025
2025
2250
1875
450
75
1125
1050
900
6225
2400
975
3900
2925
450
300
225
2325
375
4425
975
675
1500
450
300
1800
675
2175
1650
1650
1050
1050
300
1050
825
600
300
2250
4950
525
675
2700
825
375
75
300
5700
1650
1200
1200
825
75
2250
2775
150
750
2025
375
900
675
600
750
750
1050
1275
300
975
450
1875
3075
375
375
2100
1050
600
5025
375
600
375
975
225
1575
3600
75
1050
1050
1875
450
900
675
225
450
150
4500
225
225
2925
825
1050
1350
525
300
1875
1875
1725
825
300
750
1425
300
1275
525
1875
675
1650
1875
2025
2100
450
75
600
750
825
825
450
1275
825
1200
2100
1800
1950
3300
1200
75
825
1500
2025
1050
6450
300
3225
600
1200
675
2025
600
1125
675
975
1575
300
675
2775
6900
750
1650
1350
3825
300
300
1500
1575
1200
2025
300
600
2100
600
375
2475
1650
150
975
1875
1350
3900
1500
1500
2850
1125
1800
1425
3225
1800
450
375
675
75
1575
1275
1500
1425
6450
2400
375
825
825
1125
450
1425
2700
225
3225
75
1050
450
300
75
1050
525
375
1050
1425
525
1725
600
300
225
2700
450
750
300
2025
300
675
1500
675
300
150
1200
675
225
600
375
1425
1275
1425
300
2100
975
2925
1650
4050
1125
900
2550
900
225
600
375
750
1950
3450
750
2025
75
1500
375
1200
900
1050
1575
675
300
525
450
450
150
825
75
525
2400
2100
100000
1275
2625
1575
450
1875
225
3375
225
2400
1800
1200
3600
675
1275
150
1425
600
1200
2400
1500
225
450
675
900
825
225
825
1425
1875
2625
675
2475
675
675
300
900
2100
675
1200
75
1050
225
1500
2250
4050
1800
300
450
675
2625
3825
450
675
1275
1500
1125
2700
2250
1650
225
1275
300
1350
450
450
2250
300
3225
975
600
1500
225
2325
225
900
2925
450
2850
225
1800
2250
4275
225
375
1950
150
3150
3075
2250
3075
150
1050
1650
900
600
2625
900
300
825
225
675
2250
600
4800
1425
450
675
675
300
225
825
675
2850
75
1200
1275
3225
1275
1800
675
300
300
300
75
675
4275
225
150
450
300
2325
600
900
450
750
975
300
750
750
1875
150
600
1425
2475
3075
600
2325
450
1350
2100
525
1425
675
3075
600
225
450
1050
225
225
825
75
300
2250
900
450
450
1050
900
600
1950
2550
1050
225
675
2700
1650
1050
300
675
825
1275
1500
600
600
300
1425
225
225
225
225
1650
300
975
450
3450
600
525
825
150
300
300
1050
300
225
1125
2850
1875
1275
2100
825
75
825
150
1050
450
375
1425
2175
450
600
975
150
600
1350
225
750
450
3000
1050
225
1425
2025
375
2325
1425
1425
1650
675
600
2475
1425
4725
1275
975
1500
1875
675
450
300
525
1950
825
3225
600
675
975
450
2475
5700
1575
2775
825
1500
2325
825
225
750
1050
75
450
300
300
3375
600
375
975
2325
525
225
1350
1875
450
825
4425
375
75
675
900
1650
4500
75
1050
450
450
2775
3600
450
2250
75
825
900
375
1800
1050
2325
2025
1950
375
1200
2100
1275
2250
4275
450
150
2475
3225
225
3975
675
225
675
150
825
300
825
675
2475
300
150
2550
5400
225
600
2100
1050
1875
1200
2100
450
450
450
1800
600
900
150
1425
225
4200
900
225
450
975
1050
1650
3450
675
225
3525
750
525
3675
450
1725
1650
600
525
225
1500
225
1125
900
450
600
2250
900
600
1200
225
2625
675
3825
450
825
825
1275
2625
600
150
1800
3000
2250
1050
3225
1050
3300
450
825
1650
450
675
3600
900
450
2250
450
150
1350
675
1650
300
825
3675
1650
1950
150
900
450
2400
100000
450
1125
825
75
1050
1050
2250
825
600
1425
750
2250
225
1200
75
600
2025
1200
225
450
75
150
75
600
1575
1275
225
300
225
450
75
225
1425
825
1200
375
150
600
300
1650
225
375
675
75
600
825
375
450
1050
1425
600
825
75
600
600
2475
450
1050
675
675
75
450
375
825
1050
675
3225
450
825
1425
675
675
2025
225
2475
675
1050
825
1275
300
450
825
1425
450
1875
450
1275
450
825
75
225
225
225
600
2400
75
1050
3225
825
975
1875
825
1650
1275
75
375
2700
450
600
300
225
225
1650
225
450
225
900
450
225
150
75
225
675
525
600
1125
3750
75
75
1125
675
1800
1050
225
600
75
300
1425
1800
1875
2475
600
900
825
75
825
1125
1200
1350
3075
450
975
450
1275
300
1725
75
1650
900
3450
1500
1200
450
225
450
900
75
1650
1350
825
450
450
225
300
1425
1425
75
225
225
675
450
1275
450
525
1650
675
675
1200
1875
225
2625
675
1050
1725
1425
600
825
450
75
1200
225
300
450
675
75
225
825
3000
225
1350
600
1875
1275
600
1575
1425
300
750
900
75
225
75
150
450
825
375
225
750
1050
225
1425
825
2250
225
600
225
450
450
675
675
1125
75
2775
225
2250
825
600
675
1050
825
450
600
1275
1050
600
1050
150
675
825
600
900
1050
1050
75
300
75
75
975
1425
450
600
450
450
600
450
975
75
300
525
450
1650
900
225
450
450
600
825
2325
1275
225
600
825
675
2625
1425
375
675
1275
1875
2250
1050
675
600
675
225
1200
675
600
450
75
1200
225
525
75
300
525
75
1425
225
75
450
600
825
975
1050
225
675
450
75
1050
450
225
1650
450
600
1650
450
525
825
375
225
825
450
2025
375
1200
450
225
1050
2400
600
1275
375
75
1425
825
675
825
675
450
900
1050
2700
225
150
1875
75
1650
450
1200
225
375
450
675
75
1200
1650
225
1425
75
975
75
1725
2250
225
450
2400
825
1050
375
450
75
1350
825
450
1650
1425
450
975
1350
2400
1275
1425
600
150
75
225
900
3075
75
75
1500
600
1200
225
375
75
300
1200
825
1050
1050
225
300
225
225
600
1200
450
525
1050
675
150
825
150
1425
600
1425
900
225
75
600
1200
300
825
450
450
1575
600
225
2400
1500
750
1125
450
900
2250
1500
1050
300
450
450
2025
225
450
1650
750
75
225
975
225
1050
225
900
2025
1050
600
675
225
375
1050
225
1425
2250
75
825
450
150
1050
1575
450
825
525
2475
1200
2025
2475
450
450
1125
1200
1050
225
600
1125
600
1050
450
450
2475
225
825
675
2625
225
225
375
1050
975
1425
600
600
450
225
1275
600
225
600
675
1200
1200
75
150
825
1875
1425
675
3000
225
225
1050
1800
3675
450
450
600
825
1425
1050
825
225
375
300
600
825
1275
2850
225
1425
825
225
2625
75
1050
600
3825
1050
600
75
225
6225
225
450
150
225
1200
1050
75
1650
675
825
975
225
1050
825
600
2025
1200
2175
450
1950
2250
75
450
375
825
100000
600
450
150
300
300
1200
225
675
675
2250
525
75
75
1275
2925
6075
900
2100
2100
300
75
1275
825
150
300
150
300
2625
450
150
225
1275
375
225
600
1650
675
1050
300
825
75
675
75
600
825
75
2250
75
1725
1200
300
1050
525
675
450
450
300
750
975
525
675
600
825
825
75
375
450
525
3300
225
75
2025
1200
300
450
5775
300
1650
3675
1200
375
675
2100
1500
900
225
750
3600
1050
2025
75
900
525
300
1050
1650
375
300
1200
75
525
525
1875
1650
3075
4275
1275
6000
450
2025
225
2250
600
75
2550
2550
600
675
1725
600
750
600
600
225
2850
450
225
1875
600
825
3375
450
1350
900
750
2475
2100
225
750
3225
450
75
1350
600
675
300
2625
900
600
300
675
525
75
750
450
450
1800
1575
1050
225
525
450
2025
825
2325
2625
300
4050
825
300
75
225
2325
525
900
3075
1950
2025
675
450
675
4425
1500
4500
75
1425
450
150
825
1275
375
450
225
1350
1725
225
2475
225
1575
600
450
1500
1200
1350
825
3900
2250
750
300
3075
450
1950
300
1725
1200
1050
75
7500
225
2850
1275
900
2025
1050
225
2100
1725
1275
375
225
2700
225
1725
1125
2850
1050
300
2700
2250
1350
1650
600
600
525
1800
2250
1500
1650
2250
450
75
1650
900
825
1275
225
300
225
2625
1275
450
1275
3225
975
600
1350
600
2475
1275
225
4200
525
600
1125
825
975
75
900
1050
1950
450
1425
900
825
4050
300
600
4800
2775
1425
1050
1725
1425
300
2475
825
75
375
75
1875
1125
675
2100
675
75
1425
225
4875
1050
600
225
675
2250
900
150
675
375
600
975
1875
450
600
1050
2925
525
150
150
1650
975
825
825
675
2550
225
75
675
1875
900
525
1500
825
450
1650
900
1800
1725
2250
525
675
75
1275
525
2325
1650
675
1050
1800
300
1650
525
1050
150
675
450
1200
450
1725
675
975
1650
1725
1425
1275
1200
1275
600
1575
150
1125
300
3900
150
675
450
225
2475
225
450
1575
1200
1650
75
825
3375
300
4200
75
225
825
525
1800
525
1650
975
3750
450
225
900
900
7050
450
1875
825
675
2925
2700
1650
1125
1650
225
75
750
750
525
525
600
300
3525
1500
2025
1875
1875
1800
5250
450
225
825
450
3225
600
100000
1050
300
1275
2400
450
1950
1200
1425
75
900
1275
1650
225
75
2625
225
825
75
4650
675
1275
450
450
150
75
75
150
225
2400
2925
1200
675
975
1875
75
1200
4275
300
450
1200
75
2100
675
675
1650
75
4350
375
450
525
225
1275
450
1500
1500
2025
450
1800
450
300
600
225
2850
750
300
825
1200
3600
75
975
525
75
450
750
600
675
600
1650
1050
825
1050
225
1050
675
825
675
150
4200
1425
1125
1650
375
1275
75
2850
225
825
450
2100
1050
975
1425
225
225
1350
450
1275
225
675
225
450
1275
4275
450
1200
1050
300
150
225
450
825
450
450
75
900
2250
4050
1425
825
300
3225
1575
1350
3675
2025
225
825
675
1050
225
450
450
450
975
225
450
450
2025
1875
300
1650
3225
450
1050
3600
2400
1425
3450
450
225
450
225
1800
225
975
225
450
450
375
675
1650
1050
225
675
675
825
3675
1800
3525
150
825
2250
450
675
75
975
1875
600
1800
1425
1425
900
1950
525
1500
4875
1050
2700
450
1050
1200
225
450
975
2700
300
450
225
3675
75
225
600
1875
75
1425
1650
1800
225
4200
150
675
1500
525
75
150
225
450
1350
300
675
600
2025
825
1275
675
3825
825
825
225
3000
825
75
1200
1575
1200
1050
1800
75
1050
525
3675
675
375
1425
375
525
225
525
825
2625
1275
75
750
1875
1050
1050
4275
2400
1200
525
3225
450
450
1050
525
225
600
1875
225
2475
450
450
2325
1875
450
1200
300
975
450
225
450
450
825
1725
1875
300
2475
1050
675
1050
450
2550
2100
2250
450
450
300
1275
1425
1050
1800
3000
1575
375
1650
2025
600
225
600
1050
675
1050
1050
1275
375
600
75
600
75
75
525
1725
150
825
2850
2250
3000
1875
600
225
450
225
975
2925
825
1050
675
1650
450
675
225
825
2550
1650
1650
75
1200
75
975
225
600
75
1950
1275
150
450
600
600
1725
825
900
600
4950
525
525
675
3225
5700
975
1500
225
75
975
1350
600
1200
750
450
600
300
1800
300
600
225
2025
1875
225
300
975
825
225
225
825
450
2550
975
1425
1275
450
1425
75
1275
375
1050
825
2850
675
225
1800
450
600
900
450
4200
450
675
1875
450
450
975
1275
600
3825
300
225
1650
900
675
1200
825
75
75
1200
225
1800
1200
675
675
675
375
300
975
2025
225
525
1050
1200
1275
225
1200
225
1500
450
225
1275
1650
75
600
75
900
1200
975
450
1650
2250
1500
4650
100000
225
900
300
975
300
450
4125
525
225
450
1125
1050
2250
2025
300
1425
600
1800
675
5850
3675
2625
2025
1275
300
75
2250
2625
225
1500
1425
3300
5850
375
75
900
1425
525
75
450
900
2625
2250
75
375
225
2700
225
825
525
300
600
900
600
150
1650
150
3375
2475
3525
75
2400
225
6825
1050
1650
2025
300
150
225
1200
825
825
1050
7800
2850
300
225
300
525
1425
225
900
2400
900
1425
3225
450
150
825
525
1425
1875
75
1275
225
900
2475
225
825
3900
1200
1425
4200
1500
150
1650
825
225
525
450
1275
1725
600
600
4200
225
825
2625
2100
900
2325
900
300
450
600
1125
1425
1650
450
450
225
225
225
225
2250
5475
750
750
675
2250
600
1650
4050
2775
450
2625
1200
675
450
1350
75
75
1200
2100
750
75
2100
300
1500
975
300
675
450
1200
1650
450
225
900
600
2475
300
600
825
1425
1275
300
1575
225
375
2625
600
1725
225
900
75
2475
1650
675
3450
900
4200
450
675
525
150
3075
1875
1050
75
900
600
2250
450
450
2250
900
600
150
525
2700
825
225
375
450
1275
675
2100
2475
975
300
1050
2025
2400
2250
225
300
225
675
675
150
900
1875
1050
675
75
225
1650
450
75
1200
375
2400
1275
2025
1200
9150
1875
1125
2100
1275
1425
1875
1500
1050
1050
2925
300
5100
3225
1500
600
100000
825
2925
450
1575
1950
1950
900
600
450
900
1050
600
900
2025
825
300
1650
2475
2850
1725
1275
1500
600
300
450
525
675
675
1500
300
375
600
75
450
375
600
1200
150
3900
825
600
600
3225
300
150
375
825
900
3225
525
3675
450
2625
225
75
2850
300
600
450
375
75
1200
2625
750
600
300
2025
1200
600
225
225
900
600
1425
450
1500
2700
300
1950
2025
225
975
1650
375
150
3225
525
450
75
450
1200
825
675
9300
225
675
1875
225
1800
675
2475
600
2625
300
825
1200
600
450
1125
2850
1425
675
5400
2100
2775
1950
1800
600
1650
900
1050
825
600
825
2175
600
1800
300
1350
1050
225
1650
750
75
1425
300
1350
900
225
2100
2100
675
2775
100000
525
300
3675
900
225
75
375
900
450
2475
225
1650
1200
3825
750
1875
2025
2025
525
300
1125
825
2625
975
525
4500
525
1125
3825
1800
450
1575
1575
975
975
3300
225
1200
375
300
1575
2100
300
2925
600
1050
75
2400
2775
2400
450
675
1050
825
75
75
1050
1050
1200
600
225
525
1200
1425
3450
3225
825
1800
825
3675
1425
2400
2175
1275
75
75
825
3600
2400
1500
450
300
2025
75
1200
1050
975
1875
675
1500
450
75
300
1050
75
600
900
300
75
3150
3450
225
450
1650
1350
900
3300
1800
1875
75
1425
300
300
1425
1875
1125
3075
1275
450
825
450
300
2175
1725
975
1650
1500
1875
675
1200
75
1350
75
2475
75
4725
2250
1275
1200
1350
1050
825
675
675
1875
4200
2250
750
1350
975
2100
450
3375
300
300
1875
2475
225
525
2625
375
1350
1875
300
675
375
750
900
375
150
1800
1650
150
75
525
4200
525
1200
375
75
2700
3225
300
675
1200
600
2100
1650
600
75
600
1275
975
1575
225
1800
450
450
1200
75
150
75
3375
1650
525
2400
225
1425
1650
900
600
2100
375
375
225
1275
225
2475
2775
1125
1125
2400
450
1425
1650
1275
2250
1275
2025
2475
675
300
75
525
1275
900
450
1425
1650
1275
225
1275
825
450
600
225
2625
150
1050
975
600
1050
375
1500
300
300
75
3975
6675
300
975
1650
900
75
450
75
450
5775
5625
825
225
225
1200
300
1650
675
1200
2475
1350
900
2775
2700
600
900
375
3300
6600
2250
600
3225
2100
375
300
900
1200
1275
1425
1425
75
1650
600
900
975
150
225
675
1275
1200
900
1650
450
1425
1650
1800
975
450
225
7275
1500
300
75
375
3225
75
75
300
900
2475
825
2025
975
600
75
3975
2100
675
900
1200
1650
3375
1875
600
900
4275
75
1050
1875
2850
2700
3450
75
1200
900
300
450
1800
600
1200
75
1500
300
2775
675
2250
3675
300
3075
4125
600
300
825
2100
825
2700
900
600
900
1200
3000
225
2700
1275
675
1200
1350
3675
1275
300
225
1500
825
525
2625
1500
6075
975
2100
600
600
100000
300
3225
7650
3450
2175
75
2550
525
600
1050
75
75
825
375
1500
150
1500
5850
3300
3825
900
2325
75
2175
525
375
3225
2925
2850
5175
225
675
4575
3450
1200
1200
5400
1050
225
2325
825
8025
600
8175
2250
3900
3300
3075
300
300
1425
675
2025
525
8625
1350
2175
3750
1050
75
1350
1575
225
525
6600
2025
1650
1575
2850
2325
750
675
2700
225
3150
900
4575
1950
9300
225
1200
450
375
2325
2550
2775
75
450
225
375
4725
8775
1875
1350
9000
450
1050
3150
675
975
1425
525
4350
2250
3000
525
675
2625
600
7350
6825
1650
75
2025
2475
3900
3525
225
525
5775
900
2250
4725
2325
2100
1200
1725
3525
1050
900
5175
5175
675
6675
675
1125
3000
1500
1350
1050
225
375
1425
1125
1800
375
4800
1050
7050
525
1725
1800
4050
3750
1275
2175
6450
1800
1125
1125
1050
4875
3600
4350
525
3150
675
2475
4500
4050
1200
75
600
1200
225
1425
525
1500
1800
75
1050
750
7875
600
600
450
2175
1200
225
2475
150
450
1500
5400
450
100000
3525
1800
525
975
2700
2700
375
3825
1650
4650
450
825
450
2550
2325
525
8100
450
1500
1725
2100
1425
225
225
4425
4650
2400
1050
2775
450
4725
1500
5400
2025
3825
525
2400
975
300
1575
7650
1650
375
225
225
225
450
375
3975
300
450
1050
450
1125
300
100000
75
375
2175
1275
450
2475
600
450
375
450
750
1425
375
1500
450
1575
2175
2100
225
375
975
225
300
450
600
2025
2475
1725
675
225
1050
375
375
150
600
75
225
825
75
1050
750
1425
825
2175
450
675
1200
1125
150
900
900
225
2025
450
450
675
150
450
600
1125
3225
1425
75
75
4575
1425
7500
525
300
600
225
225
675
1050
5850
600
600
450
600
900
825
4725
450
375
750
6525
450
2550
1650
2475
600
2700
1650
1650
2475
825
150
450
450
1350
1950
1800
675
750
825
2400
1275
2325
1200
1950
225
1800
600
825
825
825
3225
75
300
150
525
1500
750
1950
450
75
4200
825
1875
3300
375
1725
1125
150
225
1200
150
675
3525
75
75
150
75
75
375
75
75
2850
225
75
1200
2400
3675
675
225
6300
3150
1650
150
3225
450
450
450
975
300
525
3450
450
225
1275
3900
1725
2250
75
1650
150
2100
450
450
375
525
2400
825
1200
2400
2850
150
225
2475
2400
225
3000
2700
1800
300
225
1200
1200
975
75
1800
1050
3450
5100
2850
1275
2700
450
375
825
1800
1500
2475
900
450
600
675
750
3825
1125
600
825
75
450
150
75
2250
5025
300
375
225
3225
2775
4575
600
1425
2475
75
225
2400
975
5850
3300
600
1425
1200
4650
600
750
75
1500
225
375
1275
525
1950
225
375
75
300
1875
450
75
600
75
750
75
1050
750
1275
2250
2850
75
825
1050
675
150
75
825
3900
450
225
1050
3225
1125
450
225
150
675
75
4425
375
1350
300
1275
225
1050
1275
1800
2775
450
2850
225
2025
1875
5925
900
825
600
1200
1200
1050
600
2400
8400
450
675
375
600
3900
75
4200
825
1200
900
5250
225
450
1200
3075
3150
825
600
600
375
1800
4650
450
1275
75
1425
825
2025
225
450
600
225
225
1050
450
300
4950
450
675
1425
675
2175
5400
450
1125
525
1125
1050
600
600
1650
2850
75
75
525
375
2025
450
1575
2400
675
150
4800
1725
450
225
1350
1275
5850
600
1800
1125
300
6525
150
225
2475
4275
1050
1650
1650
225
450
100000
825
3450
2775
75
4950
225
375
1050
1500
1425
1425
600
825
375
675
600
2250
5475
1425
300
225
600
675
1500
1500
2475
525
1575
75
2925
2100
900
600
75
900
1200
2325
450
1575
3825
1050
525
525
2400
375
600
2325
3000
1050
825
1800
2325
375
4800
3300
5475
1725
600
1050
2850
2400
1800
900
2175
2775
375
3750
1950
1725
1725
2850
1725
3225
1275
1650
300
300
600
75
300
825
75
75
2100
600
300
450
1125
1725
375
975
300
1500
3975
3675
825
5025
1125
1200
1050
2250
1275
2175
1050
1050
1200
3150
975
3375
3825
1350
1800
2250
675
1050
1650
1875
1350
1800
1275
2475
1125
300
2025
600
3600
2625
2025
75
1125
600
225
1875
3825
1050
1200
3300
675
300
1125
3450
1200
2625
225
2775
2325
2625
1875
1125
3825
2100
225
2100
1425
375
150
3150
5700
1050
5625
300
3600
6300
75
375
2850
1275
4725
750
2625
975
150
300
1200
300
3375
1350
1050
2625
1575
2550
300
900
900
4050
2100
3000
975
3000
225
225
3000
1200
1500
450
225
300
2025
3225
1950
150
1125
450
600
1200
225
3375
4200
825
1800
1950
825
675
1875
975
975
1350
825
1275
150
1050
2700
5400
150
2550
150
3075
2325
3900
3900
150
4200
2625
2925
375
75
3225
600
1050
675
900
900
1200
2175
300
225
2475
1800
600
1650
1425
450
825
4725
450
300
2400
2325
1050
2250
7125
1125
1200
675
675
1050
1875
150
1050
750
1575
675
1275
1425
225
1875
3675
150
3900
900
900
525
3075
750
300
1875
2400
300
300
450
1050
1050
750
3675
600
600
825
2250
825
975
3075
1575
450
225
975
450
375
150
225
675
2775
675
600
150
4350
525
225
150
900
1050
4575
2025
4800
1575
1200
1575
75
675
2100
2625
675
2250
3975
100000
1500
3825
75
4350
675
5625
75
225
1275
75
450
825
825
300
225
3825
1575
525
600
1200
1800
825
5625
750
600
1725
75
5175
750
2850
1725
825
675
450
1050
600
2700
675
375
2400
450
1200
1875
1875
375
450
1350
2025
1050
675
225
3975
2475
2550
450
75
75
1200
750
1050
1500
450
825
1500
1125
2475
600
900
825
225
225
5025
1275
675
975
1050
1650
450
900
675
675
1050
600
1650
600
2625
450
5250
1350
2400
1200
1200
375
1125
225
1275
450
375
2250
675
75
975
1575
900
450
75
225
2700
300
1275
300
75
375
2550
450
450
2925
3225
1500
900
900
975
1875
1200
1050
375
2475
1575
150
225
1050
675
450
1425
2100
675
600
2250
1125
375
2550
450
3450
1650
2325
300
1200
450
1200
300
1725
2250
1875
4050
2475
1050
450
225
3000
1200
1050
450
75
900
150
3075
2700
1050
975
1650
900
1650
75
525
1200
1125
600
1650
600
1125
3900
375
675
1275
675
525
2850
75
1275
825
1050
675
600
75
1350
450
225
375
1950
75
1425
1050
1275
825
225
1650
300
750
975
675
450
675
600
4350
1275
1050
225
450
1350
225
1425
825
450
1800
375
1425
75
1575
5025
1425
375
675
450
675
600
750
675
450
375
1875
600
975
675
3675
75
525
300
4050
75
1500
1725
375
300
2250
675
2400
750
150
525
1200
450
4500
825
300
1050
675
1275
300
675
675
675
300
375
1050
1050
3225
1875
975
675
675
450
75
675
1875
450
975
225
975
1200
3600
1275
675
2850
825
600
1050
1200
4500
1050
2250
1050
450
2100
900
1050
2625
675
3825
3300
2100
1050
675
2775
2400
525
225
825
1275
450
75
450
825
450
2100
75
4050
150
900
150
600
2700
975
1050
900
525
225
300
75
225
1650
300
1500
300
225
900
3300
225
1200
750
2025
3000
1500
225
300
2700
1800
450
825
2850
75
1050
2025
1350
525
900
900
225
675
825
900
1425
1275
3075
2775
1650
2175
1275
2475
2700
825
1200
1200
225
525
1125
375
75
450
1500
450
1050
3825
450
1200
1050
225
225
675
300
2025
300
450
675
675
600
1200
1200
375
1125
300
75
1800
450
4650
75
675
825
675
1275
2025
2475
75
2250
75
1050
1275
1650
1875
675
1650
3375
225
225
675
100000
2025
2100
4500
1425
1125
1200
450
1200
375
975
600
225
2025
2100
525
300
2175
975
150
450
4650
675
600
4800
975
525
2175
1425
675
750
1275
1500
225
1050
900
900
1500
1125
3525
1650
900
450
450
4500
1275
450
900
6075
1050
300
450
675
75
750
2475
1800
675
1425
1050
675
600
2325
3150
450
825
1125
900
150
4950
1950
1275
1200
1425
75
2175
750
450
6075
1275
1200
1275
1650
600
3900
675
675
450
675
2775
1275
675
750
375
600
3150
3000
1500
2100
300
525
1650
450
1650
3600
600
1500
300
300
900
1500
1275
450
450
900
600
75
2400
975
450
375
600
1500
1125
2100
1725
3300
750
75
1050
300
1050
1200
300
3675
450
750
1500
1050
225
525
1575
1200
1125
1425
3150
375
525
2700
750
1275
1650
1725
675
1050
1275
1725
300
675
1725
225
1200
2250
600
3075
4275
300
525
225
975
1050
2250
5250
675
1725
450
600
675
525
450
1500
750
3150
75
600
1725
1725
975
150
225
1725
225
300
975
2325
75
825
1200
1275
375
3075
525
225
300
1725
1275
2025
150
900
1650
1650
1050
2175
1800
1275
1050
1275
600
225
225
450
225
525
300
375
675
75
750
600
525
1875
2850
600
3000
975
1125
1500
4800
525
975
2625
300
150
375
1500
1650
1725
450
1125
1725
600
300
1125
300
750
75
2025
7200
3150
1350
225
300
450
2100
675
450
675
150
4875
600
900
150
1650
1050
375
4050
450
1275
225
2325
4950
450
900
1125
2625
450
2400
900
75
150
2025
750
600
1050
3075
900
1800
75
375
375
225
1050
1350
150
975
2850
2250
600
750
825
75
2475
900
1650
750
525
1275
225
675
675
450
2100
300
1350
900
375
2250
1350
225
1725
900
600
1800
675
675
75
1650
1725
975
1800
600
225
3375
1725
75
975
525
1425
3000
2025
300
825
75
150
1350
450
1200
675
75
525
225
600
3750
1875
75
3075
975
1575
3000
1800
2550
600
450
600
150
1875
675
975
450
450
900
675
1800
600
900
675
900
1125
1350
1425
1425
750
2100
1875
2475
1875
300
225
3825
450
2100
6300
1200
2175
2250
300
2025
300
450
1800
3600
75
975
1575
75
300
2625
900
100000
525
3600
375
75
150
225
225
600
75
2400
750
600
2400
1425
975
1725
1275
150
75
600
675
8475
225
3375
3000
1350
225
750
375
1500
300
1200
225
900
75
450
525
1575
1650
825
1275
525
225
225
975
1650
750
2925
750
825
1425
1050
450
450
3000
225
2625
750
2400
225
1125
225
450
2325
300
4875
2100
1650
375
825
1125
2850
2250
375
900
2475
2025
2325
150
1350
1350
1125
1500
1950
450
3750
450
3600
675
375
450
225
450
2625
4725
225
2625
225
2025
75
675
4350
525
900
450
825
900
3150
3450
2475
1725
525
750
525
225
2850
2025
3150
750
225
1875
450
525
975
1950
750
825
1125
1575
2325
3600
1350
525
375
3075
450
825
2025
1125
1125
1350
1200
1350
675
1275
1275
1200
525
225
1650
3075
2550
225
150
900
450
225
750
2325
225
150
150
2025
600
1725
1875
600
4500
975
2175
3150
75
600
3225
975
600
2025
2475
975
2400
675
4350
2775
900
825
900
150
1125
1275
2700
1125
5625
2025
375
2550
300
1050
3150
2850
450
2025
450
1500
1875
975
1350
825
2325
825
75
2400
225
450
2850
375
975
1725
2625
150
750
525
1050
1200
2700
1350
675
3300
9300
750
2400
750
225
3075
225
675
1875
2850
1500
675
600
2625
825
3075
450
2100
3000
1350
1725
2250
375
450
1950
450
1125
3450
2400
1500
975
825
2250
750
4725
675
900
900
1275
450
3825
1650
6000
1500
825
1125
3225
5475
1050
1425
825
2250
450
2025
4500
825
2250
3675
5400
2775
600
1425
525
225
5025
375
975
3150
1725
4650
450
450
825
600
1275
1950
5550
2250
825
2250
1650
975
1425
675
1950
75
1200
900
750
75
3900
2325
1425
600
1200
225
525
600
4125
525
3225
4350
750
750
2850
450
675
1800
1200
7050
6075
2925
2775
150
150
4050
525
100000
900
1275
525
3675
225
4200
375
150
900
1650
150
75
3750
1950
750
450
1725
225
2250
4725
2475
2625
900
1875
1650
825
375
675
300
225
150
1650
900
4800
1425
600
150
6675
5025
750
600
450
675
3525
2250
1200
450
2250
375
225
225
525
4200
2025
450
3900
450
975
900
675
150
225
225
900
525
1050
3150
300
300
1200
825
1500
1650
300
2475
1650
900
750
375
900
1800
600
2250
4200
1125
1350
675
975
1125
3300
225
5400
225
1725
525
2100
375
1200
525
900
1950
675
1275
675
1425
3825
75
2250
1200
900
2250
2925
150
1050
825
1950
825
75
3450
2250
450
2850
2850
3000
300
150
450
225
3375
3450
900
375
225
8925
2400
1275
1050
75
3225
600
450
225
2775
825
2625
1125
1425
225
750
1650
75
3825
1500
1200
600
150
1650
4350
1200
4200
975
750
1425
1125
2850
75
1050
1050
675
750
300
450
825
2025
1875
2700
3300
150
75
3225
2925
150
3600
450
1425
1050
525
375
1875
5850
150
225
1575
300
150
2325
450
1950
450
1650
2325
525
300
525
1275
225
900
300
225
1425
1275
1200
825
1950
75
1500
1575
2325
1125
75
300
2175
3750
1500
450
525
525
4275
525
3450
1875
300
2775
2775
600
300
1125
825
675
450
2925
1725
1650
450
2625
2250
225
2625
900
3075
3675
900
525
1425
525
1725
300
900
1950
1275
1050
225
1650
2175
525
1125
1500
450
525
825
2325
675
825
450
450
750
450
1200
1425
675
2025
1500
150
2250
1650
2925
2025
375
5400
75
2175
1275
525
1275
450
300
150
675
3450
450
300
2325
2475
525
2100
1425
225
975
1425
1500
375
975
300
2025
1950
225
450
2475
675
5325
300
525
1650
4200
375
1125
375
300
1200
975
1125
600
150
1050
1275
300
1275
750
300
1800
75
525
825
300
1050
150
5175
1650
2325
2625
1275
4425
525
1200
75
3225
150
675
675
1200
75
1200
825
525
750
75
375
1125
525
300
3675
525
450
450
1275
1125
900
2475
1425
1200
1725
1425
2025
900
1125
1125
600
600
100000
1200
2550
1425
750
1650
1500
150
825
525
225
5100
600
1725
1425
1350
375
1950
2850
3300
1050
1275
1875
975
450
900
1875
600
1425
5550
1275
825
300
750
525
2700
75
450
2100
4800
3075
1650
2475
4800
1275
1200
2550
2250
2400
2700
4125
2025
1125
525
1800
8475
1200
300
225
2400
300
300
3375
1950
1050
5700
750
1425
2250
6075
375
450
2850
2100
1725
1200
2475
3600
1050
300
525
75
4275
2100
2025
225
375
600
300
1275
4050
2100
7275
1575
300
3675
2475
75
150
150
3150
2325
375
450
450
300
975
1500
6900
3450
3450
100000
375
75
2325
750
450
1125
750
1800
3900
1050
525
375
225
3825
750
1800
900
2100
600
2325
450
1350
600
8175
6975
3450
450
300
3900
5475
450
825
4200
450
1875
2250
2100
1050
225
675
1050
675
2325
2400
675
1275
5625
600
225
825
450
5025
1800
1050
4275
75
750
150
1875
1200
375
2100
150
1275
300
1200
525
1275
750
450
2400
450
3075
2700
600
1800
1050
375
5775
300
450
1800
900
3000
825
300
1575
75
6000
375
1050
8250
75
750
975
2025
75
750
225
1050
825
450
2775
1800
3000
225
3075
225
900
975
1275
1800
2475
2625
375
5325
1725
5100
5175
225
7425
5475
900
3000
300
675
675
750
1950
5400
75
525
375
3300
2775
2175
3825
1725
825
675
1425
900
450
1650
1425
75
5250
1875
900
2175
3825
1725
450
900
375
1425
975
3975
1350
75
1125
1425
600
600
1125
825
1050
3450
5250
1200
3375
2625
4050
1875
675
675
1425
225
975
825
1350
6000
1800
1275
1425
100000
450
1050
3225
150
375
675
225
2175
2700
2325
2325
450
2475
600
300
375
225
750
975
600
2250
1800
1200
1125
225
1275
3525
900
75
1350
975
525
825
4050
225
1575
1125
5250
450
225
1200
6525
1425
1125
375
1275
450
10150
75
75
1875
2025
2850
675
525
3000
900
525
6675
600
3000
3150
450
675
1050
675
150
2475
225
225
225
375
1800
300
450
375
2625
1200
300
1050
375
1125
4350
75
2250
1425
750
225
375
1500
1350
600
900
1425
1575
975
300
375
675
1425
2700
1950
2250
300
525
1050
1200
4125
750
3525
150
1275
2925
1650
1350
300
825
2325
1650
1050
450
750
4650
1050
1125
1050
525
1275
225
825
600
1800
75
1425
75
225
1575
975
1350
825
1200
825
2250
75
750
1275
5775
225
2175
3375
675
675
1125
2850
1275
2025
1125
750
1275
225
225
2025
1200
150
825
5475
900
1650
225
2025
675
450
1800
525
1275
1125
1350
2925
1050
4500
1650
75
150
825
75
675
3225
5025
900
2025
7050
3600
300
75
1575
750
675
3375
525
450
3600
600
1125
1650
1275
450
375
300
450
1125
1350
7125
750
1500
675
1575
600
600
1275
225
1425
2400
300
1050
825
1350
75
3825
1425
75
525
2475
825
3675
1200
675
750
750
300
300
4200
2550
2100
675
150
1425
300
225
675
1200
2250
1125
2700
675
5100
1425
525
525
525
75
3300
1500
1500
2250
975
1425
300
1050
525
3300
1050
1650
2100
1500
450
2850
1350
825
1200
4500
750
375
1875
975
1575
1875
975
450
900
150
1275
975
1050
300
675
1350
375
450
75
300
1275
1575
1950
600
450
1050
1050
300
2850
1425
5250
1950
600
525
2400
1500
750
1350
1200
375
2250
1875
1125
1275
300
525
150
8625
450
3000
3825
225
1350
825
825
825
1650
1200
3900
750
900
825
600
1650
675
2475
300
300
375
225
1050
525
3525
2775
675
4725
450
450
1575
4275
900
1050
1725
525
1650
2250
300
1125
1350
825
525
2700
750
1725
1725
1275
975
100000
225
750
2400
600
450
675
1650
225
225
300
1275
825
675
2325
450
4650
525
600
1275
1200
5025
675
2175
1650
1275
1500
375
1875
600
2250
1200
3750
300
7500
975
3450
2700
3225
1650
300
1650
1500
975
4875
150
975
750
1500
600
1500
675
3075
300
3900
1275
225
4200
2025
225
1650
675
3000
450
300
450
450
975
1050
225
900
75
450
1500
3750
1500
450
975
2250
1200
2625
375
750
225
600
1725
225
825
300
600
3450
750
1425
750
825
4200
2475
1050
1500
1500
1425
1575
600
450
3225
1050
1050
1500
2250
1575
300
450
900
225
1500
6900
600
2325
975
3300
2550
225
3375
225
1050
225
2100
450
450
1875
2025
1350
300
900
1650
2925
2475
1275
525
3825
900
150
3900
675
1425
225
2100
1200
3900
1275
825
675
2025
2250
825
2550
450
375
225
4425
1050
1500
2025
2850
1050
900
225
2250
6900
1125
225
75
1200
1425
2175
450
1350
2250
525
3450
4500
375
1050
975
1200
1275
2250
2025
225
675
225
975
1500
2025
1050
375
3675
1275
525
1050
300
975
375
900
1875
3525
3075
525
2850
1200
975
300
225
300
450
675
2325
450
2025
1050
2100
750
1500
450
450
1275
2100
825
1650
1650
2700
1650
4275
1425
2175
225
1125
225
675
1050
6075
6150
2100
450
1575
2325
225
1650
750
1500
675
1050
1275
450
675
525
1425
75
1125
2175
1500
1800
2025
2025
600
75
900
2550
5250
600
300
825
825
1500
1800
450
1200
1275
1650
1200
825
3900
150
1200
1200
825
825
225
675
2250
300
450
675
4275
300
975
1050
2400
300
750
225
1725
825
2025
900
7500
2025
825
1800
5100
675
1425
4200
3075
2250
7800
1050
825
525
1050
75
1425
75
1350
300
300
375
1650
6225
1125
1200
150
3900
3450
525
750
150
525
450
4350
450
1875
825
225
600
675
675
300
1050
5625
300
1875
3300
300
100000
3450
750
2025
1425
225
900
750
450
1275
450
600
5325
675
1050
1425
1200
75
450
450
450
750
300
2625
2250
1050
750
3600
675
450
300
1200
675
2025
375
750
600
1200
1425
3600
750
900
525
2850
450
150
1350
450
225
1275
975
1425
225
1275
1050
2025
3450
525
450
600
75
1875
225
1050
1050
2100
825
1200
975
1575
675
2175
225
150
2550
2025
825
3825
2775
75
3375
525
3525
825
225
375
450
4425
2850
1275
450
525
825
1200
450
3975
300
825
1050
1050
2775
450
300
900
525
450
1200
300
450
450
450
975
1650
525
1425
1950
150
1050
600
1650
150
300
6375
3675
450
75
675
450
6075
1275
450
900
4050
750
225
1200
225
225
600
450
450
300
1425
225
225
1050
1350
1725
675
750
675
1125
300
5850
225
225
225
825
975
1650
975
2625
150
5100
450
600
300
1725
150
525
1050
675
1425
1125
1350
450
300
675
2400
825
75
1200
2025
900
3075
3225
450
225
1350
750
150
1050
825
3075
5550
75
1425
450
75
150
75
1500
225
1125
1275
1725
225
7875
675
1050
375
2850
225
300
2400
825
1200
1875
975
2325
2025
300
525
75
825
2625
2250
600
2175
1650
600
450
1575
75
1050
5775
225
225
225
450
3450
225
1575
75
3675
300
150
150
450
75
825
600
825
1200
2475
2400
225
450
1650
750
1500
675
600
1200
675
600
1200
525
150
6900
525
1575
75
525
2400
2175
1425
225
600
675
750
375
900
2025
225
1425
1050
675
1200
1425
1275
525
4125
3525
825
525
825
1050
900
600
225
825
300
450
300
1275
225
825
75
450
225
525
1275
450
525
225
1425
1200
450
1275
75
75
150
1350
450
1350
525
1050
75
150
525
450
2625
225
1050
4650
1050
1350
225
2775
2100
1350
1500
2025
825
825
3825
75
900
600
1950
1875
825
825
2400
975
1650
1275
675
900
3000
375
225
3675
225
1350
75
75
750
375
750
1725
1875
1275
675
150
450
750
1050
675
1575
5400
1725
2025
4050
1575
1425
75
2250
750
450
150
1500
375
525
1050
750
1125
600
2025
2475
1650
1125
600
2475
3825
300
825
1500
3600
450
2550
825
450
4575
750
1425
225
1425
300
2925
2250
1725
225
525
1800
450
750
75
2100
1200
225
675
100000
2775
2925
150
2775
225
2025
300
600
1425
2850
2325
375
3900
1050
5475
2100
1200
1500
375
1050
6075
1800
1725
1500
975
1500
2775
750
4125
2250
2925
225
6000
450
3300
1425
6225
3675
3750
1350
2925
2025
825
450
2625
2400
900
1950
1200
525
1950
3150
750
2325
2250
675
825
1125
4275
1275
1050
1200
2850
1275
2475
825
525
750
8025
6525
3225
1725
450
600
600
975
2025
450
5550
2400
1125
750
2550
2325
3450
1725
750
100000
225
675
2400
150
2625
150
5250
1725
1800
225
4950
900
600
225
600
1050
1800
1350
300
450
1275
2625
5850
3450
1050
975
8325
450
5775
6075
750
1800
4050
1725
1350
900
2925
2175
825
3600
825
975
2925
225
4050
2325
1425
1425
2250
525
1425
525
1950
3300
375
1950
1800
300
1125
4350
1350
900
5100
4800
2250
150
1350
1200
1425
1500
3525
150
2475
300
225
1350
1575
1050
975
300
3075
1425
5250
3075
750
4275
2100
450
375
225
300
150
2550
3525
1950
1425
525
1800
750
4650
2400
1575
2325
1950
150
675
825
525
4500
4500
1800
1050
4275
375
1350
825
3450
1725
450
4950
2025
450
1950
9825
300
1800
525
2175
2325
225
900
525
2925
150
150
1050
2250
2700
225
600
1125
1650
1725
2250
1200
4125
975
7350
3000
4725
1200
4050
225
4725
825
4650
900
1575
975
3600
975
4125
1650
1725
3975
975
7200
1950
1350
2475
1650
750
3525
525
2100
100000
1200
450
1800
450
825
150
450
150
225
150
3525
750
2325
450
975
75
2175
1650
1650
1725
150
3525
375
525
2400
150
3150
450
8475
750
1200
1350
1425
1275
1050
975
1650
1875
1050
2175
750
2250
1425
1425
525
525
1875
3900
675
1425
1425
1725
600
300
675
1050
225
225
1425
2250
750
3075
2925
1350
1125
375
225
1200
2475
225
525
2250
2250
2400
450
825
75
2850
2400
300
1425
1125
825
1425
1050
300
2250
1575
525
1425
825
450
1650
2325
4500
675
750
525
1125
375
2850
1425
300
1875
600
750
2250
1350
750
1575
600
900
225
5250
1650
600
3450
225
450
3600
225
1350
825
825
1425
750
1050
525
450
1425
150
150
1575
600
225
2475
1875
1200
675
525
2100
300
225
6150
300
675
300
75
1875
525
150
1050
300
525
1875
2475
1275
5625
3075
1500
825
300
3225
2700
1125
825
225
4050
450
2700
225
1125
375
750
450
2625
2100
300
1875
3525
225
525
3450
975
300
675
600
225
750
1275
1500
525
225
3300
1875
225
525
225
600
150
675
750
900
1050
750
300
4575
1275
675
1275
2100
1200
2250
1650
5850
2250
3750
675
600
1050
600
450
1875
150
2625
675
900
225
300
1050
975
225
1125
2925
825
300
225
1050
825
900
3525
2850
525
2025
825
450
825
1500
225
2250
150
450
3300
1650
450
675
225
750
2925
6225
4200
300
225
1125
1425
225
1425
2100
450
675
1350
900
450
450
2850
900
3450
675
1950
2850
675
4050
4650
2700
1800
975
1200
1650
1875
450
225
150
450
2475
75
900
525
300
2850
1650
1050
1050
1050
150
225
2475
2250
375
600
225
675
300
1950
75
3450
225
75
3150
975
1500
525
600
3450
525
225
2100
1050
3900
3375
1650
675
2400
450
225
450
225
600
2925
150
525
450
450
4575
450
1875
1050
75
150
75
525
2250
75
600
675
2025
1050
1050
3300
9675
225
900
2700
2325
225
1125
2325
2700
1350
450
1050
3825
600
300
1500
300
750
4200
525
2550
450
3750
1125
1125
3825
825
100000
975
900
3375
4050
6375
300
225
2025
3600
825
1800
1050
75
1650
225
2325
1650
2325
825
825
1050
1050
600
1050
825
1200
450
75
4050
2700
1275
2250
2400
450
5700
1800
1650
825
225
1875
300
2025
900
225
2250
225
150
525
3450
2100
1800
2175
1200
3225
2325
1050
225
1650
1425
2700
5625
2025
3225
750
150
4125
5025
2400
1425
1200
150
1575
2250
150
450
5625
375
4050
675
1050
3300
300
1500
1275
75
1800
525
3450
3900
675
525
8475
150
8025
2025
450
1200
1275
1125
2850
375
825
1650
1800
1275
4200
1875
2025
1800
7200
975
4425
2475
150
4050
7800
600
225
1200
8850
825
75
75
1275
2400
6375
1875
4800
5850
450
10150
6450
1050
1650
2775
300
3675
4275
900
300
225
8925
900
225
450
1425
375
2850
600
3300
300
4800
450
825
3900
1650
300
4425
675
5250
2700
600
225
1350
75
375
3975
100000
1200
1725
225
3075
375
225
4275
1050
4050
1650
3375
225
3075
1575
675
825
100000
6600
2250
525
1575
1050
1800
450
600
4050
4800
675
2400
75
1875
1050
1575
1575
1425
1950
1800
975
225
3375
2250
900
825
3600
900
6225
825
375
225
1800
3225
225
75
3300
600
3225
75
300
600
3000
5850
825
2625
5625
2775
1425
1575
2400
375
300
600
3600
1800
1575
1050
675
8400
3300
2400
75
6750
1200
3000
1950
450
1875
2325
2625
1275
1050
1875
100000
675
2175
525
1275
1275
900
1500
1200
1725
600
3450
2400
975
300
1650
450
1275
2175
75
75
450
1200
75
4800
225
1050
1725
2475
3225
1425
75
1200
825
675
300
150
900
450
225
1200
675
3375
300
150
450
1500
1425
1125
1500
225
825
3900
450
150
300
900
375
1050
525
450
450
2250
1050
1650
2850
600
1200
225
3150
900
1200
600
375
75
300
2925
825
825
2700
450
900
600
75
3600
825
1050
825
1425
1575
975
525
1875
450
1500
750
1800
2625
2700
1575
2175
1425
300
825
75
600
900
975
1950
1125
75
300
3900
1050
2700
450
1875
300
675
900
3750
675
600
600
2550
600
825
4800
75
675
1050
1575
225
1050
2550
75
525
1125
900
1125
2625
375
675
825
75
1425
825
75
2100
1050
2850
1650
5025
1500
1275
450
375
2100
225
75
525
450
1875
1575
1500
675
600
75
825
2100
675
150
975
525
3075
2625
2400
225
525
600
150
4125
1575
3075
450
750
2175
1125
4500
2025
1500
1650
2475
225
675
2400
1275
1650
75
1650
5250
1275
225
1950
675
1350
675
3075
1350
150
1200
2625
1050
675
375
2625
525
3225
1200
2925
450
450
900
225
675
1650
525
4875
2100
900
450
3000
450
3825
1050
675
2700
4425
2025
6750
825
1500
300
300
3225
825
450
2175
825
3450
675
3375
3825
1350
2025
225
225
1800
225
450
1050
3975
750
900
2250
2550
900
1425
3000
825
450
2625
1050
1275
1125
2100
375
1950
1650
225
2025
225
2775
450
825
525
600
600
2325
1275
900
675
225
525
2175
600
225
3300
675
450
2400
3750
225
600
450
825
975
3975
900
3450
675
300
225
675
300
225
4125
2175
675
1125
1500
825
2025
1650
1500
375
225
1050
2925
1425
1050
2925
900
300
1350
1425
750
1125
675
2925
225
2700
225
2475
825
375
75
1050
1425
1275
6600
1050
1050
225
4950
75
1200
1950
5400
1200
3900
300
1425
825
2850
1275
525
975
1425
1650
900
1950
1050
2100
375
1050
225
300
2925
4425
1050
525
1425
4425
100000
1725
75
2625
975
75
3900
1500
225
675
300
600
375
2400
675
1200
3075
2025
825
450
750
600
1125
675
2475
1575
450
600
2250
1575
225
4425
1425
1800
375
2100
1800
1050
675
1425
1275
1275
1650
1200
825
4200
525
450
5325
600
450
3075
1725
1425
2100
2250
2700
1650
450
3075
900
75
7425
3075
2400
1950
3225
1800
1275
225
4050
2475
1125
1275
825
450
1200
450
1050
600
675
1275
1050
450
675
3450
8400
1575
1050
975
225
375
1050
450
1875
1275
1200
3225
3975
75
825
675
450
1500
75
600
450
300
225
675
1500
1200
2400
225
3900
525
225
675
225
225
450
825
1950
2100
450
675
825
225
600
225
225
1200
450
1200
525
825
1050
600
675
1500
225
2325
525
1425
225
1575
1200
600
750
2925
600
1725
300
525
75
450
825
450
675
1650
2025
1200
1650
675
2025
225
4350
375
2850
450
2400
2775
3900
1650
1050
2025
1125
450
525
1200
600
1425
75
750
375
1650
525
300
825
225
675
1050
600
3075
2625
2625
2775
1425
1050
3150
825
150
600
2025
2025
2475
3000
1275
825
75
525
525
375
1200
1050
1200
2250
2475
300
75
1425
2775
225
225
2400
225
2475
3375
1275
2400
1275
1425
3225
450
1425
1050
1200
150
225
75
1650
825
450
1275
1200
450
450
300
150
1650
375
1875
75
225
600
450
3075
1500
825
3450
3825
1050
900
825
225
675
4275
2025
225
375
450
1275
600
225
5475
675
225
675
525
825
2625
1350
525
1200
75
3300
600
2400
225
4275
225
150
3675
2250
1275
450
600
675
3075
1050
3225
1275
600
1200
1125
525
2025
825
450
3225
1275
900
75
3450
600
2250
225
2325
1050
75
1875
1425
600
75
225
450
450
1725
525
600
1500
450
1200
2475
1500
450
225
825
75
825
2250
900
3450
450
600
2250
75
300
675
450
1200
1425
450
2625
3000
2250
1875
825
1650
1275
675
2325
75
825
525
300
825
1725
450
450
225
300
300
675
750
600
150
2850
75
1650
1875
1875
2625
1725
225
150
75
375
2250
2400
1875
1275
1875
600
1050
525
225
600
75
600
600
225
675
225
2175
225
675
225
1050
675
1425
675
825
225
450
300
1275
750
1200
300
375
1425
225
600
1050
100000
1800
2625
225
375
1875
150
3975
2100
225
375
300
450
2100
2025
1125
1050
525
3150
1350
2250
900
525
900
600
900
75
150
1500
375
3075
3825
1050
2100
2400
4650
2925
4350
2025
150
750
1275
300
6300
1950
375
1650
450
1950
2325
2550
6600
2175
1425
3750
150
75
75
675
525
450
825
1575
1125
975
3825
1200
150
1200
2850
300
5850
3450
525
300
300
825
225
1500
1050
1800
1500
375
600
300
675
5325
2100
525
1275
4350
100000
1125
100000
3750
825
3150
375
4200
1200
1800
600
750
1050
1125
600
600
6075
6900
1125
2400
225
1575
2850
375
825
825
450
675
2625
1500
2775
1575
600
225
1275
600
300
450
750
2250
75
1125
3525
7650
1350
2700
1500
825
2775
1725
3000
825
1350
4125
75
1200
450
975
6075
825
1125
2400
450
1350
1425
2550
2700
2325
2175
150
2325
3150
450
1575
7125
2325
750
2250
2700
1350
825
75
1125
750
1275
1050
3675
225
2925
525
525
375
2550
75
1350
1050
2850
1050
1875
3150
900
3450
5100
1575
1650
675
4875
900
2400
975
1125
1125
1050
5175
600
1050
150
525
1200
750
2550
600
1950
8850
825
375
2475
2775
5325
4350
1725
3375
3975
2700
900
3450
2700
1200
3900
5250
75
2175
7200
2550
3600
2025
2850
1425
1050
1200
4275
1950
3375
1725
1800
6600
225
975
900
1575
1575
4050
75
450
825
1125
2775
750
2475
4575
2175
1725
150
2925
375
1350
975
750
7800
2100
2550
975
4800
1875
3225
300
1650
100000
4350
1875
225
1575
2025
1500
900
375
300
975
2100
1200
3150
900
600
675
225
1275
2025
1950
300
675
1875
600
750
1350
1275
450
300
2775
1425
1200
675
450
4200
2025
825
225
1275
3900
300
450
3075
675
75
900
3900
2400
1350
825
3450
600
5025
1350
3225
1425
375
300
900
450
225
1350
1275
150
1800
450
2400
1200
3675
1500
525
1200
1800
1050
2625
1200
1050
2025
1200
600
1500
1875
2400
1125
1050
1500
1575
1875
3225
300
3300
75
150
225
2100
300
1950
150
225
1650
150
600
3825
4875
750
375
450
2700
675
150
75
675
1350
450
675
1200
75
3450
1050
1575
1500
375
2775
75
4800
450
1050
2475
825
975
225
3000
1275
750
300
225
525
900
2025
300
1050
2775
75
600
750
450
1800
2700
300
75
975
450
825
975
525
2700
900
1800
2325
600
225
1275
375
1500
600
2400
150
1050
150
1500
1275
450
300
600
450
75
5925
2250
675
825
900
1200
2850
2250
675
600
900
3225
225
1200
1800
750
1275
150
75
450
1500
150
1800
375
750
4500
525
1650
525
1050
300
3675
225
2700
600
3900
1425
3600
225
150
2250
2475
2100
450
2100
4650
3900
600
4200
750
525
300
75
150
1125
300
4425
1125
225
1275
825
150
600
2700
300
300
375
1500
1275
300
2400
1050
1050
450
525
2475
2025
1875
2400
225
225
525
825
675
750
4800
1050
2025
1575
1800
300
1875
300
2850
3975
75
1800
1050
2250
150
1200
825
900
1200
1125
150
225
975
3225
2100
150
975
600
3075
3000
300
600
450
450
750
2025
675
1800
1650
3075
300
375
2625
900
1800
450
1875
675
825
4275
1950
1050
3675
3750
4650
675
675
1950
2325
2400
2175
600
1800
2550
225
1500
900
1275
1050
4650
1650
750
1050
4350
375
1200
750
150
300
525
1725
1650
1950
75
3750
300
3750
450
6225
450
1275
2175
1800
1125
2850
300
3300
225
975
1200
300
6750
1800
8775
525
1125
525
225
75
300
2625
3000
100000
600
225
225
900
1125
600
750
75
1725
2250
1875
450
2325
150
225
675
1200
300
300
450
750
1275
450
2400
375
1500
450
225
675
300
225
1275
900
1050
600
450
225
2550
75
2775
1050
1200
3450
600
1275
1050
1200
1725
3225
900
300
450
300
2250
4800
975
3225
750
2025
900
450
75
1500
2100
300
450
1050
450
2175
2325
600
2850
600
225
675
2550
2400
2025
675
450
750
450
225
1650
2100
450
750
2400
2025
900
675
300
2250
75
150
675
450
1050
75
1125
225
225
1050
1350
2100
825
450
1050
450
825
825
300
2250
675
675
2850
450
75
2025
150
450
1275
1050
1875
1500
600
1275
1050
900
5025
675
1275
450
900
225
1800
600
75
450
525
1650
1650
450
225
450
1425
75
225
450
300
2400
300
450
825
1650
825
1050
2625
150
675
1950
225
1500
225
1875
825
825
225
150
750
1950
225
4425
450
2025
600
2475
450
1275
3075
525
825
300
1200
1425
1800
225
1875
2250
1200
375
1200
600
75
1050
900
225
75
4800
450
1050
900
1050
825
1275
450
450
2100
825
1050
1650
450
450
225
300
1275
300
2925
300
675
5475
1725
600
675
75
1050
825
1050
75
600
375
2850
2025
4125
3525
1650
1500
2250
450
1050
1500
4275
75
2250
450
675
450
1800
2775
225
600
1050
225
450
750
225
1050
2025
750
1950
75
75
1650
975
1800
900
1425
1425
375
450
375
2400
675
300
2250
1125
1650
2025
225
150
675
225
600
225
3675
675
2100
675
1200
1275
225
450
1200
600
825
825
4200
225
675
225
375
1050
4950
150
975
825
2250
2550
450
225
3225
2850
1050
450
1200
450
1275
75
975
825
1125
2250
750
825
675
1650
675
1800
900
225
600
825
1650
2100
2475
600
225
825
300
225
4275
1425
1725
900
450
75
225
600
1200
300
3450
1875
600
2175
2025
1575
1875
450
75
450
1125
675
825
2250
1125
3075
825
2250
2625
525
300
2400
1800
750
75
450
450
2850
450
300
1050
2700
2550
1350
450
750
2850
525
600
450
900
900
675
600
450
1650
2250
2550
1500
1350
1050
375
4200
1050
1050
1050
750
825
675
1650
1425
75
1200
450
6150
75
75
1500
900
2850
1275
675
2025
3975
2175
900
450
300
1200
150
675
1575
600
675
1425
600
2100
1050
525
225
900
1800
600
1200
1050
1050
300
600
1275
1200
300
1425
1200
100000
1725
600
1425
6600
900
1725
4875
4050
375
1725
2625
1275
3750
6675
750
600
5100
525
2850
1125
675
1050
4275
450
600
375
375
1500
2550
675
5025
1800
2550
1050
975
3825
1950
1350
1500
1725
825
2550
1350
225
6075
225
1425
3450
525
2400
1800
5025
1125
300
1950
525
2700
100000
675
2700
2250
75
2550
1050
3000
75
3075
1875
150
600
450
525
750
225
450
825
675
1050
2625
1275
1275
1650
300
150
2175
375
2400
750
5625
4050
75
1650
2400
675
1200
975
450
225
1800
600
1875
225
1425
3225
6675
825
600
2625
225
1200
75
2550
2175
1575
225
825
2400
900
2025
100000
750
975
750
3000
675
3600
8475
6375
300
2475
4650
975
825
225
2700
1575
2550
825
75
1500
825
2250
600
450
375
2325
450
1800
525
1800
825
2775
600
525
3450
3375
2550
3525
300
150
75
525
7275
2475
1575
4875
225
5775
1125
8400
825
1875
1350
3450
2175
2700
1125
675
4575
2850
1350
525
525
3525
3075
1125
7050
7200
1200
1575
1500
450
2100
450
3375
525
4800
525
750
3075
900
1500
4500
150
150
1200
225
2775
600
975
375
525
5700
225
375
1200
600
900
3525
750
600
300
900
1575
1725
3375
2175
5025
4575
525
825
375
150
3750
3525
1650
1275
1950
450
4350
1500
450
150
525
2025
8325
1950
7125
600
150
1200
3225
2625
1950
3600
825
2100
600
4425
1650
2700
1275
300
1500
9075
2325
2100
75
1800
1350
2550
825
300
100000
900
75
1050
450
1875
1725
150
4200
1800
1125
450
150
6975
2100
2400
150
975
2700
4125
1500
975
450
300
1125
600
1125
900
2925
1425
4425
300
600
2025
1050
75
1950
4125
1350
2250
75
2025
525
300
675
1500
375
900
675
2250
3975
375
2400
1125
1125
600
2475
1800
1650
1575
2475
675
225
675
150
900
1650
75
2325
300
3525
525
5250
1125
525
1500
675
4875
150
1350
450
375
525
450
1425
1500
2025
975
600
3000
8700
225
1800
1200
2175
225
1425
1125
4875
2400
375
1875
1125
2475
825
225
825
1800
750
300
6075
1950
4650
525
5100
1125
675
2175
3300
300
2025
2550
2100
1275
1575
525
150
450
4050
2475
1425
4425
900
5100
225
525
3900
750
1050
2700
1275
1050
975
525
300
600
825
2175
4125
3225
525
975
75
750
3450
1350
3150
1125
450
4425
4575
450
300
2400
1800
4350
5400
375
3225
3825
3825
375
675
3900
525
5625
1425
600
2100
5400
2550
3000
225
300
1800
225
1275
375
300
2025
4725
5025
600
750
1125
3900
600
300
2025
1050
4500
1425
2400
5925
975
1500
1050
3525
1800
825
225
600
525
4425
3300
525
150
750
2025
2175
2100
1500
1275
975
2925
3150
750
1500
2025
2625
9825
2175
750
1575
675
1650
4050
525
1425
450
525
1350
900
600
600
1125
450
1650
1200
4650
825
225
1500
225
1500
2475
300
3225
2550
750
2250
675
675
2925
525
100000
1950
600
525
2100
1200
150
4800
675
225
2325
2925
5100
675
600
1050
2025
2025
3525
975
150
75
150
1800
3600
675
2250
3225
1350
1275
2325
900
525
300
225
825
7875
100000
675
975
675
225
225
1500
975
450
2775
1275
2400
1350
225
1950
975
1200
300
3150
1425
5025
225
975
675
1500
825
300
1275
225
1350
1650
300
1725
225
150
75
3300
750
1200
750
450
225
600
1800
375
1500
1650
1650
1200
375
975
825
1425
5400
75
1650
825
2400
450
2250
2700
900
900
4200
1050
1875
2400
75
3750
225
675
2025
225
750
900
300
75
3600
525
300
1275
600
225
225
975
3150
3675
5250
1800
1275
300
225
600
525
1950
1050
1050
675
450
1275
75
1275
5475
1500
450
375
450
825
675
300
1050
2175
4950
825
1500
1425
300
600
1650
675
675
3375
450
300
2700
975
1650
1800
750
750
225
450
675
1350
600
600
1800
450
675
375
900
750
525
600
2100
2325
675
1050
600
300
2250
675
825
450
825
300
825
3750
225
3225
600
5025
4650
225
2550
1125
675
2550
300
975
375
1650
1425
450
2100
3225
3225
1875
675
675
75
1650
1425
600
750
1200
450
300
2325
75
2625
150
300
1050
1425
825
3600
1650
1275
1575
450
300
3975
600
4875
1650
375
1500
1125
3450
750
3225
75
1050
825
600
1725
300
75
825
675
600
600
675
1050
900
1050
450
1500
900
1050
1050
1650
675
225
1200
225
675
1800
1425
1050
4575
1875
75
675
1800
3075
2250
1050
2025
1050
825
300
675
975
150
1500
675
1500
1350
300
1725
150
1425
1875
300
450
1800
1800
300
2400
675
2025
1200
375
225
900
3225
3075
600
300
2100
675
675
1275
2700
300
1650
1500
1875
825
825
600
2100
75
2325
1050
900
2850
225
3375
600
75
750
600
300
750
1125
6900
1425
3075
675
600
750
2025
375
225
300
2250
1500
900
1500
1125
1875
1200
300
525
2550
2850
600
1050
1800
2850
2100
900
2700
1050
525
600
1800
2700
2775
1125
600
1875
675
1500
225
1200
1050
900
2925
1050
3375
1500
3150
450
375
1950
1050
1950
675
225
1425
1800
75
600
1650
1425
225
975
4500
1200
300
975
150
825
450
225
75
675
2100
1275
300
375
3000
1200
2025
75
2250
1725
2175
525
75
3000
900
1800
1650
1800
375
450
525
600
675
675
1425
600
1125
825
1200
100000
225
975
825
1350
2250
2850
2625
1275
600
975
1425
375
1050
2025
1125
2625
675
300
1725
1125
1500
1125
2100
1500
2325
1950
825
1500
2250
2475
750
1050
2100
375
2100
225
225
1650
375
450
2550
150
750
825
450
2025
75
3975
1500
1125
675
1425
450
3675
225
375
4275
1650
825
300
300
1425
825
1350
100000
1500
1350
1425
1125
1350
1200
75
300
3450
1275
1050
3300
225
525
1425
2175
1050
2625
1650
975
1950
4425
150
2175
1275
1575
975
3825
225
975
1725
825
75
450
3000
450
300
2475
375
375
300
1425
450
375
3225
75
75
3000
7125
75
150
450
6825
75
1800
300
675
600
600
2325
1950
600
225
450
375
2175
2250
3750
675
3300
825
1500
1875
1050
3825
1725
75
750
825
2400
1950
6225
825
675
450
2550
225
300
300
375
2100
600
375
675
300
1050
1350
2175
150
150
6450
5400
1650
3000
450
1875
750
1950
975
525
1500
3450
150
300
900
3000
3075
675
225
825
1425
4125
1875
3825
675
600
150
6000
1500
225
450
375
4275
300
600
750
2625
750
1050
2400
1500
1650
300
300
225
3075
525
1575
900
2400
1800
1275
300
900
600
225
900
75
900
75
1500
1125
450
525
6750
1350
1650
900
75
450
4950
675
1800
1650
3000
1875
3450
225
300
225
975
825
525
975
300
825
1800
975
450
1650
4350
450
2775
600
2325
2475
5775
1275
825
1125
6900
675
3150
1125
300
900
1575
675
975
525
225
2400
750
450
600
75
1650
1500
2400
450
975
7725
2025
75
975
450
975
450
450
1050
300
2475
2025
1050
1050
1050
1200
825
900
3450
1125
1200
3750
900
4875
1275
75
825
150
1950
2100
975
75
1350
975
1950
1800
75
600
3375
3375
2550
2625
2475
2175
900
750
75
600
4650
975
150
525
2925
300
375
450
2250
4650
3900
450
4050
750
75
225
1050
7050
975
75
225
675
300
750
225
