29850
29869
29866
29834
29806
29856
29820
29837
29802
29813
29825
29851
29820
29823
29802
29804
29855
29850
29889
29828
29816
29807
29816
29820
29826
29805
29815
29825
29811
29808
29845
29829
29844
29813
29803
29819
29812
29810
29862
29821
36586
5414
4414
11400
587
26600
3986
10400
8200
12787
29832
29816
29877
29821
29825
29800
29839
29812
29811
29817
29852
29819
29799
29802
29840
29801
29815
29802
29826
