=============================================================================================================== 
LARREA_VANILLA_LG_CONSENSUS_RATE.result	          <->	          LARREA_EPOCH_LG_CONSENSUS_RATE.result
=============================================================================================================== 

LARREA_VANILLA_LG_CONSENSUS_RATE.result mean: 0.00 
LARREA_EPOCH_LG_CONSENSUS_RATE.result mean: 0.00 

Observed difference of two means: 0.00 
100000 out of 100000 experiments had a difference of two means greater than or equal to 0.00.
The chance of getting a difference of two means greater than or equal to 0.00 is 1.0.

=============================================================================================================== 
LARREA_VANILLA_LG_CONSENSUS_RATE.result	          <->	          AGUILERA_LG_CONSENSUS_RATE.result
=============================================================================================================== 

LARREA_VANILLA_LG_CONSENSUS_RATE.result mean: 0.00 
AGUILERA_LG_CONSENSUS_RATE.result mean: 0.00 

Observed difference of two means: 0.00 
100000 out of 100000 experiments had a difference of two means greater than or equal to 0.00.
The chance of getting a difference of two means greater than or equal to 0.00 is 1.0.

=============================================================================================================== 
LARREA_VANILLA_LG_CONSENSUS_RATE.result	          <->	          CHEN_LG_CONSENSUS_RATE.result
=============================================================================================================== 

LARREA_VANILLA_LG_CONSENSUS_RATE.result mean: 0.00 
CHEN_LG_CONSENSUS_RATE.result mean: 7.40 

Observed difference of two means: 7.40 
0 out of 100000 experiments had a difference of two means greater than or equal to 7.40.
The chance of getting a difference of two means greater than or equal to 7.40 is 0.0.

=============================================================================================================== 
LARREA_EPOCH_LG_CONSENSUS_RATE.result	          <->	          AGUILERA_LG_CONSENSUS_RATE.result
=============================================================================================================== 

LARREA_EPOCH_LG_CONSENSUS_RATE.result mean: 0.00 
AGUILERA_LG_CONSENSUS_RATE.result mean: 0.00 

Observed difference of two means: 0.00 
100000 out of 100000 experiments had a difference of two means greater than or equal to 0.00.
The chance of getting a difference of two means greater than or equal to 0.00 is 1.0.

=============================================================================================================== 
LARREA_EPOCH_LG_CONSENSUS_RATE.result	          <->	          CHEN_LG_CONSENSUS_RATE.result
=============================================================================================================== 

LARREA_EPOCH_LG_CONSENSUS_RATE.result mean: 0.00 
CHEN_LG_CONSENSUS_RATE.result mean: 7.40 

Observed difference of two means: 7.40 
0 out of 100000 experiments had a difference of two means greater than or equal to 7.40.
The chance of getting a difference of two means greater than or equal to 7.40 is 0.0.

=============================================================================================================== 
AGUILERA_LG_CONSENSUS_RATE.result	          <->	          CHEN_LG_CONSENSUS_RATE.result
=============================================================================================================== 

AGUILERA_LG_CONSENSUS_RATE.result mean: 0.00 
CHEN_LG_CONSENSUS_RATE.result mean: 7.40 

Observed difference of two means: 7.40 
0 out of 100000 experiments had a difference of two means greater than or equal to 7.40.
The chance of getting a difference of two means greater than or equal to 7.40 is 0.0.

=============================================================================================================== 
LARREA_VANILLA_FD_AVG_MISTAKE_RATE.result	          <->	          LARREA_EPOCH_FD_AVG_MISTAKE_RATE.result
=============================================================================================================== 

LARREA_VANILLA_FD_AVG_MISTAKE_RATE.result mean: 27.46 
LARREA_EPOCH_FD_AVG_MISTAKE_RATE.result mean: 27.20 

Observed difference of two means: -0.26 
43738 out of 100000 experiments had a difference of two means less than or equal to -0.26.
The chance of getting a difference of two means less than or equal to -0.26 is 0.43738.

=============================================================================================================== 
LARREA_VANILLA_FD_AVG_MISTAKE_RATE.result	          <->	          AGUILERA_FD_AVG_MISTAKE_RATE.result
=============================================================================================================== 

LARREA_VANILLA_FD_AVG_MISTAKE_RATE.result mean: 27.46 
AGUILERA_FD_AVG_MISTAKE_RATE.result mean: 52.12 

Observed difference of two means: 24.66 
0 out of 100000 experiments had a difference of two means greater than or equal to 24.66.
The chance of getting a difference of two means greater than or equal to 24.66 is 0.0.

=============================================================================================================== 
LARREA_VANILLA_FD_AVG_MISTAKE_RATE.result	          <->	          CHEN_FD_AVG_MISTAKE_RATE.result
=============================================================================================================== 

LARREA_VANILLA_FD_AVG_MISTAKE_RATE.result mean: 27.46 
CHEN_FD_AVG_MISTAKE_RATE.result mean: 0.00 

Observed difference of two means: -27.46 
0 out of 100000 experiments had a difference of two means less than or equal to -27.46.
The chance of getting a difference of two means less than or equal to -27.46 is 0.0.

=============================================================================================================== 
LARREA_EPOCH_FD_AVG_MISTAKE_RATE.result	          <->	          AGUILERA_FD_AVG_MISTAKE_RATE.result
=============================================================================================================== 

LARREA_EPOCH_FD_AVG_MISTAKE_RATE.result mean: 27.20 
AGUILERA_FD_AVG_MISTAKE_RATE.result mean: 52.12 

Observed difference of two means: 24.92 
0 out of 100000 experiments had a difference of two means greater than or equal to 24.92.
The chance of getting a difference of two means greater than or equal to 24.92 is 0.0.

=============================================================================================================== 
LARREA_EPOCH_FD_AVG_MISTAKE_RATE.result	          <->	          CHEN_FD_AVG_MISTAKE_RATE.result
=============================================================================================================== 

LARREA_EPOCH_FD_AVG_MISTAKE_RATE.result mean: 27.20 
CHEN_FD_AVG_MISTAKE_RATE.result mean: 0.00 

Observed difference of two means: -27.20 
0 out of 100000 experiments had a difference of two means less than or equal to -27.20.
The chance of getting a difference of two means less than or equal to -27.20 is 0.0.

=============================================================================================================== 
AGUILERA_FD_AVG_MISTAKE_RATE.result	          <->	          CHEN_FD_AVG_MISTAKE_RATE.result
=============================================================================================================== 

AGUILERA_FD_AVG_MISTAKE_RATE.result mean: 52.12 
CHEN_FD_AVG_MISTAKE_RATE.result mean: 0.00 

Observed difference of two means: -52.12 
0 out of 100000 experiments had a difference of two means less than or equal to -52.12.
The chance of getting a difference of two means less than or equal to -52.12 is 0.0.

=============================================================================================================== 
LARREA_VANILLA_FD_TG_SUM.result	          <->	          LARREA_EPOCH_FD_TG_SUM.result
=============================================================================================================== 

LARREA_VANILLA_FD_TG_SUM.result mean: 531956.98 
LARREA_EPOCH_FD_TG_SUM.result mean: 531307.23 

Observed difference of two means: -649.75 
45657 out of 100000 experiments had a difference of two means less than or equal to -649.75.
The chance of getting a difference of two means less than or equal to -649.75 is 0.45657.

=============================================================================================================== 
LARREA_VANILLA_FD_TG_SUM.result	          <->	          AGUILERA_FD_TG_SUM.result
=============================================================================================================== 

LARREA_VANILLA_FD_TG_SUM.result mean: 531956.98 
AGUILERA_FD_TG_SUM.result mean: 475794.80 

Observed difference of two means: -56162.18 
0 out of 100000 experiments had a difference of two means less than or equal to -56162.18.
The chance of getting a difference of two means less than or equal to -56162.18 is 0.0.

=============================================================================================================== 
LARREA_VANILLA_FD_TG_SUM.result	          <->	          CHEN_FD_TG_SUM.result
=============================================================================================================== 

LARREA_VANILLA_FD_TG_SUM.result mean: 531956.98 
CHEN_FD_TG_SUM.result mean: 599932.23 

Observed difference of two means: 67975.25 
0 out of 100000 experiments had a difference of two means greater than or equal to 67975.25.
The chance of getting a difference of two means greater than or equal to 67975.25 is 0.0.

=============================================================================================================== 
LARREA_EPOCH_FD_TG_SUM.result	          <->	          AGUILERA_FD_TG_SUM.result
=============================================================================================================== 

LARREA_EPOCH_FD_TG_SUM.result mean: 531307.23 
AGUILERA_FD_TG_SUM.result mean: 475794.80 

Observed difference of two means: -55512.43 
0 out of 100000 experiments had a difference of two means less than or equal to -55512.43.
The chance of getting a difference of two means less than or equal to -55512.43 is 0.0.

=============================================================================================================== 
LARREA_EPOCH_FD_TG_SUM.result	          <->	          CHEN_FD_TG_SUM.result
=============================================================================================================== 

LARREA_EPOCH_FD_TG_SUM.result mean: 531307.23 
CHEN_FD_TG_SUM.result mean: 599932.23 

Observed difference of two means: 68625.00 
0 out of 100000 experiments had a difference of two means greater than or equal to 68625.00.
The chance of getting a difference of two means greater than or equal to 68625.00 is 0.0.

=============================================================================================================== 
AGUILERA_FD_TG_SUM.result	          <->	          CHEN_FD_TG_SUM.result
=============================================================================================================== 

AGUILERA_FD_TG_SUM.result mean: 475794.80 
CHEN_FD_TG_SUM.result mean: 599932.23 

Observed difference of two means: 124137.43 
0 out of 100000 experiments had a difference of two means greater than or equal to 124137.43.
The chance of getting a difference of two means greater than or equal to 124137.43 is 0.0.

