=============================================================================================================== 
LARREA_VANILLA_LG_CONSENSUS_RATE.result	          <->	          LARREA_EPOCH_LG_CONSENSUS_RATE.result
=============================================================================================================== 

LARREA_VANILLA_LG_CONSENSUS_RATE.result mean: 0.09 
LARREA_EPOCH_LG_CONSENSUS_RATE.result mean: 0.09 

Observed difference of two means: 0.00 
45454 out of 100000 experiments had a difference of two means greater than or equal to 0.00.
The chance of getting a difference of two means greater than or equal to 0.00 is 0.45454.

=============================================================================================================== 
LARREA_VANILLA_LG_CONSENSUS_RATE.result	          <->	          AGUILERA_LG_CONSENSUS_RATE.result
=============================================================================================================== 

LARREA_VANILLA_LG_CONSENSUS_RATE.result mean: 0.09 
AGUILERA_LG_CONSENSUS_RATE.result mean: 0.01 

Observed difference of two means: -0.08 
0 out of 100000 experiments had a difference of two means less than or equal to -0.08.
The chance of getting a difference of two means less than or equal to -0.08 is 0.0.

=============================================================================================================== 
LARREA_VANILLA_LG_CONSENSUS_RATE.result	          <->	          CHEN_LG_CONSENSUS_RATE.result
=============================================================================================================== 

LARREA_VANILLA_LG_CONSENSUS_RATE.result mean: 0.09 
CHEN_LG_CONSENSUS_RATE.result mean: 0.04 

Observed difference of two means: -0.04 
0 out of 100000 experiments had a difference of two means less than or equal to -0.04.
The chance of getting a difference of two means less than or equal to -0.04 is 0.0.

=============================================================================================================== 
LARREA_EPOCH_LG_CONSENSUS_RATE.result	          <->	          AGUILERA_LG_CONSENSUS_RATE.result
=============================================================================================================== 

LARREA_EPOCH_LG_CONSENSUS_RATE.result mean: 0.09 
AGUILERA_LG_CONSENSUS_RATE.result mean: 0.01 

Observed difference of two means: -0.08 
0 out of 100000 experiments had a difference of two means less than or equal to -0.08.
The chance of getting a difference of two means less than or equal to -0.08 is 0.0.

=============================================================================================================== 
LARREA_EPOCH_LG_CONSENSUS_RATE.result	          <->	          CHEN_LG_CONSENSUS_RATE.result
=============================================================================================================== 

LARREA_EPOCH_LG_CONSENSUS_RATE.result mean: 0.09 
CHEN_LG_CONSENSUS_RATE.result mean: 0.04 

Observed difference of two means: -0.04 
0 out of 100000 experiments had a difference of two means less than or equal to -0.04.
The chance of getting a difference of two means less than or equal to -0.04 is 0.0.

=============================================================================================================== 
AGUILERA_LG_CONSENSUS_RATE.result	          <->	          CHEN_LG_CONSENSUS_RATE.result
=============================================================================================================== 

AGUILERA_LG_CONSENSUS_RATE.result mean: 0.01 
CHEN_LG_CONSENSUS_RATE.result mean: 0.04 

Observed difference of two means: 0.04 
0 out of 100000 experiments had a difference of two means greater than or equal to 0.04.
The chance of getting a difference of two means greater than or equal to 0.04 is 0.0.

=============================================================================================================== 
LARREA_VANILLA_FD_AVG_MISTAKE_RATE.result	          <->	          LARREA_EPOCH_FD_AVG_MISTAKE_RATE.result
=============================================================================================================== 

LARREA_VANILLA_FD_AVG_MISTAKE_RATE.result mean: 0.55 
LARREA_EPOCH_FD_AVG_MISTAKE_RATE.result mean: 0.55 

Observed difference of two means: -0.00 
38747 out of 100000 experiments had a difference of two means less than or equal to -0.00.
The chance of getting a difference of two means less than or equal to -0.00 is 0.38747.

=============================================================================================================== 
LARREA_VANILLA_FD_AVG_MISTAKE_RATE.result	          <->	          AGUILERA_FD_AVG_MISTAKE_RATE.result
=============================================================================================================== 

LARREA_VANILLA_FD_AVG_MISTAKE_RATE.result mean: 0.55 
AGUILERA_FD_AVG_MISTAKE_RATE.result mean: 0.81 

Observed difference of two means: 0.26 
0 out of 100000 experiments had a difference of two means greater than or equal to 0.26.
The chance of getting a difference of two means greater than or equal to 0.26 is 0.0.

=============================================================================================================== 
LARREA_VANILLA_FD_AVG_MISTAKE_RATE.result	          <->	          CHEN_FD_AVG_MISTAKE_RATE.result
=============================================================================================================== 

LARREA_VANILLA_FD_AVG_MISTAKE_RATE.result mean: 0.55 
CHEN_FD_AVG_MISTAKE_RATE.result mean: 0.00 

Observed difference of two means: -0.55 
0 out of 100000 experiments had a difference of two means less than or equal to -0.55.
The chance of getting a difference of two means less than or equal to -0.55 is 0.0.

=============================================================================================================== 
LARREA_EPOCH_FD_AVG_MISTAKE_RATE.result	          <->	          AGUILERA_FD_AVG_MISTAKE_RATE.result
=============================================================================================================== 

LARREA_EPOCH_FD_AVG_MISTAKE_RATE.result mean: 0.55 
AGUILERA_FD_AVG_MISTAKE_RATE.result mean: 0.81 

Observed difference of two means: 0.26 
0 out of 100000 experiments had a difference of two means greater than or equal to 0.26.
The chance of getting a difference of two means greater than or equal to 0.26 is 0.0.

=============================================================================================================== 
LARREA_EPOCH_FD_AVG_MISTAKE_RATE.result	          <->	          CHEN_FD_AVG_MISTAKE_RATE.result
=============================================================================================================== 

LARREA_EPOCH_FD_AVG_MISTAKE_RATE.result mean: 0.55 
CHEN_FD_AVG_MISTAKE_RATE.result mean: 0.00 

Observed difference of two means: -0.55 
0 out of 100000 experiments had a difference of two means less than or equal to -0.55.
The chance of getting a difference of two means less than or equal to -0.55 is 0.0.

=============================================================================================================== 
AGUILERA_FD_AVG_MISTAKE_RATE.result	          <->	          CHEN_FD_AVG_MISTAKE_RATE.result
=============================================================================================================== 

AGUILERA_FD_AVG_MISTAKE_RATE.result mean: 0.81 
CHEN_FD_AVG_MISTAKE_RATE.result mean: 0.00 

Observed difference of two means: -0.81 
0 out of 100000 experiments had a difference of two means less than or equal to -0.81.
The chance of getting a difference of two means less than or equal to -0.81 is 0.0.

=============================================================================================================== 
LARREA_VANILLA_FD_TG_SUM.result	          <->	          LARREA_EPOCH_FD_TG_SUM.result
=============================================================================================================== 

LARREA_VANILLA_FD_TG_SUM.result mean: 493670.17 
LARREA_EPOCH_FD_TG_SUM.result mean: 495725.15 

Observed difference of two means: 2054.98 
25700 out of 100000 experiments had a difference of two means greater than or equal to 2054.98.
The chance of getting a difference of two means greater than or equal to 2054.98 is 0.257.

=============================================================================================================== 
LARREA_VANILLA_FD_TG_SUM.result	          <->	          AGUILERA_FD_TG_SUM.result
=============================================================================================================== 

LARREA_VANILLA_FD_TG_SUM.result mean: 493670.17 
AGUILERA_FD_TG_SUM.result mean: 441354.87 

Observed difference of two means: -52315.30 
0 out of 100000 experiments had a difference of two means less than or equal to -52315.30.
The chance of getting a difference of two means less than or equal to -52315.30 is 0.0.

=============================================================================================================== 
LARREA_VANILLA_FD_TG_SUM.result	          <->	          CHEN_FD_TG_SUM.result
=============================================================================================================== 

LARREA_VANILLA_FD_TG_SUM.result mean: 493670.17 
CHEN_FD_TG_SUM.result mean: 29723.10 

Observed difference of two means: -463947.07 
0 out of 100000 experiments had a difference of two means less than or equal to -463947.07.
The chance of getting a difference of two means less than or equal to -463947.07 is 0.0.

=============================================================================================================== 
LARREA_EPOCH_FD_TG_SUM.result	          <->	          AGUILERA_FD_TG_SUM.result
=============================================================================================================== 

LARREA_EPOCH_FD_TG_SUM.result mean: 495725.15 
AGUILERA_FD_TG_SUM.result mean: 441354.87 

Observed difference of two means: -54370.28 
0 out of 100000 experiments had a difference of two means less than or equal to -54370.28.
The chance of getting a difference of two means less than or equal to -54370.28 is 0.0.

=============================================================================================================== 
LARREA_EPOCH_FD_TG_SUM.result	          <->	          CHEN_FD_TG_SUM.result
=============================================================================================================== 

LARREA_EPOCH_FD_TG_SUM.result mean: 495725.15 
CHEN_FD_TG_SUM.result mean: 29723.10 

Observed difference of two means: -466002.05 
0 out of 100000 experiments had a difference of two means less than or equal to -466002.05.
The chance of getting a difference of two means less than or equal to -466002.05 is 0.0.

=============================================================================================================== 
AGUILERA_FD_TG_SUM.result	          <->	          CHEN_FD_TG_SUM.result
=============================================================================================================== 

AGUILERA_FD_TG_SUM.result mean: 441354.87 
CHEN_FD_TG_SUM.result mean: 29723.10 

Observed difference of two means: -411631.77 
0 out of 100000 experiments had a difference of two means less than or equal to -411631.77.
The chance of getting a difference of two means less than or equal to -411631.77 is 0.0.

