29759
29736
29732
29710
29713
29714
29719
29743
29706
29744
29716
29740
29716
29699
29744
29711
29719
29715
29717
29702
29740
29727
29755
29722
29722
29712
29717
29699
29708
29723
29747
29729
29706
29742
29753
29711
29701
29700
29711
29729
29725
29711
29723
29725
29719
29754
29735
29699
29725
29714
29707
29700
29708
29733
29723
29718
29755
29763
29712
29728
