3075
450
5025
1350
1050
825
1050
2625
1650
1425
4425
2025
450
750
5625
975
1350
750
750
1650
450
450
3150
750
450
1650
1650
1950
4725
5025
1950
675
375
1125
3150
825
1275
1350
1425
3075
1575
1425
1050
825
4650
1725
75
375
4350
3150
2550
2925
750
825
525
1350
1050
2925
525
4275
1050
1350
750
825
3450
2250
450
450
525
825
2175
7350
1425
1050
1050
1050
1950
1050
2850
675
750
1125
1050
675
1425
1425
750
3150
1575
525
3225
1350
2025
1575
750
450
675
1725
1050
1125
2250
450
2250
825
450
375
3075
3450
1725
525
375
4350
750
3525
1425
750
750
1950
1350
750
2850
1350
750
375
375
3750
525
4950
450
750
1275
525
1425
2325
450
1350
3450
375
450
525
825
450
5250
1350
1425
2550
1125
1050
1050
1350
825
825
1650
4350
1650
675
750
1350
3750
1950
4425
2250
525
525
675
1350
1050
1350
750
1275
2025
450
750
1650
1050
375
1050
1350
450
450
2250
3150
825
1650
2925
1050
1350
1350
825
1125
1650
750
1050
2025
675
600
2850
450
750
1950
375
1650
2550
375
525
1425
825
1275
3150
450
450
1950
525
525
1350
750
2775
5025
975
375
1050
1650
2550
1575
975
2925
1425
2025
1125
1350
450
3375
525
1050
1425
750
2550
3225
1350
375
1650
1050
450
1350
1050
975
2325
3750
750
2175
1125
3525
2025
375
525
1050
750
2250
1650
1425
750
375
3825
3975
1275
1425
450
750
450
375
2250
1050
450
825
1050
4125
375
525
750
3450
1050
1650
1950
2550
1950
1650
2625
1650
750
750
375
375
750
2025
450
1275
3750
75
825
975
1125
750
1650
2550
375
750
525
2325
525
450
1350
1350
750
2625
1425
1050
1050
1050
675
1350
1650
3825
5325
150
1350
100000
1950
5625
450
1350
825
750
1125
750
2025
2550
1050
2250
4050
1275
4725
3525
1050
2850
525
750
5925
750
2250
1050
1050
2250
1425
450
1050
5550
450
3150
2250
1050
1050
1425
1725
750
1425
1950
3525
750
525
2250
450
825
525
1050
525
1650
450
3825
1950
450
750
2850
750
2850
825
450
750
2550
1125
675
1950
975
2250
750
1650
750
825
450
3450
525
1350
2175
450
1725
1950
3150
450
450
1050
4050
1950
2325
1050
825
1125
1650
2250
1950
4950
1350
2025
450
1950
2025
975
1650
1125
2475
1350
750
450
750
525
450
1350
825
1125
1425
5850
3525
1425
825
1950
450
2025
1350
4650
450
1725
1650
4650
750
750
525
525
1725
4125
1125
2025
1125
1650
1350
1650
1350
525
750
2250
450
1425
1425
450
750
3450
2250
2925
2550
75
1125
1125
3075
750
1950
750
2550
450
450
450
1350
450
1425
5550
750
525
750
2025
450
750
525
2250
825
525
750
2925
2550
1725
4125
1650
5250
750
1050
750
3450
450
1125
1950
750
825
2850
2550
2250
750
450
1050
750
1050
525
3150
2550
3150
450
1425
825
1425
1125
450
525
450
1125
450
2850
450
1650
450
525
450
450
450
1350
1050
750
750
1950
450
750
1050
450
1050
1050
3750
1425
450
2250
525
450
1125
450
450
750
2550
3450
1350
450
1050
1350
1050
2850
750
2550
750
375
2475
525
1950
3225
750
450
1950
1650
3150
825
1050
8325
525
3150
3825
4050
825
825
450
1350
5250
1050
3750
2550
450
5625
1350
2025
1650
1950
825
2250
2250
3450
2850
2550
450
750
1650
1125
525
1650
1650
750
825
2025
750
750
1425
1425
1050
750
1050
1425
750
8025
1050
450
1425
1350
1425
1950
750
5550
450
100000
1950
1350
1350
450
1950
450
450
450
750
1050
675
3750
2550
450
3150
6450
750
1950
450
750
1950
2850
450
1950
450
1350
1350
6750
1275
750
1950
1050
1950
750
750
450
375
750
450
450
1650
1050
750
1350
750
1650
1950
1050
750
450
450
2250
2025
675
1650
450
525
1350
450
450
750
2475
1050
375
2250
4350
1350
1350
2550
2250
3150
1575
1650
2250
1950
3150
675
750
750
750
450
450
450
3075
750
1050
3450
2250
1050
450
450
1950
675
450
750
375
750
450
1650
750
450
1950
750
2250
450
1050
3150
375
450
750
525
1050
750
4050
750
1050
3450
3150
450
750
2325
1350
750
2250
2550
1050
1050
750
450
1050
2250
750
450
750
1050
4050
1650
1050
450
975
750
4350
1050
1050
750
450
2550
4650
4050
1425
1050
750
3150
450
825
1350
750
3150
2850
375
750
450
1350
150
450
450
1950
1050
3375
1050
450
1950
1650
2625
2850
750
1650
3150
750
750
1050
1350
750
750
2250
1050
2025
450
1050
750
450
1875
1425
450
3150
975
750
1050
450
450
1050
750
975
1650
2250
2550
2850
1650
1350
2250
450
1950
1650
750
1650
450
1950
450
1050
750
450
450
2175
825
1425
3750
1050
750
450
450
4950
1350
750
450
525
4350
1050
2850
2250
1050
1050
1650
1050
1950
2250
1950
1050
1050
1950
975
1950
1950
1350
1050
375
750
1650
1950
750
1575
375
450
1950
2850
750
750
450
750
450
750
450
2250
450
7950
4050
975
1050
1350
375
1050
750
1650
450
6225
2550
450
1575
450
450
1350
2850
750
750
750
2250
2250
750
1350
1050
750
1050
1050
1350
825
375
450
450
1050
1050
1050
750
1275
675
1425
750
750
1050
1950
1050
3150
4050
375
450
1575
2550
1650
1350
2550
675
750
1650
1350
2550
1050
1350
3150
1050
1575
1125
750
3150
150
1425
1950
675
2850
1050
2550
1650
675
3075
2550
4950
1650
675
2250
750
750
1875
675
750
825
750
3450
975
4050
2250
450
450
450
2475
2550
375
750
5850
450
5550
2250
825
750
3675
2250
450
1350
2175
1050
1950
4050
2550
750
1950
2250
750
1950
975
3150
1950
1650
375
3075
2475
1650
2850
1350
750
2475
1275
1350
975
675
3525
750
450
2550
4050
1575
750
1050
1650
1650
375
2250
300
1050
1650
375
2175
1950
4050
375
1050
3075
750
1050
1050
450
1350
5250
675
3525
450
450
3150
450
975
5175
4050
1950
675
450
6075
450
450
1350
1350
825
1725
750
450
1575
2475
1050
2850
1350
375
1050
1350
750
3375
675
2775
6750
1575
450
1275
450
1350
2475
450
375
675
450
750
1650
1350
450
2250
2250
375
450
1050
1950
1275
975
975
1875
750
375
1650
975
975
1650
750
1275
375
1350
975
1125
1950
450
2175
975
675
750
2250
675
750
1350
1050
450
450
450
1650
2250
1950
750
450
750
375
1650
450
450
375
975
1950
450
450
750
450
375
825
6450
1050
1050
750
450
1875
1650
1350
1650
4350
1050
375
1350
375
3975
3375
450
750
450
375
3075
2475
1350
750
750
975
450
3375
750
675
1575
975
2250
1650
3150
2850
1350
450
2775
1575
675
450
2025
2775
825
4950
750
2250
1350
1350
4050
1950
1050
1050
2850
675
1650
375
375
750
2850
450
1350
1950
675
2850
1575
3225
2250
1650
1275
975
3075
1050
975
375
750
675
450
750
375
1275
750
1650
1350
450
675
750
750
975
375
4575
1050
1050
450
2325
450
1650
3225
450
750
1650
975
450
675
9150
750
1350
1350
1650
1575
975
750
1050
1050
450
2250
1050
2250
675
750
375
1950
750
450
750
100000
2550
750
450
3750
2550
450
375
1350
1050
1275
1650
450
1650
2850
3075
750
1650
750
450
1575
2475
675
1575
1050
2250
1050
450
2850
1575
1275
1350
450
375
2550
450
1275
750
3675
1050
750
1650
1050
450
1350
750
450
450
1275
1050
1950
450
750
375
450
450
450
1275
1350
375
750
1050
1050
450
3975
2550
1650
750
450
375
2475
3675
375
750
1950
450
675
1050
1350
1275
2475
750
1950
3150
1650
2550
1050
1950
1350
450
2550
1575
1575
450
2250
2250
4350
1350
1875
675
750
450
375
450
750
1575
1650
1875
750
1050
450
750
1050
2550
375
3450
2775
375
975
1050
1650
1050
1275
375
750
1350
4950
4350
2475
450
75
675
1650
750
375
1350
2250
1050
450
4650
3150
750
2550
1350
3150
2775
450
1350
750
450
750
450
375
750
450
3150
3150
2250
1650
450
1875
750
450
1350
1350
375
1350
2250
1350
1350
4950
1275
3075
1575
1350
1050
3975
975
2550
450
750
450
1275
2850
2175
750
1050
1050
1950
1350
450
375
1950
1350
375
1650
1650
750
2250
5550
450
1050
450
450
450
3750
675
375
675
1350
1950
450
7275
975
1125
375
750
375
1050
450
1650
3675
975
1350
1650
750
750
4275
375
4350
750
450
375
675
750
1050
375
1350
375
1275
450
1950
750
1050
1875
1650
1050
375
1350
1650
2550
675
750
750
1050
750
975
1875
450
450
1950
1350
1350
2550
450
1275
450
450
375
1050
1650
2625
2250
3150
4050
1650
1350
150
3450
450
1350
750
1350
1650
1050
2550
1350
1050
3750
750
2850
450
1125
1050
1050
2250
1350
2175
675
1050
750
2550
2850
450
750
1350
1050
1350
1350
750
975
675
1350
1050
2850
1650
450
1575
750
975
375
1650
375
1650
450
750
450
3750
7950
675
375
2550
675
450
1275
4575
450
2550
675
1575
750
450
375
1050
975
675
1275
3750
2850
750
1050
1050
450
450
1650
750
2250
1650
3375
1050
750
975
2250
450
1650
1650
2250
675
2550
450
750
1125
975
375
2475
1575
2175
3150
750
1050
1050
750
1050
750
1875
750
750
1350
2850
675
750
1050
1050
1350
450
2550
375
1350
975
1275
450
1575
375
1875
1950
1350
675
4950
1575
2550
975
750
675
1050
1275
1350
450
450
750
675
1050
600
450
3750
1350
2250
450
375
750
450
3750
450
2175
4050
3750
2850
450
450
1350
1950
1650
675
2175
1050
450
975
1350
450
2475
1350
1650
2850
450
2550
975
375
2175
675
1050
1275
1350
375
2850
3150
1950
2550
450
375
4575
1575
975
1875
1650
450
750
1575
2550
450
1050
2025
750
3975
1050
750
1950
2175
1650
450
675
450
750
675
2550
1950
1050
975
1950
375
675
1350
750
3150
2550
1350
750
1875
4275
2250
750
375
3750
3150
975
1050
450
750
2550
2550
375
375
1350
1350
750
2250
450
1650
4575
450
450
750
450
1575
4575
1875
6150
750
4050
375
750
1350
1350
1650
675
1050
1350
3150
1350
1050
675
750
750
3150
375
2850
375
375
4050
750
975
750
1875
1275
3750
1350
1350
750
2550
750
750
750
2775
1650
750
3750
4350
3750
825
1875
2775
375
1050
975
750
375
2250
1650
1275
450
2175
450
1275
2175
450
750
675
675
2850
1575
1650
1050
675
3150
750
2550
1350
450
2250
2025
1350
1350
1950
450
375
450
525
450
1275
2850
450
450
75
1050
975
450
975
2250
975
2475
375
450
2250
1575
1350
375
1425
1950
375
750
4275
3750
1050
1050
1950
3750
2175
3825
3750
450
750
1275
450
1650
1650
1950
375
1575
1275
975
2775
450
750
750
3450
675
2850
375
2550
2250
1050
3975
2250
750
1050
375
750
450
1650
750
450
1125
750
1575
2550
1950
2550
450
1950
375
1350
450
450
375
750
1650
450
1050
1050
1050
1950
2550
5250
1050
1950
450
1350
750
3150
1350
1950
3150
750
750
4050
1650
750
450
3150
450
1950
5250
1050
1950
450
1050
1050
1950
2250
1350
4950
2550
1350
450
750
1050
1650
2250
1050
1050
1650
750
750
1650
450
1650
1350
750
1350
750
450
1950
1650
750
2250
1650
750
975
2850
750
225
2550
450
2250
1650
1650
1650
1650
1350
3825
750
1050
4950
1650
6375
1125
750
1875
450
3450
2250
1650
1350
1350
750
750
1275
750
1950
6525
3750
750
1350
375
1050
1350
750
1050
375
1350
675
1050
1050
1050
750
450
1350
1950
750
1050
450
750
450
1950
1350
450
750
450
1050
750
450
1050
750
825
6150
750
1050
3075
1050
1350
750
1650
450
2250
1725
1950
450
1050
1950
825
2025
1575
750
750
750
750
1950
2250
2850
750
750
4350
1275
450
1050
1950
2250
750
1650
1650
525
2250
2550
750
450
450
1050
750
1050
1050
450
3750
450
450
1350
1950
1050
1950
2250
450
7275
1050
750
1950
1950
1650
525
2250
1350
1950
1650
1650
750
450
450
450
1950
1650
750
2550
1050
750
1050
1650
450
525
750
375
750
675
1050
4275
450
1425
1425
1350
750
1650
1350
1875
1950
1050
375
2025
750
450
750
1950
1350
1350
4350
750
2250
1950
1650
450
750
450
750
750
450
1050
1350
3150
1050
2850
750
1350
1950
450
675
450
450
450
1050
1950
1350
450
825
750
1050
2250
1950
450
2550
1050
750
375
1050
450
975
2550
1650
1275
525
1125
450
450
450
1725
750
750
1350
1050
3075
1950
1650
1350
750
450
4350
1050
450
2250
1050
675
450
1350
750
1650
750
8250
750
825
1050
750
1050
450
450
3150
450
2850
450
450
1950
750
1650
2550
450
3750
750
1950
750
750
1950
1350
1875
450
375
675
450
375
1350
375
1350
750
1350
1650
1950
1650
2550
525
3075
1350
1050
1350
1950
375
375
1950
1275
825
450
2550
4050
3450
1050
1950
1350
4575
1650
450
375
1950
2175
375
4275
450
750
450
1950
2175
375
1950
450
1950
750
450
450
975
450
1350
1050
2250
1950
2475
2100
750
450
1650
675
1050
1650
750
150
1050
450
450
1875
7050
3450
450
1350
450
975
450
1650
2850
1275
1875
750
450
7050
1350
1050
4050
675
1275
1350
450
4950
750
3675
450
1575
750
1650
1050
675
450
1050
750
1050
1275
750
750
1500
750
2250
2775
1050
2175
450
1275
1875
450
1050
2475
3150
3375
1350
2175
3750
3750
6150
975
1275
1875
450
1050
450
1875
2250
450
375
750
3450
450
675
1950
1950
1650
675
1950
750
675
1350
1650
450
2850
2250
450
750
2850
450
750
2475
750
2250
975
450
450
450
450
2250
2550
675
750
1050
1050
450
450
1350
450
450
1950
750
750
675
675
1650
675
1125
1350
450
1950
450
2475
675
1350
750
450
5250
3150
750
2250
1050
450
1050
450
2475
450
750
1350
2475
1950
1350
1350
450
750
750
2250
1050
4275
450
1650
450
150
675
375
675
450
975
1050
2025
450
750
2175
1050
1050
450
2850
450
450
1650
975
1650
2850
1350
975
4050
750
1050
3525
375
3450
1050
1050
1050
750
675
1650
4050
1350
450
7050
750
975
450
750
750
450
3150
750
1050
1350
1050
1575
2850
1050
1650
450
1275
5850
3675
450
675
2175
1050
1650
375
450
1050
750
2850
975
450
450
750
375
4050
750
1050
2475
750
2775
5550
1050
375
1875
1650
2850
1650
675
2250
2550
375
750
750
1575
750
3975
675
1650
525
750
1350
975
1275
1350
1350
825
7050
1050
750
1275
100000
1950
1950
450
2250
1125
1650
450
450
450
750
6750
450
6450
375
1725
150
675
450
1950
450
450
1875
375
1650
1350
1350
750
1650
450
750
2850
975
2550
450
675
1650
750
2475
1275
5250
750
450
2250
2250
300
2475
450
750
1050
1650
2250
450
1650
450
2550
900
2775
750
1950
3450
1050
450
450
1950
450
1350
750
1650
450
3525
450
4050
1350
450
1050
1950
375
3750
750
4425
450
1350
2850
450
1050
975
3525
1125
1425
3450
3450
675
1950
3975
750
450
375
1050
2250
1275
3675
675
1875
450
1350
1650
750
1275
2250
1950
750
3450
1650
1950
1275
1050
1050
1950
750
450
375
750
1950
675
1050
750
750
2850
4650
4650
1050
525
450
1275
3150
1050
975
1350
675
2175
1950
450
1575
3825
750
750
1050
1050
750
1350
1350
450
2175
1050
450
675
3675
2625
1950
375
2325
1875
1950
450
1050
2250
750
675
1350
1050
2250
975
750
3375
1875
1650
2250
450
750
450
450
2550
375
675
450
825
1275
375
3150
1875
1575
1650
450
1950
450
1050
825
450
450
450
1275
675
825
525
375
1350
450
3975
1650
1950
2550
450
1650
450
1050
675
450
1050
1050
1050
375
2175
1950
2475
1050
450
1575
675
450
750
975
750
375
1050
675
1950
3450
3750
2250
4950
3150
1350
450
750
1050
2850
750
450
450
4350
4350
2850
1350
1275
1575
525
450
975
150
1350
1125
75
2775
750
1650
3150
3450
3150
2850
1275
1650
975
750
450
750
2550
750
750
3150
1650
3150
2550
1950
1575
1350
450
375
375
375
750
2550
1050
4050
750
750
2175
3450
750
1050
1050
750
450
450
750
1350
675
375
3150
4050
2175
1275
2475
450
450
1650
1950
450
3750
1050
450
750
450
1650
450
675
1050
1350
1350
750
1350
1950
1050
2475
375
375
1650
1050
1650
450
375
1650
1725
2850
750
3975
975
2550
1575
4875
450
450
2325
2550
2475
750
750
750
1350
3375
1650
525
1650
450
2850
1350
375
450
5850
375
450
750
1050
1350
2625
1650
1725
750
450
1950
2250
1950
1050
1725
1275
675
3750
1650
1575
1050
1950
1650
2925
450
450
450
3150
750
750
450
450
375
1950
1650
1050
4050
1125
2625
1050
975
2550
750
1275
525
2025
1350
1050
1950
375
2850
750
450
1650
3975
2625
2250
750
525
1350
1125
1050
3450
2250
1650
675
2850
1875
825
2250
2250
1725
1950
750
750
450
450
2775
375
2550
825
2625
750
450
1050
3750
1350
450
1050
1050
750
450
2250
1350
2175
2250
1950
450
3675
1350
1275
450
2175
3150
450
750
1650
825
825
2250
1050
750
2250
1350
450
2775
450
1350
675
1050
525
750
750
750
450
1275
750
1050
1125
525
750
2550
3150
1050
1350
375
450
2025
2250
450
900
975
1350
2550
450
375
2250
375
750
450
750
1050
1650
2550
825
450
450
1650
450
1050
750
1350
2550
1050
1350
2250
750
750
675
1350
1950
1650
675
1425
450
675
1725
450
1125
1950
975
1350
7650
450
450
450
4050
1275
750
450
1725
1950
450
1350
750
1350
5850
2550
3825
1125
450
450
1425
2250
1050
1350
375
750
2250
975
3150
450
525
1050
2550
750
375
1650
1950
1350
750
1275
3750
1050
450
2250
1875
1050
1050
450
450
2850
1050
1725
1950
450
3450
450
975
1050
750
1350
2250
675
450
1650
975
9150
2550
2250
750
450
2250
1950
4050
2550
1050
525
3750
450
2250
1275
675
450
675
750
1350
450
75
675
1050
375
2250
1050
1350
1950
1050
450
1050
1350
450
375
675
1650
675
675
1650
1950
1050
1425
750
750
750
1350
1350
525
450
450
4650
975
1050
5850
4050
450
750
2475
100000
750
750
1050
2250
750
450
1050
2850
750
1275
750
1350
450
1050
2250
750
1050
375
1350
1650
1350
2850
2250
1950
450
450
2850
1350
450
1725
375
750
375
1950
1950
450
1350
750
1350
1050
1350
525
1350
1650
1650
1425
750
1425
450
2250
5850
750
3150
3450
825
1350
2025
2250
750
3750
1050
1125
1050
2025
450
450
450
1725
2550
2475
675
450
450
5850
1050
5250
450
1950
2250
1050
375
750
450
3450
1575
1350
750
1650
1875
1350
1950
2550
450
1650
1950
750
1950
450
375
2925
450
1050
750
1650
1950
4950
225
450
2850
1350
1050
3450
750
450
450
1950
1350
675
3750
825
450
2850
1650
450
1050
750
750
2850
1650
1350
1050
1875
825
1575
1650
2250
2550
450
2250
375
4050
2550
750
1650
3150
1050
1050
1050
750
525
2550
2325
3150
750
1425
1050
750
450
1950
1650
1050
525
450
525
2550
1350
2625
825
75
825
1950
450
450
450
5250
1950
450
450
2175
2550
450
2550
2925
450
2550
750
1050
2475
825
2550
3150
1050
1350
2250
1725
1950
3225
1950
1650
1050
1350
3225
1650
1650
675
750
2325
1650
2250
750
2550
1125
2025
450
7650
450
825
4350
2550
450
3450
1350
450
1050
1950
450
825
1125
4725
4125
1350
2250
2025
750
750
3825
1950
450
450
2325
450
1050
450
1950
2250
1125
525
1050
750
3525
1650
750
1950
1050
450
3450
1350
4050
825
3150
2325
525
4275
450
3225
6750
6150
375
750
3675
1050
1425
375
1350
3450
375
750
750
450
1050
750
450
750
1350
1950
1350
750
2250
1050
750
750
450
3975
450
5550
525
4650
1950
5250
1350
750
525
1350
750
1275
1050
3525
450
1350
1050
3975
100000
525
1350
1575
1350
1650
2475
1050
3975
450
2850
6675
1050
1575
450
1575
675
1050
1050
1200
450
750
375
1350
3975
1125
2850
750
1575
375
1050
525
1350
375
375
975
375
450
1575
675
1050
1575
2925
2850
6150
2250
1050
1350
375
1050
525
1125
450
1950
1650
2025
525
450
750
450
375
675
750
450
450
2850
3750
450
1350
2775
450
1425
1050
1050
450
1425
750
1575
675
450
1275
1050
3525
1050
450
1650
450
675
1350
3750
4050
1350
1575
750
1350
4350
1050
1050
2850
1425
1350
750
1125
750
450
375
3825
1650
450
750
5250
975
1650
2250
675
1950
1350
375
375
5475
975
750
2550
750
975
1650
3300
2175
2325
450
2250
1650
450
2250
450
3450
2250
1650
2025
450
375
450
1650
1275
2025
1575
1050
1425
825
2550
1650
1650
1350
1050
1350
2850
1650
375
975
450
675
450
375
1875
3450
1950
450
750
450
750
525
4950
1350
1650
450
2850
5850
1050
4050
750
1350
4350
450
750
1875
375
450
1350
750
375
1650
525
2400
1350
750
675
1350
2925
525
2250
675
2325
1425
675
450
2550
450
1425
750
1050
450
825
1875
1050
2550
975
750
1650
450
975
750
75
1950
750
450
975
2175
2250
1575
3750
1575
1950
975
1650
3075
1575
1350
1050
3150
2175
450
450
975
450
2550
2850
975
750
675
1950
450
525
75
3075
2550
1650
1650
525
5550
1575
450
3150
1350
750
450
2550
375
5550
750
1350
3150
1950
750
975
3975
450
525
375
1050
2250
750
2550
900
1050
2175
450
1050
750
750
3450
450
3375
6450
1350
1650
3375
2475
1125
2025
525
1650
3450
1875
825
450
750
450
375
450
2550
375
1050
1425
375
450
750
750
750
1650
750
7650
1350
750
525
3450
975
1725
375
450
3075
2475
100000
750
525
1950
2250
825
1650
6750
1425
825
1725
1950
750
450
1050
1350
450
2250
450
1650
825
675
1950
1125
450
750
2250
450
1425
450
1725
1125
450
1350
2625
525
825
1650
1575
525
750
750
1425
825
1350
1950
450
4650
525
1050
2625
2325
6450
825
3525
1950
450
3975
1350
525
1050
1350
825
2550
4425
1050
1650
150
825
525
1725
4650
2850
2325
1950
750
1950
1125
3150
525
1650
825
3225
1425
450
750
750
1050
750
1725
1350
1350
1875
750
1950
450
825
450
2325
1050
975
825
2850
525
75
525
450
450
1650
525
1950
1125
750
675
450
1050
525
2850
1650
750
1050
450
1425
825
1425
1425
750
450
3450
1050
375
2625
450
2925
2025
750
1950
1950
750
525
1050
1350
825
1125
5550
1350
525
750
450
750
675
2850
2925
675
750
1650
525
1050
1050
2475
1050
1425
750
1650
450
450
2625
750
3825
1725
1050
450
750
1050
2250
2925
450
2925
2175
1125
825
750
750
5925
750
2550
7650
3225
450
1950
1425
1950
1350
1050
450
1050
450
3225
450
1350
750
450
3450
1050
1125
525
1125
1725
1350
1050
525
1350
525
1050
1050
750
975
1350
3525
2625
825
750
1350
825
750
1725
750
525
750
825
1350
1350
750
1425
450
2550
1650
4650
2250
1650
450
2550
525
750
825
750
825
2025
1050
1875
1125
525
1050
3450
825
1050
750
375
825
3525
825
525
7050
525
1425
1725
4050
2850
450
750
1125
1350
2550
1125
2175
750
525
1425
2325
825
1125
825
2775
450
1350
825
2550
675
2325
1725
1650
1575
1950
825
825
750
525
825
525
1425
375
450
2250
1050
825
825
2850
750
1950
750
2550
825
825
675
750
1350
1350
825
750
1950
750
750
525
3525
3750
2325
375
1050
4275
375
1350
1725
1050
450
825
2550
1425
825
450
750
450
525
450
450
750
1125
450
825
1350
450
750
1275
100000
450
750
525
1950
750
1050
3525
825
1050
1725
750
1050
375
450
1575
2850
1050
750
825
375
1650
450
1575
450
1650
1350
1950
5850
1650
2775
750
7050
1050
1650
1950
3450
450
450
1650
750
1350
750
450
750
3075
750
2550
1350
3150
5250
450
450
1350
750
750
1050
2850
750
1950
2850
450
1050
1350
3150
1125
450
1050
1950
450
1950
2850
450
525
1950
1875
450
1350
3750
750
1350
3375
450
450
2850
1050
750
1575
2550
450
975
750
1050
1350
450
750
750
450
2250
2550
75
750
1950
750
450
1350
750
750
3750
2550
1950
2250
1425
750
3225
3225
1350
675
6750
1650
1350
750
1275
1950
1350
1350
1050
1650
3225
750
450
675
1050
450
750
4350
6450
1050
750
1050
1275
1350
4950
3150
1350
375
750
1350
1275
750
2550
450
450
1650
375
750
75
1050
450
2550
1350
2550
450
2250
1350
825
1050
1350
450
2250
1050
1050
3750
1050
1050
525
2550
2550
1050
2550
750
1275
450
3525
1050
1050
750
750
1950
2550
450
1350
750
450
2250
1650
750
450
4050
1050
2250
450
1125
1350
450
750
2550
4350
2250
450
1050
525
1350
1350
750
1050
1350
1950
5250
2250
2325
750
2250
1050
1125
3150
1050
1050
675
1950
750
450
2550
975
750
750
1575
4650
750
750
1650
1950
525
1275
750
750
450
750
1950
2550
1050
750
450
3150
1350
1950
750
1725
1050
450
4050
1275
450
1350
1050
1050
750
1050
1650
2175
2250
450
3150
2550
750
450
450
450
4725
450
4650
450
1650
450
450
825
3450
1650
1650
450
1050
2550
3150
525
1950
1650
1650
1050
750
450
825
1950
1050
750
1125
2250
1350
1050
3750
450
2925
750
450
2850
1950
3750
1650
450
4650
2475
375
1350
750
450
450
750
2925
675
825
675
450
750
750
375
1050
450
2550
750
1350
450
2250
975
750
1350
1650
450
1050
1350
450
375
3450
2325
750
750
1350
750
450
1050
675
450
750
750
1050
1575
675
375
1350
375
2775
750
750
5550
675
750
1050
750
1350
750
1875
450
975
750
1050
450
750
450
1350
3150
975
2250
2475
1350
1050
750
450
1050
1050
2175
3375
750
375
1575
1950
1650
1275
450
3150
750
750
2250
450
1050
1650
750
450
1275
3150
450
1050
9750
1650
1950
1950
750
1725
1650
1350
3225
1350
825
825
1275
450
450
675
2925
2550
2850
1950
450
8250
2175
1050
450
450
1350
1050
750
3225
450
675
1650
1350
450
450
1950
5250
1950
2475
1575
1050
1050
1350
450
2475
3675
675
450
1575
1650
450
450
1125
4350
2250
750
1950
1050
750
450
1350
375
1050
675
450
1650
750
2850
975
3750
450
450
750
3150
3750
750
750
450
2175
3150
450
4125
450
1350
1650
750
750
1650
450
1275
3675
1125
3150
750
1650
1650
1950
2475
450
675
2250
750
450
2025
1950
2025
2850
2850
1350
750
750
450
450
1350
1350
5850
750
2550
1350
1125
975
2850
3150
750
1050
2550
450
1275
450
1650
1950
1650
750
1350
2250
750
450
2250
450
1650
750
2250
2550
1050
450
1725
3450
1275
4125
2550
3375
450
750
1350
1050
1350
1275
750
2625
2475
1050
675
1350
450
1050
1950
450
1350
1950
450
750
1050
1650
2850
1350
450
450
750
750
1050
1050
750
825
450
450
750
450
1350
3150
750
1950
2475
750
3975
2025
450
750
450
450
450
1650
1350
375
750
450
1050
750
450
750
1725
2775
525
1950
1950
3375
450
450
1350
750
750
450
1350
1050
1950
450
1350
375
1350
450
2550
1575
1275
750
3450
4575
2550
5775
1350
1350
975
750
2550
375
1950
7050
450
750
675
100000
450
450
1650
450
1050
2850
450
1350
1725
4050
1350
825
375
2550
750
975
3150
450
2550
450
4950
1950
450
1125
450
675
1425
2550
1050
1650
450
1575
2550
525
1050
2850
1050
1950
2250
1050
2250
1350
750
375
1050
1725
450
675
450
675
750
1650
450
750
450
750
2325
1350
3225
750
450
1050
375
450
1050
1650
975
375
5325
450
450
2250
450
1050
1650
750
1950
750
1050
1950
3150
750
675
3150
1650
750
450
750
1050
3150
1350
525
2250
3150
450
450
450
1350
1650
3450
1350
2850
825
450
2025
750
1650
1050
750
1050
1875
1050
1050
975
1350
1350
750
750
750
450
450
525
750
450
1125
450
1050
450
1350
450
4050
1125
450
450
1050
825
1575
375
1650
3450
3750
1650
3750
1050
1350
2850
10150
1050
2550
1425
1350
450
1350
1350
1650
675
750
1350
450
975
450
1350
825
2250
1950
450
1350
750
2550
1350
675
375
4050
750
1950
450
675
375
1950
2250
750
2250
1950
750
450
675
4650
4125
1350
825
1050
1350
1350
1350
1050
825
525
750
1125
3150
1125
3450
750
1725
450
450
1050
1350
1650
1350
1050
750
450
750
1125
450
450
750
1650
4650
2850
450
450
1050
2250
450
450
2250
1350
750
1275
1425
1350
3750
1050
2775
3450
3750
1950
450
450
1425
825
1650
2250
750
1650
450
1050
2250
2625
1050
1050
1350
3450
450
5550
750
3150
1950
450
2025
750
4050
3450
825
2250
450
450
1350
1050
3150
1650
1725
1650
750
1650
750
1950
750
1650
525
450
450
1350
1350
450
2925
450
1050
1050
1050
1950
1950
4350
2850
750
1950
1725
1050
4950
450
1050
450
1650
2175
750
2025
2025
750
1350
750
750
1050
1350
3750
1125
450
1350
1050
2025
375
825
3150
1350
1950
450
1950
1650
1950
2475
750
4650
450
750
1950
825
1050
1650
750
1050
3450
1575
3975
750
1050
8250
1950
1875
1350
2250
1350
450
450
3150
1575
450
375
2550
2250
450
750
750
1650
2850
675
1050
2250
1950
450
1875
2550
1650
750
1950
750
1050
450
1350
1050
750
750
2550
3150
1350
525
1050
6450
1350
375
1950
1350
450
3975
750
450
450
375
450
450
1950
450
1875
1350
3150
1650
1350
675
750
2625
2850
6150
750
1050
450
750
1050
2175
1050
1050
750
1650
450
450
375
450
2550
1650
3225
750
450
2250
375
375
2250
4050
675
2550
1050
750
525
1350
450
750
1050
750
1650
450
750
450
1950
1350
1050
1050
750
2850
750
5550
1350
7050
675
2550
3150
675
1050
750
375
450
525
750
675
1950
1350
1350
1650
1050
750
375
2550
750
375
1950
450
750
1350
450
1350
2475
1050
1050
1050
750
1950
1050
1275
1350
1050
4275
375
1350
1350
1050
1650
1050
1125
1050
450
2550
1350
450
750
1350
675
4650
1350
450
1050
750
1650
4050
2850
375
1650
1350
4350
450
3750
1050
1050
1050
825
1050
2850
3450
750
1950
375
525
1050
750
2550
1950
750
1650
2025
3150
1050
825
450
750
2850
1350
1275
450
975
2850
1350
1650
1050
1050
450
525
2250
375
1350
3150
1950
525
450
3450
2025
450
2250
2775
1050
750
750
1950
1650
1050
3975
1050
2850
100000
450
2250
1575
1050
3750
750
2475
450
1350
1650
1950
1650
1350
450
1050
1050
1050
2250
1050
1650
3750
750
750
450
750
750
2550
1650
1950
2250
750
750
4650
450
1425
375
450
675
2250
1350
2775
1950
675
2550
1650
675
675
675
750
525
3750
1050
450
750
1650
450
750
450
1050
750
450
2550
450
450
2250
450
750
2325
2550
4050
2850
375
450
750
450
750
675
450
450
450
450
1350
1650
2325
450
1050
1725
1050
450
450
750
450
1350
4050
2325
2175
450
975
375
2250
1650
1350
525
2550
1125
1350
450
1875
4950
1350
1050
1650
1050
2250
375
375
1950
750
1575
750
1050
1425
2250
375
1575
1350
675
1050
1650
375
1950
3450
375
1950
1275
450
1650
450
450
2250
750
1050
750
2175
2250
2850
675
1950
2475
450
975
1350
1875
450
75
2250
3450
675
750
975
750
450
450
450
2250
1650
1350
1950
450
1050
3750
2250
975
1350
450
1050
1050
1350
675
3750
450
375
450
1425
4875
1050
2250
750
3150
750
5550
750
3750
750
1575
1575
2250
1875
3750
675
975
450
1650
3750
1350
450
750
1650
375
1050
1650
3150
2850
450
2775
9450
3150
2850
1050
675
1650
1950
4875
5550
375
1350
1050
3375
450
1350
2550
750
375
3975
4575
2475
1650
750
4050
375
75
1350
450
375
2175
2250
750
2850
2550
2550
2550
1575
750
450
1125
825
1650
2850
3750
2850
1950
450
1350
1350
2250
375
1050
375
675
450
450
975
2250
5175
2025
375
450
2250
1350
1050
750
1050
3150
375
1650
750
4050
1575
750
450
1050
2550
750
1125
4050
750
1050
450
1275
750
1650
1425
2250
1575
4650
2550
1350
450
1575
1650
1950
2250
2250
1050
1350
450
450
750
450
1575
5550
2850
450
450
1050
2175
4050
450
2250
3750
450
1650
3225
750
4425
375
450
1050
450
1650
1650
450
450
750
1050
750
975
675
1050
2850
450
1350
2250
750
450
1575
4650
750
1050
3450
1950
1050
1650
975
1350
375
450
1350
1050
450
6450
2850
2175
750
2550
1050
1050
2250
1950
3750
975
1125
3750
3150
1575
100000
750
100000
750
4200
1950
750
1050
2175
1575
750
450
1650
450
375
450
675
450
1950
1650
1650
450
1350
450
750
3750
1650
1350
1950
1650
2775
450
975
975
375
1050
1950
1275
750
4950
450
1650
2550
2550
1050
750
1050
750
450
450
450
1350
750
2775
450
375
1275
1275
1950
750
1650
750
1350
1275
5850
3075
975
750
1050
750
2550
675
1275
1950
975
1050
375
450
4275
450
375
1350
1350
1575
375
3150
1275
750
375
1650
1350
2550
1050
1875
1650
750
975
675
450
2850
1350
1950
1050
1050
750
2175
1650
1050
375
2250
750
1275
450
5175
3975
750
525
1575
450
1350
2775
450
2325
2775
2850
675
1650
450
375
1350
750
375
2550
450
1350
450
1950
3375
375
450
2850
375
675
1275
375
1050
1350
4650
2175
1050
1050
450
1275
3450
1350
750
375
750
1275
450
3750
1950
1350
750
1275
1350
4875
1875
450
6450
1050
3450
1050
450
1875
2775
1650
1050
450
1275
4050
450
4350
2550
1875
1575
750
750
1875
750
675
4875
750
1050
450
750
1350
450
450
1650
975
1575
1650
1050
1275
1950
675
5475
450
750
4050
675
750
2550
450
1575
1050
1650
375
1575
450
825
750
5175
1350
5250
450
2325
1050
750
1275
3750
1950
1650
1950
450
1950
975
375
1050
975
750
375
3450
750
8550
2250
375
1275
675
450
3150
375
675
450
675
2550
1050
1050
375
1275
1350
2175
3975
2775
2175
975
450
975
675
1275
375
450
3075
975
675
1875
750
2250
2475
1275
375
975
1875
975
3375
2850
6675
1050
1950
1350
1050
375
975
450
2850
2475
1350
3375
450
750
450
375
1350
1050
2175
750
1575
450
3450
1575
450
2250
1575
1275
3375
1650
4050
375
1050
1650
2475
2250
2250
750
1575
1350
2325
525
2550
750
1050
1575
2025
1350
375
2325
1425
825
1350
750
1575
1050
2850
3450
4350
4425
1950
750
1950
3150
450
1425
2550
1050
1875
450
525
1050
675
450
2850
675
1050
3750
1050
1950
750
1050
2850
1650
1725
750
750
450
975
2325
750
2250
675
2250
1650
450
375
750
1650
3450
450
450
450
825
750
2250
450
450
1950
1875
1650
1725
1050
750
7050
675
450
525
1950
1650
3450
750
1950
1950
525
750
1725
1050
1950
1350
525
450
750
3150
3150
1350
1650
750
1425
450
3150
1050
1650
750
450
6150
450
750
2850
3150
2850
1725
1350
1350
1950
1425
450
1425
1050
450
1650
2850
1950
1350
2250
750
1950
1650
3525
1050
450
3150
4050
1950
4650
2250
1650
2775
5850
1350
750
4650
4350
750
525
750
1650
1425
750
450
450
4950
750
375
2475
825
975
2250
750
1725
1050
2850
1650
450
1050
1050
1725
3750
1875
1050
525
2250
1650
1050
750
4050
750
450
750
450
1350
2475
2550
4350
3075
450
1875
1350
450
750
825
1050
450
1050
750
1950
750
1950
450
2850
2850
3450
2550
3450
750
2250
1350
1350
1050
750
1050
1050
450
2850
2025
1350
1950
1350
375
1350
975
750
1350
3450
750
450
2250
1050
2175
2850
2850
4050
3150
450
450
1350
1050
1650
2550
1050
3750
375
1050
1350
750
1050
450
2475
1050
1350
750
1350
450
1725
3450
750
3075
450
2850
1350
750
450
375
2550
1050
750
7350
1050
1875
450
750
675
3750
2475
1050
1275
450
450
750
450
750
750
2850
750
450
750
450
525
2250
750
825
9150
2475
450
450
1650
750
1650
2250
450
750
1050
375
450
825
1350
825
1050
100000
1350
1350
450
2250
450
2250
3150
1950
2550
1350
750
2850
2250
1650
450
525
2625
2025
1050
1725
750
1050
525
450
1650
450
1275
1875
450
1050
2850
2550
3450
6450
1950
675
1050
450
450
825
450
1050
2250
1725
750
450
1350
450
2250
450
450
375
1425
1050
825
450
1875
1650
1050
1350
1125
375
450
450
2250
1050
750
1950
1725
2250
5925
1875
5025
3750
750
1350
2025
1050
2250
1650
1125
1875
525
450
1650
1125
2325
1425
1950
825
1950
1125
4050
1950
450
450
3150
750
2325
450
1650
1050
1350
450
1950
1650
1050
825
1350
1050
2250
4350
450
1350
525
450
1350
1950
1050
450
450
750
1050
1050
675
1350
1950
1650
1350
1050
525
1350
3150
450
750
450
150
1050
1350
1125
2550
1650
1950
1050
5550
525
750
1650
1725
450
3750
2025
1050
1350
825
1650
6150
450
1425
1350
1050
450
2250
4125
1050
750
450
1950
450
1050
1050
525
2550
1050
450
6825
825
450
2250
1650
1350
1650
1650
750
450
450
6225
525
4050
1350
1125
450
3750
2550
750
1050
825
1425
3750
1050
2250
1350
525
1350
1950
2325
750
5550
2550
1050
750
450
2850
450
2550
750
450
1425
2625
4125
750
750
525
450
2250
1350
1650
525
750
450
450
450
1350
450
3450
450
1050
1050
1350
2250
675
450
1125
1350
750
750
750
825
1650
450
825
450
450
1650
2550
450
4350
1350
750
1350
1350
1650
1350
450
1050
450
750
825
750
1950
375
1350
1275
1125
450
5850
1650
2550
1275
750
375
450
2625
1650
3225
4425
1050
2250
450
450
450
2550
450
2250
450
1050
1950
3750
1050
1650
2625
2175
450
1650
2925
5850
825
1950
2175
2550
1650
450
1650
450
1425
450
1950
2250
2475
750
4050
450
450
2250
1650
3150
1350
1050
1050
450
1050
450
1950
1350
750
2775
5850
825
1350
2550
1650
375
1125
1275
675
1050
3750
2250
7125
975
675
1350
450
4050
1650
450
525
750
450
2850
375
450
1650
750
450
450
5250
750
1950
450
2850
1650
450
2175
5175
450
1050
750
675
750
750
1050
750
1350
2025
750
4050
750
1650
750
1050
1575
1350
450
525
450
2850
450
750
675
1650
450
3450
450
3075
1050
2550
1350
1050
450
675
750
450
2850
1350
3150
750
750
2850
750
375
675
750
750
1725
1050
2250
1050
375
750
750
1950
1275
750
375
1350
1950
2025
1350
450
450
3450
750
450
1650
1650
1350
975
1050
750
525
1950
3750
3450
1650
2250
675
450
525
375
3450
1350
1950
1275
1050
1050
2550
525
375
450
1050
750
150
525
450
525
375
750
1650
750
450
1950
2250
2175
1350
1125
2250
1350
1350
375
1425
1050
3375
750
450
1050
450
375
2250
3750
3150
375
450
450
450
1050
450
3675
1350
2550
750
1275
750
1650
975
1575
5775
2850
450
1275
750
450
450
1350
1050
1350
375
675
1050
2775
1050
450
1650
2250
1350
1350
1950
1875
1650
1275
1275
1050
2850
750
4350
2250
750
2850
2250
750
2550
750
1575
2850
1350
2550
750
525
825
450
750
750
1125
4950
1050
825
1950
1350
750
450
450
450
3450
2025
750
450
450
3750
975
1050
450
1950
825
1875
1275
1050
2250
750
1950
750
750
1650
3750
1050
750
1050
1425
525
2250
2250
1350
525
450
750
2250
3450
750
1050
1650
2250
1350
375
750
450
1350
4350
1650
2175
2850
1650
675
450
450
750
1275
1350
2925
750
1050
1350
525
1650
2250
450
750
4050
375
1650
675
450
450
1650
2250
2550
750
375
675
1425
3975
750
750
750
2550
3075
450
1650
1350
975
1650
1350
450
450
750
2550
1050
975
1350
450
3225
1350
675
975
1050
2625
1950
750
450
1650
450
450
5250
1725
450
1650
450
4050
3075
2550
1050
1875
2850
1050
450
1650
1350
1350
1125
525
2550
450
5250
450
1650
1050
1050
1050
3825
1425
3450
1050
675
750
2550
1050
1350
2850
2325
2025
1050
1950
2850
1050
750
1950
750
2325
1650
1650
1050
1125
1050
3675
525
1650
1050
450
2250
1050
4350
2625
1650
1650
2325
2025
2550
750
1050
1050
1350
1350
1125
1575
450
3750
525
2850
2850
2250
2250
675
1350
450
450
1950
450
2625
1350
1050
1050
750
2850
825
1350
2850
525
750
2250
450
2250
3150
750
1950
450
450
1275
1950
750
450
1350
1650
450
1950
1950
750
450
2925
1950
450
450
750
1350
1350
450
3150
1050
5250
7050
450
1050
750
1725
450
450
1950
450
525
525
1650
750
2550
1350
750
2550
1050
450
3750
2550
525
5925
3150
1425
2625
375
450
450
450
2550
1350
1050
1050
750
750
1050
3750
1350
1950
1575
450
450
750
450
1950
1350
1050
2025
3525
2325
1050
2550
750
450
4050
1650
750
750
675
1350
450
1425
1950
2850
1650
750
1125
1050
450
1050
6450
450
1950
2250
1350
1350
1725
3225
750
1650
1650
5850
750
4350
450
1725
375
750
450
1950
1050
1650
1350
1050
450
750
1050
2250
750
1650
1050
1950
1350
525
1350
750
450
1050
450
750
750
1350
1425
750
2250
1050
450
1950
2025
450
4350
1050
1350
1125
450
1050
450
1050
450
450
525
825
1950
750
375
750
375
1425
2850
4425
450
1050
2175
1875
1275
750
750
1650
1350
1950
750
1350
450
525
1350
1050
1050
750
1350
450
2325
1950
375
2550
1050
5925
1050
1125
825
2175
6150
2250
1950
1950
450
450
1350
450
450
1950
3750
750
450
750
1650
1350
1950
450
750
100000
2550
750
2850
2550
2550
375
375
1875
2550
450
2550
450
825
450
2250
450
450
2550
2025
450
1050
1050
750
1350
750
450
3750
1950
900
450
1350
450
450
450
150
1950
1050
1350
2550
1875
750
450
2175
750
450
2250
750
4350
2175
1950
750
1350
2850
975
375
2850
3525
375
750
375
375
2550
450
1275
750
450
2625
450
375
1950
450
1350
675
750
1050
1200
1350
675
1350
1575
1050
450
1050
750
1875
1350
1050
750
1650
750
450
750
1650
975
1650
975
2775
750
3450
1050
1125
375
4650
1575
675
975
4650
3150
1050
450
1350
2175
1875
375
1050
1050
750
750
1050
1350
1650
1050
1650
450
750
2475
4950
1950
2550
4050
375
1875
1575
375
1275
2250
450
1050
1050
1650
1350
1050
1350
450
2550
750
4050
975
1650
2175
1350
1350
1350
3750
450
1350
375
1950
1650
450
4050
2550
750
1650
975
2850
1050
1050
4350
1200
2175
450
1950
2850
750
4875
450
1650
750
675
675
1650
1050
750
975
1275
3150
450
450
450
975
2850
3450
1125
1950
1575
825
450
2550
675
1575
1650
3150
750
1650
450
1875
1350
450
1650
2025
5550
750
1650
750
1425
450
1050
1350
3150
975
2475
1350
675
750
75
975
975
750
1650
450
1350
600
450
450
2775
1875
375
2025
450
375
300
675
675
1350
1050
1650
1950
1050
450
1350
450
100000
1050
975
2250
1425
3375
750
450
675
5250
4275
450
1350
450
1275
2850
3750
5250
4350
1050
1050
1050
7350
4050
1875
750
675
3150
750
1950
675
825
675
450
450
750
1350
450
2550
2550
1350
2550
450
750
2250
975
1950
2850
450
1950
450
825
750
1425
1875
450
1950
4050
375
450
675
450
450
1275
2850
450
2175
1950
375
1275
2850
2025
1950
750
1350
100000
1050
1050
675
3375
450
375
375
675
750
450
1350
1050
750
1950
2850
975
450
1050
1050
2250
450
750
675
1050
1350
750
1050
4875
450
450
450
1650
1350
2250
2175
1575
450
450
1350
450
975
750
1050
450
675
1650
1275
1050
2550
5250
1050
1050
450
450
2850
150
450
2250
750
1950
975
750
3150
4350
750
1950
3750
975
1350
975
1875
1350
2250
2475
375
1050
1050
750
2850
4050
450
1275
1275
375
1275
1350
450
675
675
1275
1050
3750
1050
1650
1050
450
450
1050
1350
3675
975
450
1650
2250
1050
1350
2550
2550
975
975
1875
2250
1875
1050
3375
375
750
750
450
750
1875
1875
975
750
1275
1575
2250
450
2550
2475
2250
4575
2475
750
750
1050
2250
675
1050
750
450
2850
2475
2250
1950
450
450
2250
1350
1350
3375
450
975
750
375
1650
1875
4575
3375
750
450
1350
1575
4050
750
1350
1050
750
75
2850
450
750
1050
450
450
450
1050
450
450
450
450
450
1350
975
1575
450
675
1350
2475
750
3675
975
1950
750
1275
1875
450
450
450
450
1650
3450
675
450
375
450
375
1050
1950
450
1350
375
375
1650
375
1650
1875
1950
4650
450
450
750
2250
375
450
975
4650
1950
450
750
1650
675
675
450
2850
4950
450
675
750
1050
1350
375
750
1650
975
450
1575
975
1575
750
975
375
3150
675
1050
2775
675
375
3075
675
975
3150
750
2475
3450
3150
450
750
1350
3150
1950
1050
3375
1875
450
750
1050
3450
675
375
5850
675
1950
1050
3450
1050
1050
3675
1575
1050
1950
1650
450
1350
1275
1050
2175
2250
4050
750
450
375
750
1350
1275
375
750
2250
4350
450
450
375
675
675
1350
975
450
975
975
2175
375
2925
450
750
1050
2850
1350
750
1350
1050
450
1275
450
375
750
1050
1350
5250
1650
3225
1650
2175
1050
675
2175
750
2775
1350
450
450
450
1050
525
1050
1050
675
3075
2250
525
1950
2550
675
1950
750
1575
450
750
1050
1050
2850
2625
2850
2025
3150
750
450
525
525
2775
1725
1950
1050
2550
1875
1050
4725
450
1050
1650
975
750
375
1350
675
450
450
975
2550
750
450
450
3150
450
1050
750
750
750
1050
4050
2250
2550
1950
750
450
4350
525
450
2175
1350
375
750
750
1350
750
3450
1050
450
1350
450
1950
5250
1875
750
3750
1350
1275
450
1275
1650
7050
1350
1050
375
975
1950
450
450
1050
975
675
750
975
3450
1050
375
1950
2550
150
2550
750
2250
525
825
675
1650
5850
375
750
2625
375
1350
450
450
7350
1350
3450
2850
4875
450
525
1650
750
1050
1650
2850
1050
450
450
1950
1125
450
1050
450
450
450
450
675
825
1950
1050
450
825
2550
2550
2175
3750
1575
975
1575
975
1050
1125
1650
450
1050
1050
375
375
1050
975
3075
375
1950
450
750
750
1950
450
1650
825
750
1650
825
1050
1350
3750
2250
1650
750
1050
1650
1350
450
450
450
1125
2550
1050
450
1050
750
1350
525
1350
450
675
375
1950
2175
975
375
4350
2550
1350
375
450
2850
1650
450
1350
450
825
525
450
450
2850
1650
1050
1350
1950
450
1650
1050
375
675
675
1650
6375
675
1650
1650
2850
750
1050
4425
1350
2250
1125
750
450
1350
1350
1350
525
450
750
3150
750
1650
450
750
1575
750
1950
1650
750
450
675
1050
1650
1950
1050
975
750
4650
750
1350
2025
450
1350
750
750
1575
1350
1050
375
1650
5925
1050
450
1950
4650
975
450
750
1950
975
1575
4350
450
1650
750
375
1950
750
750
2850
975
375
750
1350
1650
375
975
3075
1050
450
375
450
450
2175
1350
450
1950
2175
1050
1875
3450
1275
1725
2550
1050
750
1050
1650
450
1575
2025
2850
750
1575
3150
1050
450
450
450
1350
450
750
750
375
450
3450
1650
450
750
1875
450
1425
750
1050
1650
1575
750
1050
450
1050
4275
3450
750
2850
750
1650
1050
2850
450
750
2250
450
825
825
450
450
1050
1350
375
1650
450
1350
1950
1950
3825
1650
750
1650
1050
1950
1650
450
1275
450
1650
2250
3450
450
2925
4350
675
675
375
450
1350
1950
1050
450
750
1950
450
1350
750
3750
750
450
1650
2775
375
1950
975
1350
4650
375
1950
1350
1050
1725
3150
2550
1350
2250
3375
750
975
1050
1350
1050
450
750
450
675
1950
2550
1950
1125
375
3150
1125
1575
525
1350
750
3150
1050
3750
1950
1050
3450
1050
375
1050
1950
675
1725
450
750
1650
2250
1050
150
750
1875
450
2250
450
450
4650
450
1725
1350
1575
1050
1050
975
1350
3225
1050
1275
1350
1125
150
2925
3450
450
1650
675
750
975
750
750
1950
2850
750
3750
1725
3150
750
1275
750
1050
1050
1875
3225
675
1125
1650
1350
450
750
375
1050
1950
375
4050
450
450
750
750
750
1050
675
1050
1575
750
1950
1050
1650
1275
450
1350
975
5250
1350
1050
4050
450
5025
750
450
1950
1650
450
4950
675
375
2850
1350
3750
375
3375
450
1650
450
1350
1050
3675
750
375
975
2250
2250
1350
1350
975
1050
1350
750
675
1350
1650
4050
675
450
1050
450
1650
450
750
1650
1050
675
450
2850
750
2850
1050
750
675
450
1350
2250
750
825
1350
1050
4050
1950
1350
450
1350
1050
1275
375
2550
1050
750
375
750
1950
750
750
75
450
3375
1950
2250
1950
750
1125
450
750
1350
1050
1350
525
450
375
750
1050
1950
750
450
1950
450
1050
750
1050
750
750
375
3750
1350
750
1350
4050
750
2850
1650
2250
1425
675
1650
1350
375
375
1050
2175
525
5550
1350
750
1050
675
450
1650
450
150
1050
1350
5250
1350
1350
1050
6825
4350
450
1650
1350
1350
450
975
450
1950
450
375
1050
675
750
5250
2550
1950
750
750
450
375
675
1050
2850
3075
5550
3675
1050
375
750
2850
450
1050
375
2475
3450
2550
2550
1425
1650
750
750
1950
1050
750
2250
6750
2250
1950
750
1950
1950
4650
750
1575
675
1725
6150
1350
1350
450
2475
450
750
450
975
2025
1350
1350
750
450
4350
975
750
1950
2850
1950
1050
450
450
2250
2475
750
450
1050
1050
2025
825
1350
1350
450
450
1650
7950
750
750
1050
2475
1650
3150
1275
3750
375
1650
450
525
1350
3450
3150
750
2250
1350
1050
750
5250
750
1350
2850
450
450
1350
450
675
3150
1275
675
675
2025
4050
1650
1125
2550
375
1650
750
750
2250
4050
450
3750
450
450
3450
1575
1725
450
1050
750
1650
1950
1350
1350
1350
750
1650
450
450
1050
450
750
450
975
2175
1650
1350
1050
2550
3450
4050
2550
1950
450
675
450
2175
1650
3150
525
4950
1650
1050
2175
1350
450
6750
750
750
975
1275
750
2550
825
675
450
1800
4350
1950
4875
2550
1350
1425
450
2250
525
1650
1575
675
1650
750
675
450
1050
1350
750
1050
4350
4650
450
450
3450
750
450
450
1050
1650
1350
375
750
2250
750
2925
1050
2250
825
1050
1350
750
450
1650
2250
1650
1050
5250
1650
1275
3450
1125
450
1425
450
450
975
1050
1950
450
450
450
2250
450
1350
1350
4425
750
1050
450
825
1350
1050
1950
1050
1950
1350
1350
1875
1050
4350
750
4650
750
450
750
3450
450
4650
450
975
4725
1050
750
1350
1350
450
2550
1575
450
2250
675
450
375
750
750
2550
2025
2550
1875
1650
5250
3150
675
750
450
1050
1275
450
450
1050
3750
2250
450
750
1575
1050
525
1050
2250
750
750
375
1950
1050
1125
1350
750
450
2250
2550
750
1350
1050
750
1350
1950
750
1350
450
1950
1350
1950
1050
1350
1650
2250
1950
1350
1350
2850
825
3450
750
1050
1650
750
1350
4275
450
150
3825
1950
450
1350
750
675
750
450
1050
1425
1950
450
750
1125
1350
2250
450
1350
450
750
1650
750
975
1050
3150
1350
1425
750
2550
1950
825
3750
1350
1050
450
1650
450
1050
2550
450
1050
750
450
3450
1050
1575
750
525
1050
2025
750
1650
750
3150
1575
1050
1650
1650
750
1350
1050
1350
1050
450
1650
1650
450
375
1650
1350
1050
3825
2850
1050
450
750
2625
3225
450
450
450
750
450
2850
1650
1950
750
1350
450
750
2250
750
750
1050
1350
525
675
2475
1125
450
450
450
1050
375
525
750
2550
5250
2250
825
1650
1950
450
450
1950
975
825
750
450
450
450
1425
1050
1350
450
1950
3450
525
1050
2550
750
3150
4350
2550
525
750
3150
450
1125
1650
450
1650
4650
675
3075
3150
450
750
1425
750
1425
1425
675
2850
4050
750
4350
1350
750
3750
3525
750
450
750
2025
450
450
1050
1650
450
8325
1650
1050
1125
450
1350
2850
750
1650
975
450
3150
675
2250
750
450
5250
2250
750
1050
750
1050
1425
450
1050
375
375
450
750
1650
1950
750
1350
450
450
1725
1950
1950
3750
1050
450
2850
750
1050
3750
1575
375
2250
1650
1050
1575
3075
3750
1350
1575
375
1350
750
1650
1350
450
450
450
1350
1350
2250
750
2550
750
450
450
825
1050
1650
750
1275
1050
450
2850
3750
525
450
2850
450
750
2550
750
450
1650
3375
1050
2250
2250
1050
450
1050
1575
3450
2325
450
450
1050
1350
1950
100000
75
750
975
1275
1350
750
75
1425
750
2250
1350
375
1425
1050
1650
1575
1275
1050
750
2250
1575
750
450
1350
675
2850
1650
1350
1050
5625
3375
3750
450
450
750
450
3150
750
300
2250
2850
1950
1050
3075
450
3450
1950
1875
1650
750
1050
1350
2775
1050
3225
3150
4575
1050
1050
3450
4350
1950
1350
2925
1350
3225
450
375
750
1950
750
975
450
5550
1650
450
2175
75
1575
1950
450
1275
1275
1050
1875
450
2475
1050
1050
1275
2550
3150
2175
2250
1125
1275
2625
1050
1650
2250
1650
450
450
2250
450
2475
1350
3150
450
450
525
600
2175
4575
150
1350
375
2550
2775
450
450
1350
1050
1050
750
4350
1650
450
450
5025
1350
1650
750
2850
750
1050
450
450
750
675
450
1350
2250
450
4050
1875
3750
1650
975
1275
450
1875
4350
1050
4650
2250
2850
450
2325
1350
3750
2850
675
375
675
750
1650
2175
975
1950
1050
450
1050
1950
1350
525
3150
750
750
1350
675
1275
2925
1350
450
750
2175
375
1650
750
2250
1350
675
750
375
1350
2250
975
2175
1350
1050
1050
2550
675
1950
1050
750
450
750
2250
1650
750
1575
2250
2250
750
2250
750
450
450
1650
450
375
750
750
450
375
1950
750
2850
750
750
450
675
750
375
750
750
1650
375
450
1875
450
1650
3150
1650
750
450
1650
450
1350
4350
1950
750
450
750
750
675
375
1350
1350
1650
1050
1875
1650
1350
750
3750
975
600
1575
1050
675
1950
3375
1950
4050
1350
3075
1650
375
3450
975
450
450
1350
3150
450
750
750
975
750
1350
450
675
450
675
8550
5250
750
2850
1950
750
1050
2325
675
375
1650
2250
450
750
1275
1425
450
450
450
1350
1275
3225
450
2250
1950
1275
1050
675
1350
1050
2550
675
450
450
2850
1950
1050
2550
1650
2250
750
1650
975
2550
750
675
3150
150
1350
750
2775
750
1650
975
375
750
450
1350
2250
825
450
1275
525
375
750
1275
1650
450
825
450
750
450
1650
1050
825
450
750
1350
2475
450
1350
1650
1050
1050
2025
1275
1950
450
1125
1575
750
450
1875
1050
1650
1275
450
1050
450
1350
2550
750
450
450
450
450
1050
1950
450
4050
375
1350
675
2925
1050
450
750
2250
450
2250
1050
2850
1350
2550
450
1350
1950
1950
1875
1350
450
450
975
375
450
2550
825
450
1650
3450
825
450
450
2325
375
825
1050
1875
450
2550
1575
3150
525
1350
1050
525
1950
1650
375
1350
3450
450
2625
450
975
525
1350
1350
1050
2025
675
450
675
1950
750
3825
375
1950
1050
450
450
1125
750
1725
1350
1650
1050
375
1350
1950
1050
750
4050
2850
6750
1050
4950
750
4950
1875
750
1425
675
1575
1950
1050
1125
450
750
750
6525
375
450
4275
450
450
750
675
2175
750
825
450
1650
3150
1050
750
450
1575
1350
1275
750
6975
975
1950
375
1350
2850
1650
450
375
2550
375
975
525
2550
1650
2325
750
450
675
4350
1350
2550
1050
1350
2925
750
675
450
1950
450
750
1950
1050
450
450
1350
750
3075
750
450
1050
4350
450
975
450
1050
450
450
5550
1350
1875
2250
1950
375
1350
750
1275
2550
750
1350
1650
1950
375
4125
675
1650
375
1425
1350
1050
1350
1425
1650
1875
975
2625
3750
750
675
1650
1350
1050
975
450
825
750
750
3450
525
1050
3450
1350
2850
750
1350
1425
375
1125
1650
3375
3750
825
2850
1125
1575
450
3675
5250
525
675
750
1125
2550
1425
375
1350
2175
450
750
975
1350
1350
2250
1725
5850
4950
3750
1350
1275
1125
5550
825
1350
3750
2550
150
450
450
450
450
1650
1350
2250
3750
4350
1350
450
1350
1950
1050
3150
825
450
3150
1875
750
525
750
3750
2250
750
450
1350
450
750
4125
1650
1050
675
750
450
2250
2775
2550
150
450
2325
450
675
1275
750
4875
1275
450
1875
750
750
1950
450
2850
1275
1950
450
1050
450
1575
1050
1350
375
750
1875
750
1350
450
1050
1050
450
1950
450
2850
1575
2025
4425
2550
750
1950
1650
450
750
525
450
1350
450
1650
1875
2175
2550
450
675
1650
2250
1125
750
450
450
1875
750
1050
450
3750
1350
1050
1950
750
1650
4050
1875
1350
450
1050
1575
750
450
1050
5850
525
750
1350
3450
450
3825
450
375
2850
1050
3750
750
450
1050
1575
450
1650
3150
2250
1650
2025
450
2250
1050
1425
750
2250
1350
450
450
1875
750
525
3150
750
2550
975
1050
750
450
450
1050
1650
450
375
1350
5550
2475
450
2850
2850
1650
750
750
1350
1050
450
3750
450
2250
675
2775
1650
3150
1050
1650
4050
1125
1950
1650
1725
675
1725
3150
750
1050
1650
4350
450
450
1950
825
1050
750
450
1725
825
2100
1350
1350
825
3450
675
750
1275
4350
450
450
1050
2175
450
750
450
3150
750
750
975
750
1125
4650
450
1050
750
1875
2550
1350
450
5025
450
2250
1050
1050
1050
450
1050
750
1650
1050
2175
450
975
1425
450
3675
975
1950
1050
1125
1725
1050
750
1650
3150
450
1350
450
450
750
750
675
1275
2250
1275
2475
1650
750
2850
4650
1125
1650
4650
2850
1050
1950
450
750
675
2850
450
2850
2250
450
675
1050
1350
1950
1650
750
1650
1950
2250
525
3675
450
450
450
1575
3150
450
1350
1950
2250
2250
750
750
750
7950
2850
450
3150
450
2550
1875
1650
2250
1950
750
1575
450
2250
450
100000
450
1950
375
750
4575
375
750
2850
4050
2550
450
1725
450
750
1275
450
4725
375
450
1350
5250
1050
1350
2250
450
450
1950
750
750
3450
2250
450
450
750
1350
750
975
1725
450
750
750
1125
1650
825
4425
1050
450
2250
1950
2550
375
4125
1350
1575
1050
3150
1050
1350
750
1650
4275
750
450
1950
750
1650
1050
1050
1575
3450
1950
1050
3450
525
450
450
825
1275
1050
450
825
1050
1575
1350
1050
1125
750
450
825
1050
2250
450
1950
450
450
2250
750
1050
525
750
450
450
4650
3150
750
750
825
1650
750
1350
1650
3825
750
825
450
5550
2550
1125
2850
450
750
1650
1650
450
675
1650
525
1350
2550
1125
1350
675
525
1425
1050
450
1650
7650
1575
2850
450
1725
2325
1050
1350
1050
1650
1050
2625
1050
3450
1125
1050
1650
450
825
5250
1050
3750
450
750
2550
2550
1050
2250
4275
3150
825
750
825
1125
3450
750
450
2925
1650
450
3525
7650
750
1050
1350
975
3825
3525
375
1575
1050
3450
2850
750
2025
450
2550
750
1050
6150
750
3450
1350
750
1050
2475
825
1050
1650
2250
1350
750
1050
750
975
2250
750
1050
1350
2550
3150
2250
750
450
450
1350
2550
1350
450
750
1125
1050
1125
1650
1050
7050
1950
5550
1050
1950
525
1050
2550
2850
450
450
450
3750
750
1050
1725
675
1050
2325
750
2025
675
1050
2250
1425
2025
2325
1650
450
1425
1350
1350
1050
450
2325
750
1650
525
750
1050
1950
750
5250
1350
2325
2250
3750
450
750
5550
750
525
525
750
1050
525
450
2250
1050
1125
450
5850
2850
750
450
450
1950
1050
1950
1350
1050
750
450
450
3450
1350
750
1425
2625
750
450
1350
2550
3750
100000
1350
1350
450
750
450
2325
750
2325
1650
1125
750
750
1425
1650
2325
450
2250
1650
3450
750
1125
450
1350
525
1350
450
525
3450
1425
7650
1425
2550
750
4350
750
1050
2250
1425
2550
2250
1050
450
1350
450
750
1050
1950
2325
1950
8850
450
1125
675
1950
3150
2025
2025
1350
2250
750
3225
750
750
1650
450
450
1050
1050
675
1125
2025
1650
2550
450
450
450
450
825
4650
750
2925
1050
7650
3750
1650
4050
525
1350
2250
4725
1725
750
1950
3450
4650
1275
450
1650
2550
1950
2925
450
1650
1350
450
1050
1050
3150
450
1875
2250
1650
1050
750
1425
1725
1650
1650
1350
1125
1350
750
2925
3150
1725
5925
1350
1125
1950
525
825
1950
750
1050
450
750
1050
750
750
1275
450
375
1050
2550
1125
525
525
450
1650
825
450
450
750
1350
450
1125
450
3750
525
1350
450
450
1650
750
1725
750
4950
450
1050
450
825
450
5550
1650
1650
7050
150
1125
5850
1725
9150
1050
1350
450
450
450
1950
2025
225
750
750
1350
1050
750
525
450
825
1125
3150
2250
1050
525
1350
750
1350
450
1350
1725
750
4050
4050
825
825
525
750
1425
2550
450
1350
5250
525
525
525
1050
1950
450
450
5250
1125
450
750
2250
750
750
1425
4725
2550
750
1350
2850
2250
4650
825
1350
525
1050
1425
3825
825
1350
1425
825
525
1650
450
1125
1050
2550
3225
3225
1725
1350
1050
2325
750
525
525
1050
2850
2250
225
2850
1350
1050
1350
750
750
4950
1350
1950
2550
450
750
825
825
2550
1050
750
1350
2850
750
1725
2325
750
825
4950
2250
4050
450
750
1125
1425
750
1350
750
1350
1350
3150
450
1350
2325
1050
2850
100000
450
1650
450
450
6975
1275
2850
2850
2250
450
750
1125
750
1125
1125
750
1575
1350
1650
1125
750
2250
1050
2250
375
525
6450
1350
825
1350
3750
2250
2550
450
1050
1350
450
1950
1350
450
7650
450
1050
1350
2175
750
1350
1650
450
1050
450
1950
1950
450
1050
1050
525
1050
750
3150
1050
1950
450
450
1050
2250
450
2850
2250
750
750
1875
1725
2550
750
1050
750
450
1950
2925
375
750
1350
975
1350
2175
2550
750
975
825
2025
1350
1650
2550
675
1350
1350
1350
1050
2250
2025
5250
450
675
1425
1350
375
1650
750
750
750
750
750
2475
2850
750
750
750
2550
1350
975
975
450
1050
1350
750
450
2250
750
1650
1050
1050
1650
450
750
2550
750
2250
750
450
375
1350
825
450
750
825
975
3375
450
1350
1050
750
375
2250
450
750
525
375
450
2850
4350
1650
4275
4350
825
2250
1350
450
450
2550
1050
750
375
1350
450
2250
1650
450
450
750
1050
1050
375
750
750
525
375
450
525
4950
1050
750
3150
750
450
450
750
2550
3150
750
3450
4050
1350
1050
450
6450
450
450
2475
2850
750
2250
825
450
525
450
975
2550
2250
2250
1650
2250
450
1650
5850
1950
1050
450
750
750
1425
375
975
450
675
2175
1050
4950
3450
2550
2925
1050
1050
450
450
1350
1650
4125
1350
450
2550
2850
450
3750
3075
1050
450
1050
750
1350
750
1950
750
975
1050
1575
1350
2775
1050
1350
750
1350
525
2250
750
1650
2250
750
750
75
1350
750
2250
450
1350
450
450
750
750
450
1650
375
375
2250
3150
450
975
450
2850
2325
1275
1350
450
450
1950
750
375
2250
2850
1575
1350
1350
450
1050
450
3525
450
750
6450
1050
750
1350
1050
1875
1125
1425
525
2625
1350
750
1050
525
2250
750
1350
1650
375
1425
1650
1350
450
75
750
450
375
3150
1950
975
3750
1350
2550
1275
975
450
1350
5625
1050
1875
1950
1050
1650
450
450
525
750
525
1875
450
450
1650
1050
450
1350
1050
750
825
525
5550
1050
2850
450
1350
750
450
1950
1950
750
1425
2775
1050
1350
2850
3075
450
1350
450
2250
750
1650
1050
450
750
1050
1050
750
1650
2550
375
750
1950
525
2025
2850
1650
450
4050
75
3450
750
450
1950
750
2250
1350
750
2850
1350
450
1650
1050
450
1950
4650
750
750
1350
1725
4050
1950
450
1050
1425
2250
1050
6150
750
3750
750
750
1050
750
1050
2550
3750
825
1350
450
6450
2250
450
1050
450
2250
450
450
1875
375
825
1950
1950
1350
450
3450
450
750
1350
825
2250
1350
1050
1275
750
375
2850
1275
1650
450
450
450
2850
1650
450
1125
2025
375
450
1875
1050
6450
2550
1650
450
525
2250
525
1650
8550
1125
1350
450
375
1050
450
450
450
375
2850
1350
3150
1050
450
2025
750
3150
1350
675
1950
450
750
450
3750
1650
3075
4950
2250
2325
450
750
750
1650
450
1350
1350
450
1050
750
450
2175
1650
450
675
1350
825
2550
1050
2250
1575
1350
2850
975
1950
1650
2925
1950
1950
450
750
4350
3825
750
450
1050
375
1350
2550
3525
2925
450
1650
450
450
750
2250
5550
975
1050
2250
525
450
1050
825
750
1050
750
675
4050
750
3450
1950
1050
750
2475
1950
750
4050
1350
525
450
750
975
750
1950
1125
2550
450
1050
2850
3750
1350
525
1350
1425
3150
1125
1950
675
825
675
2775
2025
750
1050
2925
1050
1050
8250
750
750
1950
750
375
1650
450
525
750
4125
1950
1050
450
450
1950
750
750
450
450
150
2850
450
450
750
450
2250
375
2550
2850
975
1050
450
1650
825
1575
450
1275
3150
1350
1050
675
450
1050
1275
375
1950
1875
1350
450
375
1650
1950
450
1350
750
1350
1650
375
675
1950
1050
450
1350
1350
1575
750
675
675
375
1050
750
1875
1650
2775
375
1050
1575
450
450
750
1350
675
2175
1050
1350
825
1050
1275
450
150
750
1950
975
1050
1350
675
3225
750
675
1050
1350
750
1275
1275
1875
750
375
1350
750
2175
1275
2250
1350
975
375
675
3075
2550
450
2775
1950
750
5850
975
1875
1125
1650
1275
2025
675
1875
750
1875
975
750
375
975
1650
675
750
1875
375
750
750
375
1050
975
750
375
750
2775
300
1650
975
450
1275
375
975
1575
1050
2175
1650
1050
675
6450
450
2175
675
3675
450
1575
2175
675
675
1950
1650
2550
2175
750
2850
2775
2550
450
1350
450
4575
450
450
2850
2475
1875
1650
3075
675
450
1050
4350
3375
2175
1350
450
1050
1350
450
1875
375
2475
750
1050
2250
450
375
750
600
2175
450
750
1350
2175
675
3975
1275
375
1950
975
2175
450
750
2550
375
450
750
450
1275
450
375
450
1950
1575
675
3075
4050
2175
975
2550
75
975
450
450
3750
1050
1050
1050
750
1650
450
1650
450
750
1950
1125
1050
975
450
975
675
1350
1050
450
450
375
7575
675
375
2850
1875
750
1950
450
750
675
1950
1950
450
1350
750
675
1350
750
450
2850
75
1350
2550
375
1275
1350
675
375
1575
1050
450
750
750
1050
375
1050
975
1275
1050
2550
1050
750
1350
450
450
675
1650
675
1350
1350
1050
1650
750
75
1575
450
2775
1650
1950
3150
750
3450
1875
2475
1575
375
3075
750
4650
675
2475
1575
2475
2175
375
1350
4950
675
675
1650
450
2850
750
2250
750
3975
750
375
375
375
2475
1875
1050
2250
675
2250
1350
375
375
1650
675
675
450
1350
1875
675
675
6075
975
450
1650
375
450
975
675
1050
375
2250
300
100000
750
3750
1950
675
3150
2775
2775
750
450
2850
750
1350
1050
675
975
1050
1050
450
1350
450
375
375
5550
825
750
450
1950
1050
1650
750
2775
675
675
1950
6750
450
2250
1350
2550
1275
375
975
2475
1650
375
675
3450
375
4950
750
1950
2250
1575
150
1350
2850
450
5550
1350
750
1350
450
2475
450
375
450
450
2550
750
2775
750
2550
1050
4650
750
2250
450
450
1050
1050
1350
450
1350
450
750
2250
1050
1950
1350
1650
675
1350
1050
1275
825
2850
750
450
750
1050
4350
1650
2775
450
4950
1350
1650
1350
1050
2850
675
1125
825
7950
3750
450
1350
2250
1350
1425
6750
1650
675
1950
1950
6450
1050
450
450
2775
825
450
450
1050
375
1950
1050
375
750
450
1050
3075
1050
2550
375
2550
5775
2250
975
675
750
1050
750
450
1575
2025
3750
975
975
2850
1350
1050
1350
750
450
1275
1650
450
1050
1950
450
1350
1575
750
2550
450
3450
1050
375
1350
2550
525
450
750
1950
450
375
2250
450
450
3150
450
1950
1350
1950
525
1950
750
1050
975
1350
450
1650
750
450
450
450
450
450
1650
1050
2250
450
2850
4050
1650
1050
2250
1650
4050
5325
2325
750
3975
1350
450
2250
450
2250
1050
450
1275
2550
450
1425
3225
1050
7650
1350
450
2850
450
1275
1050
375
300
1650
450
450
450
2850
1350
975
3450
2250
3450
750
450
1650
750
1350
6750
750
375
450
1950
1350
450
1350
1350
2625
2475
2250
1650
375
1425
1050
450
750
3150
1050
2250
1050
450
750
1050
4650
3150
2475
2250
750
1650
450
1050
450
750
1575
1050
1050
675
1350
1650
450
150
1350
1050
1050
1575
450
2250
750
2475
450
450
450
1725
675
2250
2250
750
3825
750
1650
6150
1350
1050
1650
2850
1350
750
750
1050
2625
1350
750
1050
1275
1050
525
1050
1650
2550
1050
750
1650
1425
450
450
450
1050
1725
2025
975
450
1950
750
1650
2250
1050
450
450
750
750
450
450
1650
1950
2250
2625
450
1350
1050
825
450
1650
825
1125
1650
750
3450
5250
1950
450
750
1050
525
1650
450
1350
6150
1950
1350
2250
1650
975
5250
750
1125
450
1350
450
450
6825
975
1725
825
1950
450
1350
1725
1050
825
1950
1050
450
675
1950
1950
1350
1050
1350
1050
2325
825
1350
1950
450
1050
1950
450
1725
4650
1350
2550
1050
525
450
3150
375
1350
1050
2775
1050
2475
450
525
1350
1050
1350
3750
825
1350
1950
1350
675
825
525
525
3225
1050
2250
450
7350
750
750
4125
1050
5250
450
1650
3150
1725
2325
2850
450
1950
2850
1050
750
2550
2325
1350
450
1650
450
1350
1050
975
1350
450
1650
750
750
675
1650
4425
3150
3750
750
1125
450
450
750
750
3150
450
1350
1350
1350
1950
2025
2250
750
1650
450
1650
750
1425
1050
1050
450
1875
1350
450
675
1425
1725
750
1350
750
1950
1650
2250
1050
2550
375
1650
750
450
450
825
450
2925
5925
1950
450
975
450
1575
1125
1050
450
450
1650
1125
2850
450
450
2850
2250
1950
750
1050
450
450
1950
1425
2850
2625
750
1950
2550
4350
375
525
1425
450
750
1650
1350
2550
1425
450
450
750
750
450
375
3150
375
1350
750
1050
1350
525
1350
1950
750
2850
1350
375
1950
1125
1050
750
1650
450
1050
1050
450
750
525
750
1050
1050
3825
1050
450
750
1650
1950
1350
2025
1050
450
1950
1125
450
2850
1125
1350
450
1650
1350
2550
1950
1350
1350
825
1650
750
3750
1650
2250
975
2550
4425
750
750
450
2850
450
675
750
1125
525
450
1650
1950
1350
2550
450
225
975
1050
450
450
4650
1275
975
450
450
675
2250
750
3150
750
750
975
1575
750
450
675
450
2550
2550
5250
450
2250
750
1650
975
1650
1875
1350
2250
450
750
675
2850
450
4350
1050
675
2775
5475
1650
975
675
450
750
975
1500
675
1575
525
150
750
2175
1050
4050
375
375
4650
1050
4950
450
3450
2250
1650
750
4350
2250
2850
1050
675
1050
3225
825
375
1350
750
975
3450
2175
375
750
3450
2850
675
750
1275
375
450
1275
450
1050
1875
2550
1350
5475
750
1050
375
4950
675
1050
1050
450
1350
1575
2175
6150
450
1350
750
975
1950
2250
1950
675
2775
375
1950
750
375
1050
450
450
3450
2550
2025
150
450
2250
2850
750
4950
1875
1350
825
450
1275
450
1650
975
1050
1050
1875
750
2850
1050
1650
450
375
675
1950
750
750
450
450
1575
4575
450
750
450
1350
450
1050
450
750
375
750
450
1050
750
450
375
4050
1275
450
3750
3975
1875
450
450
1950
750
2175
375
1950
3750
1575
7350
1875
2550
1650
1275
2250
1350
1650
1275
1350
3075
2250
1350
750
2250
1875
375
750
1350
750
675
375
375
450
450
3375
1350
2850
4350
375
1875
1050
1050
2550
450
450
2550
1050
1575
1350
1050
4875
675
450
450
3375
675
450
675
2250
375
2250
450
1050
2850
750
750
2550
1125
1650
450
450
1125
1725
1950
750
1050
750
750
450
375
1350
2775
750
750
1350
450
375
1350
2925
375
750
3150
1875
1650
1875
1275
2775
2475
1650
450
1575
1875
1350
2175
1875
1050
1650
1350
750
975
1350
450
975
450
450
1650
2850
975
450
375
450
1650
2550
450
375
1050
450
750
750
675
1575
2250
750
2175
450
4350
450
1350
3450
675
1575
3075
2475
1350
750
1950
2850
2250
1050
4650
1875
750
1650
1050
750
450
1350
3150
2325
450
1050
1050
750
3150
450
3450
750
450
3450
675
150
3225
1425
450
525
450
1950
1950
2250
1050
1050
1950
1275
450
4425
1950
3150
450
1050
3225
1350
825
450
1950
450
450
1350
825
1050
750
975
2850
750
1650
3150
825
750
3450
1050
1050
750
1950
1650
2025
1350
525
750
450
1350
750
525
1650
1050
450
1950
1350
4575
4350
750
525
450
1425
4350
825
675
2550
450
1350
1050
750
4050
450
4125
450
450
375
6150
1350
1050
1050
1350
450
1125
1875
750
750
450
1350
1950
450
525
150
1650
4350
1125
1650
1950
1050
1350
1350
750
450
750
750
1950
1950
4050
1050
1875
1950
750
750
450
750
450
450
2250
4650
1875
3150
1650
1650
450
975
2025
1350
450
975
2175
1350
525
450
1050
450
1350
1350
525
3750
1725
1350
2025
1050
1950
2850
1950
1350
2475
750
1350
3750
1350
1350
1125
450
1650
1350
1350
2025
675
450
2250
3150
1350
375
450
750
5550
2775
1575
750
450
1650
375
1650
750
1050
2250
1050
450
1650
1050
450
450
1650
5475
375
1050
450
450
4650
450
2550
750
750
2850
450
750
3825
2850
1050
1950
450
825
5250
450
450
450
1050
375
5850
3450
2475
2250
1350
1725
750
750
450
1725
675
2250
1050
1650
1350
750
2850
1050
7050
525
450
1950
750
2850
450
3450
1425
750
3150
2325
7950
1275
750
2250
2325
1350
1125
3075
3675
450
450
1050
450
450
1950
1650
1050
2250
750
750
1050
450
3150
1125
1050
5925
450
825
2250
750
1425
1650
750
750
1350
450
1950
2550
1350
3150
1950
750
1650
1050
1350
1350
1050
1650
450
1350
750
450
750
750
2250
2550
750
450
3750
6450
1050
750
1050
450
1650
2250
1050
3150
1350
2550
1050
2775
450
2550
450
2850
1350
375
5550
3450
1050
675
450
825
1425
675
1050
2250
2550
4050
3150
4050
750
6750
1350
450
1350
525
450
1650
1950
450
1350
1275
1050
750
1650
750
2550
750
1275
450
450
1050
1950
2850
2550
5925
375
3225
750
1050
3150
3750
450
1050
4425
825
750
1950
750
525
750
825
1350
1050
2250
750
1350
450
750
525
825
1350
3750
450
450
1050
1050
1650
1650
450
750
450
750
450
2250
1650
1350
450
825
5850
1350
3450
4650
1650
1350
1725
3450
1875
1050
3450
450
750
1350
750
450
2250
1050
2250
825
450
750
750
1350
450
750
675
450
525
1050
750
450
2250
450
3825
1950
1350
525
2850
3450
1875
3150
2850
1650
2025
675
750
1050
4050
3975
375
2475
750
3375
2850
375
750
450
3750
3150
1125
450
1050
6450
375
1950
1350
450
825
2250
450
4050
1350
375
1125
750
1050
1350
1650
2250
450
1650
1350
2850
450
2250
450
1650
450
3150
750
1650
450
450
1725
750
450
375
675
975
1950
375
450
1650
3450
1425
4650
1650
450
525
1125
675
1350
1350
825
3750
750
825
2250
1050
750
375
7125
450
2250
450
450
1650
1050
1350
1350
1350
4275
1650
6150
1050
2850
1650
2925
2550
2250
450
1650
1650
450
450
825
2550
450
450
1050
750
1125
3450
450
450
1875
1050
375
525
2250
1350
1350
1650
1050
375
450
450
1650
1050
1350
1950
2550
450
1350
675
1350
1350
525
1050
2250
450
525
450
450
2250
1425
1275
750
2925
3750
1050
450
450
1125
1125
5325
450
750
2850
1050
450
1950
1350
5250
825
2325
3075
750
1875
2550
1650
3450
450
1050
100000
1125
450
1350
375
2175
750
1650
375
750
450
2250
3750
5550
5550
1275
3450
1725
1350
1050
825
750
1350
750
750
1275
750
1575
375
450
450
2550
4350
1275
1350
1650
450
750
1650
1350
1050
1650
750
450
1650
4050
675
1125
750
1050
450
750
450
2550
750
2550
4050
2175
750
675
750
1275
1350
1650
1575
1950
2175
2850
1350
375
450
2250
675
1575
750
3150
1875
1650
3075
375
1350
750
525
75
750
375
1275
1050
450
675
1425
750
975
1575
1650
450
3150
750
750
3075
750
2175
1350
2250
375
675
450
3450
450
675
2250
750
375
2550
2250
450
2475
1650
375
1350
450
450
450
1050
3375
1050
525
2850
1950
750
1575
675
1050
450
1050
1950
1650
450
1050
2850
675
3375
1950
3450
1050
4275
375
1350
750
1050
750
450
750
750
450
1050
1050
1050
1050
450
1650
1050
375
375
750
450
1050
450
675
375
1350
675
2850
4050
525
450
750
750
4275
675
1950
1050
750
2550
750
1050
675
375
1350
450
450
1275
975
1050
375
675
1575
975
1350
675
1050
2550
2550
1350
450
375
3150
1050
1275
450
375
675
750
450
450
450
450
450
450
2550
3150
1650
3450
450
1050
1275
1650
2550
1050
375
750
750
2475
750
2700
375
1875
2550
3750
2475
750
750
1950
450
1575
375
1350
4050
1950
2475
5475
750
1350
750
750
1050
450
750
1350
3150
2025
450
1350
3150
450
750
450
1950
450
450
375
1650
975
375
3750
675
1050
750
825
825
3375
750
7050
4575
2550
1650
450
450
2250
1350
450
750
1650
450
3150
3450
2550
750
375
4650
1575
1575
1575
1950
375
375
1950
750
1050
450
2550
450
1950
750
450
1725
375
450
1650
975
1050
1050
975
750
825
1350
2550
675
750
1275
2325
525
375
1050
750
975
450
1050
450
1275
1650
75
2775
750
3075
1350
450
2775
450
1425
75
450
3450
750
100000
1650
1950
1050
750
3750
2550
525
1650
3375
1350
375
4350
1950
750
450
450
450
450
450
1275
750
1650
3450
375
3750
450
450
375
2550
1125
4350
750
2550
1050
450
450
750
1575
450
1350
1050
2250
1050
750
2850
1950
1650
750
1650
4950
1575
225
975
450
2025
1350
1950
2625
2550
2250
1650
2325
375
2850
1050
675
750
375
450
450
1650
525
750
1275
1050
4350
975
1350
975
375
1350
3450
375
1350
2250
750
1875
2175
450
1050
750
2550
1650
1875
1050
675
1875
1050
975
1950
1050
1350
975
1050
1050
750
750
450
1425
750
675
1425
3750
1275
675
2250
450
450
2550
1275
1050
450
675
450
1275
975
1350
1050
1950
1050
1950
450
450
1875
4650
1350
750
1575
1575
4050
1050
1650
450
4950
3750
750
2325
1650
1350
450
975
3450
450
450
825
1050
375
5250
3750
1875
2175
450
750
2475
2550
3675
1050
750
1050
750
375
3150
750
525
750
100000
1650
1650
525
750
1650
1950
450
3750
675
1575
2025
1050
3450
1650
2550
750
1650
5250
2775
450
2250
375
1350
1875
3150
1650
525
750
450
975
5250
750
1050
375
825
750
375
1425
750
1650
1650
450
1350
450
2550
1350
1050
3150
1350
3975
1350
1050
750
750
6450
975
2850
450
750
1350
450
450
750
750
1650
2775
375
1950
1950
750
750
750
825
375
750
450
450
2775
975
1350
975
2475
675
3150
1650
375
2925
2250
750
1350
975
2850
750
975
1050
450
675
1950
450
1350
450
450
675
1650
1875
375
975
1350
1050
450
375
675
375
675
1950
450
825
750
450
3150
1350
1125
1050
2025
450
1350
750
450
675
975
1125
3375
1050
450
1650
1050
1650
1575
1425
1650
1050
2250
2550
1650
375
1650
375
3450
375
450
2850
4050
1050
525
2175
1350
1950
1575
100000
1950
1725
450
2175
525
1725
2250
1650
1725
1650
4350
1950
750
1350
2250
3750
1350
2025
750
375
1950
1725
1950
1725
3450
450
1950
1950
4650
1350
450
1350
450
450
675
450
750
1050
2625
825
1050
1050
750
825
450
1650
1650
2025
3825
450
1050
1050
1950
3150
2250
2250
1650
1350
750
750
450
1050
3750
3225
750
1350
1125
450
150
2550
1950
750
450
750
1125
2250
2775
750
1350
825
1650
2850
450
4650
525
450
450
1950
1050
3525
825
1350
1575
450
1650
975
450
2850
750
450
3225
4575
1950
2850
1050
3975
450
825
1950
2850
1350
1350
375
1950
6450
4950
1425
1125
2250
450
2325
750
750
1125
2550
2250
450
1050
1950
450
6150
450
1350
2325
2625
1050
1950
750
1650
750
3150
450
2025
450
1350
1950
450
825
375
2550
1950
1650
750
450
1350
750
1350
3150
2850
450
450
450
1725
750
2550
2850
450
750
750
450
525
825
825
5850
450
450
750
1050
5250
1725
2250
6225
1350
1425
1050
450
1950
2325
2175
450
3225
750
6225
1050
750
2250
1425
825
750
1650
750
2850
750
1050
1425
1350
450
750
1350
1350
1650
1350
450
1650
1350
4050
2550
3825
2850
450
1050
750
3750
1950
450
450
1650
750
1050
1125
450
750
375
1725
825
3675
525
3150
2625
1050
450
1350
1125
1125
1050
1350
450
1050
750
2250
450
525
1050
450
750
1650
1350
1050
2550
1050
450
1950
1950
450
1050
3150
2325
1050
2850
1350
750
1050
450
4650
1650
750
1050
1350
4650
1425
750
1650
1050
6375
450
1350
450
1050
2475
1350
750
2850
525
1650
1275
2850
375
3450
1725
4650
450
450
750
1650
450
450
2925
1050
2250
750
1350
750
1125
3150
100000
1050
825
3150
3750
750
825
750
1050
750
3450
450
450
450
5250
1350
3450
1050
450
825
1350
1950
1650
1425
525
375
2850
1350
3225
1050
825
1575
3450
2925
4125
5250
3150
3075
825
1125
2025
825
5325
450
825
1125
1050
1425
1125
750
750
2550
2025
1350
450
450
2925
1650
2850
1425
1350
1050
525
825
3150
450
450
1650
3450
1950
1650
2925
825
1425
450
1650
1725
2850
450
2250
750
1350
525
825
750
450
1950
750
3150
3450
750
3150
750
3750
1350
450
1950
825
525
750
450
450
2625
2550
450
1650
4350
1950
450
450
2250
3750
450
1350
450
2550
2850
4425
1650
2025
2850
1725
750
1650
4050
2325
2025
750
975
1125
1350
2550
1350
2250
2250
1050
3225
3750
825
750
1050
450
1650
4650
750
750
975
450
525
2850
750
1050
450
4350
1050
450
750
6525
750
1050
1950
450
525
450
1050
8325
450
1650
1050
450
1650
1350
1650
750
1350
1050
450
3450
1050
750
2475
2250
3750
1350
1950
750
450
825
450
1350
1950
3750
750
1950
4350
1275
525
1725
2025
3750
1050
1125
3750
825
2550
1425
450
1350
450
2325
450
450
750
750
2550
1050
1650
450
1050
3225
450
2550
450
1050
1350
450
1650
825
3225
1125
2025
3150
3150
1125
1050
825
1650
1425
450
750
2925
1650
1350
450
1650
1950
750
3750
2625
4650
750
1350
1350
825
450
1350
750
2550
1650
1275
2250
450
1050
3150
750
1425
1350
1650
2250
1050
750
1950
825
1050
1725
2325
1350
1050
450
450
1425
2250
1950
1725
450
2250
2850
1650
750
450
525
525
450
1950
1125
375
1350
1425
1425
450
750
4050
2250
1050
2850
1350
1350
2850
450
1125
975
750
1050
1950
2250
6750
1275
1950
450
450
2850
1650
4650
2550
1350
450
750
675
3450
1125
5550
2550
450
1050
1350
1125
1350
1350
1950
1050
2175
4650
1650
1950
1950
1350
3750
2250
1875
1350
750
1950
2025
675
1125
450
1950
1050
1350
2850
750
2550
750
2550
1050
1350
1050
450
450
1425
450
2850
1050
450
1650
1350
3825
1050
1650
750
375
1050
450
750
1050
450
450
750
1650
4275
3450
1350
1950
1950
1950
1650
375
1050
450
450
675
1650
2775
4050
100000
1650
1350
450
1650
750
750
1875
2550
825
1950
1650
1050
1950
750
3750
3150
4650
4050
1350
750
5625
1350
2550
2025
5475
750
450
1650
3750
1050
2025
1275
450
750
2250
1050
450
2250
1950
2550
750
1950
975
1050
6450
1650
3150
450
3150
1950
450
2850
1350
450
750
2025
1350
1350
525
3450
750
375
750
750
1050
1350
450
2250
450
1950
2550
1350
525
1950
750
450
450
1050
750
3450
450
2625
2175
750
525
750
1050
1650
1350
750
2550
2025
1050
1425
1650
1050
1050
1350
825
750
3750
750
450
1650
1725
5850
1050
450
1050
750
4425
450
750
1650
1050
2250
2550
3150
750
375
1350
4650
450
675
2850
1350
750
1050
1950
450
450
1650
2850
2250
450
1875
1950
1950
1050
3150
1050
450
1050
450
1350
3150
1050
525
2475
450
750
375
750
2325
450
2550
6825
825
2025
1650
1425
1650
825
5850
4650
3075
750
750
1050
1350
1125
1650
375
1050
1650
2250
2550
2325
1950
750
1650
450
750
2775
1650
1275
1950
3150
750
450
1650
450
750
450
1950
1050
450
450
5550
8550
450
450
4950
2925
1050
675
450
100000
2775
3150
2550
975
750
975
4875
450
750
4050
75
450
750
450
3750
4650
2775
450
1950
1350
2775
375
375
3975
1350
1875
2850
1650
75
4050
75
1050
750
2175
1350
1350
450
1650
1950
675
750
5550
1950
3150
1875
1050
3150
75
1050
1650
450
450
4650
675
2250
300
750
750
1350
900
1650
450
2550
2250
1650
1200
1500
1650
75
1350
75
2550
750
1275
1050
675
75
1200
450
1575
750
375
975
450
450
7050
75
2775
3750
1350
450
750
1575
750
450
75
1575
675
2550
1875
750
450
1650
1050
1350
75
375
750
3150
1350
4350
375
1050
750
2250
1275
1050
2550
750
1275
450
1350
2250
450
750
750
75
450
75
4650
2550
450
75
1950
675
1650
1275
1050
1275
1875
750
1350
1275
2250
450
1275
3075
1050
1350
450
3150
450
750
2775
2850
1575
4650
450
375
375
600
4350
450
1875
975
1650
2175
75
750
450
375
75
675
1275
1275
1050
2175
2175
450
2250
2775
1650
1050
750
975
450
450
525
375
1050
1650
450
750
450
1350
675
1650
3150
450
75
450
750
1050
2550
1875
2475
75
675
2550
375
750
450
1050
750
375
1575
3375
1650
1350
2850
2250
75
1050
3300
750
525
2850
450
450
450
1950
75
450
450
1200
1575
450
75
150
1950
975
2550
750
75
750
75
1650
75
2850
675
975
750
75
1875
450
450
675
3750
375
450
1050
3075
1500
675
1350
3525
675
750
975
1350
450
75
2550
600
2400
900
1950
1575
450
675
450
975
450
1050
3525
3675
450
750
5250
825
1950
975
1575
1650
1050
1650
1050
450
750
75
3075
750
1350
1050
450
750
1050
1275
375
675
975
1575
750
975
750
1650
375
450
375
975
600
1350
375
450
1575
975
375
975
1350
75
2250
750
1575
1050
1350
75
450
1050
450
450
750
750
975
750
750
1650
750
3375
3300
2175
1875
675
1950
150
450
1050
2250
975
1050
450
975
1125
750
1050
1350
975
375
1875
2550
450
1050
75
1650
1350
675
1350
1875
975
975
100000
1050
1050
4050
1350
450
1050
2250
3825
975
375
2175
2550
450
750
450
450
975
2850
1275
450
1050
1275
450
1350
1050
1275
2775
1050
1875
2775
1275
3150
2175
675
2250
375
675
1350
4575
1875
675
1050
450
1350
375
3150
975
675
2250
2850
1350
375
975
1050
2850
675
1275
6450
450
1875
1050
1650
375
675
2850
1350
1050
2250
750
4350
675
450
750
975
3075
375
2850
1275
450
2550
1650
450
2550
1875
1575
2775
1350
375
1050
375
1650
675
975
375
450
1350
1875
675
675
750
675
375
1650
750
1575
1875
4950
2250
450
450
4275
2850
3450
375
8550
1275
1050
750
375
2250
1050
2550
2475
1050
1050
375
1650
2175
825
2175
450
1650
675
1050
1950
1050
375
375
450
975
1350
750
375
450
1650
2250
450
2550
1350
1275
1575
1575
1950
4050
3150
1350
975
450
1950
1875
3750
375
750
375
450
1350
4350
450
450
750
750
3375
3375
1650
750
750
975
1950
2850
450
1350
1875
450
1350
1050
375
750
1350
1050
1650
975
750
1650
3975
1575
675
1650
1050
975
750
1950
2775
450
1350
75
1050
5250
1050
3750
1050
1650
750
750
675
975
2250
450
450
675
675
1050
375
675
2175
1950
675
3150
675
750
450
750
750
450
4275
750
750
2775
2250
1650
750
1575
1350
750
1350
3450
450
1275
1950
3750
375
750
750
675
1650
450
3750
1350
450
1575
450
450
1575
1875
975
1575
1350
1050
1050
2250
3075
750
375
2250
375
750
1650
450
1050
3450
1350
750
2850
975
975
750
675
450
450
1050
675
2175
4350
1050
3750
750
3150
450
450
450
675
1650
375
1650
450
1350
450
675
3750
2250
1350
675
1350
1050
3150
4950
1650
1350
975
1350
525
1650
2175
375
375
975
2475
1350
1350
1650
1050
2475
150
100000
1875
450
975
750
1650
4575
450
750
1650
1950
1350
3150
450
1950
1050
3150
1050
1350
825
1050
1350
375
1650
1050
1950
525
1350
1650
1650
375
1950
6450
450
1950
450
3075
750
450
1950
1125
450
750
450
375
1050
750
750
3150
3450
975
750
1425
1650
6150
450
375
1650
1050
1275
1350
750
675
1575
1050
1650
1275
2175
2250
3450
750
450
1350
1650
450
450
1125
2850
5550
750
2550
1650
1275
450
450
1050
1575
750
1350
1050
975
975
3150
750
1050
1350
450
975
450
450
1275
1350
1575
2325
1050
1950
1275
1650
750
750
1350
1650
2250
2475
1275
2550
1050
1950
1575
1950
2250
1050
750
375
450
975
675
375
1650
525
450
750
2550
1425
450
750
450
450
450
2625
2250
2175
4050
375
450
2550
1350
1350
3375
1050
1050
1050
3075
1050
750
2475
750
1650
1050
450
375
750
750
2025
2850
750
2250
975
750
1050
1050
450
1650
1575
8250
450
1050
750
4350
1350
975
2325
1050
2250
750
1050
1650
450
4650
1425
450
1275
450
1425
1050
1050
450
1650
1350
2250
675
1050
1350
450
675
1650
450
2325
675
450
1275
1350
450
1650
525
1050
450
450
1650
2175
1050
450
1350
1950
450
1050
1950
7650
1950
1050
3450
2175
1575
1725
4950
6150
1650
1350
750
450
450
3450
750
1650
1575
450
3150
375
4650
750
450
4050
525
3450
450
1050
375
1650
750
1050
1350
1950
1050
1050
1050
1575
2550
450
450
1050
1125
750
1650
1650
1650
1650
1350
450
1425
675
1350
525
750
450
1050
1350
450
1350
1650
450
1050
4650
1125
450
1050
3150
1275
2775
1050
1350
2250
750
1575
525
4350
2850
2550
1650
750
1275
2850
1875
1650
750
1050
675
1650
2175
675
975
750
600
450
1275
450
1350
450
450
3150
1050
1950
1275
2250
750
1950
975
2550
75
100000
525
750
1650
1050
1650
5325
1050
1650
1050
825
1050
2025
525
2550
1050
1350
450
675
1950
1725
1050
450
450
1650
750
3150
750
525
1650
825
1425
2625
1725
1650
1950
825
375
1425
1350
1950
450
1350
450
450
1350
2025
2250
1050
1050
1650
450
1950
750
525
450
450
1950
450
825
1050
525
825
5475
1050
525
450
750
1950
3375
1050
750
825
2850
2850
2925
450
750
1350
1350
750
1650
450
1275
7650
450
1350
525
2025
1950
1350
2250
1725
450
750
4350
1050
750
750
2250
450
1050
1575
825
1350
2550
1050
750
1425
675
450
1350
6150
1275
375
4725
1125
1650
375
825
1350
1575
2025
1050
525
1425
1050
2925
525
525
1350
2925
1050
1950
375
1050
750
3750
2625
1050
750
450
1125
750
2925
450
1350
1950
1650
1725
1425
450
450
2850
4125
825
525
1050
750
375
450
1950
450
1650
2550
4725
750
450
2625
450
525
825
5250
450
1350
1650
2250
1950
1950
1350
3675
825
1050
450
450
3750
750
1575
1050
1350
825
1050
1950
1050
4650
750
2025
1650
1350
1350
450
525
1875
750
450
1425
825
1350
750
1650
4350
450
3825
2025
825
1050
1350
2325
750
750
3825
2250
525
1650
1350
1050
2325
1050
5250
450
1050
1725
750
1125
1050
450
1050
3825
1050
525
450
450
1650
1350
1650
750
375
525
1050
1875
2250
2625
1125
825
1275
1350
525
750
525
525
1350
825
2550
825
450
825
450
525
750
450
750
450
1350
1350
1950
1650
1350
1350
1725
750
1050
750
1050
3525
1125
2475
3450
4050
2250
1350
450
1650
2850
2025
525
4425
525
1275
1125
2025
450
2175
1050
675
1425
750
2550
1050
450
450
1050
675
5550
1350
7650
525
3750
1350
450
1125
2550
1125
1050
1425
1650
7125
2925
3150
375
450
1050
1050
375
1125
2250
750
100000
4950
1050
1725
1425
525
1725
1650
2625
2250
525
1050
1950
1725
3825
450
750
825
750
750
750
4350
450
750
1050
1050
450
750
4350
825
825
2850
525
825
825
3825
750
1650
1350
750
1050
1950
1650
825
1950
1650
975
2250
1725
525
1125
1350
3150
825
450
750
525
4650
1350
1650
3150
1050
1725
1650
1050
1650
1425
450
2325
1650
2775
750
1050
1350
450
975
450
975
1650
1050
5025
2625
1425
1650
4950
525
1125
3150
750
750
450
2025
1350
750
1950
2250
1725
1350
450
3225
1650
2925
525
1350
1050
450
525
1950
450
450
1050
525
1650
1425
2325
750
9750
375
750
4725
3150
1725
2025
1050
1425
2550
1125
2025
750
2850
4125
1050
1350
750
1650
750
1350
1350
1650
450
525
450
1950
4050
6150
1125
1725
450
2475
1275
1050
1125
3750
525
3750
2550
525
2925
3750
750
1125
1050
2325
450
1050
1050
2850
2625
450
2550
1575
4050
825
825
750
1950
2625
3225
450
4350
5250
975
450
2550
450
1350
450
1950
375
450
1050
450
750
825
2850
1125
3825
1725
1050
1050
750
825
1050
750
1650
750
2550
525
1950
1950
825
1950
450
450
2550
2250
1350
1125
450
1350
825
450
1350
450
1125
1650
750
1350
450
1350
2325
750
1950
2625
2175
2775
450
750
6150
750
1650
450
2475
525
3150
1050
825
1650
525
1350
1350
1350
1350
450
1650
525
450
750
450
2850
450
1050
1425
450
450
1350
1350
1050
525
450
4650
2250
675
1575
1050
750
750
750
1425
2025
525
450
3975
750
750
450
750
750
1350
1575
1125
2925
825
1950
3150
525
450
1350
825
750
450
2025
5250
750
3525
2550
2475
1575
375
4350
750
525
2550
750
3450
1650
1350
525
750
1350
1650
1050
1650
100000
975
2475
75
2100
5175
750
675
75
1650
3450
750
1950
1350
1125
1425
1350
1050
825
975
375
1050
4425
1200
2550
375
1350
450
3075
750
675
750
2025
450
1650
1050
2775
2475
2550
1050
1725
750
450
675
1650
2250
75
1875
1350
975
1050
1350
2850
3375
675
1950
1650
3450
750
750
750
675
750
1650
3375
750
675
1275
1950
1050
2625
2850
450
675
450
750
1650
450
3375
975
450
2850
4650
450
1350
1350
1050
750
1350
1575
1050
2850
1050
1350
375
3450
375
825
375
1350
450
1350
1950
6150
1650
1050
3450
450
975
1650
1050
450
1875
3150
1725
450
1050
1650
2175
1050
675
1275
1650
1575
1050
3150
1575
1050
1650
6150
750
450
1350
2550
450
675
1050
675
1050
525
750
975
3375
450
1275
450
2775
1350
2550
675
3450
1950
1950
750
2550
1650
675
450
675
2175
525
1350
1275
525
375
450
2550
375
1050
1650
450
1350
1275
1575
2550
1050
1050
975
750
450
2625
450
3150
450
375
450
1950
1350
600
3750
675
2550
1050
1050
1650
675
450
3375
1575
2325
375
2625
5550
1050
450
1875
675
2175
450
1650
750
450
525
1275
1575
750
375
1050
1350
2850
450
1350
375
600
1650
2250
975
750
1050
1950
2250
4650
3150
2775
750
2175
1575
1350
450
675
4275
675
675
975
450
1050
450
375
525
975
6450
3375
3150
675
3450
450
1050
2625
1050
2175
450
375
375
1050
675
975
450
300
1050
3150
1050
2025
2250
1275
450
1425
2775
2250
1350
375
750
750
3450
1650
750
1050
1050
450
1350
1950
825
450
750
450
2250
450
375
675
675
3150
525
675
2625
1950
1050
375
375
2700
3375
450
375
675
1125
1050
750
6150
450
750
1950
1575
375
1575
825
1350
975
1350
450
1725
750
450
1650
750
1350
3450
4650
2475
75
1500
375
450
1050
750
750
450
450
1350
750
4650
3375
6150
1650
1050
1125
1050
2550
2550
525
525
1350
1050
1425
2250
525
1950
450
1125
1350
450
1350
5475
2250
1350
450
750
450
1350
1650
450
975
450
1650
1350
2550
4950
1050
2250
2250
1425
1650
1875
450
750
3450
450
450
450
750
3750
525
1050
450
1950
1650
450
525
825
2475
4725
2475
750
750
1425
1125
3750
1425
1125
450
3450
1950
1050
2925
1950
450
1950
450
1050
1650
675
1050
450
1650
750
450
675
975
3450
750
1050
1050
525
750
375
975
2850
1350
450
1650
750
3150
1125
750
2250
750
2550
825
1650
375
375
2475
1575
450
525
3750
1050
1050
750
1350
4050
3075
750
1350
1950
2850
3450
1950
1050
450
4050
3075
4950
750
525
2850
450
1050
1650
1050
4050
1350
1125
1425
1275
1050
750
750
1650
1650
4350
450
750
4350
975
675
1950
750
750
750
750
1350
2325
3375
2550
1050
1650
450
1350
450
1350
1350
1950
1575
1050
1350
750
1350
1650
1050
750
450
450
375
1350
450
1350
2850
2250
975
1350
750
2850
2250
450
3450
2250
450
4425
450
4350
750
450
1050
450
2625
2850
1650
825
7950
1650
3675
825
1050
450
1950
8250
1350
1050
525
450
3150
450
1950
750
1650
450
2250
750
750
750
1050
1950
1050
1650
750
450
1125
750
1350
450
1350
750
750
1950
1650
1575
1050
450
3150
2250
1650
1350
1050
2850
2250
1050
2775
750
2025
2250
450
750
1950
2250
750
1050
525
1350
1050
1050
450
4350
450
450
1650
2850
450
1950
1050
1725
1650
450
450
4350
750
1425
750
675
1950
1950
825
450
1650
2025
1050
450
1725
3150
2025
450
450
1650
1350
750
1950
1950
1650
1050
2850
825
3150
750
4950
750
375
375
1650
750
1050
2550
1425
1275
975
1050
750
2850
1650
4650
1350
750
1650
750
2850
750
4950
2250
825
2925
975
525
975
1350
2850
2850
450
2850
2025
1650
1650
1350
750
1650
450
4350
750
1350
2550
1650
1125
2475
2025
1650
450
750
225
1575
2250
750
750
1650
1575
2550
1050
525
1950
450
1050
450
525
750
450
450
1050
1425
1425
2025
1875
1050
1350
1350
975
450
2550
1650
1725
2250
2250
450
450
1050
1350
375
825
2850
750
1050
450
450
1050
3075
750
750
4950
1650
1650
450
750
1650
1650
750
1350
450
1350
750
1650
3150
750
1350
3450
450
1875
2550
1650
1050
450
975
1350
3525
750
750
450
450
450
1950
1050
750
450
3750
525
1950
450
3150
375
1650
450
450
1650
375
1050
450
750
3150
1425
675
375
450
1050
1950
750
1950
525
1575
4950
3450
1650
1650
1050
450
375
2325
450
3150
525
1050
2850
1950
750
750
450
6150
5250
450
2250
375
750
1050
1350
750
1650
450
975
1050
1950
450
750
1350
750
4050
1350
975
2775
1125
450
750
5550
2250
1950
1050
975
4650
1350
750
1050
1125
2550
825
1050
1350
450
2850
450
750
1350
450
675
2550
1650
1650
1950
450
1050
3225
450
525
2250
525
1950
2625
1350
2250
450
1950
3150
450
5550
3750
3150
750
1350
450
450
1350
1425
1950
2175
750
450
675
1950
975
1650
450
2850
1650
3150
750
1275
750
750
3750
450
1725
1050
375
1050
1050
750
1350
2550
2550
2250
1050
1350
825
975
1350
450
1650
375
1950
450
750
1950
2850
525
750
450
450
825
1650
450
450
750
525
450
450
525
750
1950
450
750
375
450
1350
1050
450
1350
1050
1050
3825
450
450
1125
750
450
450
1350
3150
1050
450
2850
1575
1950
750
450
1650
750
1050
2175
375
450
675
2025
450
750
1050
2250
1050
450
75
675
1275
2250
450
1350
750
2775
375
4725
2250
1125
825
525
975
375
1350
750
975
2250
750
1350
1050
750
375
450
450
450
1050
1350
1950
750
1350
450
2850
1950
2250
675
1950
450
750
450
375
1050
2850
750
3450
1050
450
525
750
450
1275
1650
675
975
750
750
2250
2625
750
2850
450
1050
450
450
2850
450
1350
1650
450
450
450
2550
375
450
1950
450
4575
2850
1575
750
1650
450
1875
2550
675
450
450
1575
750
1425
75
675
450
1950
1050
5775
750
1050
750
675
1050
1350
750
750
825
3150
2175
1350
3750
2250
450
450
450
1425
1650
975
1650
750
1350
675
1275
1125
750
750
2175
675
1350
450
450
2475
2850
1050
1350
1650
2325
1650
3450
750
450
750
3450
1050
450
1650
525
1050
2250
450
1125
1050
3075
2250
4350
375
375
1350
4275
375
1950
1125
450
1875
975
825
2250
4650
825
750
750
750
1650
4650
1050
975
375
1050
1875
750
450
750
1275
7050
975
2475
1950
5250
750
450
1575
975
1050
525
2175
975
2550
2850
750
1650
1950
1050
1350
450
450
1650
1125
975
675
1950
450
450
375
3750
1575
1650
450
975
450
375
2550
1575
450
675
2475
675
1950
750
675
450
1575
1725
4350
1050
750
2850
1650
1950
375
750
1050
1050
750
450
750
750
825
1275
1275
750
675
1350
450
1950
1050
4875
450
450
375
2550
2550
1650
1275
1575
1275
3450
525
1050
375
1350
750
750
3450
450
675
450
450
750
1950
6075
675
2475
2250
2250
975
750
675
1350
450
450
2250
1950
1350
3375
750
2475
675
750
2250
675
1425
975
750
1050
450
1125
3825
2175
4050
1575
750
2250
1350
750
1050
375
450
1650
450
1350
2250
375
750
825
675
1050
675
1350
450
375
3450
1350
750
525
1875
675
750
750
1125
1050
375
2850
1350
450
3450
1650
3150
450
2550
675
2550
450
750
1875
100000
1350
750
450
1050
2025
975
375
1050
1950
750
3150
1350
975
1650
1650
450
1050
4875
675
2475
2550
375
750
975
1275
675
2550
750
450
450
1650
375
3150
1350
450
3675
4350
1875
2250
2250
1350
1050
1575
450
1950
1350
975
450
2250
750
975
5850
1050
1050
750
1050
1650
450
4050
450
1875
450
2175
450
675
525
675
375
2625
750
3450
4050
750
375
975
750
450
1650
450
1950
675
1650
450
1350
750
1050
1950
375
3150
3075
5775
1275
2475
1350
1275
1425
750
675
1350
2325
375
1650
375
1350
375
750
1650
1575
1650
750
750
1650
375
4650
1950
1350
1875
1350
1050
450
975
2250
375
450
750
675
3375
450
3150
2850
375
375
1650
2550
450
750
1650
675
1200
1650
750
1650
450
675
375
6150
675
1350
1350
1350
150
450
975
750
1575
675
1650
450
1275
1650
1050
750
1350
1875
975
2550
3150
1650
2550
675
750
450
750
1350
450
3450
750
450
675
1650
3075
2475
2850
2250
1050
450
750
2175
1950
1050
1050
1050
675
450
450
675
975
3450
1650
1575
750
3450
450
450
1050
450
3150
1350
1650
1050
450
1350
5250
975
675
1050
675
750
1050
450
375
1950
1650
450
750
1575
450
1050
975
975
1350
675
450
1275
3450
375
450
975
1275
450
675
525
1575
450
1650
3075
375
675
1950
1350
375
1050
1950
1350
975
1950
450
2475
750
750
1950
1350
450
750
375
2250
675
375
375
1275
750
1050
1050
75
1650
2250
2850
4350
2025
750
750
450
2250
975
1350
2475
675
1950
2475
1650
2250
450
2250
1050
975
450
450
2850
7650
450
450
1275
375
1050
4050
1650
3150
375
450
750
3375
3150
75
750
1350
375
450
450
2775
1350
1350
1350
5325
750
2250
975
2850
750
450
5550
1950
675
4350
7950
1875
100000
1350
5250
2850
750
1575
975
1350
450
750
1950
3450
1950
1125
450
1950
750
750
1050
450
675
750
300
750
1350
750
450
1950
1350
450
450
450
750
4350
3450
1050
2250
2850
1050
2250
1050
3150
450
375
1200
1350
450
1950
450
1050
1350
75
450
75
1350
450
375
975
750
1350
2250
450
1050
1950
1950
1875
450
675
675
1650
750
750
450
4050
450
675
1650
4650
825
1950
375
450
3750
1350
3075
1275
750
2550
1950
450
750
975
750
3375
750
675
450
1650
450
750
450
750
1950
450
2775
1650
3225
750
1050
2550
450
1050
2550
675
525
450
1050
75
450
75
2850
1950
1350
3075
450
450
3075
750
1875
450
1350
1350
750
1050
450
1650
1350
1050
750
450
75
2175
1950
750
4275
1950
450
750
375
1575
1650
750
2475
750
750
975
5775
1050
1050
300
1650
450
3075
2475
750
1575
2250
450
450
2250
2850
450
750
4350
1050
1950
2850
1950
450
450
975
2550
450
2550
1650
375
450
1950
75
1575
750
750
2850
1950
450
4050
1125
1275
750
1125
1050
1875
1050
1950
375
750
375
1650
1725
1950
1950
1950
1350
1950
1950
675
975
75
1875
450
375
4950
450
2550
450
150
450
2175
450
1875
450
975
1050
1350
1050
675
450
6450
1650
2250
2325
1050
2250
1350
1350
2550
2025
1425
975
675
450
450
1350
450
2250
1875
1350
450
2550
375
2250
450
675
1350
2550
450
450
75
600
1800
975
450
1050
750
1350
1050
3150
450
975
675
1875
1050
1050
675
1350
1050
450
2850
750
1350
1050
1350
1350
450
600
3150
2175
1050
2550
825
1125
750
2775
375
75
2250
1575
150
750
2250
450
1950
1350
825
1350
375
375
675
450
1950
750
1350
1500
450
1350
750
3150
3150
2475
450
2625
450
750
1650
1050
825
1050
750
450
750
2250
1050
75
4050
2925
450
2250
5550
750
3450
1350
450
1050
750
1050
1650
375
1575
1350
1575
750
1350
1050
2250
1350
1350
7725
450
525
1050
100000
450
1350
5250
3750
750
750
2250
750
1050
2775
1350
1050
1950
450
975
1050
450
750
1050
450
1650
4050
375
825
2850
450
750
1650
1050
3150
450
675
1350
1650
1050
3150
2175
1650
4350
1350
450
750
2775
1050
3525
825
750
1275
3750
3450
975
1050
750
1875
450
1050
1350
1275
2175
2250
450
750
450
450
6150
2025
6750
975
2175
450
3450
525
525
3750
450
375
450
750
750
1650
1050
450
1050
2475
5025
750
3150
375
1050
1875
1050
1950
2550
450
1350
1650
1350
450
750
450
1350
3225
2175
450
1950
1050
1275
3750
1650
2250
1950
2250
750
450
375
1275
1650
450
1950
2175
750
375
2850
450
1050
750
450
1950
2850
1350
3150
1350
1350
3150
5025
1050
1050
4050
750
525
1350
975
450
2550
1575
1350
750
3150
750
2925
750
1050
750
1425
1650
5250
1350
750
1050
675
3750
1050
450
1350
450
2550
1650
1950
450
1950
3450
450
450
450
1650
2250
750
750
750
450
750
1350
1350
750
450
1650
5850
450
750
2250
1350
1125
525
1125
3150
1350
3150
1650
4650
1350
825
1050
2250
4350
450
1650
450
450
450
450
750
1050
750
975
1650
2250
2250
750
750
375
450
1050
975
3150
1050
450
2250
3450
450
450
675
450
1950
750
4050
1350
1050
675
3750
5850
450
1950
1350
1425
450
1050
750
450
450
750
2250
450
450
2625
975
5850
375
450
2250
1350
3150
1050
975
4050
2550
1050
525
1350
450
4950
2625
450
1275
675
1725
750
675
450
4350
450
450
450
750
525
2025
1650
450
1350
1275
1050
1350
1650
450
1050
1650
750
1050
1350
2550
450
1350
2850
450
2625
450
1875
450
150
100000
450
450
2550
1350
450
1650
450
450
375
1350
1125
375
450
1050
750
750
1350
450
2850
1425
4050
450
525
1050
1050
750
450
450
3150
2850
750
1425
1650
1050
750
2550
450
1650
1050
4050
2625
750
450
1650
1350
3750
1350
450
1425
375
750
525
1350
1350
4950
450
1350
1350
1950
750
675
375
1350
450
1650
2325
2625
450
450
2250
750
1050
3150
1050
2250
1650
525
450
675
750
1125
750
450
3450
450
450
750
525
525
3150
450
450
450
450
1950
750
450
525
750
2625
1050
1050
450
750
750
2025
450
2250
4950
2550
1950
1950
450
1350
4650
2325
525
1275
750
750
1950
3450
750
1050
1050
1125
825
3225
4725
1950
750
750
4125
3450
2850
1350
1125
450
1650
450
4125
450
3150
3150
5625
4050
750
150
1725
3450
1950
1425
1950
375
750
1725
1650
1050
1050
525
2325
750
1350
3075
1050
525
750
1425
450
1350
1350
1050
450
750
450
1050
450
1050
525
525
750
525
1650
825
750
825
1425
1050
450
375
450
3750
1650
1125
4650
375
1875
3450
2550
525
675
450
1050
750
975
1725
1350
450
450
3525
1125
1050
750
750
1950
2625
1650
450
2250
1425
1950
1050
450
750
1050
750
450
1350
750
1650
1350
1650
5925
3750
1350
3375
525
450
525
1050
450
1875
4650
825
450
525
4950
525
450
2550
1125
1725
2025
750
1125
2925
1350
2250
750
750
750
1950
450
2850
4425
825
1350
750
3450
2025
1425
750
450
450
1425
525
525
2850
1050
1650
450
675
2250
750
750
750
2250
450
1050
1125
3450
450
1350
2325
2025
450
450
1050
4950
450
1350
1350
1350
450
2250
2550
825
1650
1950
1050
1050
750
1650
1050
750
450
5550
2550
2025
750
750
4050
1950
3750
750
525
1950
450
1350
2550
1050
750
1050
2925
750
1950
1650
525
750
750
450
750
450
1950
