600000
600000
600000
600000
600000
600000
600000
600000
600000
600000
600000
600000
600000
600000
600000
600000
600000
600000
600000
600000
600000
600000
600000
600000
600000
600000
600000
600000
600000
600000
600000
600000
600000
600000
600000
100000
600000
600000
200000
500000
600000
600000
600000
600000
600000
600000
600000
600000
600000
600000
600000
600000
600000
300000
400000
600000
600000
600000
600000
600000
600000
600000
600000
