599926
599931
599928
599931
599940
599929
599930
599936
599928
599932
599922
599922
599929
599931
599898
599938
599932
599920
599927
599929
599921
599903
599925
599929
599931
599929
599929
599936
599925
599933
599929
599929
599929
599930
557389
42537
599932
599884
101092
498812
599929
599932
599929
599927
599917
599920
599929
599929
599929
599927
599880
599922
599954
291315
308615
599940
599939
599920
599928
599932
599909
599932
599925
