599928
599942
599929
599928
599967
599933
599930
599929
599932
599932
599924
599929
599929
599932
599935
599933
599936
599933
599933
599939
599929
599922
599932
599930
599932
599927
599928
599936
599927
599933
599919
599999
14
599909
599929
599940
599932
599935
599945
599931
599944
599949
599933
599931
599943
599931
599934
599942
599911
599938
599932
599919
599945
599965
599931
599949
599919
599924
599927
599943
599924
