=============================================================================================================== 
LARREA_VANILLA_LG_CONSENSUS_RATE.result	          <->	          LARREA_EPOCH_LG_CONSENSUS_RATE.result
=============================================================================================================== 

LARREA_VANILLA_LG_CONSENSUS_RATE.result mean: 0.02 
LARREA_EPOCH_LG_CONSENSUS_RATE.result mean: 0.02 

Observed difference of two means: -0.00 
4282 out of 100000 experiments had a difference of two means less than or equal to -0.00.
The chance of getting a difference of two means less than or equal to -0.00 is 0.04282.

=============================================================================================================== 
LARREA_VANILLA_LG_CONSENSUS_RATE.result	          <->	          AGUILERA_LG_CONSENSUS_RATE.result
=============================================================================================================== 

LARREA_VANILLA_LG_CONSENSUS_RATE.result mean: 0.02 
AGUILERA_LG_CONSENSUS_RATE.result mean: 0.00 

Observed difference of two means: -0.02 
0 out of 100000 experiments had a difference of two means less than or equal to -0.02.
The chance of getting a difference of two means less than or equal to -0.02 is 0.0.

=============================================================================================================== 
LARREA_VANILLA_LG_CONSENSUS_RATE.result	          <->	          CHEN_LG_CONSENSUS_RATE.result
=============================================================================================================== 

LARREA_VANILLA_LG_CONSENSUS_RATE.result mean: 0.02 
CHEN_LG_CONSENSUS_RATE.result mean: 0.10 

Observed difference of two means: 0.08 
0 out of 100000 experiments had a difference of two means greater than or equal to 0.08.
The chance of getting a difference of two means greater than or equal to 0.08 is 0.0.

=============================================================================================================== 
LARREA_EPOCH_LG_CONSENSUS_RATE.result	          <->	          AGUILERA_LG_CONSENSUS_RATE.result
=============================================================================================================== 

LARREA_EPOCH_LG_CONSENSUS_RATE.result mean: 0.02 
AGUILERA_LG_CONSENSUS_RATE.result mean: 0.00 

Observed difference of two means: -0.01 
0 out of 100000 experiments had a difference of two means less than or equal to -0.01.
The chance of getting a difference of two means less than or equal to -0.01 is 0.0.

=============================================================================================================== 
LARREA_EPOCH_LG_CONSENSUS_RATE.result	          <->	          CHEN_LG_CONSENSUS_RATE.result
=============================================================================================================== 

LARREA_EPOCH_LG_CONSENSUS_RATE.result mean: 0.02 
CHEN_LG_CONSENSUS_RATE.result mean: 0.10 

Observed difference of two means: 0.08 
0 out of 100000 experiments had a difference of two means greater than or equal to 0.08.
The chance of getting a difference of two means greater than or equal to 0.08 is 0.0.

=============================================================================================================== 
AGUILERA_LG_CONSENSUS_RATE.result	          <->	          CHEN_LG_CONSENSUS_RATE.result
=============================================================================================================== 

AGUILERA_LG_CONSENSUS_RATE.result mean: 0.00 
CHEN_LG_CONSENSUS_RATE.result mean: 0.10 

Observed difference of two means: 0.10 
0 out of 100000 experiments had a difference of two means greater than or equal to 0.10.
The chance of getting a difference of two means greater than or equal to 0.10 is 0.0.

=============================================================================================================== 
LARREA_VANILLA_FD_AVG_MISTAKE_RATE.result	          <->	          LARREA_EPOCH_FD_AVG_MISTAKE_RATE.result
=============================================================================================================== 

LARREA_VANILLA_FD_AVG_MISTAKE_RATE.result mean: 0.96 
LARREA_EPOCH_FD_AVG_MISTAKE_RATE.result mean: 0.95 

Observed difference of two means: -0.00 
36210 out of 100000 experiments had a difference of two means less than or equal to -0.00.
The chance of getting a difference of two means less than or equal to -0.00 is 0.3621.

=============================================================================================================== 
LARREA_VANILLA_FD_AVG_MISTAKE_RATE.result	          <->	          AGUILERA_FD_AVG_MISTAKE_RATE.result
=============================================================================================================== 

LARREA_VANILLA_FD_AVG_MISTAKE_RATE.result mean: 0.96 
AGUILERA_FD_AVG_MISTAKE_RATE.result mean: 1.54 

Observed difference of two means: 0.58 
0 out of 100000 experiments had a difference of two means greater than or equal to 0.58.
The chance of getting a difference of two means greater than or equal to 0.58 is 0.0.

=============================================================================================================== 
LARREA_VANILLA_FD_AVG_MISTAKE_RATE.result	          <->	          CHEN_FD_AVG_MISTAKE_RATE.result
=============================================================================================================== 

LARREA_VANILLA_FD_AVG_MISTAKE_RATE.result mean: 0.96 
CHEN_FD_AVG_MISTAKE_RATE.result mean: 0.00 

Observed difference of two means: -0.95 
0 out of 100000 experiments had a difference of two means less than or equal to -0.95.
The chance of getting a difference of two means less than or equal to -0.95 is 0.0.

=============================================================================================================== 
LARREA_EPOCH_FD_AVG_MISTAKE_RATE.result	          <->	          AGUILERA_FD_AVG_MISTAKE_RATE.result
=============================================================================================================== 

LARREA_EPOCH_FD_AVG_MISTAKE_RATE.result mean: 0.95 
AGUILERA_FD_AVG_MISTAKE_RATE.result mean: 1.54 

Observed difference of two means: 0.59 
0 out of 100000 experiments had a difference of two means greater than or equal to 0.59.
The chance of getting a difference of two means greater than or equal to 0.59 is 0.0.

=============================================================================================================== 
LARREA_EPOCH_FD_AVG_MISTAKE_RATE.result	          <->	          CHEN_FD_AVG_MISTAKE_RATE.result
=============================================================================================================== 

LARREA_EPOCH_FD_AVG_MISTAKE_RATE.result mean: 0.95 
CHEN_FD_AVG_MISTAKE_RATE.result mean: 0.00 

Observed difference of two means: -0.95 
0 out of 100000 experiments had a difference of two means less than or equal to -0.95.
The chance of getting a difference of two means less than or equal to -0.95 is 0.0.

=============================================================================================================== 
AGUILERA_FD_AVG_MISTAKE_RATE.result	          <->	          CHEN_FD_AVG_MISTAKE_RATE.result
=============================================================================================================== 

AGUILERA_FD_AVG_MISTAKE_RATE.result mean: 1.54 
CHEN_FD_AVG_MISTAKE_RATE.result mean: 0.00 

Observed difference of two means: -1.54 
0 out of 100000 experiments had a difference of two means less than or equal to -1.54.
The chance of getting a difference of two means less than or equal to -1.54 is 0.0.

=============================================================================================================== 
LARREA_VANILLA_FD_TG_SUM.result	          <->	          LARREA_EPOCH_FD_TG_SUM.result
=============================================================================================================== 

LARREA_VANILLA_FD_TG_SUM.result mean: 512489.20 
LARREA_EPOCH_FD_TG_SUM.result mean: 509573.38 

Observed difference of two means: -2915.82 
19422 out of 100000 experiments had a difference of two means less than or equal to -2915.82.
The chance of getting a difference of two means less than or equal to -2915.82 is 0.19422.

=============================================================================================================== 
LARREA_VANILLA_FD_TG_SUM.result	          <->	          AGUILERA_FD_TG_SUM.result
=============================================================================================================== 

LARREA_VANILLA_FD_TG_SUM.result mean: 512489.20 
AGUILERA_FD_TG_SUM.result mean: 402065.15 

Observed difference of two means: -110424.05 
0 out of 100000 experiments had a difference of two means less than or equal to -110424.05.
The chance of getting a difference of two means less than or equal to -110424.05 is 0.0.

=============================================================================================================== 
LARREA_VANILLA_FD_TG_SUM.result	          <->	          CHEN_FD_TG_SUM.result
=============================================================================================================== 

LARREA_VANILLA_FD_TG_SUM.result mean: 512489.20 
CHEN_FD_TG_SUM.result mean: 29818.88 

Observed difference of two means: -482670.32 
0 out of 100000 experiments had a difference of two means less than or equal to -482670.32.
The chance of getting a difference of two means less than or equal to -482670.32 is 0.0.

=============================================================================================================== 
LARREA_EPOCH_FD_TG_SUM.result	          <->	          AGUILERA_FD_TG_SUM.result
=============================================================================================================== 

LARREA_EPOCH_FD_TG_SUM.result mean: 509573.38 
AGUILERA_FD_TG_SUM.result mean: 402065.15 

Observed difference of two means: -107508.23 
0 out of 100000 experiments had a difference of two means less than or equal to -107508.23.
The chance of getting a difference of two means less than or equal to -107508.23 is 0.0.

=============================================================================================================== 
LARREA_EPOCH_FD_TG_SUM.result	          <->	          CHEN_FD_TG_SUM.result
=============================================================================================================== 

LARREA_EPOCH_FD_TG_SUM.result mean: 509573.38 
CHEN_FD_TG_SUM.result mean: 29818.88 

Observed difference of two means: -479754.50 
0 out of 100000 experiments had a difference of two means less than or equal to -479754.50.
The chance of getting a difference of two means less than or equal to -479754.50 is 0.0.

=============================================================================================================== 
AGUILERA_FD_TG_SUM.result	          <->	          CHEN_FD_TG_SUM.result
=============================================================================================================== 

AGUILERA_FD_TG_SUM.result mean: 402065.15 
CHEN_FD_TG_SUM.result mean: 29818.88 

Observed difference of two means: -372246.27 
0 out of 100000 experiments had a difference of two means less than or equal to -372246.27.
The chance of getting a difference of two means less than or equal to -372246.27 is 0.0.

