599914
599932
599962
599926
599924
599927
599921
599977
599933
599928
599929
599933
599957
599931
599923
599923
599916
599931
599927
599932
599886
599940
599924
599929
599943
599928
599928
599931
599923
599924
599928
599927
599928
599919
599916
599928
599920
599948
599929
599928
599983
599932
599928
599924
599974
599924
599926
599929
599924
599929
599911
599945
599928
599874
599929
599924
599941
599924
599929
599927
