600000
300000
400000
300000
400000
400000
8400
300000
500000
100000
100000
600000
100000
500000
200000
600000
500000
200000
200000
200000
400000
200000
100000
200000
200000
200000
100000
400000
100000
100000
100000
500000
300000
400000
400000
300000
75
100000
200000
400000
200000
600000
100000
200000
400000
100000
300000
75
200000
300000
600000
100000
200000
400000
200000
600000
600000
100000
300000
400000
200000
100000
100000
100000
200000
100000
600000
600000
100000
100000
100000
400000
100000
100000
200000
500000
100000
200000
300000
100000
200000
100000
100000
1950
1350
100000
4650
100000
4875
2700
100000
100000
200000
100000
100000
100000
6900
2025
100000
600000
100000
75
100000
2400
100000
100000
100000
1950
100000
100000
6225
100000
100000
8100
100000
100000
100000
7275
300000
100000
300000
100000
100000
100000
8850
300000
100000
5850
3000
100000
100000
600000
100000
600000
200000
200000
300000
500000
200000
200000
100000
100000
100000
100000
100000
9600
100000
100000
200000
75
100000
100000
300000
100000
300000
100000
500000
100000
100000
300000
400000
100000
600000
600000
200000
525
500000
300000
400000
100000
600000
600000
600000
100000
600000
300000
400000
600000
100000
400000
100000
100000
100000
100000
100000
100000
100000
400000
300000
300000
100000
300000
100000
400000
100000
200000
600000
400000
100000
200000
600000
