599892
29837
29820
29800
29843
29870
29821
29857
599892
29799
29819
29800
29838
29824
29800
599892
29804
29799
29811
29814
29816
29807
29847
29758
29732
29835
29804
29800
599885
29817
29842
599891
29800
29815
29834
29824
29799
29800
29800
29800
29799
29809
29899
29815
29803
29799
29833
599893
29816
29799
29799
29813
29799
29800
29799
29775
29799
599891
29800
29800
