=============================================================================================================== 
LARREA_VANILLA_LG_CONSENSUS_RATE.result	          <->	          LARREA_EPOCH_LG_CONSENSUS_RATE.result
=============================================================================================================== 

LARREA_VANILLA_LG_CONSENSUS_RATE.result mean: 14.05 
LARREA_EPOCH_LG_CONSENSUS_RATE.result mean: 13.92 

Observed difference of two means: -0.13 
31837 out of 100000 experiments had a difference of two means less than or equal to -0.13.
The chance of getting a difference of two means less than or equal to -0.13 is 0.31837.

=============================================================================================================== 
LARREA_VANILLA_LG_CONSENSUS_RATE.result	          <->	          AGUILERA_LG_CONSENSUS_RATE.result
=============================================================================================================== 

LARREA_VANILLA_LG_CONSENSUS_RATE.result mean: 14.05 
AGUILERA_LG_CONSENSUS_RATE.result mean: 14.51 

Observed difference of two means: 0.46 
6319 out of 100000 experiments had a difference of two means greater than or equal to 0.46.
The chance of getting a difference of two means greater than or equal to 0.46 is 0.06319.

=============================================================================================================== 
LARREA_VANILLA_LG_CONSENSUS_RATE.result	          <->	          CHEN_LG_CONSENSUS_RATE.result
=============================================================================================================== 

LARREA_VANILLA_LG_CONSENSUS_RATE.result mean: 14.05 
CHEN_LG_CONSENSUS_RATE.result mean: 14.47 

Observed difference of two means: 0.42 
2406 out of 100000 experiments had a difference of two means greater than or equal to 0.42.
The chance of getting a difference of two means greater than or equal to 0.42 is 0.02406.

=============================================================================================================== 
LARREA_EPOCH_LG_CONSENSUS_RATE.result	          <->	          AGUILERA_LG_CONSENSUS_RATE.result
=============================================================================================================== 

LARREA_EPOCH_LG_CONSENSUS_RATE.result mean: 13.92 
AGUILERA_LG_CONSENSUS_RATE.result mean: 14.51 

Observed difference of two means: 0.59 
5908 out of 100000 experiments had a difference of two means greater than or equal to 0.59.
The chance of getting a difference of two means greater than or equal to 0.59 is 0.05908.

=============================================================================================================== 
LARREA_EPOCH_LG_CONSENSUS_RATE.result	          <->	          CHEN_LG_CONSENSUS_RATE.result
=============================================================================================================== 

LARREA_EPOCH_LG_CONSENSUS_RATE.result mean: 13.92 
CHEN_LG_CONSENSUS_RATE.result mean: 14.47 

Observed difference of two means: 0.55 
4388 out of 100000 experiments had a difference of two means greater than or equal to 0.55.
The chance of getting a difference of two means greater than or equal to 0.55 is 0.04388.

=============================================================================================================== 
AGUILERA_LG_CONSENSUS_RATE.result	          <->	          CHEN_LG_CONSENSUS_RATE.result
=============================================================================================================== 

AGUILERA_LG_CONSENSUS_RATE.result mean: 14.51 
CHEN_LG_CONSENSUS_RATE.result mean: 14.47 

Observed difference of two means: -0.04 
43220 out of 100000 experiments had a difference of two means less than or equal to -0.04.
The chance of getting a difference of two means less than or equal to -0.04 is 0.4322.

=============================================================================================================== 
LARREA_VANILLA_TDm.result	          <->	          LARREA_EPOCH_TDm.result
=============================================================================================================== 

LARREA_VANILLA_TDm.result mean: 16.01 
LARREA_EPOCH_TDm.result mean: 16.34 

Observed difference of two means: 0.33 
30505 out of 100000 experiments had a difference of two means greater than or equal to 0.33.
The chance of getting a difference of two means greater than or equal to 0.33 is 0.30505.

=============================================================================================================== 
LARREA_VANILLA_TDm.result	          <->	          AGUILERA_TDm.result
=============================================================================================================== 

LARREA_VANILLA_TDm.result mean: 16.01 
AGUILERA_TDm.result mean: 16.12 

Observed difference of two means: 0.11 
42971 out of 100000 experiments had a difference of two means greater than or equal to 0.11.
The chance of getting a difference of two means greater than or equal to 0.11 is 0.42971.

=============================================================================================================== 
LARREA_VANILLA_TDm.result	          <->	          CHEN_TDm.result
=============================================================================================================== 

LARREA_VANILLA_TDm.result mean: 16.01 
CHEN_TDm.result mean: 84.64 

Observed difference of two means: 68.63 
0 out of 100000 experiments had a difference of two means greater than or equal to 68.63.
The chance of getting a difference of two means greater than or equal to 68.63 is 0.0.

=============================================================================================================== 
LARREA_EPOCH_TDm.result	          <->	          AGUILERA_TDm.result
=============================================================================================================== 

LARREA_EPOCH_TDm.result mean: 16.34 
AGUILERA_TDm.result mean: 16.12 

Observed difference of two means: -0.22 
36621 out of 100000 experiments had a difference of two means less than or equal to -0.22.
The chance of getting a difference of two means less than or equal to -0.22 is 0.36621.

=============================================================================================================== 
LARREA_EPOCH_TDm.result	          <->	          CHEN_TDm.result
=============================================================================================================== 

LARREA_EPOCH_TDm.result mean: 16.34 
CHEN_TDm.result mean: 84.64 

Observed difference of two means: 68.30 
0 out of 100000 experiments had a difference of two means greater than or equal to 68.30.
The chance of getting a difference of two means greater than or equal to 68.30 is 0.0.

=============================================================================================================== 
AGUILERA_TDm.result	          <->	          CHEN_TDm.result
=============================================================================================================== 

AGUILERA_TDm.result mean: 16.12 
CHEN_TDm.result mean: 84.64 

Observed difference of two means: 68.52 
0 out of 100000 experiments had a difference of two means greater than or equal to 68.52.
The chance of getting a difference of two means greater than or equal to 68.52 is 0.0.

=============================================================================================================== 
LARREA_VANILLA_TEm.result	          <->	          LARREA_EPOCH_TEm.result
=============================================================================================================== 

LARREA_VANILLA_TEm.result mean: 21.72 
LARREA_EPOCH_TEm.result mean: 26.13 

Observed difference of two means: 4.41 
9495 out of 100000 experiments had a difference of two means greater than or equal to 4.41.
The chance of getting a difference of two means greater than or equal to 4.41 is 0.09495.

=============================================================================================================== 
LARREA_VANILLA_TEm.result	          <->	          AGUILERA_TEm.result
=============================================================================================================== 

LARREA_VANILLA_TEm.result mean: 21.72 
AGUILERA_TEm.result mean: 18.90 

Observed difference of two means: -2.82 
10309 out of 100000 experiments had a difference of two means less than or equal to -2.82.
The chance of getting a difference of two means less than or equal to -2.82 is 0.10309.

=============================================================================================================== 
LARREA_VANILLA_TEm.result	          <->	          CHEN_TEm.result
=============================================================================================================== 

LARREA_VANILLA_TEm.result mean: 21.72 
CHEN_TEm.result mean: 84.64 

Observed difference of two means: 62.92 
0 out of 100000 experiments had a difference of two means greater than or equal to 62.92.
The chance of getting a difference of two means greater than or equal to 62.92 is 0.0.

=============================================================================================================== 
LARREA_EPOCH_TEm.result	          <->	          AGUILERA_TEm.result
=============================================================================================================== 

LARREA_EPOCH_TEm.result mean: 26.13 
AGUILERA_TEm.result mean: 18.90 

Observed difference of two means: -7.23 
2102 out of 100000 experiments had a difference of two means less than or equal to -7.23.
The chance of getting a difference of two means less than or equal to -7.23 is 0.02102.

=============================================================================================================== 
LARREA_EPOCH_TEm.result	          <->	          CHEN_TEm.result
=============================================================================================================== 

LARREA_EPOCH_TEm.result mean: 26.13 
CHEN_TEm.result mean: 84.64 

Observed difference of two means: 58.51 
0 out of 100000 experiments had a difference of two means greater than or equal to 58.51.
The chance of getting a difference of two means greater than or equal to 58.51 is 0.0.

=============================================================================================================== 
AGUILERA_TEm.result	          <->	          CHEN_TEm.result
=============================================================================================================== 

AGUILERA_TEm.result mean: 18.90 
CHEN_TEm.result mean: 84.64 

Observed difference of two means: 65.74 
0 out of 100000 experiments had a difference of two means greater than or equal to 65.74.
The chance of getting a difference of two means greater than or equal to 65.74 is 0.0.

