=============================================================================================================== 
LARREA_VANILLA_LG_CONSENSUS_RATE.result	          <->	          LARREA_EPOCH_LG_CONSENSUS_RATE.result
=============================================================================================================== 

LARREA_VANILLA_LG_CONSENSUS_RATE.result mean: 14.56 
LARREA_EPOCH_LG_CONSENSUS_RATE.result mean: 14.59 

Observed difference of two means: 0.04 
33842 out of 100000 experiments had a difference of two means greater than or equal to 0.04.
The chance of getting a difference of two means greater than or equal to 0.04 is 0.33842.

=============================================================================================================== 
LARREA_VANILLA_LG_CONSENSUS_RATE.result	          <->	          AGUILERA_LG_CONSENSUS_RATE.result
=============================================================================================================== 

LARREA_VANILLA_LG_CONSENSUS_RATE.result mean: 14.56 
AGUILERA_LG_CONSENSUS_RATE.result mean: 14.81 

Observed difference of two means: 0.26 
323 out of 100000 experiments had a difference of two means greater than or equal to 0.26.
The chance of getting a difference of two means greater than or equal to 0.26 is 0.00323.

=============================================================================================================== 
LARREA_VANILLA_LG_CONSENSUS_RATE.result	          <->	          CHEN_LG_CONSENSUS_RATE.result
=============================================================================================================== 

LARREA_VANILLA_LG_CONSENSUS_RATE.result mean: 14.56 
CHEN_LG_CONSENSUS_RATE.result mean: 14.61 

Observed difference of two means: 0.05 
26431 out of 100000 experiments had a difference of two means greater than or equal to 0.05.
The chance of getting a difference of two means greater than or equal to 0.05 is 0.26431.

=============================================================================================================== 
LARREA_EPOCH_LG_CONSENSUS_RATE.result	          <->	          AGUILERA_LG_CONSENSUS_RATE.result
=============================================================================================================== 

LARREA_EPOCH_LG_CONSENSUS_RATE.result mean: 14.59 
AGUILERA_LG_CONSENSUS_RATE.result mean: 14.81 

Observed difference of two means: 0.22 
198 out of 100000 experiments had a difference of two means greater than or equal to 0.22.
The chance of getting a difference of two means greater than or equal to 0.22 is 0.00198.

=============================================================================================================== 
LARREA_EPOCH_LG_CONSENSUS_RATE.result	          <->	          CHEN_LG_CONSENSUS_RATE.result
=============================================================================================================== 

LARREA_EPOCH_LG_CONSENSUS_RATE.result mean: 14.59 
CHEN_LG_CONSENSUS_RATE.result mean: 14.61 

Observed difference of two means: 0.02 
35251 out of 100000 experiments had a difference of two means greater than or equal to 0.02.
The chance of getting a difference of two means greater than or equal to 0.02 is 0.35251.

=============================================================================================================== 
AGUILERA_LG_CONSENSUS_RATE.result	          <->	          CHEN_LG_CONSENSUS_RATE.result
=============================================================================================================== 

AGUILERA_LG_CONSENSUS_RATE.result mean: 14.81 
CHEN_LG_CONSENSUS_RATE.result mean: 14.61 

Observed difference of two means: -0.20 
346 out of 100000 experiments had a difference of two means less than or equal to -0.20.
The chance of getting a difference of two means less than or equal to -0.20 is 0.00346.

=============================================================================================================== 
LARREA_VANILLA_TDm.result	          <->	          LARREA_EPOCH_TDm.result
=============================================================================================================== 

LARREA_VANILLA_TDm.result mean: 49.76 
LARREA_EPOCH_TDm.result mean: 50.93 

Observed difference of two means: 1.18 
33061 out of 100000 experiments had a difference of two means greater than or equal to 1.18.
The chance of getting a difference of two means greater than or equal to 1.18 is 0.33061.

=============================================================================================================== 
LARREA_VANILLA_TDm.result	          <->	          AGUILERA_TDm.result
=============================================================================================================== 

LARREA_VANILLA_TDm.result mean: 49.76 
AGUILERA_TDm.result mean: 46.89 

Observed difference of two means: -2.87 
16689 out of 100000 experiments had a difference of two means less than or equal to -2.87.
The chance of getting a difference of two means less than or equal to -2.87 is 0.16689.

=============================================================================================================== 
LARREA_VANILLA_TDm.result	          <->	          CHEN_TDm.result
=============================================================================================================== 

LARREA_VANILLA_TDm.result mean: 49.76 
CHEN_TDm.result mean: 111.69 

Observed difference of two means: 61.93 
0 out of 100000 experiments had a difference of two means greater than or equal to 61.93.
The chance of getting a difference of two means greater than or equal to 61.93 is 0.0.

=============================================================================================================== 
LARREA_EPOCH_TDm.result	          <->	          AGUILERA_TDm.result
=============================================================================================================== 

LARREA_EPOCH_TDm.result mean: 50.93 
AGUILERA_TDm.result mean: 46.89 

Observed difference of two means: -4.04 
7093 out of 100000 experiments had a difference of two means less than or equal to -4.04.
The chance of getting a difference of two means less than or equal to -4.04 is 0.07093.

=============================================================================================================== 
LARREA_EPOCH_TDm.result	          <->	          CHEN_TDm.result
=============================================================================================================== 

LARREA_EPOCH_TDm.result mean: 50.93 
CHEN_TDm.result mean: 111.69 

Observed difference of two means: 60.76 
0 out of 100000 experiments had a difference of two means greater than or equal to 60.76.
The chance of getting a difference of two means greater than or equal to 60.76 is 0.0.

=============================================================================================================== 
AGUILERA_TDm.result	          <->	          CHEN_TDm.result
=============================================================================================================== 

AGUILERA_TDm.result mean: 46.89 
CHEN_TDm.result mean: 111.69 

Observed difference of two means: 64.80 
0 out of 100000 experiments had a difference of two means greater than or equal to 64.80.
The chance of getting a difference of two means greater than or equal to 64.80 is 0.0.

=============================================================================================================== 
LARREA_VANILLA_TEm.result	          <->	          LARREA_EPOCH_TEm.result
=============================================================================================================== 

LARREA_VANILLA_TEm.result mean: 69.78 
LARREA_EPOCH_TEm.result mean: 69.43 

Observed difference of two means: -0.34 
45590 out of 100000 experiments had a difference of two means less than or equal to -0.34.
The chance of getting a difference of two means less than or equal to -0.34 is 0.4559.

=============================================================================================================== 
LARREA_VANILLA_TEm.result	          <->	          AGUILERA_TEm.result
=============================================================================================================== 

LARREA_VANILLA_TEm.result mean: 69.78 
AGUILERA_TEm.result mean: 46.89 

Observed difference of two means: -22.89 
0 out of 100000 experiments had a difference of two means less than or equal to -22.89.
The chance of getting a difference of two means less than or equal to -22.89 is 0.0.

=============================================================================================================== 
LARREA_VANILLA_TEm.result	          <->	          CHEN_TEm.result
=============================================================================================================== 

LARREA_VANILLA_TEm.result mean: 69.78 
CHEN_TEm.result mean: 111.69 

Observed difference of two means: 41.91 
0 out of 100000 experiments had a difference of two means greater than or equal to 41.91.
The chance of getting a difference of two means greater than or equal to 41.91 is 0.0.

=============================================================================================================== 
LARREA_EPOCH_TEm.result	          <->	          AGUILERA_TEm.result
=============================================================================================================== 

LARREA_EPOCH_TEm.result mean: 69.43 
AGUILERA_TEm.result mean: 46.89 

Observed difference of two means: -22.54 
0 out of 100000 experiments had a difference of two means less than or equal to -22.54.
The chance of getting a difference of two means less than or equal to -22.54 is 0.0.

=============================================================================================================== 
LARREA_EPOCH_TEm.result	          <->	          CHEN_TEm.result
=============================================================================================================== 

LARREA_EPOCH_TEm.result mean: 69.43 
CHEN_TEm.result mean: 111.69 

Observed difference of two means: 42.26 
0 out of 100000 experiments had a difference of two means greater than or equal to 42.26.
The chance of getting a difference of two means greater than or equal to 42.26 is 0.0.

=============================================================================================================== 
AGUILERA_TEm.result	          <->	          CHEN_TEm.result
=============================================================================================================== 

AGUILERA_TEm.result mean: 46.89 
CHEN_TEm.result mean: 111.69 

Observed difference of two means: 64.80 
0 out of 100000 experiments had a difference of two means greater than or equal to 64.80.
The chance of getting a difference of two means greater than or equal to 64.80 is 0.0.

