=============================================================================================================== 
LARREA_VANILLA_LG_CONSENSUS_RATE.result	          <->	          LARREA_EPOCH_LG_CONSENSUS_RATE.result
=============================================================================================================== 

LARREA_VANILLA_LG_CONSENSUS_RATE.result mean: 14.31 
LARREA_EPOCH_LG_CONSENSUS_RATE.result mean: 14.08 

Observed difference of two means: -0.23 
20778 out of 100000 experiments had a difference of two means less than or equal to -0.23.
The chance of getting a difference of two means less than or equal to -0.23 is 0.20778.

=============================================================================================================== 
LARREA_VANILLA_LG_CONSENSUS_RATE.result	          <->	          AGUILERA_LG_CONSENSUS_RATE.result
=============================================================================================================== 

LARREA_VANILLA_LG_CONSENSUS_RATE.result mean: 14.31 
AGUILERA_LG_CONSENSUS_RATE.result mean: 14.15 

Observed difference of two means: -0.16 
47981 out of 100000 experiments had a difference of two means less than or equal to -0.16.
The chance of getting a difference of two means less than or equal to -0.16 is 0.47981.

=============================================================================================================== 
LARREA_VANILLA_LG_CONSENSUS_RATE.result	          <->	          CHEN_LG_CONSENSUS_RATE.result
=============================================================================================================== 

LARREA_VANILLA_LG_CONSENSUS_RATE.result mean: 14.31 
CHEN_LG_CONSENSUS_RATE.result mean: 14.28 

Observed difference of two means: -0.03 
40800 out of 100000 experiments had a difference of two means less than or equal to -0.03.
The chance of getting a difference of two means less than or equal to -0.03 is 0.408.

=============================================================================================================== 
LARREA_EPOCH_LG_CONSENSUS_RATE.result	          <->	          AGUILERA_LG_CONSENSUS_RATE.result
=============================================================================================================== 

LARREA_EPOCH_LG_CONSENSUS_RATE.result mean: 14.08 
AGUILERA_LG_CONSENSUS_RATE.result mean: 14.15 

Observed difference of two means: 0.07 
43179 out of 100000 experiments had a difference of two means greater than or equal to 0.07.
The chance of getting a difference of two means greater than or equal to 0.07 is 0.43179.

=============================================================================================================== 
LARREA_EPOCH_LG_CONSENSUS_RATE.result	          <->	          CHEN_LG_CONSENSUS_RATE.result
=============================================================================================================== 

LARREA_EPOCH_LG_CONSENSUS_RATE.result mean: 14.08 
CHEN_LG_CONSENSUS_RATE.result mean: 14.28 

Observed difference of two means: 0.20 
23493 out of 100000 experiments had a difference of two means greater than or equal to 0.20.
The chance of getting a difference of two means greater than or equal to 0.20 is 0.23493.

=============================================================================================================== 
AGUILERA_LG_CONSENSUS_RATE.result	          <->	          CHEN_LG_CONSENSUS_RATE.result
=============================================================================================================== 

AGUILERA_LG_CONSENSUS_RATE.result mean: 14.15 
CHEN_LG_CONSENSUS_RATE.result mean: 14.28 

Observed difference of two means: 0.13 
46411 out of 100000 experiments had a difference of two means greater than or equal to 0.13.
The chance of getting a difference of two means greater than or equal to 0.13 is 0.46411.

=============================================================================================================== 
LARREA_VANILLA_TDm.result	          <->	          LARREA_EPOCH_TDm.result
=============================================================================================================== 

LARREA_VANILLA_TDm.result mean: 8.45 
LARREA_EPOCH_TDm.result mean: 8.15 

Observed difference of two means: -0.30 
16031 out of 100000 experiments had a difference of two means less than or equal to -0.30.
The chance of getting a difference of two means less than or equal to -0.30 is 0.16031.

=============================================================================================================== 
LARREA_VANILLA_TDm.result	          <->	          AGUILERA_TDm.result
=============================================================================================================== 

LARREA_VANILLA_TDm.result mean: 8.45 
AGUILERA_TDm.result mean: 7.22 

Observed difference of two means: -1.23 
10 out of 100000 experiments had a difference of two means less than or equal to -1.23.
The chance of getting a difference of two means less than or equal to -1.23 is 0.0001.

=============================================================================================================== 
LARREA_VANILLA_TDm.result	          <->	          CHEN_TDm.result
=============================================================================================================== 

LARREA_VANILLA_TDm.result mean: 8.45 
CHEN_TDm.result mean: 80.90 

Observed difference of two means: 72.45 
0 out of 100000 experiments had a difference of two means greater than or equal to 72.45.
The chance of getting a difference of two means greater than or equal to 72.45 is 0.0.

=============================================================================================================== 
LARREA_EPOCH_TDm.result	          <->	          AGUILERA_TDm.result
=============================================================================================================== 

LARREA_EPOCH_TDm.result mean: 8.15 
AGUILERA_TDm.result mean: 7.22 

Observed difference of two means: -0.93 
269 out of 100000 experiments had a difference of two means less than or equal to -0.93.
The chance of getting a difference of two means less than or equal to -0.93 is 0.00269.

=============================================================================================================== 
LARREA_EPOCH_TDm.result	          <->	          CHEN_TDm.result
=============================================================================================================== 

LARREA_EPOCH_TDm.result mean: 8.15 
CHEN_TDm.result mean: 80.90 

Observed difference of two means: 72.76 
0 out of 100000 experiments had a difference of two means greater than or equal to 72.76.
The chance of getting a difference of two means greater than or equal to 72.76 is 0.0.

=============================================================================================================== 
AGUILERA_TDm.result	          <->	          CHEN_TDm.result
=============================================================================================================== 

AGUILERA_TDm.result mean: 7.22 
CHEN_TDm.result mean: 80.90 

Observed difference of two means: 73.68 
0 out of 100000 experiments had a difference of two means greater than or equal to 73.68.
The chance of getting a difference of two means greater than or equal to 73.68 is 0.0.

=============================================================================================================== 
LARREA_VANILLA_TEm.result	          <->	          LARREA_EPOCH_TEm.result
=============================================================================================================== 

LARREA_VANILLA_TEm.result mean: 13.13 
LARREA_EPOCH_TEm.result mean: 16.93 

Observed difference of two means: 3.80 
18114 out of 100000 experiments had a difference of two means greater than or equal to 3.80.
The chance of getting a difference of two means greater than or equal to 3.80 is 0.18114.

=============================================================================================================== 
LARREA_VANILLA_TEm.result	          <->	          AGUILERA_TEm.result
=============================================================================================================== 

LARREA_VANILLA_TEm.result mean: 13.13 
AGUILERA_TEm.result mean: 14.63 

Observed difference of two means: 1.50 
36298 out of 100000 experiments had a difference of two means greater than or equal to 1.50.
The chance of getting a difference of two means greater than or equal to 1.50 is 0.36298.

=============================================================================================================== 
LARREA_VANILLA_TEm.result	          <->	          CHEN_TEm.result
=============================================================================================================== 

LARREA_VANILLA_TEm.result mean: 13.13 
CHEN_TEm.result mean: 80.90 

Observed difference of two means: 67.77 
0 out of 100000 experiments had a difference of two means greater than or equal to 67.77.
The chance of getting a difference of two means greater than or equal to 67.77 is 0.0.

=============================================================================================================== 
LARREA_EPOCH_TEm.result	          <->	          AGUILERA_TEm.result
=============================================================================================================== 

LARREA_EPOCH_TEm.result mean: 16.93 
AGUILERA_TEm.result mean: 14.63 

Observed difference of two means: -2.30 
31851 out of 100000 experiments had a difference of two means less than or equal to -2.30.
The chance of getting a difference of two means less than or equal to -2.30 is 0.31851.

=============================================================================================================== 
LARREA_EPOCH_TEm.result	          <->	          CHEN_TEm.result
=============================================================================================================== 

LARREA_EPOCH_TEm.result mean: 16.93 
CHEN_TEm.result mean: 80.90 

Observed difference of two means: 63.97 
0 out of 100000 experiments had a difference of two means greater than or equal to 63.97.
The chance of getting a difference of two means greater than or equal to 63.97 is 0.0.

=============================================================================================================== 
AGUILERA_TEm.result	          <->	          CHEN_TEm.result
=============================================================================================================== 

AGUILERA_TEm.result mean: 14.63 
CHEN_TEm.result mean: 80.90 

Observed difference of two means: 66.27 
0 out of 100000 experiments had a difference of two means greater than or equal to 66.27.
The chance of getting a difference of two means greater than or equal to 66.27 is 0.0.

