=============================================================================================================== 
LARREA_VANILLA_LG_CONSENSUS_RATE.result	          <->	          LARREA_EPOCH_LG_CONSENSUS_RATE.result
=============================================================================================================== 

LARREA_VANILLA_LG_CONSENSUS_RATE.result mean: 11.63 
LARREA_EPOCH_LG_CONSENSUS_RATE.result mean: 12.31 

Observed difference of two means: 0.68 
21323 out of 100000 experiments had a difference of two means greater than or equal to 0.68.
The chance of getting a difference of two means greater than or equal to 0.68 is 0.21323.

=============================================================================================================== 
LARREA_VANILLA_LG_CONSENSUS_RATE.result	          <->	          AGUILERA_LG_CONSENSUS_RATE.result
=============================================================================================================== 

LARREA_VANILLA_LG_CONSENSUS_RATE.result mean: 11.63 
AGUILERA_LG_CONSENSUS_RATE.result mean: 10.36 

Observed difference of two means: -1.27 
9841 out of 100000 experiments had a difference of two means less than or equal to -1.27.
The chance of getting a difference of two means less than or equal to -1.27 is 0.09841.

=============================================================================================================== 
LARREA_VANILLA_LG_CONSENSUS_RATE.result	          <->	          CHEN_LG_CONSENSUS_RATE.result
=============================================================================================================== 

LARREA_VANILLA_LG_CONSENSUS_RATE.result mean: 11.63 
CHEN_LG_CONSENSUS_RATE.result mean: 15.03 

Observed difference of two means: 3.40 
404 out of 100000 experiments had a difference of two means greater than or equal to 3.40.
The chance of getting a difference of two means greater than or equal to 3.40 is 0.00404.

=============================================================================================================== 
LARREA_EPOCH_LG_CONSENSUS_RATE.result	          <->	          AGUILERA_LG_CONSENSUS_RATE.result
=============================================================================================================== 

LARREA_EPOCH_LG_CONSENSUS_RATE.result mean: 12.31 
AGUILERA_LG_CONSENSUS_RATE.result mean: 10.36 

Observed difference of two means: -1.95 
2413 out of 100000 experiments had a difference of two means less than or equal to -1.95.
The chance of getting a difference of two means less than or equal to -1.95 is 0.02413.

=============================================================================================================== 
LARREA_EPOCH_LG_CONSENSUS_RATE.result	          <->	          CHEN_LG_CONSENSUS_RATE.result
=============================================================================================================== 

LARREA_EPOCH_LG_CONSENSUS_RATE.result mean: 12.31 
CHEN_LG_CONSENSUS_RATE.result mean: 15.03 

Observed difference of two means: 2.72 
442 out of 100000 experiments had a difference of two means greater than or equal to 2.72.
The chance of getting a difference of two means greater than or equal to 2.72 is 0.00442.

=============================================================================================================== 
AGUILERA_LG_CONSENSUS_RATE.result	          <->	          CHEN_LG_CONSENSUS_RATE.result
=============================================================================================================== 

AGUILERA_LG_CONSENSUS_RATE.result mean: 10.36 
CHEN_LG_CONSENSUS_RATE.result mean: 15.03 

Observed difference of two means: 4.67 
369 out of 100000 experiments had a difference of two means greater than or equal to 4.67.
The chance of getting a difference of two means greater than or equal to 4.67 is 0.00369.

=============================================================================================================== 
LARREA_VANILLA_TDm.result	          <->	          LARREA_EPOCH_TDm.result
=============================================================================================================== 

LARREA_VANILLA_TDm.result mean: 7.98 
LARREA_EPOCH_TDm.result mean: 8.07 

Observed difference of two means: 0.09 
45134 out of 100000 experiments had a difference of two means greater than or equal to 0.09.
The chance of getting a difference of two means greater than or equal to 0.09 is 0.45134.

=============================================================================================================== 
LARREA_VANILLA_TDm.result	          <->	          AGUILERA_TDm.result
=============================================================================================================== 

LARREA_VANILLA_TDm.result mean: 7.98 
AGUILERA_TDm.result mean: 7.64 

Observed difference of two means: -0.33 
29141 out of 100000 experiments had a difference of two means less than or equal to -0.33.
The chance of getting a difference of two means less than or equal to -0.33 is 0.29141.

=============================================================================================================== 
LARREA_VANILLA_TDm.result	          <->	          CHEN_TDm.result
=============================================================================================================== 

LARREA_VANILLA_TDm.result mean: 7.98 
CHEN_TDm.result mean: 77.82 

Observed difference of two means: 69.84 
0 out of 100000 experiments had a difference of two means greater than or equal to 69.84.
The chance of getting a difference of two means greater than or equal to 69.84 is 0.0.

=============================================================================================================== 
LARREA_EPOCH_TDm.result	          <->	          AGUILERA_TDm.result
=============================================================================================================== 

LARREA_EPOCH_TDm.result mean: 8.07 
AGUILERA_TDm.result mean: 7.64 

Observed difference of two means: -0.42 
21191 out of 100000 experiments had a difference of two means less than or equal to -0.42.
The chance of getting a difference of two means less than or equal to -0.42 is 0.21191.

=============================================================================================================== 
LARREA_EPOCH_TDm.result	          <->	          CHEN_TDm.result
=============================================================================================================== 

LARREA_EPOCH_TDm.result mean: 8.07 
CHEN_TDm.result mean: 77.82 

Observed difference of two means: 69.76 
0 out of 100000 experiments had a difference of two means greater than or equal to 69.76.
The chance of getting a difference of two means greater than or equal to 69.76 is 0.0.

=============================================================================================================== 
AGUILERA_TDm.result	          <->	          CHEN_TDm.result
=============================================================================================================== 

AGUILERA_TDm.result mean: 7.64 
CHEN_TDm.result mean: 77.82 

Observed difference of two means: 70.18 
0 out of 100000 experiments had a difference of two means greater than or equal to 70.18.
The chance of getting a difference of two means greater than or equal to 70.18 is 0.0.

=============================================================================================================== 
LARREA_VANILLA_TEm.result	          <->	          LARREA_EPOCH_TEm.result
=============================================================================================================== 

LARREA_VANILLA_TEm.result mean: 10.93 
LARREA_EPOCH_TEm.result mean: 10.71 

Observed difference of two means: -0.22 
37214 out of 100000 experiments had a difference of two means less than or equal to -0.22.
The chance of getting a difference of two means less than or equal to -0.22 is 0.37214.

=============================================================================================================== 
LARREA_VANILLA_TEm.result	          <->	          AGUILERA_TEm.result
=============================================================================================================== 

LARREA_VANILLA_TEm.result mean: 10.93 
AGUILERA_TEm.result mean: 16.49 

Observed difference of two means: 5.56 
49945 out of 100000 experiments had a difference of two means greater than or equal to 5.56.
The chance of getting a difference of two means greater than or equal to 5.56 is 0.49945.

=============================================================================================================== 
LARREA_VANILLA_TEm.result	          <->	          CHEN_TEm.result
=============================================================================================================== 

LARREA_VANILLA_TEm.result mean: 10.93 
CHEN_TEm.result mean: 78.00 

Observed difference of two means: 67.07 
0 out of 100000 experiments had a difference of two means greater than or equal to 67.07.
The chance of getting a difference of two means greater than or equal to 67.07 is 0.0.

=============================================================================================================== 
LARREA_EPOCH_TEm.result	          <->	          AGUILERA_TEm.result
=============================================================================================================== 

LARREA_EPOCH_TEm.result mean: 10.71 
AGUILERA_TEm.result mean: 16.49 

Observed difference of two means: 5.78 
49909 out of 100000 experiments had a difference of two means greater than or equal to 5.78.
The chance of getting a difference of two means greater than or equal to 5.78 is 0.49909.

=============================================================================================================== 
LARREA_EPOCH_TEm.result	          <->	          CHEN_TEm.result
=============================================================================================================== 

LARREA_EPOCH_TEm.result mean: 10.71 
CHEN_TEm.result mean: 78.00 

Observed difference of two means: 67.29 
0 out of 100000 experiments had a difference of two means greater than or equal to 67.29.
The chance of getting a difference of two means greater than or equal to 67.29 is 0.0.

=============================================================================================================== 
AGUILERA_TEm.result	          <->	          CHEN_TEm.result
=============================================================================================================== 

AGUILERA_TEm.result mean: 16.49 
CHEN_TEm.result mean: 78.00 

Observed difference of two means: 61.51 
0 out of 100000 experiments had a difference of two means greater than or equal to 61.51.
The chance of getting a difference of two means greater than or equal to 61.51 is 0.0.

