=============================================================================================================== 
LARREA_VANILLA_LG_CONSENSUS_RATE.result	          <->	          LARREA_EPOCH_LG_CONSENSUS_RATE.result
=============================================================================================================== 

LARREA_VANILLA_LG_CONSENSUS_RATE.result mean: 14.26 
LARREA_EPOCH_LG_CONSENSUS_RATE.result mean: 12.91 

Observed difference of two means: -1.35 
6144 out of 100000 experiments had a difference of two means less than or equal to -1.35.
The chance of getting a difference of two means less than or equal to -1.35 is 0.06144.

=============================================================================================================== 
LARREA_VANILLA_LG_CONSENSUS_RATE.result	          <->	          AGUILERA_LG_CONSENSUS_RATE.result
=============================================================================================================== 

LARREA_VANILLA_LG_CONSENSUS_RATE.result mean: 14.26 
AGUILERA_LG_CONSENSUS_RATE.result mean: 14.66 

Observed difference of two means: 0.41 
1749 out of 100000 experiments had a difference of two means greater than or equal to 0.41.
The chance of getting a difference of two means greater than or equal to 0.41 is 0.01749.

=============================================================================================================== 
LARREA_VANILLA_LG_CONSENSUS_RATE.result	          <->	          CHEN_LG_CONSENSUS_RATE.result
=============================================================================================================== 

LARREA_VANILLA_LG_CONSENSUS_RATE.result mean: 14.26 
CHEN_LG_CONSENSUS_RATE.result mean: 14.48 

Observed difference of two means: 0.22 
19874 out of 100000 experiments had a difference of two means greater than or equal to 0.22.
The chance of getting a difference of two means greater than or equal to 0.22 is 0.19874.

=============================================================================================================== 
LARREA_EPOCH_LG_CONSENSUS_RATE.result	          <->	          AGUILERA_LG_CONSENSUS_RATE.result
=============================================================================================================== 

LARREA_EPOCH_LG_CONSENSUS_RATE.result mean: 12.91 
AGUILERA_LG_CONSENSUS_RATE.result mean: 14.66 

Observed difference of two means: 1.75 
146 out of 100000 experiments had a difference of two means greater than or equal to 1.75.
The chance of getting a difference of two means greater than or equal to 1.75 is 0.00146.

=============================================================================================================== 
LARREA_EPOCH_LG_CONSENSUS_RATE.result	          <->	          CHEN_LG_CONSENSUS_RATE.result
=============================================================================================================== 

LARREA_EPOCH_LG_CONSENSUS_RATE.result mean: 12.91 
CHEN_LG_CONSENSUS_RATE.result mean: 14.48 

Observed difference of two means: 1.56 
764 out of 100000 experiments had a difference of two means greater than or equal to 1.56.
The chance of getting a difference of two means greater than or equal to 1.56 is 0.00764.

=============================================================================================================== 
AGUILERA_LG_CONSENSUS_RATE.result	          <->	          CHEN_LG_CONSENSUS_RATE.result
=============================================================================================================== 

AGUILERA_LG_CONSENSUS_RATE.result mean: 14.66 
CHEN_LG_CONSENSUS_RATE.result mean: 14.48 

Observed difference of two means: -0.19 
1340 out of 100000 experiments had a difference of two means less than or equal to -0.19.
The chance of getting a difference of two means less than or equal to -0.19 is 0.0134.

=============================================================================================================== 
LARREA_VANILLA_TDm.result	          <->	          LARREA_EPOCH_TDm.result
=============================================================================================================== 

LARREA_VANILLA_TDm.result mean: 3.84 
LARREA_EPOCH_TDm.result mean: 3.91 

Observed difference of two means: 0.07 
40464 out of 100000 experiments had a difference of two means greater than or equal to 0.07.
The chance of getting a difference of two means greater than or equal to 0.07 is 0.40464.

=============================================================================================================== 
LARREA_VANILLA_TDm.result	          <->	          AGUILERA_TDm.result
=============================================================================================================== 

LARREA_VANILLA_TDm.result mean: 3.84 
AGUILERA_TDm.result mean: 3.86 

Observed difference of two means: 0.01 
49997 out of 100000 experiments had a difference of two means greater than or equal to 0.01.
The chance of getting a difference of two means greater than or equal to 0.01 is 0.49997.

=============================================================================================================== 
LARREA_VANILLA_TDm.result	          <->	          CHEN_TDm.result
=============================================================================================================== 

LARREA_VANILLA_TDm.result mean: 3.84 
CHEN_TDm.result mean: 76.16 

Observed difference of two means: 72.31 
0 out of 100000 experiments had a difference of two means greater than or equal to 72.31.
The chance of getting a difference of two means greater than or equal to 72.31 is 0.0.

=============================================================================================================== 
LARREA_EPOCH_TDm.result	          <->	          AGUILERA_TDm.result
=============================================================================================================== 

LARREA_EPOCH_TDm.result mean: 3.91 
AGUILERA_TDm.result mean: 3.86 

Observed difference of two means: -0.06 
42212 out of 100000 experiments had a difference of two means less than or equal to -0.06.
The chance of getting a difference of two means less than or equal to -0.06 is 0.42212.

=============================================================================================================== 
LARREA_EPOCH_TDm.result	          <->	          CHEN_TDm.result
=============================================================================================================== 

LARREA_EPOCH_TDm.result mean: 3.91 
CHEN_TDm.result mean: 76.16 

Observed difference of two means: 72.24 
0 out of 100000 experiments had a difference of two means greater than or equal to 72.24.
The chance of getting a difference of two means greater than or equal to 72.24 is 0.0.

=============================================================================================================== 
AGUILERA_TDm.result	          <->	          CHEN_TDm.result
=============================================================================================================== 

AGUILERA_TDm.result mean: 3.86 
CHEN_TDm.result mean: 76.16 

Observed difference of two means: 72.30 
0 out of 100000 experiments had a difference of two means greater than or equal to 72.30.
The chance of getting a difference of two means greater than or equal to 72.30 is 0.0.

=============================================================================================================== 
LARREA_VANILLA_TEm.result	          <->	          LARREA_EPOCH_TEm.result
=============================================================================================================== 

LARREA_VANILLA_TEm.result mean: 6.72 
LARREA_EPOCH_TEm.result mean: 9.23 

Observed difference of two means: 2.51 
32360 out of 100000 experiments had a difference of two means greater than or equal to 2.51.
The chance of getting a difference of two means greater than or equal to 2.51 is 0.3236.

=============================================================================================================== 
LARREA_VANILLA_TEm.result	          <->	          AGUILERA_TEm.result
=============================================================================================================== 

LARREA_VANILLA_TEm.result mean: 6.72 
AGUILERA_TEm.result mean: 8.77 

Observed difference of two means: 2.04 
49672 out of 100000 experiments had a difference of two means greater than or equal to 2.04.
The chance of getting a difference of two means greater than or equal to 2.04 is 0.49672.

=============================================================================================================== 
LARREA_VANILLA_TEm.result	          <->	          CHEN_TEm.result
=============================================================================================================== 

LARREA_VANILLA_TEm.result mean: 6.72 
CHEN_TEm.result mean: 76.20 

Observed difference of two means: 69.48 
0 out of 100000 experiments had a difference of two means greater than or equal to 69.48.
The chance of getting a difference of two means greater than or equal to 69.48 is 0.0.

=============================================================================================================== 
LARREA_EPOCH_TEm.result	          <->	          AGUILERA_TEm.result
=============================================================================================================== 

LARREA_EPOCH_TEm.result mean: 9.23 
AGUILERA_TEm.result mean: 8.77 

Observed difference of two means: -0.47 
38472 out of 100000 experiments had a difference of two means less than or equal to -0.47.
The chance of getting a difference of two means less than or equal to -0.47 is 0.38472.

=============================================================================================================== 
LARREA_EPOCH_TEm.result	          <->	          CHEN_TEm.result
=============================================================================================================== 

LARREA_EPOCH_TEm.result mean: 9.23 
CHEN_TEm.result mean: 76.20 

Observed difference of two means: 66.97 
0 out of 100000 experiments had a difference of two means greater than or equal to 66.97.
The chance of getting a difference of two means greater than or equal to 66.97 is 0.0.

=============================================================================================================== 
AGUILERA_TEm.result	          <->	          CHEN_TEm.result
=============================================================================================================== 

AGUILERA_TEm.result mean: 8.77 
CHEN_TEm.result mean: 76.20 

Observed difference of two means: 67.43 
0 out of 100000 experiments had a difference of two means greater than or equal to 67.43.
The chance of getting a difference of two means greater than or equal to 67.43 is 0.0.

