=============================================================================================================== 
LARREA_VANILLA_LG_CONSENSUS_RATE.result	          <->	          LARREA_EPOCH_LG_CONSENSUS_RATE.result
=============================================================================================================== 

LARREA_VANILLA_LG_CONSENSUS_RATE.result mean: 14.39 
LARREA_EPOCH_LG_CONSENSUS_RATE.result mean: 14.51 

Observed difference of two means: 0.12 
840 out of 100000 experiments had a difference of two means greater than or equal to 0.12.
The chance of getting a difference of two means greater than or equal to 0.12 is 0.0084.

=============================================================================================================== 
LARREA_VANILLA_LG_CONSENSUS_RATE.result	          <->	          AGUILERA_LG_CONSENSUS_RATE.result
=============================================================================================================== 

LARREA_VANILLA_LG_CONSENSUS_RATE.result mean: 14.39 
AGUILERA_LG_CONSENSUS_RATE.result mean: 14.82 

Observed difference of two means: 0.43 
0 out of 100000 experiments had a difference of two means greater than or equal to 0.43.
The chance of getting a difference of two means greater than or equal to 0.43 is 0.0.

=============================================================================================================== 
LARREA_VANILLA_LG_CONSENSUS_RATE.result	          <->	          CHEN_LG_CONSENSUS_RATE.result
=============================================================================================================== 

LARREA_VANILLA_LG_CONSENSUS_RATE.result mean: 14.39 
CHEN_LG_CONSENSUS_RATE.result mean: 14.60 

Observed difference of two means: 0.21 
0 out of 100000 experiments had a difference of two means greater than or equal to 0.21.
The chance of getting a difference of two means greater than or equal to 0.21 is 0.0.

=============================================================================================================== 
LARREA_EPOCH_LG_CONSENSUS_RATE.result	          <->	          AGUILERA_LG_CONSENSUS_RATE.result
=============================================================================================================== 

LARREA_EPOCH_LG_CONSENSUS_RATE.result mean: 14.51 
AGUILERA_LG_CONSENSUS_RATE.result mean: 14.82 

Observed difference of two means: 0.31 
0 out of 100000 experiments had a difference of two means greater than or equal to 0.31.
The chance of getting a difference of two means greater than or equal to 0.31 is 0.0.

=============================================================================================================== 
LARREA_EPOCH_LG_CONSENSUS_RATE.result	          <->	          CHEN_LG_CONSENSUS_RATE.result
=============================================================================================================== 

LARREA_EPOCH_LG_CONSENSUS_RATE.result mean: 14.51 
CHEN_LG_CONSENSUS_RATE.result mean: 14.60 

Observed difference of two means: 0.09 
459 out of 100000 experiments had a difference of two means greater than or equal to 0.09.
The chance of getting a difference of two means greater than or equal to 0.09 is 0.00459.

=============================================================================================================== 
AGUILERA_LG_CONSENSUS_RATE.result	          <->	          CHEN_LG_CONSENSUS_RATE.result
=============================================================================================================== 

AGUILERA_LG_CONSENSUS_RATE.result mean: 14.82 
CHEN_LG_CONSENSUS_RATE.result mean: 14.60 

Observed difference of two means: -0.21 
0 out of 100000 experiments had a difference of two means less than or equal to -0.21.
The chance of getting a difference of two means less than or equal to -0.21 is 0.0.

=============================================================================================================== 
LARREA_VANILLA_TDm.result	          <->	          LARREA_EPOCH_TDm.result
=============================================================================================================== 

LARREA_VANILLA_TDm.result mean: 49.05 
LARREA_EPOCH_TDm.result mean: 45.39 

Observed difference of two means: -3.66 
61 out of 100000 experiments had a difference of two means less than or equal to -3.66.
The chance of getting a difference of two means less than or equal to -3.66 is 0.00061.

=============================================================================================================== 
LARREA_VANILLA_TDm.result	          <->	          AGUILERA_TDm.result
=============================================================================================================== 

LARREA_VANILLA_TDm.result mean: 49.05 
AGUILERA_TDm.result mean: 45.82 

Observed difference of two means: -3.23 
277 out of 100000 experiments had a difference of two means less than or equal to -3.23.
The chance of getting a difference of two means less than or equal to -3.23 is 0.00277.

=============================================================================================================== 
LARREA_VANILLA_TDm.result	          <->	          CHEN_TDm.result
=============================================================================================================== 

LARREA_VANILLA_TDm.result mean: 49.05 
CHEN_TDm.result mean: 109.37 

Observed difference of two means: 60.32 
0 out of 100000 experiments had a difference of two means greater than or equal to 60.32.
The chance of getting a difference of two means greater than or equal to 60.32 is 0.0.

=============================================================================================================== 
LARREA_EPOCH_TDm.result	          <->	          AGUILERA_TDm.result
=============================================================================================================== 

LARREA_EPOCH_TDm.result mean: 45.39 
AGUILERA_TDm.result mean: 45.82 

Observed difference of two means: 0.43 
36272 out of 100000 experiments had a difference of two means greater than or equal to 0.43.
The chance of getting a difference of two means greater than or equal to 0.43 is 0.36272.

=============================================================================================================== 
LARREA_EPOCH_TDm.result	          <->	          CHEN_TDm.result
=============================================================================================================== 

LARREA_EPOCH_TDm.result mean: 45.39 
CHEN_TDm.result mean: 109.37 

Observed difference of two means: 63.98 
0 out of 100000 experiments had a difference of two means greater than or equal to 63.98.
The chance of getting a difference of two means greater than or equal to 63.98 is 0.0.

=============================================================================================================== 
AGUILERA_TDm.result	          <->	          CHEN_TDm.result
=============================================================================================================== 

AGUILERA_TDm.result mean: 45.82 
CHEN_TDm.result mean: 109.37 

Observed difference of two means: 63.55 
0 out of 100000 experiments had a difference of two means greater than or equal to 63.55.
The chance of getting a difference of two means greater than or equal to 63.55 is 0.0.

=============================================================================================================== 
LARREA_VANILLA_TEm.result	          <->	          LARREA_EPOCH_TEm.result
=============================================================================================================== 

LARREA_VANILLA_TEm.result mean: 67.09 
LARREA_EPOCH_TEm.result mean: 64.41 

Observed difference of two means: -2.68 
1856 out of 100000 experiments had a difference of two means less than or equal to -2.68.
The chance of getting a difference of two means less than or equal to -2.68 is 0.01856.

=============================================================================================================== 
LARREA_VANILLA_TEm.result	          <->	          AGUILERA_TEm.result
=============================================================================================================== 

LARREA_VANILLA_TEm.result mean: 67.09 
AGUILERA_TEm.result mean: 45.79 

Observed difference of two means: -21.30 
0 out of 100000 experiments had a difference of two means less than or equal to -21.30.
The chance of getting a difference of two means less than or equal to -21.30 is 0.0.

=============================================================================================================== 
LARREA_VANILLA_TEm.result	          <->	          CHEN_TEm.result
=============================================================================================================== 

LARREA_VANILLA_TEm.result mean: 67.09 
CHEN_TEm.result mean: 109.37 

Observed difference of two means: 42.28 
0 out of 100000 experiments had a difference of two means greater than or equal to 42.28.
The chance of getting a difference of two means greater than or equal to 42.28 is 0.0.

=============================================================================================================== 
LARREA_EPOCH_TEm.result	          <->	          AGUILERA_TEm.result
=============================================================================================================== 

LARREA_EPOCH_TEm.result mean: 64.41 
AGUILERA_TEm.result mean: 45.79 

Observed difference of two means: -18.62 
0 out of 100000 experiments had a difference of two means less than or equal to -18.62.
The chance of getting a difference of two means less than or equal to -18.62 is 0.0.

=============================================================================================================== 
LARREA_EPOCH_TEm.result	          <->	          CHEN_TEm.result
=============================================================================================================== 

LARREA_EPOCH_TEm.result mean: 64.41 
CHEN_TEm.result mean: 109.37 

Observed difference of two means: 44.96 
0 out of 100000 experiments had a difference of two means greater than or equal to 44.96.
The chance of getting a difference of two means greater than or equal to 44.96 is 0.0.

=============================================================================================================== 
AGUILERA_TEm.result	          <->	          CHEN_TEm.result
=============================================================================================================== 

AGUILERA_TEm.result mean: 45.79 
CHEN_TEm.result mean: 109.37 

Observed difference of two means: 63.58 
0 out of 100000 experiments had a difference of two means greater than or equal to 63.58.
The chance of getting a difference of two means greater than or equal to 63.58 is 0.0.

