=============================================================================================================== 
LARREA_VANILLA_LG_CONSENSUS_RATE.result	          <->	          LARREA_EPOCH_LG_CONSENSUS_RATE.result
=============================================================================================================== 

LARREA_VANILLA_LG_CONSENSUS_RATE.result mean: 12.06 
LARREA_EPOCH_LG_CONSENSUS_RATE.result mean: 11.26 

Observed difference of two means: -0.81 
42645 out of 100000 experiments had a difference of two means less than or equal to -0.81.
The chance of getting a difference of two means less than or equal to -0.81 is 0.42645.

=============================================================================================================== 
LARREA_VANILLA_LG_CONSENSUS_RATE.result	          <->	          AGUILERA_LG_CONSENSUS_RATE.result
=============================================================================================================== 

LARREA_VANILLA_LG_CONSENSUS_RATE.result mean: 12.06 
AGUILERA_LG_CONSENSUS_RATE.result mean: 12.41 

Observed difference of two means: 0.35 
38772 out of 100000 experiments had a difference of two means greater than or equal to 0.35.
The chance of getting a difference of two means greater than or equal to 0.35 is 0.38772.

=============================================================================================================== 
LARREA_VANILLA_LG_CONSENSUS_RATE.result	          <->	          CHEN_LG_CONSENSUS_RATE.result
=============================================================================================================== 

LARREA_VANILLA_LG_CONSENSUS_RATE.result mean: 12.06 
CHEN_LG_CONSENSUS_RATE.result mean: 14.56 

Observed difference of two means: 2.49 
391 out of 100000 experiments had a difference of two means greater than or equal to 2.49.
The chance of getting a difference of two means greater than or equal to 2.49 is 0.00391.

=============================================================================================================== 
LARREA_EPOCH_LG_CONSENSUS_RATE.result	          <->	          AGUILERA_LG_CONSENSUS_RATE.result
=============================================================================================================== 

LARREA_EPOCH_LG_CONSENSUS_RATE.result mean: 11.26 
AGUILERA_LG_CONSENSUS_RATE.result mean: 12.41 

Observed difference of two means: 1.16 
23870 out of 100000 experiments had a difference of two means greater than or equal to 1.16.
The chance of getting a difference of two means greater than or equal to 1.16 is 0.2387.

=============================================================================================================== 
LARREA_EPOCH_LG_CONSENSUS_RATE.result	          <->	          CHEN_LG_CONSENSUS_RATE.result
=============================================================================================================== 

LARREA_EPOCH_LG_CONSENSUS_RATE.result mean: 11.26 
CHEN_LG_CONSENSUS_RATE.result mean: 14.56 

Observed difference of two means: 3.30 
388 out of 100000 experiments had a difference of two means greater than or equal to 3.30.
The chance of getting a difference of two means greater than or equal to 3.30 is 0.00388.

=============================================================================================================== 
AGUILERA_LG_CONSENSUS_RATE.result	          <->	          CHEN_LG_CONSENSUS_RATE.result
=============================================================================================================== 

AGUILERA_LG_CONSENSUS_RATE.result mean: 12.41 
CHEN_LG_CONSENSUS_RATE.result mean: 14.56 

Observed difference of two means: 2.14 
357 out of 100000 experiments had a difference of two means greater than or equal to 2.14.
The chance of getting a difference of two means greater than or equal to 2.14 is 0.00357.

=============================================================================================================== 
LARREA_VANILLA_TDm.result	          <->	          LARREA_EPOCH_TDm.result
=============================================================================================================== 

LARREA_VANILLA_TDm.result mean: 2.41 
LARREA_EPOCH_TDm.result mean: 2.09 

Observed difference of two means: -0.32 
165 out of 100000 experiments had a difference of two means less than or equal to -0.32.
The chance of getting a difference of two means less than or equal to -0.32 is 0.00165.

=============================================================================================================== 
LARREA_VANILLA_TDm.result	          <->	          AGUILERA_TDm.result
=============================================================================================================== 

LARREA_VANILLA_TDm.result mean: 2.41 
AGUILERA_TDm.result mean: 2.30 

Observed difference of two means: -0.12 
12454 out of 100000 experiments had a difference of two means less than or equal to -0.12.
The chance of getting a difference of two means less than or equal to -0.12 is 0.12454.

=============================================================================================================== 
LARREA_VANILLA_TDm.result	          <->	          CHEN_TDm.result
=============================================================================================================== 

LARREA_VANILLA_TDm.result mean: 2.41 
CHEN_TDm.result mean: 75.60 

Observed difference of two means: 73.19 
0 out of 100000 experiments had a difference of two means greater than or equal to 73.19.
The chance of getting a difference of two means greater than or equal to 73.19 is 0.0.

=============================================================================================================== 
LARREA_EPOCH_TDm.result	          <->	          AGUILERA_TDm.result
=============================================================================================================== 

LARREA_EPOCH_TDm.result mean: 2.09 
AGUILERA_TDm.result mean: 2.30 

Observed difference of two means: 0.20 
1827 out of 100000 experiments had a difference of two means greater than or equal to 0.20.
The chance of getting a difference of two means greater than or equal to 0.20 is 0.01827.

=============================================================================================================== 
LARREA_EPOCH_TDm.result	          <->	          CHEN_TDm.result
=============================================================================================================== 

LARREA_EPOCH_TDm.result mean: 2.09 
CHEN_TDm.result mean: 75.60 

Observed difference of two means: 73.51 
0 out of 100000 experiments had a difference of two means greater than or equal to 73.51.
The chance of getting a difference of two means greater than or equal to 73.51 is 0.0.

=============================================================================================================== 
AGUILERA_TDm.result	          <->	          CHEN_TDm.result
=============================================================================================================== 

AGUILERA_TDm.result mean: 2.30 
CHEN_TDm.result mean: 75.60 

Observed difference of two means: 73.30 
0 out of 100000 experiments had a difference of two means greater than or equal to 73.30.
The chance of getting a difference of two means greater than or equal to 73.30 is 0.0.

=============================================================================================================== 
LARREA_VANILLA_TEm.result	          <->	          LARREA_EPOCH_TEm.result
=============================================================================================================== 

LARREA_VANILLA_TEm.result mean: 9.00 
LARREA_EPOCH_TEm.result mean: 15.49 

Observed difference of two means: 6.49 
18972 out of 100000 experiments had a difference of two means greater than or equal to 6.49.
The chance of getting a difference of two means greater than or equal to 6.49 is 0.18972.

=============================================================================================================== 
LARREA_VANILLA_TEm.result	          <->	          AGUILERA_TEm.result
=============================================================================================================== 

LARREA_VANILLA_TEm.result mean: 9.00 
AGUILERA_TEm.result mean: 34.24 

Observed difference of two means: 25.24 
1003 out of 100000 experiments had a difference of two means greater than or equal to 25.24.
The chance of getting a difference of two means greater than or equal to 25.24 is 0.01003.

=============================================================================================================== 
LARREA_VANILLA_TEm.result	          <->	          CHEN_TEm.result
=============================================================================================================== 

LARREA_VANILLA_TEm.result mean: 9.00 
CHEN_TEm.result mean: 75.60 

Observed difference of two means: 66.60 
0 out of 100000 experiments had a difference of two means greater than or equal to 66.60.
The chance of getting a difference of two means greater than or equal to 66.60 is 0.0.

=============================================================================================================== 
LARREA_EPOCH_TEm.result	          <->	          AGUILERA_TEm.result
=============================================================================================================== 

LARREA_EPOCH_TEm.result mean: 15.49 
AGUILERA_TEm.result mean: 34.24 

Observed difference of two means: 18.75 
10842 out of 100000 experiments had a difference of two means greater than or equal to 18.75.
The chance of getting a difference of two means greater than or equal to 18.75 is 0.10842.

=============================================================================================================== 
LARREA_EPOCH_TEm.result	          <->	          CHEN_TEm.result
=============================================================================================================== 

LARREA_EPOCH_TEm.result mean: 15.49 
CHEN_TEm.result mean: 75.60 

Observed difference of two means: 60.11 
0 out of 100000 experiments had a difference of two means greater than or equal to 60.11.
The chance of getting a difference of two means greater than or equal to 60.11 is 0.0.

=============================================================================================================== 
AGUILERA_TEm.result	          <->	          CHEN_TEm.result
=============================================================================================================== 

AGUILERA_TEm.result mean: 34.24 
CHEN_TEm.result mean: 75.60 

Observed difference of two means: 41.36 
0 out of 100000 experiments had a difference of two means greater than or equal to 41.36.
The chance of getting a difference of two means greater than or equal to 41.36 is 0.0.

