=============================================================================================================== 
LARREA_VANILLA_LG_CONSENSUS_RATE.result	          <->	          LARREA_EPOCH_LG_CONSENSUS_RATE.result
=============================================================================================================== 

LARREA_VANILLA_LG_CONSENSUS_RATE.result mean: 9.89 
LARREA_EPOCH_LG_CONSENSUS_RATE.result mean: 6.25 

Observed difference of two means: -3.64 
10555 out of 100000 experiments had a difference of two means less than or equal to -3.64.
The chance of getting a difference of two means less than or equal to -3.64 is 0.10555.

=============================================================================================================== 
LARREA_VANILLA_LG_CONSENSUS_RATE.result	          <->	          AGUILERA_LG_CONSENSUS_RATE.result
=============================================================================================================== 

LARREA_VANILLA_LG_CONSENSUS_RATE.result mean: 9.89 
AGUILERA_LG_CONSENSUS_RATE.result mean: 14.03 

Observed difference of two means: 4.14 
356 out of 100000 experiments had a difference of two means greater than or equal to 4.14.
The chance of getting a difference of two means greater than or equal to 4.14 is 0.00356.

=============================================================================================================== 
LARREA_VANILLA_LG_CONSENSUS_RATE.result	          <->	          CHEN_LG_CONSENSUS_RATE.result
=============================================================================================================== 

LARREA_VANILLA_LG_CONSENSUS_RATE.result mean: 9.89 
CHEN_LG_CONSENSUS_RATE.result mean: 13.86 

Observed difference of two means: 3.97 
1171 out of 100000 experiments had a difference of two means greater than or equal to 3.97.
The chance of getting a difference of two means greater than or equal to 3.97 is 0.01171.

=============================================================================================================== 
LARREA_EPOCH_LG_CONSENSUS_RATE.result	          <->	          AGUILERA_LG_CONSENSUS_RATE.result
=============================================================================================================== 

LARREA_EPOCH_LG_CONSENSUS_RATE.result mean: 6.25 
AGUILERA_LG_CONSENSUS_RATE.result mean: 14.03 

Observed difference of two means: 7.78 
385 out of 100000 experiments had a difference of two means greater than or equal to 7.78.
The chance of getting a difference of two means greater than or equal to 7.78 is 0.00385.

=============================================================================================================== 
LARREA_EPOCH_LG_CONSENSUS_RATE.result	          <->	          CHEN_LG_CONSENSUS_RATE.result
=============================================================================================================== 

LARREA_EPOCH_LG_CONSENSUS_RATE.result mean: 6.25 
CHEN_LG_CONSENSUS_RATE.result mean: 13.86 

Observed difference of two means: 7.61 
392 out of 100000 experiments had a difference of two means greater than or equal to 7.61.
The chance of getting a difference of two means greater than or equal to 7.61 is 0.00392.

=============================================================================================================== 
AGUILERA_LG_CONSENSUS_RATE.result	          <->	          CHEN_LG_CONSENSUS_RATE.result
=============================================================================================================== 

AGUILERA_LG_CONSENSUS_RATE.result mean: 14.03 
CHEN_LG_CONSENSUS_RATE.result mean: 13.86 

Observed difference of two means: -0.17 
15333 out of 100000 experiments had a difference of two means less than or equal to -0.17.
The chance of getting a difference of two means less than or equal to -0.17 is 0.15333.

=============================================================================================================== 
LARREA_VANILLA_TDm.result	          <->	          LARREA_EPOCH_TDm.result
=============================================================================================================== 

LARREA_VANILLA_TDm.result mean: 1.41 
LARREA_EPOCH_TDm.result mean: 0.98 

Observed difference of two means: -0.43 
0 out of 100000 experiments had a difference of two means less than or equal to -0.43.
The chance of getting a difference of two means less than or equal to -0.43 is 0.0.

=============================================================================================================== 
LARREA_VANILLA_TDm.result	          <->	          AGUILERA_TDm.result
=============================================================================================================== 

LARREA_VANILLA_TDm.result mean: 1.41 
AGUILERA_TDm.result mean: 51.71 

Observed difference of two means: 50.30 
0 out of 100000 experiments had a difference of two means greater than or equal to 50.30.
The chance of getting a difference of two means greater than or equal to 50.30 is 0.0.

=============================================================================================================== 
LARREA_VANILLA_TDm.result	          <->	          CHEN_TDm.result
=============================================================================================================== 

LARREA_VANILLA_TDm.result mean: 1.41 
CHEN_TDm.result mean: 74.51 

Observed difference of two means: 73.10 
0 out of 100000 experiments had a difference of two means greater than or equal to 73.10.
The chance of getting a difference of two means greater than or equal to 73.10 is 0.0.

=============================================================================================================== 
LARREA_EPOCH_TDm.result	          <->	          AGUILERA_TDm.result
=============================================================================================================== 

LARREA_EPOCH_TDm.result mean: 0.98 
AGUILERA_TDm.result mean: 51.71 

Observed difference of two means: 50.73 
0 out of 100000 experiments had a difference of two means greater than or equal to 50.73.
The chance of getting a difference of two means greater than or equal to 50.73 is 0.0.

=============================================================================================================== 
LARREA_EPOCH_TDm.result	          <->	          CHEN_TDm.result
=============================================================================================================== 

LARREA_EPOCH_TDm.result mean: 0.98 
CHEN_TDm.result mean: 74.51 

Observed difference of two means: 73.53 
0 out of 100000 experiments had a difference of two means greater than or equal to 73.53.
The chance of getting a difference of two means greater than or equal to 73.53 is 0.0.

=============================================================================================================== 
AGUILERA_TDm.result	          <->	          CHEN_TDm.result
=============================================================================================================== 

AGUILERA_TDm.result mean: 51.71 
CHEN_TDm.result mean: 74.51 

Observed difference of two means: 22.80 
0 out of 100000 experiments had a difference of two means greater than or equal to 22.80.
The chance of getting a difference of two means greater than or equal to 22.80 is 0.0.

=============================================================================================================== 
LARREA_VANILLA_TEm.result	          <->	          LARREA_EPOCH_TEm.result
=============================================================================================================== 

LARREA_VANILLA_TEm.result mean: 15.66 
LARREA_EPOCH_TEm.result mean: 11.07 

Observed difference of two means: -4.59 
22950 out of 100000 experiments had a difference of two means less than or equal to -4.59.
The chance of getting a difference of two means less than or equal to -4.59 is 0.2295.

=============================================================================================================== 
LARREA_VANILLA_TEm.result	          <->	          AGUILERA_TEm.result
=============================================================================================================== 

LARREA_VANILLA_TEm.result mean: 15.66 
AGUILERA_TEm.result mean: 52.49 

Observed difference of two means: 36.83 
0 out of 100000 experiments had a difference of two means greater than or equal to 36.83.
The chance of getting a difference of two means greater than or equal to 36.83 is 0.0.

=============================================================================================================== 
LARREA_VANILLA_TEm.result	          <->	          CHEN_TEm.result
=============================================================================================================== 

LARREA_VANILLA_TEm.result mean: 15.66 
CHEN_TEm.result mean: 75.69 

Observed difference of two means: 60.03 
0 out of 100000 experiments had a difference of two means greater than or equal to 60.03.
The chance of getting a difference of two means greater than or equal to 60.03 is 0.0.

=============================================================================================================== 
LARREA_EPOCH_TEm.result	          <->	          AGUILERA_TEm.result
=============================================================================================================== 

LARREA_EPOCH_TEm.result mean: 11.07 
AGUILERA_TEm.result mean: 52.49 

Observed difference of two means: 41.42 
0 out of 100000 experiments had a difference of two means greater than or equal to 41.42.
The chance of getting a difference of two means greater than or equal to 41.42 is 0.0.

=============================================================================================================== 
LARREA_EPOCH_TEm.result	          <->	          CHEN_TEm.result
=============================================================================================================== 

LARREA_EPOCH_TEm.result mean: 11.07 
CHEN_TEm.result mean: 75.69 

Observed difference of two means: 64.62 
0 out of 100000 experiments had a difference of two means greater than or equal to 64.62.
The chance of getting a difference of two means greater than or equal to 64.62 is 0.0.

=============================================================================================================== 
AGUILERA_TEm.result	          <->	          CHEN_TEm.result
=============================================================================================================== 

AGUILERA_TEm.result mean: 52.49 
CHEN_TEm.result mean: 75.69 

Observed difference of two means: 23.20 
0 out of 100000 experiments had a difference of two means greater than or equal to 23.20.
The chance of getting a difference of two means greater than or equal to 23.20 is 0.0.

