599929
599929
599933
599927
599943
599940
599924
599932
599929
599924
599936
599930
599930
599933
599926
599898
599925
599924
599928
599930
599937
599926
599930
599923
599935
599930
599926
599929
599928
599938
599927
599922
599955
599919
599921
599933
599934
599929
599927
599932
599923
599934
599925
599929
599931
599927
599922
599931
599914
599959
599920
599948
599963
599930
599926
599931
599924
599927
599922
599931
