100000
4200
600
300
1200
1200
3300
1575
1200
150
1200
7200
1200
4200
2400
1800
6300
300
300
3900
4275
3675
375
1500
5400
100000
2700
3000
1800
1500
7500
600
1500
600
7500
900
1500
3000
3000
675
600
3675
2850
3000
75
1800
300
4500
900
600
2100
300
225
675
1200
5175
75
300
900
375
1575
1275
900
2700
9975
600
1500
900
2100
5700
600
4500
4200
1800
675
5325
2700
1500
2175
4500
975
600
600
600
4125
375
1200
6525
6975
3900
3900
2100
2100
300
300
300
1500
3000
5100
2400
300
1425
4800
3225
1200
2100
300
1500
4200
600
300
900
6900
1200
600
300
3000
75
675
2100
2775
3675
900
600
3300
600
4800
2700
900
900
825
1500
900
3075
1200
1800
300
6300
1200
900
1800
300
1800
300
5700
3900
75
4575
600
100000
1800
7800
300
2100
3600
600
6075
300
900
1800
900
600
2700
900
225
1800
1500
600
1200
1275
2700
300
4200
2100
300
900
600
2400
300
300
900
2100
5400
8400
3300
4200
8400
2100
3900
3000
2400
4500
300
1425
375
3300
2700
975
75
225
4800
1275
975
2175
300
3000
675
2100
1800
2475
300
2400
5100
900
2100
600
3975
300
1200
975
2775
3000
300
675
1800
1200
1800
900
100000
2475
675
1275
375
675
4500
900
1800
2775
900
600
600
600
600
1575
1500
1200
1200
900
1800
375
2700
1500
1800
1500
975
2400
900
3600
1500
3000
900
900
300
675
600
75
4800
1275
2100
75
2400
375
1800
75
675
1500
1500
3675
600
2475
900
2400
3000
2400
75
5700
2100
600
600
3675
300
300
600
975
75
900
900
75
675
9375
4800
2100
600
600
75
2100
1500
900
1500
2700
1275
2775
300
1800
1800
375
2100
3600
600
4200
600
2775
675
375
4875
2475
900
4500
600
2700
600
2175
2700
7800
1200
1500
600
300
1575
675
1575
375
3600
5475
2700
600
375
1875
2100
1575
375
300
2400
2400
300
2175
600
975
675
1500
300
2100
975
4200
3000
4275
3975
975
1800
1575
300
2100
7800
300
1800
600
2400
75
2400
1875
675
600
2475
300
1200
600
75
600
75
1800
2700
975
5700
1275
900
375
1800
3000
900
2100
2100
1500
675
1875
1275
2775
1500
900
2400
2700
3000
8700
300
3900
3000
1200
600
1575
1500
900
2475
975
900
375
1800
3000
75
3600
2100
675
4200
5175
1800
1800
1500
1800
1275
300
3375
75
1800
900
900
300
300
300
75
2175
600
375
300
2400
900
1200
3000
3600
3600
1275
7500
600
300
675
300
300
300
75
1200
2400
7575
4200
3600
675
75
600
1500
900
3675
1275
600
1275
600
900
300
1800
1875
1200
3075
1800
1875
2400
1275
3300
300
6075
300
975
3600
2700
1500
1500
3300
300
600
1275
1200
375
675
4500
600
1200
3300
1200
2100
1500
675
1500
300
1800
300
900
975
100000
600
600
4725
1875
1725
525
525
975
1200
2700
600
3600
4800
3600
600
1800
300
2400
600
600
3300
2100
2625
900
300
300
1200
2700
900
1800
2400
1200
7800
600
300
2100
3000
975
6300
100000
3300
1500
900
2100
3600
100000
2775
225
1875
4800
1500
3525
300
600
1500
4800
675
600
2400
2325
300
3300
300
2100
600
1800
3000
3675
3300
4200
4200
900
3000
1500
3600
3525
1500
3600
3600
1425
600
3000
900
8700
3000
3300
1500
1350
1725
2475
300
3300
300
4500
3000
300
300
2625
3075
4200
1800
2100
300
5100
300
900
825
2100
900
4275
300
1575
1200
900
2100
2025
1875
2400
900
1500
2100
2100
5700
2700
3300
4200
5325
900
3450
1500
900
2700
1800
2700
900
300
3000
75
3600
6900
5625
375
675
975
375
975
3600
600
2400
1500
900
3300
6600
2625
3975
1800
6300
2400
900
6900
2400
1800
300
1200
5100
2400
1500
2175
450
4500
900
6600
1275
2025
1575
1500
3000
1200
2100
5775
1575
1575
600
1200
3975
975
600
1200
2100
3300
1800
100000
825
1200
375
1050
300
900
2100
1500
2100
3900
3300
600
600
900
1200
3900
1800
4200
75
1800
600
1200
900
3600
3675
975
1275
100000
300
2100
5700
1275
375
2100
675
2550
5100
375
4875
1500
1800
4500
3300
600
600
1800
300
2175
3600
675
3600
2100
100000
2325
5325
2475
600
600
3600
1425
675
3600
825
3375
675
4725
5475
300
300
300
300
1125
2175
1200
5100
75
1500
5175
8325
75
300
600
300
900
675
1200
900
3900
5400
300
600
900
5175
3600
4275
1500
2700
300
6000
300
900
2775
225
5100
525
900
1575
7500
4800
6000
3300
100000
2700
1800
2475
300
1200
2100
2100
975
900
1725
7200
300
5700
600
1425
975
3600
2475
150
900
1800
1500
600
9300
375
1800
3600
1200
6600
900
900
9600
900
3375
1200
1650
675
600
1500
900
1575
2175
4800
2100
6000
1350
3000
1800
3375
5100
4500
1275
225
1200
600
5025
5475
225
75
1350
600
375
2400
3000
1200
1800
6000
825
75
4950
6000
7200
300
2775
300
900
2700
3150
675
3300
900
1500
2400
2400
300
4200
600
1800
5100
3600
1200
300
3300
3075
1950
300
7800
2100
3225
675
300
1800
1725
2775
3000
825
5100
300
300
225
375
600
1200
1800
2700
1575
3900
1200
1275
1500
3675
900
1500
1200
600
1500
1800
9900
600
3075
1350
6300
1500
100000
5100
600
600
600
2400
1800
3450
975
450
300
900
1200
600
8700
4800
2700
600
600
900
300
100000
1200
7275
3000
1200
375
2700
4200
2700
3375
3075
525
3000
3825
375
1575
1800
3300
5175
4350
2400
600
300
300
3300
2100
4800
3600
900
675
900
900
1500
2625
1200
1200
300
3600
4350
900
2700
600
2100
2700
2175
600
1500
300
1200
6900
1200
1200
300
2475
1800
1200
6600
3300
6300
1500
1500
1125
75
600
1875
2175
6600
300
3300
825
675
900
300
5100
900
600
525
3600
3600
900
675
3075
375
3900
1575
75
3900
600
600
4800
1875
600
5100
2400
2700
300
2100
1800
3450
75
2100
600
2700
3375
1725
1800
1800
225
600
2700
4500
675
750
2175
5400
825
225
3600
1800
1800
1200
1875
1650
1500
1800
2175
600
1200
600
3300
300
2700
600
5100
1800
3600
7800
2400
1500
2100
225
375
525
4800
1200
975
750
1800
300
2100
600
2325
3300
3300
1500
2700
1050
4200
1125
75
525
2100
600
900
2775
2400
2400
4500
1500
1500
1500
3000
1875
600
300
300
1800
3300
600
3900
9000
900
1800
2475
600
600
4200
1800
2100
600
225
2475
5700
3900
525
2100
1500
2100
900
2100
4500
3000
225
1575
3150
600
300
2400
1275
900
1500
100000
3600
2400
2925
4200
1350
100000
4500
1500
2400
1800
3075
600
600
2100
2100
2100
100000
450
300
1800
300
900
3000
300
4500
600
1125
375
2175
975
2100
2700
900
1500
1200
300
4500
300
3300
300
100000
7800
5775
3900
1200
4800
3675
2850
900
300
300
300
4200
7500
3000
6300
750
525
900
675
3450
2100
3000
1800
5100
2700
3900
2700
600
600
300
900
900
300
600
1875
4500
2700
2400
1800
1575
2700
675
2475
375
3000
300
300
100000
600
1200
4800
600
600
600
1650
525
3975
900
3000
1200
4650
4800
900
2400
1950
300
6000
675
1275
2700
600
1200
4200
675
3150
3000
675
8625
300
3600
3600
900
2700
2700
1500
7200
600
1500
2400
300
5100
150
900
2475
4200
4050
300
900
2700
300
600
7500
300
4200
225
75
3000
675
7500
300
600
1800
2100
2700
6000
600
600
2400
600
375
4650
2250
1200
300
7200
1575
2100
2400
3000
900
5700
975
4350
375
1275
975
3150
1200
600
1800
900
600
1800
3300
3300
4500
1200
900
600
675
3600
300
2100
300
6750
1800
3000
3900
4575
300
3675
4050
1500
600
1800
1800
600
1500
300
1725
4200
3600
1800
1500
900
1575
1500
225
600
5700
2175
375
2700
1275
75
3975
900
600
900
2100
2400
300
600
100000
2700
1200
675
2700
1575
1425
900
525
1875
1800
2700
900
1200
300
3900
525
2400
975
600
300
1875
900
900
450
600
1800
900
75
300
4800
5700
300
900
75
1500
975
75
4200
1875
975
75
375
2100
3900
300
4800
4575
75
225
675
300
1275
6000
2850
450
975
1500
2100
100000
75
225
9375
600
375
2100
1875
300
2700
75
2700
3000
975
975
2100
75
4500
1500
8175
1275
2475
1200
1725
2475
1800
5400
675
2475
225
1575
975
600
1575
3075
1200
300
75
525
3300
1500
1500
5100
1575
1575
300
2175
2400
525
300
300
375
3675
2175
975
300
300
1200
3000
600
2775
300
675
75
5400
975
2175
75
975
2700
3675
300
1500
5700
1800
3300
975
900
600
1200
1275
2400
2475
2625
300
2100
4500
1200
3075
2700
1200
2475
3000
1500
1575
1200
900
4275
900
675
900
675
2400
675
1800
300
1875
900
300
900
600
1425
675
600
2700
1200
600
2100
300
1500
6300
300
300
2175
1800
2400
5100
975
900
300
1200
1275
1800
1800
3825
600
1800
2400
2025
1200
1575
2400
375
1200
1125
1500
1500
5475
2700
5400
975
600
1875
300
2100
375
1425
300
75
225
3675
2400
600
1275
225
2700
2250
2775
2100
675
1200
2100
675
2025
375
1200
2175
2175
1500
1875
2100
3000
1200
525
375
1275
2400
600
2475
900
2100
300
1500
600
1575
5775
5700
300
3900
1500
75
975
6900
3075
5400
975
3375
900
975
900
2925
1200
3000
1500
300
300
75
1575
600
3525
1575
3000
900
1575
675
3600
3000
100000
4200
300
975
4200
1200
900
100000
4800
5100
3600
3300
600
2700
900
2400
600
1500
300
3000
600
2100
75
975
3675
3975
3600
900
4200
1200
2100
675
1200
900
3600
900
1200
1500
75
300
3300
600
300
6900
2400
6750
1200
3000
600
600
675
1500
600
1500
375
2100
2400
3600
900
300
75
1275
5100
600
900
300
600
1200
2100
8100
375
600
2400
300
300
75
300
2100
1200
75
75
2100
300
4200
1200
2400
6600
600
600
900
600
1875
675
600
3675
3300
5775
300
8775
1275
1200
900
5700
1275
1275
4200
1500
1500
975
1200
3600
6375
5700
975
4800
600
2400
1800
75
9300
2475
5100
900
6675
225
2175
6300
100000
675
8175
225
1875
1200
2100
900
1800
4200
1500
675
1800
300
1125
675
2700
1800
600
600
1275
6375
1200
6900
3600
3300
600
1200
4575
1275
100000
600
3900
1200
2100
1200
900
900
2400
2100
3900
5100
2475
2700
375
75
375
3600
975
975
600
900
225
375
1500
6975
2100
3000
300
1500
300
6000
1200
300
1800
2400
375
75
1200
4500
3075
375
300
675
3675
3000
2400
600
75
3375
75
4275
675
3000
2775
4275
1800
1200
375
375
75
900
75
2400
3000
2700
300
1200
75
75
1575
1200
600
300
2700
2700
600
4800
5100
300
2100
100000
6900
3975
2100
2175
375
1275
3975
525
5400
900
825
3000
3600
300
6375
600
1725
150
2400
225
1200
2100
2025
900
2400
600
2100
1500
2475
1275
2100
825
300
225
2175
2400
1575
1500
600
3225
75
825
1425
75
225
1200
2100
900
600
975
300
3375
600
2100
675
1500
75
2250
75
100000
1200
3600
900
300
4200
2100
4500
2700
600
600
1350
675
2700
225
675
5700
4800
3300
825
3000
1200
6075
3675
1800
1500
1200
4275
1875
225
675
225
825
150
1200
375
225
75
375
1575
2700
300
300
2175
600
2325
2625
3000
2100
4200
1575
300
3900
2400
300
900
375
2700
150
600
1800
1800
6000
900
600
1125
3825
1200
2700
2025
1575
1800
1275
150
300
2700
300
900
2550
5100
225
6075
300
300
2100
2400
600
1950
2175
1200
6375
1800
450
3375
600
900
2325
225
375
975
7800
1500
2700
900
225
600
1200
4425
3300
1125
600
1425
1200
1950
300
1800
1425
75
1800
900
300
825
900
300
300
600
900
600
2700
900
1800
300
1500
225
2100
825
2850
4425
5700
5775
3975
1200
600
1200
600
2100
3000
1275
1575
2775
750
1200
1875
900
300
375
75
1800
1125
75
1725
3075
1275
300
525
5400
150
1425
3975
3375
1125
600
1500
5625
375
75
675
1275
750
5100
2400
4500
2325
375
1350
2400
975
3600
5550
4200
300
75
900
8400
675
525
1200
375
75
1125
600
1425
825
2100
5925
75
2250
1275
300
75
3075
1200
1800
975
4275
375
1500
1200
1050
375
1800
300
375
3600
600
100000
900
900
300
6000
675
2100
300
75
225
2700
300
2100
225
225
1800
1125
375
1800
3000
2175
675
8475
1050
3675
300
900
1050
1875
1575
225
900
375
975
1200
1200
975
8775
375
975
975
5475
1800
375
600
1200
975
300
1500
4725
1800
900
5775
300
900
7050
2475
375
3675
4200
600
900
600
300
2700
75
1500
675
825
150
1200
1425
900
6075
750
450
675
4650
2100
600
1575
1875
3075
4500
2175
7275
5775
975
600
7575
4200
2400
525
4500
2400
1575
600
2250
8100
3375
2100
675
2175
900
900
75
3900
2400
3075
300
300
3600
1275
2100
1200
5100
1725
2700
600
600
675
1200
2700
1875
300
100000
375
5175
100000
1500
1125
750
375
600
825
600
600
900
600
600
6600
600
6900
600
825
2100
300
3300
375
2550
375
900
2400
5400
4275
600
2400
600
975
2550
1275
2100
6675
3150
2175
900
900
375
7200
900
4500
1650
300
1575
600
2775
375
6600
1425
75
6900
300
100000
675
675
900
2775
600
4725
8700
1875
300
675
75
900
2400
450
375
2100
2100
975
1200
3075
2775
2175
1575
2775
975
375
600
1200
600
1575
1800
375
600
600
3000
1275
2100
1125
300
225
150
1575
900
225
900
1275
300
1500
2250
300
900
5475
5775
1275
3300
675
4875
900
3900
1650
5475
3000
1275
375
375
675
7575
600
100000
6600
600
3300
2700
3300
300
600
1500
100000
675
675
1800
1500
5100
600
3300
300
6000
2700
1200
3600
1275
1500
1875
5250
900
1200
9000
2400
8700
1800
900
3900
300
1800
1500
600
4500
2700
900
600
4800
900
1200
3900
3000
600
1500
1575
300
300
1200
1800
300
900
3375
1500
2700
2100
375
2100
1500
1800
8400
1800
300
2400
1500
600
225
3075
975
300
1500
1500
2100
975
1800
1200
3000
3000
1500
2400
1500
900
1800
2700
3600
1200
2100
225
1500
2475
3000
1500
4800
2400
1800
2700
600
300
2100
675
2700
4500
6900
1725
7875
75
900
3975
600
2400
3600
600
900
900
2700
75
3675
1200
300
1500
300
1200
900
3300
1200
600
2400
300
600
1200
3000
600
600
4800
900
900
1200
2100
3600
1125
1575
3000
1800
2100
3600
3900
1500
1500
8100
1875
2100
2100
1800
4200
5100
300
300
300
600
1500
3000
2475
1500
300
300
300
5775
150
1500
3900
600
1200
1500
2100
4200
1575
5100
600
6600
300
300
75
975
2700
75
600
3900
100000
1500
3300
2100
375
4200
1200
300
3600
675
600
2175
300
3975
1575
375
300
600
3600
1500
600
1275
5175
1200
3600
2700
1800
1200
2100
4050
75
2700
1500
825
1500
1200
3600
1875
3975
1650
2700
2475
5100
150
300
6000
100000
5400
300
225
525
4725
5325
600
1800
900
975
900
1125
1500
2175
300
600
225
3000
675
300
1800
225
2775
675
900
225
900
1200
825
1800
975
675
1200
600
5475
225
1275
2475
300
4575
300
300
4125
600
2700
4200
600
600
600
2625
300
300
3675
7875
900
900
825
2325
1275
1200
2175
1200
900
1875
2775
4425
4500
600
7200
300
3300
900
3300
900
1275
3375
525
1575
5700
6000
1800
1800
3600
375
150
600
2700
2400
4575
4275
5100
1725
1500
3375
600
1800
2700
675
2100
900
1575
2700
2025
75
2100
375
375
1500
2700
900
900
600
900
2625
150
975
2400
1800
2100
600
600
900
1500
1500
600
5100
4575
75
4125
3300
1800
300
2100
1725
1800
600
1500
4800
6300
825
1575
375
1800
1500
6300
3225
1275
450
1575
4875
1500
5775
375
2400
2325
1200
225
600
1200
3300
2625
300
6000
2400
825
75
75
1200
225
300
4725
900
1500
3900
1200
1200
2400
900
300
2700
4200
1275
600
1500
2100
6975
225
900
2400
300
300
1575
600
300
3300
1200
100000
900
1725
1500
75
3975
1275
3075
225
3075
3000
225
4200
1500
975
2100
2400
225
3075
1875
3600
1200
1200
225
600
975
4500
375
375
975
525
2475
1575
600
300
375
3600
1500
300
4425
2475
1200
100000
825
900
2325
900
1875
300
1425
225
75
150
1425
825
2775
3450
375
2625
600
2025
1200
3300
3225
2475
225
1875
100000
300
1800
2175
1500
2700
1500
1200
4200
2100
100000
1725
900
1200
2475
2400
900
6900
1575
3300
1500
5700
2100
2700
2700
3300
300
2700
1875
600
3000
300
300
100000
2925
75
2700
1500
600
300
2700
5700
600
1800
300
3300
1200
2925
75
6600
2175
300
1500
3000
3600
900
900
900
675
600
1200
6300
3900
1200
2400
1500
75
675
2700
5400
1500
6600
2400
4500
675
300
2700
1275
375
75
375
4875
300
4500
1200
3300
7800
3900
2100
1800
2100
2400
225
300
600
2700
2400
3075
375
300
525
900
225
300
4800
300
1800
3900
900
525
1800
3300
450
1800
1200
3600
900
3900
975
300
3600
900
2400
975
1575
300
1200
900
600
1200
300
1500
600
3300
2700
4125
1875
1200
600
5325
675
4500
1500
5100
3000
2400
3900
1500
5700
75
600
75
1200
300
3600
5400
1275
1875
900
1500
300
2100
2325
1200
2100
3000
1200
3000
4500
900
600
600
2100
1800
300
300
2400
3600
2325
4500
1800
3675
1200
3000
900
600
900
1200
975
8700
3600
2100
6600
2475
1200
900
300
2400
600
900
6000
3000
600
300
1500
1875
1800
900
2400
3675
1875
3300
4200
375
3075
1500
4875
900
3825
1200
1575
900
4200
900
1200
900
1200
1500
1875
900
1800
6000
900
3000
1800
1200
1500
1800
300
300
600
2700
100000
225
2700
7200
600
900
9675
2100
3000
375
300
3300
900
825
675
300
3600
1500
2400
5925
75
900
1800
900
100000
2475
1500
7200
4800
6825
300
1800
2700
1500
3300
4800
675
900
2100
4800
4800
4125
3000
300
1800
1200
1500
900
3075
2100
600
300
900
600
300
600
3675
2100
300
1800
5700
2100
3600
300
4200
675
2700
600
450
600
4200
1500
2625
3600
4200
1200
1275
2100
1500
600
1800
6600
1500
2175
4875
1425
75
600
8400
5400
3000
4275
1500
225
75
2400
900
3375
975
4875
75
2400
1650
675
2175
1800
4200
900
2175
975
2325
600
2775
1575
1275
3900
300
3900
300
300
4500
900
975
675
4200
900
1800
3000
3900
975
1500
900
1500
300
1800
2400
1800
100000
3000
75
100000
2100
300
9300
450
450
375
150
3600
675
3675
3900
1200
100000
525
5700
300
2700
3675
1500
2100
900
4500
3300
1500
600
2700
1275
3900
2100
600
2400
2325
3900
1800
6675
4800
2325
2025
375
4875
1275
9900
300
2400
4500
525
300
900
900
2100
1200
975
675
2700
4500
5175
375
975
3075
5100
1800
2175
375
525
1800
2700
3600
600
600
300
75
300
4800
100000
1500
900
900
5025
1200
1800
900
600
900
5025
1200
4500
1875
1575
1800
600
1500
1800
3000
5400
75
2400
1800
675
2775
3300
4275
1575
1200
2100
4500
3150
2100
1200
1200
900
375
3000
300
1725
1800
3525
1500
300
1800
300
6600
2775
75
1200
375
4875
300
225
6675
900
900
5100
975
4575
5325
2400
300
525
7875
975
525
1800
3000
675
1575
600
2700
7800
900
2400
675
600
300
1500
3300
7200
300
1575
100000
100000
3000
2400
3975
1800
2700
900
6000
1575
75
600
2100
600
1200
3000
2175
1875
3000
1800
4800
2775
3900
1200
900
900
300
1800
900
600
300
675
300
1500
900
1500
225
3900
900
1800
975
3375
300
1500
300
1200
300
2400
2100
1800
6375
300
900
1500
100000
300
600
2700
1800
300
900
3000
4800
1200
2700
1800
225
75
5100
675
3300
525
3675
4800
1200
1500
1500
225
1275
300
75
2700
900
1800
2400
4500
2700
2400
2100
375
600
2100
2100
1500
3900
1575
300
600
600
2400
5175
1275
300
75
2175
2100
2700
2100
1200
4200
1500
225
75
600
600
375
1800
600
7200
900
2100
3600
75
300
900
1575
1500
600
900
600
2025
1125
900
300
1500
6600
600
8475
150
225
1200
3600
75
2700
300
375
5475
1800
600
3000
600
1200
900
5175
6375
75
225
1200
300
375
375
3900
300
2100
100000
300
4800
1500
675
300
1425
675
1575
600
1200
1500
375
3150
1275
3000
3000
1200
2100
1200
1800
300
900
225
6975
675
2025
225
1875
6300
1500
1800
2325
3600
2325
1650
6600
900
750
1500
6600
1275
3150
900
1200
3600
1800
5100
3300
300
225
375
6300
300
1500
900
3300
5700
3900
600
600
2100
2475
3600
3600
5400
300
1800
3375
2700
300
4200
75
900
1875
600
9300
1800
300
300
4500
1275
1500
300
4500
3300
1500
675
2550
750
600
1875
900
2400
2100
2100
2400
300
1800
150
3300
1725
975
5400
2100
1500
600
3300
5100
4575
525
900
3900
5100
300
1200
1875
3675
4950
4425
2325
4575
1275
1200
1200
600
5400
6300
600
2400
900
6000
2400
4200
2400
1200
600
1800
300
675
2625
1800
2400
1725
2400
2625
6300
600
3000
5100
900
300
1500
3000
900
1800
375
75
900
375
300
4200
900
675
2850
2100
2400
2025
900
600
300
1500
5700
1800
900
900
4800
1200
600
1500
1200
5175
5325
1500
1800
3675
1650
525
600
300
2175
1500
1725
5175
2100
600
3000
300
675
1050
1875
675
1875
1725
5700
300
1800
825
2400
1800
300
2100
600
100000
3825
75
5475
975
3000
1500
600
3000
3375
1200
900
3300
4200
3600
1200
1725
75
1425
5175
3300
750
1200
600
75
900
100000
6900
3900
600
1575
525
6000
3675
1275
2100
2400
3600
300
1500
975
1575
2400
1800
600
1800
1500
3300
2100
1575
600
1575
375
600
7800
3000
3000
975
2775
2775
2550
1800
5175
2400
1575
1275
2400
225
1575
5400
1500
4500
600
1500
900
1200
75
75
525
900
1275
7800
525
1200
4500
600
2700
6000
3900
2400
900
300
300
4500
2100
3000
4275
600
675
3600
2100
2400
150
900
600
1200
1650
900
2400
2100
300
5100
9000
900
1200
1500
4800
1200
3300
300
5700
1125
2175
300
6225
2100
525
375
1575
2100
1500
100000
3000
300
3600
600
4200
4800
1800
6900
1800
1200
3600
225
1500
3900
975
300
3600
300
1575
1875
1200
1200
900
375
3000
300
2700
1575
1800
8100
1500
900
2400
900
1800
4275
100000
8700
300
600
900
1800
2700
2775
300
4500
300
600
975
75
3300
900
9600
1200
1500
300
1200
2100
1500
1500
1500
2700
2775
3975
3375
2400
600
5700
3900
900
375
375
1200
900
3975
1200
4500
2400
1800
600
4800
3000
1575
4800
1200
300
3000
6900
300
3600
1200
9300
375
5775
9300
5175
5175
1275
8700
525
75
8175
675
1875
600
1800
100000
1800
2100
4800
2700
2100
1800
1200
900
900
300
3300
300
2700
300
525
3300
675
3300
3300
225
75
1725
2100
1200
2100
600
8325
9975
600
900
1800
3000
1275
1200
900
2700
3600
2100
2400
75
2400
900
5400
5100
1800
4500
3600
3000
375
3300
300
1125
900
1275
3300
2400
1500
1500
300
2625
3375
5100
3900
2175
975
5025
5700
2100
2100
2100
3075
4500
3900
900
3675
1200
1800
450
5400
1500
1500
300
1125
3975
375
150
2400
900
3300
2025
1575
1200
3375
9600
2925
3900
750
1200
2400
300
1800
3000
1200
4800
4500
1800
300
1500
4200
1200
600
675
3900
1800
5475
1350
900
600
225
1800
6300
4500
1050
900
300
2100
5400
900
4800
600
3600
2100
4500
600
900
975
9300
1200
300
2400
2475
1575
900
600
1200
2400
1500
2550
3900
825
2400
3000
975
2700
600
600
3900
1500
300
1200
600
6000
1200
1500
225
1875
1500
300
8025
75
2625
8400
900
600
2700
1200
1275
2100
1200
900
2700
1200
2700
375
75
3900
3000
4200
1500
600
2100
300
1800
1425
3300
5400
600
4200
975
3000
75
1950
1200
2025
1200
4500
1500
600
3900
3675
975
300
1800
675
900
1500
7800
600
600
900
975
300
4875
6600
2100
375
1500
1650
825
2325
1575
100000
600
3900
1500
5025
900
3375
1200
1200
300
2100
2700
2100
525
900
6000
600
1500
675
150
3900
975
3000
225
2475
600
3000
3300
2250
225
375
300
6000
600
900
900
2100
2925
2175
2400
6000
1200
2100
1800
975
300
2325
150
2100
300
3000
1800
1800
3300
600
2100
675
3000
1500
1200
3900
600
1200
3600
6600
1275
2400
1200
8400
600
1800
300
1800
900
3900
3300
300
825
900
825
2700
1875
600
6975
3825
300
600
900
900
2400
3900
1200
2100
1200
1500
2100
1200
600
4575
2250
1200
1500
3000
1800
3600
9900
1500
3000
1575
4800
2400
600
7125
4575
100000
2325
375
2100
3600
1800
525
600
7500
2700
600
1500
1200
300
3900
1275
2850
1200
300
1200
1500
1500
975
2100
1725
1500
2700
300
975
5100
3600
6000
1200
2325
900
1500
300
3000
4800
3600
1350
1200
300
1800
1500
3375
450
975
150
2700
900
6600
300
900
600
3900
2175
1275
900
2700
1500
5700
600
2100
1500
4275
2550
675
6300
4200
6450
3900
1500
2400
600
1500
3600
1200
2400
600
2400
3900
300
3750
8400
6900
2100
2175
1950
2325
4200
450
300
3000
6900
9900
6675
1500
5400
600
4200
1800
2100
600
600
600
300
100000
1800
4500
600
1800
900
3375
1425
600
300
3000
3600
1500
900
5100
2400
3300
1800
825
600
1800
675
900
900
300
900
3225
3375
1275
600
1500
1800
1200
75
2400
900
300
2100
3600
1200
2100
1725
3075
5475
3000
975
1275
1800
1200
225
75
6000
2400
1575
600
3000
1800
2700
5400
300
675
3600
3900
1725
75
6375
900
2400
4800
1800
2175
300
5100
900
3300
8100
2100
1800
3000
2400
4500
2400
6000
1200
7200
900
3075
525
2550
3675
2475
3300
1500
5475
2100
600
1500
300
900
1500
1200
2175
2775
1200
2100
300
900
375
600
600
300
7575
3225
75
1575
1200
750
3900
1800
4800
900
3825
600
2175
300
600
1200
600
1200
7200
300
1800
900
1200
2400
5100
1575
1500
3300
900
5625
150
3000
600
1800
1125
1200
2475
2100
675
900
2325
2700
675
900
300
300
300
1500
300
4800
4500
3075
900
900
225
375
2100
300
1500
3075
1200
1500
2700
1500
1200
600
1200
300
1800
900
6000
1500
4575
1800
300
1125
1500
75
2700
300
1275
600
3900
1575
300
600
2100
5700
900
900
2100
1800
600
4500
5100
4800
600
900
3375
375
2100
2325
900
600
2700
8100
3225
975
975
4800
1725
2325
6600
600
2700
600
600
300
600
1800
975
6825
2100
825
1200
300
300
225
100000
6975
900
3000
1800
900
2175
100000
2325
2250
600
900
375
600
900
525
7200
225
1200
1200
600
975
375
1650
2700
1650
1725
2100
600
600
600
9525
975
600
5025
75
3900
3975
2475
1800
375
525
525
2925
1200
6000
7200
1500
2625
1425
2025
600
4200
225
1425
2325
1500
600
825
4800
2400
2625
525
1500
900
1500
9150
1200
900
975
75
225
1800
3600
1500
2400
2100
2100
7500
2025
1200
2025
150
3000
900
2700
600
225
600
4275
1050
5775
675
2175
300
675
1800
900
2100
1575
300
900
525
5400
1500
1200
2700
1425
600
2700
1200
7425
900
100000
300
1875
2400
4200
2100
2700
2625
1650
600
5700
7725
600
6600
6300
1875
1200
4875
5700
600
4275
900
825
450
3900
2025
4425
1125
1800
2400
5625
675
3450
150
2700
8700
7200
300
525
1200
900
1425
2775
2100
750
900
600
1200
2400
2100
1200
525
2700
5025
1650
4500
1200
1500
150
900
900
600
2925
3225
1575
975
5400
300
4125
4875
4725
1425
1800
225
1725
900
5700
8700
225
600
2775
1500
600
1800
6600
525
4500
900
1425
1200
5325
1425
5175
4875
2100
825
5100
1875
1200
2400
6225
825
450
975
1050
525
9225
4725
2100
1875
1500
3000
1800
1500
300
2175
75
1200
100000
3900
3375
225
2100
675
1500
1875
4800
300
900
600
675
900
600
75
3900
375
75
600
1500
675
1500
1500
300
2100
675
1875
1500
1200
900
2400
375
300
600
1500
2475
1275
1200
300
5100
4500
75
2925
1200
1800
600
300
5400
2700
225
1575
1200
1575
1500
375
300
100000
1575
375
975
375
1575
1800
3600
1800
2475
4875
675
75
600
2100
1200
900
525
75
2175
3600
300
2100
900
1425
3975
300
1200
675
1875
1800
2700
75
675
1800
5175
2400
900
675
2175
75
600
375
300
900
675
3000
825
675
375
2100
1575
2775
1575
3000
1050
2775
1800
600
2100
300
1500
300
300
75
75
3000
600
75
2100
1500
6000
1275
1275
375
900
675
3300
2100
75
3300
975
300
5400
1275
2475
1275
1500
75
3900
2400
900
1500
3900
600
1725
900
1500
900
600
1275
4875
1200
225
900
3300
2700
3600
675
75
3900
2775
1275
2175
1800
1875
1500
375
3600
600
4575
300
3000
1275
4500
2475
600
1500
1200
5400
225
1275
3000
1200
1200
2175
2100
1800
2400
75
900
3000
2475
375
1500
975
675
900
1200
4800
2100
6375
1800
600
3600
375
900
375
900
1275
600
3075
1500
1575
1275
3300
900
375
300
1500
1500
5100
300
4200
825
1200
1575
3525
4425
600
6000
2175
600
600
900
900
1200
1800
3300
300
1500
675
6525
300
300
2700
975
1800
2100
900
975
825
600
3300
600
900
75
75
1800
300
6900
300
3000
1200
1200
300
5100
375
600
2100
1575
225
100000
2775
300
3300
4500
3900
2400
3000
1800
300
100000
1500
900
300
1125
75
3525
2325
4500
1200
600
225
2100
300
300
4425
600
3600
600
225
4800
300
4200
675
3075
6825
975
2025
900
3225
75
1875
2175
1725
825
225
1200
4500
1125
3900
300
1875
75
1800
900
2700
300
2400
825
1500
6000
600
900
2100
300
1500
300
300
2775
1575
375
2925
750
8700
7200
975
2400
7275
3675
300
600
225
8400
2400
1650
3675
600
900
4500
2400
1500
975
225
8700
300
600
1200
1500
300
3900
825
4500
600
1200
975
450
1200
2400
2100
1800
3900
6900
1800
2400
300
1500
1875
3300
2100
900
3375
600
2475
1200
1200
2400
2400
1800
100000
1200
225
4500
825
2325
2175
600
6825
1950
4275
5400
825
600
6600
225
3900
600
2850
375
1200
1950
300
1200
300
300
600
3600
450
375
150
300
2925
3375
900
2400
1800
300
3000
225
1875
225
600
2325
2700
6300
600
300
6075
225
6900
2400
1800
3675
5250
150
300
1575
2175
2475
5400
1200
600
1800
1200
900
2100
1200
4575
4725
225
4500
300
600
3900
900
4800
2100
3000
300
3525
1875
1500
2400
600
1050
225
3300
225
2025
675
4875
4200
900
2925
3600
825
300
300
5400
1275
1425
2100
150
2700
3300
600
600
150
300
4725
300
1500
300
4800
300
1800
900
2325
600
1500
1800
4500
525
5625
2775
1500
100000
6900
1800
900
4500
3000
300
1500
900
1800
1800
750
300
3600
300
2700
375
900
4875
2400
1800
3300
600
1800
675
5475
3300
600
5100
2400
600
4800
3900
675
75
1125
2475
4200
6900
3600
2400
75
5550
4425
75
825
825
900
1200
150
375
5550
1200
2400
1500
300
2700
3225
2550
300
300
1200
1500
3300
1275
1050
9150
2025
2400
1200
1875
3000
6900
600
150
600
1800
5400
1725
2400
300
300
4650
5100
1200
100000
150
4500
4200
2100
2100
900
2400
300
1350
300
4425
3300
2700
1875
675
300
1950
300
600
5400
150
1200
1200
300
375
300
600
1125
6000
300
300
5700
825
1500
2250
2400
600
900
2400
300
1200
600
5700
2100
8100
525
8700
1200
600
900
900
1200
1200
2100
1125
975
4200
5175
1650
900
2100
600
1200
3900
900
2025
1200
2775
3300
75
1650
900
3300
900
2400
1800
600
6300
525
1200
2700
2625
600
1800
3075
1200
2700
1800
900
2025
5025
2700
4800
1125
7500
4500
300
900
8025
600
4500
300
900
2100
2100
8400
300
1500
3000
225
1275
600
1200
2400
1500
300
2400
4800
3600
600
2400
1200
900
1575
3375
2250
300
2400
3600
4200
4275
675
300
2400
225
4800
1800
1200
975
225
2100
300
1275
9600
300
300
5100
100000
4500
4500
2400
300
600
2700
900
2475
3075
6600
5100
600
4875
675
900
2400
2700
1275
975
900
600
75
4800
600
300
600
3000
300
1200
4575
2700
600
4200
1500
600
3600
600
1875
225
1200
3300
4275
9300
1800
675
600
300
1875
900
1200
300
1500
375
1800
300
1800
3000
4800
4575
900
1200
3900
2175
900
4500
300
900
3300
900
375
1950
600
975
3900
900
375
675
100000
300
100000
3000
975
1200
1500
600
3900
900
2100
600
2700
8625
375
300
8100
1800
1200
3000
3000
3375
675
3000
300
2100
5400
2400
600
1500
300
3900
3600
300
5700
2400
675
300
300
1500
300
975
300
3600
2400
3300
3300
1500
900
2400
900
3675
6375
375
1575
2100
1200
3675
5100
1500
600
1500
1200
6000
4500
375
1200
9375
600
75
675
4275
1200
1800
6300
1200
3375
600
900
600
6900
900
3600
300
300
3600
300
300
600
75
375
4200
600
5700
1875
750
75
8400
900
2400
5700
900
600
900
1800
900
1800
3900
4200
5700
600
75
375
675
975
1500
900
3000
6000
3900
3000
300
2700
3000
2700
900
600
3000
1500
4200
1200
1275
300
7800
4500
600
1800
600
2775
975
4200
1800
375
4500
4500
900
75
4800
300
600
1500
1800
100000
300
300
3000
2100
2775
75
2100
3000
2775
6900
2175
75
600
2775
300
675
900
600
3600
3000
3075
375
100000
1200
3375
1725
600
300
3900
1500
300
4500
300
300
3000
900
2700
3000
1050
4800
900
1500
1200
600
900
1500
1800
300
3300
375
6375
900
225
75
300
3900
600
975
3000
975
3600
300
900
300
300
4500
3375
600
300
3900
1800
1500
900
1800
1725
2400
2100
4275
600
600
2100
375
300
5775
600
300
1800
1200
75
3000
2100
2700
1800
2100
900
1200
8175
1275
2400
3600
2775
1800
900
1875
900
600
600
975
525
3000
1500
1200
675
1800
1200
975
4200
225
75
2400
300
2100
4200
300
1725
375
900
5700
5100
1875
1500
4500
1125
3675
675
825
900
3900
1500
600
5475
300
1875
3300
3675
900
4200
2100
5400
600
1200
2400
2100
600
600
975
2100
300
3000
300
225
1875
600
1875
2100
1200
675
1500
1275
1500
1200
1200
4800
1800
3000
8100
675
2175
7500
4275
3600
600
1275
2100
1200
2400
1500
75
1200
1500
3600
3600
1200
2100
600
2175
375
900
600
600
5100
600
1200
600
3300
900
3075
1200
5100
2700
2400
1425
900
2100
5400
2775
900
1575
1200
300
975
225
1875
2700
3075
300
3600
4200
375
3000
900
5475
3900
7500
3075
600
6900
2400
300
3000
600
1800
4575
1800
1500
600
2400
5100
2700
600
2475
1500
100000
900
900
1800
1500
1575
3750
3900
2925
5400
1200
300
300
600
8100
4275
1500
75
3300
7200
3225
975
3900
300
4500
4800
1275
600
300
900
900
4500
100000
375
1800
1425
300
1500
1275
675
150
600
1500
300
600
600
900
3000
600
300
3600
300
450
600
2925
975
300
1800
1500
375
300
1425
975
1800
1800
1200
300
3075
2400
3000
300
2100
675
675
1125
1275
900
5475
375
4800
900
1200
7200
4200
2100
2025
375
825
2100
1800
2400
6000
600
3000
1200
1200
2700
900
3375
2850
2550
1200
3300
300
900
5700
2100
600
600
600
3300
9000
900
1200
5175
3900
5400
600
1800
1500
900
3375
2550
5175
150
3900
600
900
9600
2700
2100
2700
1800
225
5100
3000
1500
7500
1200
6075
4200
300
5550
1200
225
3300
600
2025
2400
3675
2400
900
4200
8100
1500
300
1200
4200
225
600
6600
525
975
3000
300
4200
3900
3900
300
900
8775
1950
600
1500
1500
1200
4800
1800
1200
2700
2700
1200
900
3600
600
600
300
300
300
8100
600
600
300
3975
1800
1800
1500
4800
300
975
1200
900
900
1200
5100
600
2400
2250
525
75
1200
2700
100000
1800
2700
3000
3000
900
600
2700
3900
1200
900
1500
2700
900
300
2700
4800
100000
375
2400
3300
3000
1200
375
375
1500
300
825
5700
3300
300
2400
375
75
3000
1500
225
675
675
1200
1500
900
600
225
600
825
4500
1200
300
100000
1575
1575
5100
1200
2700
225
5400
1425
1800
600
3300
1275
1125
4500
300
4200
1200
3000
1125
3000
900
1125
600
3825
7575
2250
1350
900
825
2100
2700
450
600
3900
900
1800
600
225
150
1800
1200
1125
3075
975
600
3600
4200
525
525
2100
1500
2100
1500
3300
900
1425
3000
1200
225
150
600
5400
1125
1200
6000
5400
525
3825
4800
900
1500
525
300
300
3900
1875
2700
1200
375
1425
2100
675
1575
4200
1800
900
900
3525
1800
600
2025
675
1350
600
3375
3600
2400
300
900
900
300
3600
825
375
2925
3900
225
2100
4425
5700
1575
7425
300
825
5475
300
1200
525
1200
2700
1500
1875
300
1725
75
4500
8175
450
2700
1500
300
300
3600
8925
1575
1875
600
3900
300
4275
2700
3225
525
2100
7800
6300
2475
1800
900
2100
750
300
900
300
3000
6900
4650
300
3300
1200
3900
6000
6000
375
2250
3600
1800
3900
300
2400
900
5400
5400
600
300
1500
1200
300
900
100000
2625
4200
2100
225
600
2400
300
3825
1725
600
1125
2550
3000
300
825
2400
2100
1200
1275
5400
2700
75
300
2400
1200
4500
2475
1200
100000
1575
75
300
2175
1950
300
900
900
5700
3600
2100
1200
3000
6600
4200
1275
900
2100
2100
300
225
300
900
300
150
7425
1200
375
450
600
6525
2100
375
3375
75
1800
6600
5550
300
1800
600
6600
900
1125
1125
4350
2100
2400
1800
3000
375
375
1200
300
525
4200
3000
600
6225
2700
675
675
225
2700
1500
600
2700
5100
600
3900
3300
300
1275
1875
900
1800
3000
2400
4200
975
750
1200
600
300
2100
6900
600
2400
2100
3000
4200
2100
525
6300
900
375
675
900
300
225
3675
3900
300
300
3000
2400
225
975
600
5775
1200
3900
7500
2100
100000
3375
825
1800
5700
4800
1425
1200
600
1800
2325
9525
2100
3000
3300
1275
3075
600
3600
3000
300
375
450
4875
2475
1200
8400
2700
2700
1200
5400
675
75
4800
1200
900
300
300
600
600
4200
900
6000
3675
750
300
3600
3900
1500
5400
600
7500
600
600
2700
1500
300
300
2100
6900
7275
1200
1275
300
5700
5400
900
900
1500
3600
4200
300
825
900
4200
600
7200
3300
1800
4500
4200
900
900
1575
600
1500
2100
600
2400
2775
600
2400
3900
3000
1800
3300
2925
600
1500
5400
300
600
900
300
3525
900
4500
5100
300
300
600
300
100000
1800
1200
1500
3975
1875
1800
900
900
600
7200
3375
1425
4650
2625
525
900
1800
225
1500
2250
75
600
300
300
600
3000
1500
600
1500
300
600
600
300
1500
900
600
600
1800
1125
7200
375
975
1200
8400
6675
1950
300
3075
600
300
3600
7725
2925
6300
2700
1200
2100
1500
600
4500
1500
600
1275
450
5025
1575
2025
375
600
2400
4500
1125
1125
8175
1500
1800
600
300
2175
300
2700
1500
1050
1575
4725
3600
4200
1425
1575
300
3000
300
7500
825
600
2025
600
900
1800
3300
600
5700
1500
7500
2925
1500
1875
2175
7200
975
1125
525
2100
1500
1800
3300
6000
900
3000
3000
3300
6000
825
600
9300
600
1800
300
2775
1200
3075
3600
600
2475
2100
2100
1425
100000
75
825
1950
4275
7275
900
1875
375
1800
1800
375
1500
5100
225
5100
4125
1875
1800
600
600
3900
1800
525
2925
2400
825
1275
4800
1200
600
675
600
900
1500
675
900
2025
6375
300
3000
900
900
300
675
3000
4800
3600
300
1200
1575
600
2100
6300
600
1575
300
1800
900
900
2400
2175
600
8100
975
1500
100000
9600
4500
375
3000
75
2925
600
5400
300
300
1275
600
1275
900
1200
1200
1200
2700
4200
1200
300
4800
975
900
2775
900
300
600
100000
900
3600
900
3675
675
1200
300
7575
6075
3975
4800
1500
975
1200
1500
1200
3900
300
600
4575
100000
75
2100
3600
1200
5175
1875
600
2250
1275
900
6000
2100
600
2400
600
1500
3600
600
2400
1500
7575
1950
300
975
1800
5100
1500
1500
5175
3075
1800
3075
2100
600
2625
1500
225
975
825
1275
600
75
2175
3825
75
3000
900
300
3300
4800
675
1800
675
900
5400
7200
75
5775
4200
3900
300
900
2475
2400
600
1800
5100
2175
600
2775
900
4800
225
2175
3150
300
4200
300
2100
6000
1500
300
2100
3000
900
900
900
3600
1800
2100
1200
600
3000
3900
300
900
600
1200
2475
3075
3675
2400
375
300
1200
1875
300
4500
2400
375
2175
100000
900
3000
1200
3000
2400
1200
900
5700
4500
4200
1500
900
3600
3000
1200
300
1800
3300
2775
375
2100
675
1500
1500
2100
4500
300
375
375
4200
1800
3900
2175
2100
600
375
1650
900
600
1200
600
2475
2400
4200
600
825
2700
2775
2700
300
1275
6000
900
3600
1200
6075
900
3300
300
600
2400
300
3000
375
4725
900
675
2400
2475
1650
2250
3900
75
375
300
3000
1725
600
1500
3375
1500
300
300
2400
3000
300
75
2400
300
7875
2175
600
6750
300
300
2775
2175
3600
5100
600
900
900
300
100000
2700
2400
2400
5100
2100
3000
2100
3600
300
4275
2475
375
1200
675
675
1275
2175
600
300
300
3900
600
300
2100
2400
225
300
2400
975
75
300
2400
1275
6075
900
2400
6300
300
975
1500
1200
975
900
1800
300
1500
3000
5775
9600
300
1200
2625
3600
600
4800
300
525
300
2100
300
2400
675
375
975
600
1500
375
975
2100
6300
600
2100
975
5400
525
1200
900
1500
600
3300
675
75
100000
225
375
5700
2700
600
225
2700
75
375
1125
600
600
2700
300
1575
3300
2700
2100
300
600
3675
75
1575
975
600
2400
4800
6300
900
300
1500
4800
3000
900
900
975
4500
1500
3000
2700
4500
300
900
300
1875
1575
3600
5100
1875
3300
8100
300
600
3075
300
4200
1575
3300
8700
5700
900
675
375
2175
600
6600
525
1500
5100
1200
1500
1500
600
300
1275
600
1500
3375
2100
2100
900
2400
1500
1500
2475
300
4200
1200
1950
7800
600
300
2100
1200
1800
5700
2700
975
3900
600
5700
300
4500
1800
4500
900
2475
300
2400
1200
600
600
6900
300
600
450
975
1200
1500
300
1500
2700
3000
4500
1575
300
3300
2175
1800
1500
675
600
600
2475
600
5100
1800
4875
6000
1500
600
225
1800
1800
675
300
1800
1200
2100
3600
600
2100
975
1275
300
300
1500
1200
1125
300
975
225
600
3375
5400
2100
3300
300
300
7800
100000
4500
4800
600
100000
300
600
6600
1800
525
3000
1500
5400
975
4800
600
2400
2700
600
2100
2700
2775
3300
1200
3900
6600
75
300
3075
225
900
9900
225
75
75
4200
1800
3600
1500
300
900
6000
900
3225
1800
2700
300
300
1725
6300
600
5400
300
5400
1200
2700
300
675
300
5700
6300
4500
225
2700
2400
1575
3600
2775
3075
600
6675
825
9675
1800
600
300
1500
3300
1800
300
300
600
2100
600
975
1275
3000
2775
3000
4500
300
975
600
300
1500
4200
2400
375
2700
6000
3900
2400
1500
1800
100000
600
4500
4500
600
975
2475
2100
3900
4575
300
2700
600
300
1800
3375
600
2400
1200
300
2775
1200
600
1800
600
1200
300
1875
4800
1500
1800
1575
2025
7800
5175
2700
1200
1500
1500
225
1275
300
900
2100
1200
6900
3900
900
6975
375
3600
4200
1500
2100
2700
4275
3900
300
1200
2100
900
900
2400
300
7500
2400
75
4200
300
2700
300
525
600
900
2700
2400
1500
1200
1725
1800
5100
2775
1800
3900
2100
300
3600
1800
600
3075
900
375
300
975
2700
6000
2100
4275
1500
900
1500
600
2475
1875
2100
900
3300
1500
600
2700
3075
225
675
1800
900
5700
2100
100000
1500
600
4050
1200
825
2400
600
1275
6450
450
600
600
2100
3675
2025
1200
1500
2100
300
900
900
300
900
300
375
1575
2700
1500
4500
1200
1800
1200
900
4500
7200
675
75
1500
1200
2700
1800
300
900
300
1800
300
300
1200
1500
525
900
1125
675
150
2100
3000
100000
2025
600
2700
900
225
3300
3675
900
2400
225
600
2100
900
600
2325
4875
4200
600
1500
300
975
5775
5175
2400
450
1950
600
1800
3000
1200
3900
1200
225
600
2925
1575
300
1200
600
3300
300
975
3750
5100
375
900
900
2100
975
3825
1200
4800
2100
600
300
2100
3300
6000
3000
4875
300
600
300
600
675
1050
2700
1500
4875
300
900
900
300
1500
2325
300
600
5400
300
225
1800
2700
6375
1200
3900
1275
1500
1800
4800
3000
6300
2100
1500
1800
5400
3375
375
300
600
3075
900
3300
1800
3000
7575
6375
6450
600
600
900
1200
4800
8175
675
3225
75
900
3675
2700
1050
1875
1950
4575
375
2700
1200
3150
3300
1500
2100
225
975
4800
100000
900
3900
2700
3000
600
225
2100
7800
1800
600
3300
300
1500
5775
1275
750
4725
3075
4200
300
1200
525
1500
2400
3600
2400
225
2100
1800
2100
4200
900
900
2100
2625
75
2100
6225
1275
4200
4275
300
1800
1800
3525
2100
900
100000
7500
3300
3900
100000
1500
1200
825
600
525
2400
6600
1500
5250
300
600
1200
5700
600
3075
1500
1650
900
1200
2400
1800
1200
300
2400
5850
375
2400
4200
1500
1500
1200
900
600
3300
3300
225
75
300
525
675
1200
8700
5700
3900
2400
3600
4200
4050
8250
3600
3900
3000
600
900
1500
3000
900
1275
1575
300
600
600
1500
2325
225
2775
900
900
2100
1200
2700
900
1800
600
1500
900
3600
3000
9000
1575
100000
4725
3000
600
900
2100
300
600
2700
900
4200
2100
5100
900
300
300
300
525
6375
3600
4875
225
75
3525
1500
1500
300
2100
600
5475
675
5700
2100
1200
900
300
900
1500
2100
100000
1200
1950
5100
3000
900
4200
300
1650
6600
5100
2325
1200
675
1275
8400
900
3075
3975
6075
5475
5250
1200
5100
900
300
600
8700
600
1800
600
2100
2775
900
1200
825
300
2100
3000
975
300
1500
900
4800
9600
1200
2100
300
750
1500
6900
1500
1500
600
600
1500
2400
2100
1800
3600
2175
9075
600
1200
2400
75
150
225
2700
2700
2700
2400
1725
600
2400
600
1500
900
600
600
300
2100
300
1200
975
1800
2400
2400
675
900
1500
300
1800
6900
3000
1500
1800
1500
100000
2100
1200
300
1500
5100
6000
300
1800
1875
300
375
7575
5775
1500
75
75
600
600
2400
1425
4200
600
1500
600
3600
2400
300
900
900
3000
2700
900
2175
9675
1500
7200
1500
600
3150
2175
3675
3075
6300
2400
1275
975
675
3150
2250
300
2700
600
1800
3375
1275
975
600
300
900
2100
1200
7800
3300
1200
1500
900
675
2475
2100
2400
1800
1200
2175
2775
975
2775
1800
3900
600
300
900
600
75
7500
375
2700
1500
1500
300
3000
900
4800
900
4800
9675
75
300
975
1050
300
1200
675
3000
600
1275
1200
300
75
5400
3300
5400
3600
3300
2100
5100
300
1500
1500
300
1875
375
3375
2550
900
1500
3000
1725
675
3000
4200
2400
2700
2850
2400
1500
3825
675
4500
900
300
900
2475
900
1500
2175
2100
3600
4350
3600
3975
900
600
5100
1275
7875
300
2625
75
4800
3900
75
300
300
1200
2775
2100
1275
300
9300
1875
6675
1200
1500
6300
1500
1275
5400
2100
4200
300
100000
300
5100
3900
600
900
6000
2400
3000
1200
9900
600
3600
1200
600
675
900
3600
2025
600
2700
3000
375
2625
8100
3375
5175
1800
2700
300
525
1500
375
300
1275
75
1800
2475
2700
1500
75
675
900
675
3150
2400
100000
1200
1200
1800
1800
300
150
3000
150
1200
900
375
4275
900
3075
75
975
3075
225
75
300
300
525
1200
1275
1500
900
2100
2400
1500
75
600
2400
900
4500
1200
1575
1875
2475
1500
75
3075
900
2775
1200
600
75
1500
5475
900
300
3300
900
3600
2400
1200
675
2325
900
300
600
225
900
375
3300
900
1575
2775
300
1500
2100
5100
1875
6600
675
4575
1050
1275
600
150
1800
2400
3000
1500
600
1800
225
600
2700
225
375
1875
300
1425
2775
2775
375
975
1800
4200
375
375
1200
300
6675
4800
300
600
2100
3000
2400
2100
2400
1875
3975
2700
75
8550
1800
3900
5100
1275
2100
2400
900
1800
3975
675
2475
6000
1800
4500
1200
3000
1875
3375
5475
4800
4575
600
975
5775
675
600
600
600
3000
100000
3675
2700
1200
1800
2775
900
1200
2775
375
5175
975
900
5700
2100
1200
300
2400
300
975
300
225
1800
1200
1275
4200
2700
300
1800
2700
1275
3000
1200
1500
900
3375
375
2775
75
300
600
975
1500
600
525
1500
225
1200
2700
900
675
3075
375
75
2700
375
600
900
600
2400
7500
6975
900
2100
2400
3375
375
1500
1275
3675
975
7875
1200
6600
300
375
525
1200
3375
675
1275
1500
675
3375
1275
2700
2475
1200
1200
300
4200
375
300
300
600
900
1500
1275
225
75
1200
300
1800
375
1575
975
600
600
900
600
2475
3075
75
300
600
1800
600
900
300
3300
1500
375
1800
7575
300
375
600
1575
3075
2175
600
675
675
150
600
100000
3300
6000
1200
300
900
3000
3600
375
1275
1800
2700
3375
1800
2100
1800
3900
3375
2775
4500
2775
1800
3675
3600
300
600
2700
75
900
5700
600
975
900
1500
900
1500
2700
2775
1800
100000
300
900
900
1200
3900
1200
1800
1500
2100
1200
300
4800
1200
4800
375
600
300
600
600
75
375
600
5100
1875
2700
300
2775
2400
4575
2400
8400
5400
3000
600
600
300
300
225
900
1800
2100
3300
6900
900
3000
300
4200
900
5475
1800
7875
6675
1500
1500
900
1200
5100
4500
600
2100
600
1875
300
2400
1500
975
1200
900
3300
600
1500
1800
600
375
225
2100
3900
4800
900
1200
75
75
1500
3600
600
7200
300
4200
6900
2100
5400
975
2400
1800
1200
1500
4200
300
600
2400
975
4500
4875
1275
3600
900
900
300
6600
300
2400
150
300
1500
600
300
600
1500
975
100000
3900
675
100000
4800
375
600
1200
300
600
6375
675
5025
900
6300
2775
2400
3300
6000
7500
975
1800
900
600
1575
300
3300
1800
2700
3000
1200
600
600
2700
75
3075
4200
300
900
1800
1200
9600
3600
600
3900
900
4200
1575
825
4800
1275
1275
1800
75
675
2100
1800
100000
4500
100000
3300
6675
3300
1500
300
1200
300
300
600
4500
900
1125
1800
1200
2325
600
4800
375
225
900
300
2700
300
675
2400
1500
1200
2700
1725
600
4125
3675
1275
1725
600
900
1200
5100
3600
3000
900
900
1800
300
2100
5700
300
4500
8400
2700
300
900
900
4500
3000
300
300
600
5175
1200
2100
600
675
1800
600
1800
300
900
1200
2700
300
1200
600
1200
900
900
375
675
75
1725
300
4500
2700
3525
1200
600
3900
3000
2700
300
900
3975
1200
2700
3300
1800
300
300
1725
300
5400
2100
225
1275
375
5700
4500
300
525
1200
675
600
600
1200
2100
3600
1950
1500
1275
2400
5100
75
2700
6300
1650
2775
600
75
8025
600
225
1500
1500
1875
4200
1800
375
300
900
1575
600
300
300
3150
675
1275
3900
900
525
2175
4800
300
600
1500
4500
900
2325
4275
2100
450
1275
7875
2400
75
4200
2175
900
3225
525
1575
300
2400
2100
2400
2100
900
4200
300
2475
3000
600
75
1800
2700
3900
6000
300
5100
2100
900
1425
5400
2700
975
3600
1200
300
1200
2100
4800
3000
4200
300
2925
1500
1500
1200
600
2700
900
6000
225
600
300
1500
3000
4800
2925
3075
300
1500
600
900
3900
1500
675
900
3075
1275
375
2400
900
375
600
2700
225
1575
375
2325
5100
900
1800
1875
3300
1275
3900
300
6600
7350
975
5175
1125
300
1500
975
300
3900
600
100000
2400
2100
300
1800
2625
3675
1200
4800
5400
900
900
600
825
6000
900
1800
900
2400
975
3000
1800
2100
600
3300
1800
600
75
4200
3000
300
3600
3300
6375
6600
225
675
2100
600
8400
6000
1500
600
2400
6600
5100
300
1800
900
300
1200
2700
300
1800
1425
1200
4500
2775
900
600
1800
1875
975
300
900
6900
4500
5100
600
1800
3300
3000
3600
3525
1800
3000
3075
5550
3300
300
4500
1800
3600
3000
2475
900
825
4500
4875
2100
1500
675
9075
1800
2025
300
300
3300
3900
300
600
1275
1200
900
3000
900
1500
3225
1875
900
2400
1500
600
2700
900
7500
300
3600
3600
3600
2700
600
225
1200
1050
225
1200
3975
300
3300
5775
75
300
3900
975
3750
1350
8400
375
75
1275
600
8100
6600
1200
4500
2100
3300
600
5400
1800
1200
225
375
1200
2400
4500
6975
3000
3900
2400
1800
3900
3300
2400
675
100000
1500
900
3300
7575
975
900
7500
2175
7200
8475
75
1500
1800
600
1200
2700
1500
1800
900
2025
3900
3900
7575
1050
375
900
3675
225
5475
3375
1200
4800
300
1275
6000
3300
1800
1275
1200
100000
1500
1275
1500
3600
300
1800
3300
7200
5100
3000
2400
375
3300
1800
4500
2100
600
1200
2400
1500
1575
1200
375
75
2400
2400
3000
300
5700
900
1500
900
3600
3900
600
2100
600
2400
900
5100
3375
375
75
2175
300
9900
300
2475
900
300
5775
300
3600
1200
2775
1575
900
2100
900
225
2475
2400
4200
900
5100
300
600
6900
3075
2700
1500
1200
300
2400
2400
1800
2100
3300
3900
2100
3600
675
375
1125
300
1200
600
2700
900
3900
9900
10150
600
3375
2175
675
1350
975
2100
1200
1200
300
2175
600
300
1500
1800
1200
4800
6450
3900
6300
300
600
2475
300
3375
3450
1200
6600
1500
4500
3900
1500
300
2700
600
300
600
3600
150
2400
600
2700
975
600
675
1500
1275
1200
2400
900
1500
1500
2400
900
1275
1500
1500
600
3600
8100
375
1800
2100
3000
900
5700
600
3900
600
2700
2100
900
675
2100
2700
1800
675
3075
6300
1200
1500
1875
3675
1500
900
1500
1275
900
3000
1800
900
825
1875
7800
600
525
8100
5700
5100
1200
900
1800
825
5700
825
975
1500
600
4800
3000
2400
2400
975
6675
7500
1800
900
900
1500
1800
1500
225
3375
300
1500
300
2700
3300
900
300
1200
600
900
3075
2850
975
375
2100
2100
1500
900
300
1200
100000
5100
3300
1200
300
1200
900
4500
1275
4500
1800
1425
975
2700
1200
2100
675
1875
975
1800
1200
2400
5700
300
1800
100000
1575
100000
2400
375
600
975
1875
2700
2100
2700
600
3675
600
75
1875
300
300
6000
5700
1200
4500
1200
300
300
1800
3300
3075
3300
3675
1800
1200
1800
2100
1200
7800
600
600
3000
1800
6900
2400
2700
600
1575
900
300
300
4500
300
3600
975
2175
300
2400
1800
975
300
2100
3600
6975
1575
1200
2400
1575
2700
3600
600
300
5400
1275
375
225
975
2100
3000
75
750
600
1575
375
4500
1875
2700
300
2700
300
2400
900
300
1500
1200
600
600
375
5100
900
1875
600
675
1275
300
3900
600
600
4800
900
975
100000
2775
675
300
1800
675
4500
1500
900
300
300
1500
3675
3300
100000
375
6075
300
1800
2400
1800
4200
900
8700
2100
3525
5100
300
2100
1200
600
1425
300
1500
8100
2100
1875
75
75
300
975
900
2400
1575
5400
2400
900
5400
1125
5400
975
2775
975
1575
1200
675
2175
4800
300
3600
600
1800
3000
3300
975
300
4500
600
4800
1200
5100
2700
900
300
75
1800
1275
900
1500
1200
375
2100
300
2400
525
6600
1800
1875
1200
3600
3600
3000
300
1800
2100
1500
3000
1800
5475
600
2400
1875
100000
975
300
900
1425
1950
4950
1875
1350
75
225
1125
300
3300
1425
1800
1350
150
2925
900
3300
825
4575
8100
600
450
8400
900
1050
225
300
1950
300
3525
4125
900
5100
900
525
600
1800
525
600
3900
1425
2625
975
5625
1275
600
1500
525
300
825
2175
1950
1350
75
2475
6300
1425
900
5100
1200
2775
3525
2175
2100
1425
100000
300
2100
900
2700
600
150
900
1125
675
1125
3975
1275
5700
525
5625
2700
750
975
1200
300
150
1500
2025
1200
2400
450
2100
300
2700
825
3000
225
4425
825
1725
2100
3525
2400
4125
675
300
1950
2025
1425
1125
1200
7800
6000
4725
2400
2625
100000
1950
825
1725
300
300
900
600
1575
1950
450
2700
1050
3975
225
3900
2025
75
900
225
5700
2475
3525
2625
2025
2850
975
900
2400
3975
3000
4275
375
300
1200
3075
75
150
675
1200
5025
225
3075
525
900
375
8100
1125
2700
525
900
150
5925
3300
1800
1275
3525
2025
2400
2700
900
450
75
825
300
300
4500
3450
675
1650
300
2700
6000
6225
675
3750
1800
150
825
3225
6000
2400
5925
825
300
3750
2475
1200
2700
2025
1800
150
975
900
3000
1125
3525
2100
900
2925
300
1350
1275
1125
1200
750
600
1425
900
3300
600
4500
750
3300
225
1200
750
150
3450
300
900
5400
1500
1200
1575
1125
2700
2400
5400
100000
900
675
2400
6000
2400
2775
300
300
2100
1200
600
300
1200
75
75
1200
4500
900
4500
4800
2625
3675
675
1200
2700
1200
1200
1200
3075
2400
2100
3900
1800
3300
1200
75
3075
2100
600
300
7200
3300
1500
600
1500
2100
5100
1500
3900
600
1800
1200
600
8175
3300
300
2775
2100
300
7200
4200
1425
675
1650
3750
750
600
3075
5400
2100
300
2100
600
600
3900
1425
75
3600
1875
4200
2400
300
600
2325
5175
375
975
1800
3000
900
1275
900
300
75
5400
2700
2025
1275
100000
4725
1800
4800
2400
600
3600
900
675
375
675
3900
600
600
5475
675
300
375
675
1500
600
7875
3600
2100
300
600
4800
300
2700
225
4200
2475
1800
675
450
75
1500
4875
375
5775
600
2400
2400
300
3000
6600
2400
1200
300
600
600
3300
1800
600
1500
1800
600
300
300
600
600
4800
300
900
1500
3300
1275
600
1200
1200
1425
3375
4050
3375
1500
1275
1500
2400
1200
3675
2400
1800
300
300
900
675
600
6300
3675
1500
900
975
375
1875
2175
2400
900
3900
2700
3900
5700
3600
600
1800
3600
900
3900
1800
4275
900
225
2475
600
975
1875
1500
5700
225
5175
1500
4200
5100
2100
1200
75
600
1800
1500
2400
1500
1200
300
1500
8100
5400
2400
2100
375
300
1800
3900
3975
375
100000
5100
2400
375
1200
900
6900
75
1500
100000
2400
225
2475
3900
900
300
6900
300
1500
900
2700
3300
4500
1875
1575
300
2100
3000
300
600
3600
3675
1500
3000
375
300
4500
1800
1800
5700
3900
600
900
2700
2925
3900
1200
1800
1275
4500
900
3900
1800
1800
1200
4200
600
75
2700
1200
2100
675
2700
9300
900
3000
3000
1200
1275
4200
300
2400
6900
300
900
9600
1200
1875
3000
975
3300
1200
75
2100
6300
600
600
2100
675
1500
1500
600
2400
300
9600
3675
2400
3300
600
8175
75
900
4200
600
2100
300
600
3300
600
675
7200
1800
900
300
300
900
2100
600
1800
900
300
675
900
2700
4200
600
1200
600
1500
375
300
2100
1800
100000
600
300
1500
2400
300
1800
600
300
900
1875
675
4575
675
300
6000
300
7200
1500
300
900
900
600
2100
900
600
300
900
300
300
5400
900
3000
300
4500
1800
1800
3975
2475
1800
9075
1500
2175
1200
5100
600
900
3900
1800
3300
1200
1800
4875
600
1500
1500
900
2700
300
4800
3300
2025
300
1875
2775
900
1575
1200
3675
675
300
300
1275
75
5400
5400
600
3900
1275
975
300
2400
300
7200
2100
300
375
75
1275
3000
7500
3300
2775
2475
2100
3600
3000
1800
100000
2100
1500
2700
300
3825
1200
2925
300
3000
1200
1875
1200
600
2175
4800
1500
600
1500
300
1800
4800
1500
5400
600
300
1275
600
300
600
600
5100
1575
1650
300
300
2400
2100
1800
900
300
1500
1200
5100
3300
5100
2925
900
3000
3300
900
2400
600
1875
375
300
900
2700
1800
900
1500
300
1575
300
375
225
1200
300
600
2025
8475
6825
75
1575
2400
6300
2100
1575
7500
300
2625
375
2475
2400
2700
900
375
600
900
600
300
600
2700
1200
3000
600
75
3975
4275
3000
600
900
675
2100
4500
1425
3600
2400
375
3675
600
2400
2850
6600
2100
1350
750
100000
600
300
1800
5100
1200
1200
3900
900
2400
1875
600
300
1275
675
375
5400
3600
375
3000
900
600
300
900
3000
975
3600
3300
900
300
3600
300
1500
600
2100
3300
1200
300
375
1575
300
900
825
5700
4200
1200
4200
2400
300
600
2400
300
1800
6000
2475
900
6225
1725
300
3000
375
2700
3300
7800
3300
600
5100
300
2175
750
600
2100
225
3000
5700
2100
600
300
2400
900
1500
675
4875
975
525
300
900
100000
300
2400
600
1500
225
1200
3900
300
2775
2475
3600
1200
2700
900
3000
375
600
375
900
1800
375
600
675
300
600
300
2100
2700
1200
300
3300
300
3600
1800
900
300
3000
2100
1800
1500
675
1575
3600
100000
100000
300
2700
2325
375
1050
2100
300
600
600
1425
5100
7500
1200
600
1800
975
3000
2700
975
1500
3225
5175
1500
900
600
600
6900
1800
300
2700
3825
375
100000
600
450
1425
525
2400
600
675
4200
1500
300
225
3075
4800
5925
1500
1500
1200
300
900
3900
4200
900
900
1200
900
300
600
300
3000
6000
900
2100
1500
3300
2475
600
900
1200
900
300
600
7200
675
1200
1575
600
600
900
9300
600
1800
900
2700
675
300
900
300
600
300
1500
900
5100
2100
2700
300
1200
6300
1800
1125
675
5250
1200
900
2100
1800
2100
3300
825
2175
3600
7500
2100
3300
1500
900
2100
3300
2100
100000
5400
1800
1500
7875
300
900
5325
2175
225
75
75
4500
825
900
2100
3000
900
1200
7500
600
2775
1875
4500
1500
300
900
2025
375
2400
1800
8100
1950
375
1500
1275
3900
8400
6000
2100
4200
3075
750
900
3300
2400
900
1200
1125
1200
2700
1200
7200
1725
2475
300
300
375
225
975
2925
6075
975
1200
1800
7125
675
4800
1500
1125
4200
225
2175
600
7875
2400
5175
3300
600
1500
900
2700
1500
300
300
3900
100000
300
1500
1200
3600
1650
900
300
3000
2100
900
1500
300
4800
300
900
2100
5025
75
1500
300
100000
1200
900
900
1575
600
900
8700
1800
3300
3900
600
8775
6300
300
3000
900
1200
300
3000
1800
2100
900
300
600
300
1800
4575
4200
600
600
825
1725
300
300
2400
8175
1275
1875
2475
2700
3075
675
1500
3900
2100
2475
5475
2700
600
300
1800
3300
2100
900
7200
300
600
300
2400
5700
2400
375
3975
600
900
600
1275
1800
600
1500
1200
900
1875
900
375
4575
3600
1200
3900
1200
1200
600
1500
2400
75
2775
750
975
2700
675
375
3000
900
2100
6675
600
1200
1875
4200
1200
5100
4500
75
375
8400
2100
2475
300
9000
4200
375
2100
6900
1800
4200
600
1800
2700
1500
300
2775
1500
900
8025
900
4200
6300
2100
1275
1575
300
75
3000
600
900
300
300
900
600
4800
2100
600
900
2100
1200
1275
300
150
1575
2475
900
675
3300
600
375
9675
2100
600
1800
2100
975
1500
1200
300
1800
1575
900
6000
2700
4200
1575
600
1200
2100
2400
4875
2175
2700
3000
2700
1200
1575
675
3900
1800
2100
675
1275
900
5475
3600
2100
600
100000
300
300
300
900
900
600
225
4500
1800
3300
3000
1800
3000
2400
900
1200
300
3600
3000
4200
900
1875
1200
1500
1875
3000
6075
300
1200
900
900
600
600
600
900
2400
1500
75
2475
2700
5700
1200
900
1575
300
675
2475
2100
600
100000
3225
1800
1200
4725
1800
900
300
300
600
5700
8475
225
3300
3900
5175
9300
600
300
5100
6900
1500
375
1500
2700
100000
300
2700
375
375
900
3900
300
525
900
2100
900
675
2700
4500
6600
600
2925
1200
1800
300
1800
900
300
2400
2700
1500
1200
5100
300
3375
4575
2025
3375
975
300
825
75
2700
1275
1200
3675
375
1275
1200
1800
1500
6900
1800
3900
2175
375
2775
375
3675
1575
1500
3000
1275
675
675
4200
675
3075
600
3300
1500
4200
1200
600
1200
4800
900
300
675
4200
900
1500
3300
600
300
675
2475
4275
2325
675
600
300
1200
2100
300
8400
300
3825
300
2400
2700
4800
3000
900
6600
3000
2400
2100
225
2175
3300
3675
900
3600
2700
1200
675
225
375
600
900
900
1575
300
300
300
1125
1500
1200
7500
4200
3375
1800
1500
3000
900
2400
3900
2100
600
3300
1575
3900
1500
900
300
1200
5175
600
900
2400
3075
1575
1500
4800
3600
900
300
1200
1500
1500
3525
1200
100000
2100
4200
300
2700
2100
3300
525
5100
3900
1575
975
2100
1500
900
1500
1875
1500
1200
6000
2100
4800
1200
3075
600
900
4125
900
600
1800
1425
600
3900
100000
2400
1800
2700
900
2700
900
900
900
3900
2700
1800
1275
600
100000
600
1200
1800
300
600
1875
600
7275
1500
300
900
1575
2700
2100
2475
3225
2700
3300
7275
2100
375
300
5400
4200
1500
900
3000
3375
1200
300
225
7575
900
1875
2700
3900
675
1200
2400
3600
3300
975
6075
4800
900
2475
2100
1800
2700
2700
2100
4200
2100
1800
600
300
1575
5250
2775
3900
600
1500
4200
3375
600
300
300
225
75
1575
1500
375
3900
8100
1800
150
2100
1800
1575
4200
8175
5100
4200
6075
75
900
2100
975
2175
1500
900
75
7500
2400
3000
600
2700
300
1800
2400
2775
1275
900
5400
1500
3300
600
1800
375
825
4200
1800
75
2400
2400
2400
600
1200
900
6000
300
2175
3900
600
1500
4800
600
3000
375
3300
5100
675
1500
2400
975
1200
900
1425
1200
7200
75
675
1200
900
1800
4200
2925
1800
4800
2400
600
1200
900
8775
2175
300
300
3000
1200
2100
8925
2400
3600
1200
300
1200
975
8175
1200
100000
3975
2775
3600
2100
1800
3000
5400
1500
8700
5175
300
8925
2100
600
4500
1800
1500
1800
2700
150
5100
900
300
3000
5700
900
1800
2400
3900
4500
300
4800
5100
1200
375
4500
1875
75
75
2025
3000
100000
1200
7200
3900
900
2400
1500
1200
2700
5100
2100
1200
2700
2775
600
600
300
300
600
5100
4500
6600
300
600
1200
1500
300
2700
2175
750
900
2175
1200
600
300
2100
300
2100
3675
600
1200
1500
4500
1575
6600
2400
1500
1200
2700
600
4500
900
1200
3000
900
3300
4500
1200
3075
600
4200
4800
1200
900
3600
5700
2700
600
4275
2400
900
300
6000
900
7200
300
4200
600
1800
1500
4200
900
600
2925
1200
1200
1200
300
1800
600
8100
2100
1500
1800
600
3000
3000
2100
2100
2175
5100
3900
2775
600
600
975
4500
1800
2775
900
1125
5175
3300
525
375
2400
1275
675
4200
1200
4500
300
375
1875
1275
1500
600
3000
300
9300
6000
1200
3900
1500
1800
1800
2175
1800
300
2100
300
1875
3000
2100
3000
1800
1800
2100
300
600
1275
1575
1275
1500
600
1500
600
6600
2700
2400
5100
3300
3000
1275
2700
150
1200
600
600
300
600
900
300
225
4200
3000
100000
300
2100
1500
2700
2700
300
4800
900
9000
2475
2475
5400
300
900
1500
3300
900
2400
900
4800
600
300
1500
2400
1125
9000
600
2100
5700
1275
1275
1800
1125
2100
4500
300
225
2175
900
1500
300
1200
300
3375
2100
2700
375
1050
2400
3600
1500
4500
1200
300
600
2700
100000
2100
300
600
1500
1500
600
900
3300
3900
4200
825
375
1800
2700
900
5700
300
2700
300
300
675
1800
600
3300
5400
2100
75
3000
1800
675
2100
3600
300
1500
2400
3000
4800
300
4200
1800
2700
900
1200
3000
1200
600
6600
300
100000
2400
300
1200
4200
900
3375
5400
2100
1500
300
3375
375
7200
5400
4200
1800
300
975
1200
1800
3900
3000
375
150
1800
4800
5400
1425
6900
4500
600
600
3900
1200
600
2700
900
3750
1425
75
75
3900
1425
4875
2400
600
2400
2775
8700
600
300
300
3000
600
1200
100000
900
600
3300
2700
900
1500
3300
1125
5100
4800
900
3000
600
675
7875
1275
1800
1800
4800
1800
1800
600
3600
600
975
2400
2175
4575
2700
3900
3000
4800
4200
1275
1425
1875
2100
1875
300
900
3000
1500
300
1575
975
1200
900
300
375
600
1575
1275
1275
1200
2100
1800
3300
600
1800
600
1800
600
600
600
1200
2100
3000
1800
600
600
375
1200
3300
1800
675
900
3300
3900
975
600
225
675
2100
675
1800
4800
975
300
3000
2400
2400
300
100000
3675
2400
2100
7500
1800
4875
600
3300
3600
3825
1500
2100
300
4800
300
5775
600
4800
2100
375
600
675
2250
825
675
1875
1200
675
2400
300
1200
75
300
75
900
100000
3300
2400
1200
4200
4800
3300
3525
3300
300
600
3900
375
225
3825
6075
1275
150
2400
375
750
975
3975
600
900
600
300
300
300
1800
2700
3000
1200
900
3000
600
300
2175
1650
1575
3000
2475
2700
2100
4800
2400
1575
9000
1125
375
3900
600
4575
2475
1275
450
2100
975
225
75
3000
3000
1950
600
1725
825
1425
2700
2775
4200
3900
450
1950
2475
4800
5475
5475
2175
2100
1500
1200
6000
375
7575
3300
6975
1725
2625
1500
2700
300
2700
375
2475
150
1200
3300
2475
1800
2025
3900
4575
7875
1275
900
9000
2550
675
1575
4800
225
1500
4275
300
375
225
1200
1200
1725
5100
225
900
225
1800
2475
1200
2400
4200
1575
300
975
150
1500
1800
300
900
600
2700
825
3600
600
300
2700
3000
3975
1275
375
7200
300
675
600
600
900
8700
1350
3600
1200
7500
375
5775
4125
375
375
1125
2400
1650
675
1275
375
975
600
1650
1275
4350
1575
4050
300
600
1275
2700
525
1500
1800
2400
375
600
975
1875
3675
1500
900
3600
6900
9300
1200
750
1050
150
1500
1350
1050
450
2700
5775
6075
2850
1125
1800
150
4200
100000
2475
4800
1875
1650
1275
6375
4200
6975
100000
2700
975
100000
4875
2400
2100
2175
975
300
100000
75
2100
1275
2700
600
2700
3600
1575
1200
1200
7500
300
1500
2400
1800
4200
4500
4500
300
900
1275
375
675
75
900
900
300
3900
2400
75
1200
2100
900
2700
2775
1500
1200
300
975
600
6000
900
1875
975
300
600
300
600
1650
975
4800
1800
2550
600
75
3150
3375
8700
300
5100
600
1200
2700
900
2400
1500
1200
1200
2100
100000
600
75
600
1200
6375
600
1275
675
2775
4500
2100
1275
4500
900
1800
4800
1800
375
1800
3975
3075
1200
300
2700
600
2100
675
1875
300
2100
600
525
4500
300
300
2100
1200
3675
750
900
1500
300
3600
75
375
3975
675
2100
600
1500
6300
2100
300
2100
1500
2400
3900
2400
1200
900
1200
1800
3600
900
75
1575
6000
1800
6600
1200
1500
2400
3900
3075
900
2025
1275
375
900
1350
1875
3000
2775
1800
3675
300
1125
75
75
600
2100
1200
300
1275
900
225
2700
1800
2400
1500
2100
1200
900
3000
1800
1425
2250
75
2400
900
1800
600
1500
225
1500
300
1200
1800
75
375
600
3900
2400
675
900
2775
1200
1500
900
2625
900
5400
75
3675
675
600
1425
975
900
6600
4575
675
600
1800
3900
1800
2100
300
3000
6375
900
600
1200
3075
6975
6300
225
825
600
2400
2700
1575
5775
4500
2400
3075
75
225
75
2700
900
6300
3600
1275
975
300
2775
300
600
100000
900
1200
1200
1500
3900
1500
975
1575
2700
975
975
300
900
675
300
300
300
900
3300
675
600
2175
7200
900
1800
900
600
600
4500
300
1500
1800
1275
2700
3600
1500
600
300
300
300
2400
300
900
2400
8100
1200
3000
900
1800
900
6900
300
600
600
1875
2400
375
3000
600
1800
3900
300
2175
600
3375
2400
3000
300
3300
1275
75
3300
600
3975
5400
3300
675
1800
75
1275
675
900
600
300
1500
3900
1200
6600
4800
1500
1800
975
975
300
75
3300
300
600
600
1500
2700
1275
300
75
975
4500
600
375
600
1800
1275
1875
2400
3000
6675
3075
1875
375
375
75
1200
2100
3900
375
900
600
900
6900
975
2475
300
2100
3300
1200
300
2175
75
4275
375
600
8100
675
600
1875
375
600
900
600
6300
3300
3600
300
375
900
1800
2100
300
5400
1200
600
600
600
600
2175
975
975
3600
5100
100000
600
900
2700
3600
1200
4875
300
975
4200
3000
375
1800
300
3000
3975
300
300
1275
2475
300
3000
600
2700
2700
1575
2175
1875
300
75
2700
300
1800
2100
900
1200
3675
3675
675
300
5100
5400
3675
1500
600
2400
5700
1275
75
375
975
1275
600
1500
900
3600
600
600
2475
1275
1875
2100
1800
2175
75
2700
2700
2400
75
1500
300
600
600
600
2175
2775
900
2100
3000
600
300
600
3600
1575
3000
1500
4500
1200
600
75
2100
3000
7200
4875
300
3900
375
5475
300
1575
600
375
3900
100000
1200
300
2775
300
600
600
4500
1200
900
5400
4125
600
4575
300
4200
2175
1800
2400
1500
1200
3000
300
300
3600
1575
75
3300
4800
6525
600
5400
1500
600
2400
3900
2100
1200
2400
2775
75
300
1275
1575
600
3300
2700
3000
6000
3600
1575
3600
2100
300
1500
4500
100000
900
300
3075
600
900
5175
1200
5400
1575
4200
3300
6300
3600
600
2700
900
375
1200
75
300
600
1500
1800
4575
600
6900
3975
2400
3600
1800
2700
6300
2100
4200
3000
300
6075
1575
300
1200
7500
375
3900
300
6600
1200
600
3000
300
1200
600
2400
900
2400
600
3375
1500
1275
1200
2400
900
600
2700
300
3000
4800
1500
4200
3600
2175
300
1275
675
1800
2400
2400
3900
3300
2775
3000
3000
600
900
4200
600
600
1200
1800
6600
300
5100
300
6300
900
975
1575
4800
1200
1575
375
300
3900
3900
1500
2100
2400
300
300
1500
3600
4200
1575
1500
1500
3600
300
6900
5400
6900
100000
225
375
5700
300
3675
2100
1200
2475
975
3675
2400
4800
1200
675
4200
900
3375
600
1500
3900
2175
300
300
1275
4575
1800
2400
5700
600
1500
1425
375
600
1200
4800
4575
3900
225
1200
100000
1275
2400
1200
3675
2100
900
300
300
1200
375
2400
4200
600
300
2175
2700
1800
8100
2700
6000
300
300
975
600
3600
300
3600
2700
300
2400
2100
2100
2100
1575
1500
9300
1800
3900
3300
300
2775
1800
7500
1800
2100
675
3900
4500
1500
2700
900
6900
2400
9975
4050
375
600
75
2100
6000
4200
2700
8625
2700
900
2400
3600
900
1800
4275
3675
300
2100
1800
900
3300
2700
3675
3300
3300
4800
9000
600
1500
2400
1950
3000
2700
1800
375
975
1200
1200
900
2100
2400
2100
1125
375
3900
6000
4875
1275
1275
375
2400
600
600
600
75
375
600
2475
675
300
5700
300
2175
300
900
600
1200
975
5775
1200
2775
4575
6900
1650
300
1800
6000
300
375
2100
3600
1800
1500
600
5100
1500
3900
675
2100
975
300
3900
900
600
300
1500
675
3000
3000
600
900
1800
2700
3000
4500
4200
2700
1200
3600
1500
825
1200
3300
600
900
1800
75
300
300
825
900
6900
300
300
6600
2400
1800
900
300
975
75
2400
900
2400
900
3000
600
600
75
1200
1275
5700
2700
3300
975
2100
1650
3300
600
600
3000
1800
2100
5100
525
3300
600
2400
1575
4200
3000
3600
900
3300
900
4200
4500
900
2400
2400
3300
1200
1500
300
600
900
2400
100000
2400
225
6600
3000
900
900
7575
1800
900
2700
2625
1200
1500
1200
900
1200
3300
2700
2025
1575
1500
1500
2700
900
600
3300
2175
300
975
300
2700
6600
8700
3000
4500
600
3600
5700
2700
2925
600
1800
1500
2925
3975
900
300
2100
3000
3375
600
2775
75
9600
450
450
1500
300
5100
300
3300
900
1200
3300
5100
2100
1500
2700
675
1350
4200
1200
5100
3075
375
600
2400
300
2400
2100
3300
900
6825
7275
2250
300
1200
2100
8100
600
225
975
900
1500
1800
4800
1200
3000
1500
2700
300
600
2400
1200
300
7275
1800
2100
900
2700
2700
300
4125
900
2625
1200
4200
3300
900
300
300
75
1800
300
900
375
2100
900
2700
2700
2100
2400
5400
5100
900
1200
300
300
900
600
1275
225
975
300
900
1800
300
1875
450
900
2175
300
4500
300
3900
3900
2100
8400
300
900
2400
1800
825
2700
2700
1500
4200
5400
900
975
4800
1200
300
1800
600
1500
3900
6150
3000
2025
900
1500
225
1800
5400
300
1200
600
1725
600
6600
1500
600
3000
3300
3300
900
3000
2700
600
300
2400
1725
6000
975
975
4800
600
300
2400
525
825
2175
4500
150
2100
2400
2400
6000
1800
1200
1200
1200
3825
1500
975
3300
1500
600
1425
4275
375
1650
600
300
225
1575
100000
300
300
1800
675
300
600
300
3600
1200
3300
2100
900
3000
6900
1200
2700
4200
75
300
1800
2400
2700
900
975
3900
1800
3975
1200
975
900
7500
2775
2400
75
600
7275
1875
1275
375
1575
1800
2100
5700
975
675
1200
4500
975
3900
2700
675
4875
1500
1275
300
3000
300
1500
1500
100000
5475
675
3900
4200
300
3600
1500
600
975
3600
2400
300
3375
975
6300
375
4575
225
75
300
375
1275
300
2700
3300
1800
300
900
6000
1200
6900
1800
5700
1200
300
300
1800
600
1500
675
900
3975
900
675
100000
3300
2100
2775
600
1575
1800
600
1500
1200
1800
1500
2700
300
1275
300
3300
2100
2175
3600
1200
3000
300
900
900
1800
1200
3600
3900
900
2700
900
1500
1200
3075
75
4500
2100
2700
2400
1500
600
300
2700
3000
5400
600
3000
1200
100000
3000
900
375
600
3300
8775
1800
600
2700
600
5100
300
2400
300
2100
4500
3900
900
3600
300
900
75
6375
1800
1800
1500
3975
2100
900
7200
2100
600
6975
4575
975
1800
2700
150
2100
675
675
2400
1500
5100
3000
975
675
1500
1500
3300
3900
2400
3900
900
9600
300
8700
300
5700
3075
3600
900
6600
600
2700
2700
4200
100000
750
1650
1500
825
600
900
2100
1125
75
3900
4800
900
3300
1500
1200
600
4800
3075
1575
300
3900
600
1875
1200
600
1200
300
3600
3900
75
75
1800
3300
1200
5475
1275
2025
2100
1500
900
1800
2400
2100
1500
2250
1500
675
750
975
1800
2400
75
1125
1200
1425
2100
2700
3600
3975
600
825
3225
375
6525
3075
1200
825
2775
2250
525
2100
1275
3675
825
2100
2700
300
300
5400
900
1200
2400
3750
2850
300
300
600
1500
1200
975
225
3300
600
6000
1500
3375
300
5700
675
2100
1800
900
3000
375
1500
6900
2400
225
1500
2100
3225
4800
1200
300
750
4800
9000
3600
4500
6675
2100
1200
4500
2325
900
1200
675
1200
1875
1425
3000
900
2025
5175
4275
300
300
3600
900
4875
75
600
2100
4275
9075
3600
75
1725
1200
900
225
2700
2775
1275
825
75
5550
900
375
1500
1800
1500
300
2475
5775
1650
5550
825
1200
3600
5400
3300
1500
225
300
6975
1200
5400
1500
900
1200
300
675
825
5100
525
375
3675
375
375
75
2400
2400
3600
300
2100
3600
1200
300
900
300
1275
5850
5100
75
1275
7500
900
825
600
900
1500
375
300
3300
2475
600
100000
1425
2700
3750
600
75
975
1425
300
1500
2400
3225
2175
450
300
3600
4275
1200
1200
4125
300
900
150
300
300
4200
1500
1200
1650
3300
1500
900
