525
9150
3675
1725
2550
1050
1125
1650
750
7650
1650
3450
750
2925
7950
3450
6750
2025
450
1950
5250
1950
2250
4350
750
2850
1050
4950
1650
5550
3450
1050
450
1350
4350
7875
3150
2250
6750
2625
2850
3075
4650
4650
1950
1350
4350
3225
4650
5925
9750
1050
450
2550
3525
3450
450
8250
100000
2850
5625
1650
2850
1050
450
3750
2550
450
1050
3750
1050
5850
3150
1050
5550
3750
1950
6450
2625
750
975
1725
4650
2250
2250
750
4350
3750
3450
1050
3750
2850
1950
4125
2550
4050
4125
825
2850
1650
3750
100000
100000
1050
2850
1650
3450
2775
5250
10150
2250
1350
2250
3150
100000
100000
7350
1425
1050
2250
750
1875
750
1050
1950
450
3150
450
4725
1350
5250
2025
1050
2475
1950
1950
2850
1650
3150
5550
2250
1950
750
1950
1350
1350
675
3075
825
1950
1050
1575
750
1350
3375
3150
750
3150
2250
525
1050
1950
2250
450
1950
2550
1650
5550
5550
3750
2850
3825
100000
2175
1650
1950
2250
450
7350
7050
750
450
2850
1350
450
2250
1350
1350
100000
750
3750
6450
2250
4650
525
450
2550
1950
2250
1050
1950
450
3750
3450
1350
3750
1650
5850
525
100000
2250
1350
2250
1575
75
3825
1575
1950
1725
1125
1950
2850
750
2025
525
2325
2250
2250
750
4950
750
8550
1050
1650
1275
2550
1650
1350
6450
3750
2625
1050
1650
6750
1650
4050
5850
750
1950
7650
4950
8250
4650
750
3750
750
450
7050
750
3450
3450
750
750
5550
2025
450
6825
1425
825
750
975
450
5550
4650
1275
450
675
4650
2850
100000
8250
1950
1650
1950
4050
2850
3750
750
750
3750
1050
2250
450
450
450
2850
450
100000
1950
5850
4050
3750
1950
750
450
1650
450
1650
2550
4650
1050
7725
4350
2250
750
1650
2325
450
750
4650
750
1050
675
4650
4950
4050
1125
1350
3750
7050
2250
2625
825
7575
1050
3225
2250
1050
1050
7650
2250
3450
525
6450
2775
5850
3150
2325
3150
8550
4950
4050
2250
4050
2925
4725
7950
100000
1350
750
5850
450
1350
4950
750
975
1650
675
2175
1050
3150
2250
1050
3750
3450
2550
100000
3150
1950
1575
2175
100000
2550
6150
4650
675
2775
1650
9150
750
2550
1050
5025
1275
2250
8550
1650
9150
3750
2175
4050
450
750
7350
6975
1650
1650
450
750
1050
1950
1650
3750
1350
1950
6450
5550
1950
1350
5850
100000
1350
1950
2250
750
7950
2550
1350
3750
3450
2550
3750
750
4050
750
450
4575
1650
1650
2850
4050
100000
75
3975
1875
1050
3750
75
975
9975
450
3150
1050
1650
1050
1050
7350
3000
1275
1050
4350
1950
5175
750
750
450
2550
375
1575
2475
100000
3150
975
750
1650
1050
375
5175
3450
750
4350
4350
2550
2850
3075
1050
2250
450
3150
975
3750
100000
1350
1275
2025
2175
1575
7350
3150
3450
2250
1050
1575
2325
10150
4275
7575
1050
100000
750
1275
4050
4650
375
2250
3375
5850
750
750
100000
9150
4050
3450
1050
450
3675
375
450
100000
4725
450
5550
6450
2325
2550
2850
3150
450
1650
6150
1350
1050
7725
9225
2025
750
2850
1050
1350
9150
3750
750
2250
4650
450
100000
450
3450
6450
3750
1350
1950
825
450
5550
675
1950
4950
3150
2550
2550
2850
1125
975
450
5850
7650
1125
525
1950
6750
3225
2925
3450
4050
3150
675
675
450
1125
4950
3150
7650
3450
7350
5850
5025
9450
100000
375
4050
1050
1125
825
4050
3525
3150
1350
1125
750
5850
100000
4575
1050
675
8850
1050
7950
6450
1950
5625
1350
3150
450
1050
1950
2850
1650
4725
1650
2250
1050
2250
2325
6150
4050
1050
4425
1950
100000
3450
8550
1050
3525
750
7050
1650
4950
2025
7050
1050
1350
3750
8250
2925
1650
2250
4050
2925
6450
2250
8250
3750
4050
375
4650
3750
2850
2025
750
750
450
1950
4650
6150
2850
3150
7425
3225
8175
2550
1050
1050
1650
3750
6150
5850
100000
2325
2250
6750
825
2850
8925
450
4125
1950
8850
525
3150
6750
1050
2625
2250
2025
1875
1650
1050
8550
450
3525
9750
1350
2325
2925
450
1650
2325
1125
1425
6525
4950
3750
3075
1350
1050
2025
825
1725
5250
1050
450
3150
1425
3525
825
825
1650
100000
5925
1125
9525
8025
750
1725
3225
1725
750
2250
1725
4725
1725
8325
3225
3750
4725
1125
5625
825
6825
2325
2325
2850
5925
2325
525
525
525
450
4725
1425
7725
3150
3525
1725
825
1125
2850
10150
2925
1050
1650
525
9450
5550
825
4575
750
525
6750
525
525
1050
9450
1350
1950
2850
5625
2025
6450
9525
825
2025
8550
375
4650
1425
5025
825
2250
4950
5925
3525
1650
825
750
2325
5625
525
6525
450
7050
525
6225
1425
4725
5550
10150
1275
5625
7350
1125
1650
1050
4125
6150
4050
3450
1125
450
100000
1725
3150
1425
8250
4950
1950
3450
825
450
1425
2325
2850
4650
450
4050
5550
1125
1125
1425
5925
100000
1350
525
2025
450
750
2325
8550
2625
1650
1950
2625
2325
525
1350
750
3150
100000
100000
1050
4650
1650
3450
1650
4950
4350
1350
1725
1050
7350
825
1650
1425
9525
2850
3150
2550
2025
750
750
2625
1350
1725
2325
750
3150
1125
100000
1125
3150
1350
450
5625
750
1725
750
100000
1425
2625
6150
1050
2625
750
525
450
9750
5325
1350
6750
2250
4425
825
450
750
100000
3525
2850
5550
4050
1350
450
450
2325
1050
525
3450
4050
3750
525
3750
1950
1050
1050
750
1050
1650
4350
5925
1425
7950
1350
1425
750
1125
450
4350
3750
4050
100000
4950
450
1050
750
450
2925
2250
750
1050
1425
1350
5550
1425
6450
525
1050
8850
2550
4050
450
1050
7650
1125
825
7425
2850
1950
1425
4350
1650
1350
3150
3825
3150
4350
2550
6150
3225
825
525
6450
750
2850
1125
4725
3150
450
2850
2025
825
825
450
450
4650
8025
1950
4050
2850
3750
1650
3750
750
2325
100000
450
2850
4950
3150
450
3075
3750
4650
8325
1650
1950
5850
750
1350
4650
3150
2550
1350
5475
2250
450
1350
2175
450
975
1050
3450
8550
1350
1350
7650
375
6450
1050
1650
1125
1050
2250
1275
7650
3750
1050
3750
750
2550
6750
2250
450
1350
2850
8250
3750
450
1425
3450
2850
100000
1050
4650
100000
5850
3225
1350
5025
1050
750
1650
3150
1950
1050
3825
3150
525
375
4050
100000
2850
1650
3750
4350
2550
450
5550
2250
4350
4575
7350
2175
6525
2850
10150
1950
4350
2550
3150
6150
3150
450
9150
1575
450
750
100000
300
750
2850
3150
450
750
100000
1350
1650
450
1050
1050
5850
1650
750
1350
4950
450
750
2850
8475
450
1350
2550
1050
3150
1650
675
1350
2550
1875
4650
7650
750
2250
8550
450
1050
450
750
6750
6150
2250
6750
675
2250
5550
1950
2550
1650
8550
450
4725
450
100000
750
450
2850
10150
450
3525
1650
4950
1050
5775
150
1650
1350
9450
750
2250
2175
750
450
4350
8250
8925
6750
4350
4950
1350
450
5550
1050
1650
7950
1275
1350
3750
2550
2250
1725
2550
1425
2550
450
7650
2250
1275
1650
750
3450
1650
375
4050
1050
1050
450
2550
1050
1350
2550
3150
7125
1050
975
2775
3150
750
3450
1050
750
1650
1950
2550
1050
3150
2550
450
525
3750
3450
2250
450
1650
1050
2250
450
3150
450
6750
750
6150
7050
1650
2250
5850
750
2850
2550
4350
3150
6750
7050
825
450
1050
2550
9975
750
450
450
2850
2250
750
3075
1050
5850
1650
750
2475
7350
750
750
3225
3150
1350
4950
4950
1050
750
2250
450
1650
2850
5250
450
1350
5625
3150
9750
2850
3675
9750
1050
1650
3450
8550
3750
450
4950
2850
100000
450
1650
9150
4950
3450
8250
7050
2550
1350
1650
4950
1650
4650
2475
1650
1650
750
3450
450
2850
1350
6750
2175
1950
2850
2250
1650
1050
100000
375
3150
450
1350
2250
7650
2250
6450
6150
750
1350
450
2850
450
4650
100000
4875
5475
4650
75
1875
3750
975
450
1575
2475
975
450
750
3450
3375
8850
6750
7050
4275
1350
3150
1350
2250
375
6450
8475
2550
2250
1050
1050
2250
4950
975
1650
1350
2175
1050
450
750
4050
2250
1650
5850
9375
6375
5250
2550
1650
1050
6450
4350
5475
6450
100000
1950
1650
2475
2775
2250
3750
7350
3975
2250
3750
1275
1950
7050
3750
1275
1650
1575
2550
750
1350
4950
4050
1650
1650
1575
2250
7275
975
1350
2850
1650
3450
2550
7650
750
1050
2850
1650
100000
450
4350
8775
3975
1650
1275
5850
4875
1050
750
1650
100000
6750
2775
2250
375
3150
1350
3450
3150
9450
100000
4950
975
2775
4950
975
3150
975
600
1950
3975
1350
1875
5550
1050
100000
975
2850
1050
100000
1575
675
1050
375
2550
5475
2175
3375
1050
4950
1350
7875
6750
4650
9450
1350
2175
450
450
2250
1050
450
7950
750
1350
2250
1050
1050
825
3750
750
1350
750
3450
4350
1350
7650
5850
100000
750
450
3150
5550
450
5550
2550
1050
450
2175
3750
450
100000
450
750
1050
1650
3750
750
2850
1950
1275
6450
3150
8850
450
1650
825
1650
1650
3750
825
2175
1350
1050
1050
5850
1650
2850
4350
100000
1650
1650
8475
450
1050
1650
450
975
4050
1950
5250
1275
2850
3150
1950
6750
1650
4650
2775
1950
1650
2175
1350
3975
1650
3375
4950
2625
3750
1350
450
1875
450
750
450
750
4350
3150
4275
5475
1050
6075
3150
2775
6225
4650
750
1350
1950
450
1050
2250
1950
2175
2250
3375
6750
4050
2250
2250
1650
2325
750
7050
6150
2250
1350
1350
2550
1650
2250
750
2850
1650
2850
1350
1050
2250
3150
1350
750
450
5175
1350
100000
2475
3150
1050
2550
2850
1875
4050
750
450
5850
3750
4350
5550
3750
450
750
100000
450
6150
8550
6150
2250
3150
1050
5850
1050
2550
5475
5250
4950
1950
1350
2250
450
4950
6450
6150
1050
2550
100000
750
100000
4575
1350
450
1650
4050
1575
6825
450
975
5550
8775
4650
2550
450
9750
2250
2250
5925
3150
450
7575
825
75
4200
2850
2550
2550
1950
1050
3525
450
2250
750
2925
450
4650
450
525
750
1050
3450
3750
2325
1950
3450
7725
1650
450
1725
1950
2250
6750
1650
2850
1125
6150
1950
4650
375
1350
1050
1350
450
2850
3450
1350
1275
2250
3750
375
1050
1650
4650
1950
825
1050
1650
3750
525
750
6750
750
675
975
1050
1050
1350
1650
525
4650
3150
750
2550
1350
2250
3450
1350
3750
1950
1650
750
9750
1275
2325
3750
2250
2250
3750
1650
6750
4650
1125
525
750
2250
4350
1050
3150
525
2175
2850
7050
3450
5550
675
525
1950
3075
8250
450
1950
1650
525
100000
1350
1875
100000
3150
9750
1050
4650
2025
1950
2850
1950
2550
1650
2325
1650
1650
1050
750
4350
975
1425
3450
100000
5850
1425
450
2250
7050
7050
2625
3150
1350
825
750
375
2025
1050
1650
975
2850
1350
3450
750
8025
750
975
6750
4950
7950
2625
375
825
4950
2550
1350
450
1050
2025
7950
2850
5175
9450
675
1350
2550
2250
750
1950
4275
3150
3750
5550
1050
1950
4950
1950
2850
3450
675
4050
4050
6675
1050
1650
3150
2550
10150
3225
4950
450
6150
3450
450
750
3450
750
4950
750
450
3750
1650
750
1950
1575
450
3450
2550
2550
2250
1650
5550
8850
100000
4950
5025
4650
5025
450
1650
9450
2850
7350
450
7350
1050
1425
5475
750
4650
6150
2550
3450
3450
6750
3150
6750
5850
2550
1725
3150
1050
450
5550
1050
2250
750
2850
975
1050
450
1575
1650
1275
3150
2550
2550
3525
1425
6750
1950
675
2550
4575
100000
1650
1050
450
1650
1275
5250
1350
2250
750
1050
750
2550
5550
1350
1050
5550
1950
6450
8025
1050
450
2850
450
1350
5250
7050
1650
2925
3750
750
4950
2550
9225
7050
750
1050
450
1050
4050
6450
1125
2250
3150
4650
750
450
1350
4050
3450
1350
450
2625
750
2250
1950
450
3675
3150
2250
1275
100000
6450
4950
1650
1050
1650
3150
750
1650
3750
1425
1050
1650
5625
3450
4725
1050
450
6825
1950
1725
825
450
4050
4725
1650
2850
4125
1275
3150
2550
5550
450
2250
525
2025
4650
1350
825
7350
1425
3450
4950
7275
2325
5775
5325
7350
2250
1350
750
750
450
1350
1650
1725
1050
2850
5550
1050
1425
1650
2250
750
7350
1650
1050
2250
6525
1725
4950
450
1950
8325
3450
9525
1125
4950
450
7425
1275
1050
1050
1350
1350
1425
3150
675
750
5850
2550
6150
1350
1350
5925
4650
2850
2550
6150
525
100000
5775
1050
450
1050
525
9150
7725
2250
4950
2325
1350
6825
525
450
1650
1725
1950
3225
750
1350
4350
750
4950
8025
2250
750
1650
525
1425
450
1950
5925
450
3150
750
1350
1650
4050
6150
2550
2025
2850
3150
6150
4350
4350
7050
1125
4050
750
450
1050
7725
3750
750
1425
7650
100000
450
525
2850
1125
2250
825
5025
525
7650
4650
3750
6450
1275
3150
675
5025
5550
7125
3450
6150
6150
750
2550
2325
1125
2325
2250
450
2850
1950
750
100000
8250
5625
5625
4350
1350
2550
3750
3750
1950
450
2850
675
1350
1950
1425
525
3450
8550
1650
8625
1125
100000
8850
7050
1425
1650
7125
4275
450
2550
2550
525
750
100000
1050
3450
450
3150
4050
300
825
2850
825
1050
4950
1650
1350
450
750
2850
825
7650
5850
2550
450
450
1650
100000
1050
750
750
1050
2850
450
2850
4650
1425
1350
750
2925
1950
750
8550
750
1050
1350
1050
1050
4950
750
5250
1575
1050
2550
1875
2250
450
750
3750
7350
3825
5025
750
450
5625
1350
5850
2625
8250
6450
4350
525
675
3150
1650
1725
5550
7350
375
6750
3750
100000
3150
1950
2550
1350
9450
6450
2850
1875
2925
450
1950
1050
3750
100000
2550
5250
1050
450
525
8625
8850
450
3450
1650
825
1125
450
750
2850
1050
525
2025
4050
3750
1650
9750
5250
450
3750
450
750
1350
450
1350
1350
3150
3750
3450
6150
9450
1350
3150
3450
2550
1650
1125
1050
150
2025
3750
6450
1650
750
4650
1650
9225
1950
1350
1350
1425
2325
3450
2850
1650
450
4350
1650
3150
450
1350
450
2850
5025
1950
1350
4050
1650
750
750
750
1050
450
1650
2250
1725
3750
3225
1650
2325
1050
3750
2625
750
1950
3525
2850
4050
4950
525
8550
750
1725
1050
3450
4425
6750
4350
3750
750
7050
3450
750
1050
2625
450
1125
4050
5850
675
8250
4050
2550
1950
2250
2250
3450
1950
1950
5025
4050
7950
825
2550
5925
4050
1650
1650
2250
100000
5550
3150
1350
450
2250
750
2850
675
750
6450
750
450
1125
825
2850
1950
2925
1350
1350
750
1050
1650
375
1725
750
4425
1350
3450
7650
450
1050
1725
750
1350
5550
5250
375
3525
2250
2550
2550
1350
3750
7050
2250
2250
4050
4050
8550
1650
450
450
100000
6525
1950
5025
2250
2250
5550
1425
7650
8250
4350
1650
1050
1950
1050
825
2550
4650
1950
6825
1125
3150
750
5250
3750
7350
450
1350
1650
2250
1425
7650
2850
2550
5550
1725
3375
1350
2625
2850
3750
2550
4575
4950
3525
750
1650
1050
7350
8025
450
750
1350
1125
750
1050
4350
1050
1950
750
1950
3150
4425
2550
9450
3525
1650
9375
4050
1275
2250
4950
5250
6450
750
1425
5550
750
1050
100000
1050
1350
5550
825
450
1950
1650
2175
4050
750
7650
450
450
7350
750
375
450
2550
450
2850
1050
2550
450
1350
1050
4650
750
1950
1050
1050
7650
2025
1650
2250
2850
4950
5925
450
2850
1950
1950
1875
4125
450
750
1650
5850
3750
450
6750
1650
1350
1350
450
1425
4350
825
1950
1350
5550
1350
1050
1950
2250
750
750
1650
1275
450
2250
4950
750
3450
3450
2550
4950
1950
1650
4650
7650
6750
2850
1350
1950
450
4050
1650
5250
3825
4350
750
1650
1650
2550
5550
3750
5850
1650
4650
5850
750
750
3225
10150
1725
2550
2850
1050
2850
1350
4650
2250
7350
5250
3450
750
6450
3450
5850
6750
450
4650
1950
1950
2850
2850
4050
2550
1650
4050
1425
1350
3450
750
4650
825
1950
8250
1050
3075
3150
1050
2850
6450
750
8775
100000
750
4950
750
6675
6150
1650
3450
1425
450
2250
2850
1050
1350
4650
4650
3075
4050
5550
4650
1275
750
450
3150
450
3150
100000
2475
450
1050
100000
1650
5250
2850
1050
825
750
1650
3150
3750
1350
8850
3150
8250
450
4950
2250
450
1050
750
2250
1650
450
750
1575
4650
5250
5250
7650
6375
750
6450
4950
450
450
2250
450
6450
450
4650
1725
1950
4875
6750
450
975
525
825
3375
6750
1950
2850
750
4050
5250
4350
675
750
1650
1950
9375
1650
2250
3150
2850
7650
750
450
6075
4575
2850
100000
1050
1575
2550
1050
1350
3450
3450
750
1050
1350
4350
2250
1350
450
1575
4950
1650
1950
3450
1650
6150
4050
3375
750
750
825
3675
450
1350
1350
750
3450
4350
2475
1350
4650
1950
450
3750
6750
7350
6675
750
7650
2550
3150
2250
450
4050
1050
3150
1050
3450
750
1875
450
750
450
750
3750
1950
4650
3150
1950
2550
3075
5250
2550
1950
2550
1050
450
1275
1350
2250
1050
525
1050
1050
2850
450
4650
6150
750
5250
450
750
100000
2475
1575
3300
975
5475
75
3000
5250
1275
9675
2175
5400
375
1875
3150
1275
900
4275
5775
450
1575
3075
2475
4875
975
1575
1875
8250
450
675
8850
450
5475
900
1875
3375
1275
6450
6075
750
3375
1875
300
975
600
450
4875
675
3000
450
2475
4275
2700
7875
75
100000
975
3300
675
2775
1650
375
375
1950
3600
2475
3750
3750
1575
75
5775
975
975
1500
4200
100000
1275
1500
675
3975
1050
3450
1575
4875
3000
375
375
375
2775
1275
4650
1950
375
600
675
3900
1200
2700
4275
1575
75
6000
5700
3075
9975
100000
100000
4800
4650
1350
1350
75
4275
4050
375
375
675
975
375
675
975
1575
2175
1875
100000
3300
3900
4275
900
4575
750
6150
75
450
75
675
1575
1200
1800
75
100000
6075
4575
75
2475
2550
4275
1200
1950
450
1800
375
750
1575
675
375
6675
900
1200
9150
1575
375
100000
2775
450
975
75
600
975
675
2475
2475
2400
1575
3375
1350
975
4275
975
1350
6450
3000
3075
1200
8250
1275
975
1050
375
2775
1650
75
2475
675
675
900
450
1500
450
2850
1350
2850
2850
2850
1650
1950
1050
750
6450
1350
750
4050
1050
1050
450
825
100000
4725
4650
2850
1425
450
5250
4650
1875
2025
1050
4650
1950
450
2550
5250
450
1050
1950
7950
10150
6150
450
1050
2850
750
1050
3450
4650
5550
3750
2250
7050
4425
450
2250
2550
4950
3225
2850
750
2550
4050
100000
450
1725
450
1950
1050
1050
5550
5550
750
2550
3150
5550
750
5850
150
2250
4350
450
8550
450
3825
1650
1350
7350
2550
100000
5850
750
5850
3750
6750
2550
2550
1650
3750
525
3750
750
1050
2550
825
1950
6450
1650
825
1950
450
1950
1050
2850
2925
1350
6825
5025
1350
1725
5475
1650
3150
750
2025
7350
2625
3450
1050
100000
4050
3525
8025
1350
1050
750
2850
975
1125
750
1650
2550
1725
2250
525
7650
1950
3750
2550
2850
1350
7350
100000
750
525
5025
1350
450
1950
4350
1350
1350
3750
525
3750
4050
1650
975
100000
750
1050
450
1950
2550
2550
450
3750
2625
450
2850
1950
1350
1350
450
4350
450
750
100000
2250
1050
3075
9450
1350
1050
675
1050
2475
3750
4650
450
450
1050
450
975
1050
3150
450
1350
7050
1950
1875
1050
2175
3150
1950
450
375
450
5475
450
1650
3375
1875
1350
2250
450
2850
750
750
3075
1950
7350
750
2550
3150
8475
4125
450
1050
2550
1350
2250
3450
375
2175
7350
450
2175
75
2175
1650
1350
4350
1650
1875
8250
750
6450
750
1050
9450
675
8475
1350
2175
5025
1650
1350
2550
450
1050
750
5550
5250
1350
1350
3450
1050
975
1350
1050
4650
1275
3150
2550
750
2550
675
5850
1350
1275
1575
2775
6750
1050
2550
4350
3675
750
675
3975
1650
2850
3375
1875
1875
1050
2250
1650
525
1650
3150
2850
6450
1950
1050
2850
3300
1950
9675
675
1650
450
450
1350
1950
2850
1050
1275
675
3075
375
3375
3150
4275
1275
2850
525
9150
2850
2850
375
6675
9375
1650
100000
1050
3975
3675
675
1350
750
2250
100000
1050
6975
1050
6750
2250
3150
750
4575
1350
675
6150
4575
1275
675
1800
1350
675
1650
975
5550
450
100000
3375
375
6150
5175
1950
1650
2550
2475
3975
3375
3075
1050
1950
2250
675
375
750
3450
750
3450
450
1350
1650
7050
3150
3075
2775
4950
2775
1050
8250
750
4950
4350
1575
6450
3075
1050
1050
4650
450
450
1650
2550
1950
3750
3075
100000
2850
2550
1350
675
750
2250
4575
450
3150
100000
1950
1650
9150
2550
450
750
8175
1875
2250
2850
1350
2250
3450
450
1050
6150
2550
450
3750
450
3750
375
675
100000
1650
1350
1050
2475
8850
2250
4350
5475
4350
750
100000
975
2850
4650
2250
9975
1875
5550
2250
1650
3450
2625
1950
1875
1275
1650
5250
9075
1350
6450
1350
1950
750
3450
2850
2250
750
1650
2850
1650
1650
675
675
5850
750
450
375
5550
1050
4650
6450
1575
5550
4950
10150
1575
3450
375
6150
2850
3075
450
3450
1950
675
1950
5850
4350
1950
450
5850
450
4275
450
1875
1050
3675
6450
2325
3750
4350
3450
1650
4950
4950
3975
450
1950
1650
100000
6450
100000
2850
2250
6075
3150
1650
5850
100000
1650
1650
3075
1125
1050
3150
3750
5850
1650
975
3450
2850
5550
2250
5250
750
3450
3075
1650
2850
2850
1050
825
1575
450
2325
6750
7050
1950
2850
750
1650
1950
375
5850
2850
100000
3450
450
4275
2625
450
3075
2550
1350
750
4050
750
3450
750
750
1950
1050
3150
825
3075
5850
825
1050
375
300
1650
2550
1650
450
750
750
3450
2250
5550
750
750
750
1650
450
3150
9750
1950
450
1050
7350
5850
7650
4650
9675
450
1650
750
8550
750
1650
1950
100000
450
1050
375
3450
100000
750
375
3375
450
1350
1575
1650
6750
1650
750
5250
1050
6150
450
750
1050
1575
2250
4050
10150
750
5025
3150
1275
1275
675
2850
9975
3750
4050
1050
2850
3450
4350
4050
4650
450
4950
5850
450
3975
1650
5250
6150
450
1050
1950
450
375
2850
6150
1350
1650
3450
1350
10150
1050
2850
9150
100000
3150
1650
1950
3150
450
2550
4275
750
3075
10150
3750
7350
1650
1650
675
5550
4350
750
2475
4950
1950
450
750
1050
750
2550
4350
450
450
1950
1650
1350
1950
375
1050
3750
5625
450
1050
1650
525
4350
2550
1350
1050
2550
3525
1350
1650
2850
1350
2250
450
750
4650
6450
450
450
1950
450
3150
450
750
8550
1650
1950
3450
450
1125
2250
2550
1950
1050
4950
2850
1050
4050
1050
2775
4350
6150
1050
1950
750
1650
1050
1650
3075
5550
3150
2850
1650
1950
1950
5850
100000
1050
1650
3150
1650
3750
1350
1350
2325
4350
2550
1050
3450
1950
6750
8550
1950
3450
2550
5550
4125
4350
1650
750
750
2250
5550
9750
750
100000
7050
1350
825
2550
1875
1950
1725
1650
450
4950
1050
2250
100000
5250
3450
1650
4650
450
1350
2025
4350
1050
5250
2250
4050
450
1050
750
2025
3450
1050
1425
2250
3150
750
1050
1650
1950
1050
1050
3150
3450
1950
4650
1050
1950
8550
3750
450
825
1650
3450
100000
5550
1350
4050
450
1350
450
450
4350
4950
2550
4425
1350
1275
1050
2250
4050
450
100000
1350
4125
1950
450
2550
3825
450
525
450
1050
750
1350
100000
1650
1050
4050
2925
3150
2550
1350
5850
3450
150
6450
825
3750
6450
2550
1875
450
450
825
450
525
450
6750
1050
5550
100000
7950
9150
100000
450
1350
375
8325
7650
3225
3150
1575
2850
375
4350
375
675
1050
2250
1050
1650
7650
750
3750
1650
2250
1050
7050
1650
4050
1350
1950
5850
100000
2250
750
2550
2475
1650
975
5550
1650
5025
2250
2625
2850
5550
1050
675
2850
6450
2850
3450
4050
3225
1650
100000
1125
7950
3750
3450
1050
1950
2850
3750
1350
1650
525
10150
7650
450
7350
2850
4350
4350
1950
3525
1425
3375
9450
7275
750
9750
2250
1050
4650
1350
750
3750
5550
1650
4050
1125
750
1950
4650
5550
100000
1650
6150
1875
1650
2550
1050
7425
3750
8550
3150
2775
1050
1350
2850
2250
1350
450
1050
750
450
2250
8250
2850
2250
7650
1650
5850
9150
1050
7050
1650
1950
6750
750
750
5475
750
2550
4350
2550
1050
3750
1050
3450
375
5850
3750
6450
5250
3150
4050
1650
3750
1650
3750
7050
2850
1050
750
975
2175
1050
1050
2850
8550
1350
1950
4950
1950
1425
4950
1350
6450
1275
750
4650
1950
5250
1425
450
1350
3750
2250
450
1050
450
1350
1650
2850
450
3675
3450
1050
4650
2550
1350
2250
1125
825
3750
1650
1650
3150
1050
1875
9150
4350
1350
750
1950
450
7650
5550
750
450
2250
4950
4950
1650
750
525
3450
2550
2250
1350
4050
2550
3150
450
1050
1425
2925
2550
1050
3150
450
2250
3150
1350
1050
1650
975
1350
2250
450
450
1425
3225
5850
1350
3450
1050
450
1650
750
6750
2550
1650
5550
1350
1950
5850
375
1350
1950
8250
3750
825
7350
3150
1650
7050
1950
750
2550
750
7650
1050
4575
2850
750
450
2325
1650
1650
3750
2250
2250
2550
450
1950
4050
2850
1425
450
2850
1650
1275
1950
1950
450
1950
1950
1350
5550
825
4350
1950
3150
1050
1050
4350
4650
750
1650
450
2250
750
1650
2550
1350
750
7050
1050
1050
1950
2250
1950
4050
1350
1950
450
4650
7050
4050
1350
750
750
4050
750
1950
750
375
450
6450
1050
2550
1050
100000
5250
2550
750
2850
2550
3750
450
1350
750
375
100000
750
1050
675
975
2475
75
2775
2475
1725
2250
825
1950
75
375
2250
7950
525
750
7050
10150
4950
100000
3225
450
2550
2850
100000
75
750
5175
450
3750
525
75
375
2250
3150
5250
5175
2250
6750
4125
3150
1650
1350
2775
2850
1350
1650
450
1350
450
75
7350
1050
1350
1350
2550
75
7950
2475
4050
100000
1350
3825
2250
2250
3075
450
7050
75
375
4650
4050
975
4950
1125
3975
750
3150
2550
5250
1350
975
9675
3150
5850
9375
5550
3375
1650
100000
3375
7050
750
4650
7050
7350
2850
1200
1050
5850
5550
1650
1050
4050
750
1725
5550
2250
7950
1050
100000
4050
750
4875
4350
7050
6225
4875
1350
75
750
6825
2250
450
2250
2550
3450
6975
5250
1875
2250
750
1650
4650
2850
4650
1950
450
8550
1350
5550
750
2250
450
1050
8250
9150
450
750
3675
75
7650
675
4350
1650
1050
4950
450
1275
4650
75
675
675
450
1050
1350
450
450
75
5250
4275
100000
750
1050
6750
450
3450
4275
1950
1275
2550
2250
2775
1050
7950
450
1650
3150
750
450
1650
2550
2550
450
450
450
750
1950
4650
7350
1650
450
1050
5250
4650
5250
2250
5550
1950
2550
3150
1950
6375
1050
750
1050
975
2850
3150
4350
2850
9150
8475
2250
2550
7650
2550
1650
5250
1950
8850
4350
7650
1050
2850
2850
4575
4350
1875
4650
4050
750
3750
375
1350
4950
450
975
1350
1950
1350
2850
2850
7350
750
1650
100000
975
3750
1350
1050
3750
975
450
2250
4050
825
3450
1350
1050
1875
3825
1050
1050
2250
1050
3450
1650
5775
2250
6750
4650
5250
4350
2250
1950
450
4650
450
750
450
1650
975
450
4650
1650
1950
1275
1050
1050
1050
750
7050
1650
375
675
6150
2550
1950
450
450
2850
2550
2850
450
1050
6975
750
3975
750
9450
5250
5850
750
1050
4050
2250
5250
1875
7050
2850
450
2550
3975
100000
1875
3750
1650
4575
1050
2475
1275
1650
3150
450
3750
9675
7050
8250
1950
5850
4350
2175
3375
3750
450
1050
750
3150
2250
1350
5775
1125
675
750
1050
825
1350
1350
450
1725
6525
1350
825
2250
750
2025
975
6150
825
3450
750
2625
1350
2850
1125
1050
2925
450
2625
2325
1050
2550
4725
6150
750
1350
450
1650
3150
3825
5325
750
1350
1350
750
825
450
450
1050
2625
100000
4125
450
2025
8250
825
3750
8250
4725
9225
4350
750
1125
450
2475
4050
2250
2850
450
5625
450
2550
4950
750
3450
4050
750
3450
3825
1125
1950
1350
1350
1350
3225
3450
1650
450
525
100000
825
1275
10150
1425
4425
3450
2625
5325
3225
1725
825
750
2850
6150
2025
750
100000
2250
2625
1050
1350
1650
2775
4950
1050
5925
2250
1650
825
4350
1650
1050
2325
450
1050
750
3825
1650
3750
3225
1650
1350
525
1350
450
6150
1050
2850
1950
1950
4650
750
4650
9825
750
1650
750
4050
4350
1950
4125
3525
6750
5250
1350
2250
2850
8025
375
375
1050
450
5850
1050
5625
1350
1350
825
2625
1350
750
5925
6750
450
1650
7050
6750
1050
1350
5250
750
1950
3150
1950
1950
1650
3750
450
750
750
2850
8550
750
1650
5550
1350
450
100000
975
675
2175
4275
100000
4275
1350
1575
3750
2550
1950
75
4050
3525
450
1050
1050
1650
525
525
2250
450
1350
6975
1950
450
1350
3450
450
1425
750
1350
100000
3375
375
1050
1050
1050
1050
450
3075
3225
4650
1875
8850
4875
750
1950
9150
4950
1650
2250
2550
1050
2775
75
4350
2550
1950
450
1350
5475
2775
450
450
4950
3150
5550
975
2250
2250
750
450
2250
6150
75
1575
750
5250
5775
8250
750
3675
975
1425
450
2250
2250
3750
750
2850
1350
1650
750
4425
4050
4950
2475
1650
5175
375
375
3150
100000
450
3750
4350
4950
1650
4875
1950
3750
675
3075
825
450
7275
100000
3750
2775
5250
675
4650
1050
450
7350
2850
450
1650
450
1350
750
7050
5475
8625
450
5250
1350
450
2250
1350
1875
7650
3375
2475
3150
375
100000
2250
3450
7050
7650
2850
9750
450
1275
3150
4050
3225
2250
2775
375
6750
825
6675
100000
6750
6750
1350
3450
1050
4650
1350
5550
1650
3525
750
4050
1575
100000
3150
75
9975
8550
100000
1275
6750
1050
450
1575
450
1575
6150
1275
3675
8100
375
375
750
375
2550
2850
6750
1950
375
450
1950
675
6150
1350
2850
3450
3150
900
2175
750
2775
975
3225
75
1575
450
1050
1650
1350
375
450
6450
6450
675
4950
6225
1650
1350
3375
2250
750
750
1875
675
1050
1950
1050
1275
4350
675
450
525
750
2550
1350
4050
750
1275
2775
6675
3075
7950
5175
9075
1050
2175
2250
5775
1350
1650
1650
750
2550
3975
4650
3975
7350
375
2475
5250
2250
100000
1650
750
4050
3675
1350
375
1350
100000
2325
6750
1275
1950
3975
7050
3450
75
3750
525
750
2550
975
1575
2475
4350
3675
2550
5175
100000
1875
100000
1350
5100
3150
2250
750
450
75
3975
6375
1950
4050
975
1350
2250
450
4350
1050
1650
5850
3675
1275
3750
1050
4650
1350
75
750
450
1650
2550
750
2775
2850
1050
450
450
975
4050
375
2550
450
2250
450
1050
2775
2250
2250
975
450
7650
750
2250
675
450
450
6750
375
1875
2850
1575
1275
1050
2250
1350
5175
450
75
8250
525
75
4650
1125
450
75
375
3150
2925
3450
6450
3450
3750
1425
1650
1050
7650
100000
5250
6450
4350
750
6525
1350
1950
7350
1650
450
100000
450
525
4650
1050
2025
3150
4950
750
1650
2550
2250
3750
5250
1350
2850
750
1875
750
5250
6525
2850
1350
2250
1650
2850
8550
2250
1650
2925
6450
5550
750
825
4125
450
4650
3750
5250
4350
10150
1425
1950
1950
5025
450
1350
4350
2850
1950
1950
3525
8850
450
3150
6750
750
1275
1950
1950
450
2025
450
1050
3450
1950
3450
1050
1650
750
450
1050
1650
1050
1650
1350
2550
2550
1050
1650
750
100000
450
5550
3450
5025
8550
1650
6450
4950
750
2250
450
4350
2250
2325
7725
1650
450
100000
1950
4050
1350
7350
750
3450
3750
450
6150
2850
4050
750
750
2550
750
4125
4950
1650
1650
6150
825
450
2550
825
450
3450
3750
3450
8025
1650
450
1050
2250
4050
2850
1950
750
1350
1650
2250
450
1650
4950
100000
7350
1650
9750
825
450
2625
1350
100000
3075
450
2475
450
675
2475
5475
2250
450
2850
750
2475
450
75
675
4350
1350
1050
4050
1050
675
1650
1650
5175
2475
1950
1050
1950
5175
375
1350
1650
750
100000
1350
1875
1575
975
675
1650
4050
975
5850
1350
450
675
1650
4350
450
450
1275
4050
1350
4350
6150
675
3375
4950
100000
9075
1575
1275
1950
2475
975
2250
8250
75
1575
3075
4050
2250
1575
7275
5475
975
4050
4275
450
6150
2775
9750
3675
375
2475
1350
1575
7650
2250
3150
450
975
75
6075
3450
4650
1650
1575
3150
750
3150
2250
100000
1350
100000
75
9075
6750
2250
1050
5475
1050
750
3150
3450
3975
2925
3075
3450
675
6075
675
2250
3675
6750
3150
3375
1350
975
4050
6075
1950
1350
4200
100000
3750
2250
1050
450
3375
750
2550
3150
2250
1650
4650
7350
975
2175
2850
1875
3750
2475
450
1275
2475
5250
3075
6150
2475
5550
1950
450
2250
3300
2775
1050
3375
750
3150
3150
750
7350
1350
1350
1875
2850
3750
1950
3450
1950
3150
1350
6750
1650
7575
450
5850
100000
6150
450
1875
750
750
2850
1350
7875
2850
450
3450
2250
4950
1650
3375
7350
1050
7650
4125
1050
3150
450
450
3450
1650
450
2175
2550
450
5850
675
2550
100000
2550
1575
8175
1050
2850
1950
3750
450
3150
3450
1350
1950
9150
1650
975
450
3150
7275
2025
5250
450
2175
3075
2025
6450
675
8850
1350
3750
5250
450
3150
3150
450
2550
1950
1275
2550
4950
450
2850
4050
375
750
450
5550
1350
2850
1725
825
2175
1650
9450
1650
1350
825
2550
4275
5850
8775
1650
1050
450
7650
1650
750
5175
4350
1050
3450
1050
1350
2250
1650
7575
1350
375
100000
2850
6750
1050
1050
450
2550
1050
3150
450
1650
1050
2550
3450
1050
2550
7950
1350
750
1050
5250
1650
450
1350
3450
3675
750
1350
2250
450
6750
1050
6075
1650
1050
2550
3150
5250
450
750
7575
2850
375
675
3450
7350
1950
6150
2175
1950
1050
450
100000
3450
1050
4050
100000
750
1875
3450
750
450
4650
100000
7725
8625
1650
825
1950
8025
1350
7350
2325
2250
1350
6450
1350
4425
1050
3825
3450
4950
7725
1350
450
4125
825
5925
7950
2250
825
6525
450
525
4425
2625
100000
750
1050
5625
2325
4950
1725
100000
2550
3750
450
750
2025
450
2625
450
1350
3450
4350
7350
750
1950
1650
450
5625
1050
7950
3150
825
525
1050
3225
1650
525
1350
750
3450
5250
3150
1950
5550
4350
4950
1050
2325
3225
7050
1950
750
4950
1050
5250
450
3150
1350
4725
100000
450
1725
3825
525
2625
2250
3525
7950
2850
3750
2550
2850
1650
1050
2250
3825
4650
2250
1650
1950
1050
2925
450
2325
4050
450
2850
1050
3225
2625
1350
7125
4725
525
3150
3225
450
3750
3450
100000
6750
450
5625
450
450
3450
1725
4050
7050
5250
1425
1125
1350
825
5550
1650
825
1950
1050
450
450
3150
3825
1125
2025
3150
2550
4950
825
1350
1950
750
2325
3750
5025
1050
750
2925
1425
2325
4350
1950
750
7650
525
1650
5025
4725
2625
4950
450
100000
3150
5850
1650
3150
1950
1050
450
750
2625
2250
3375
750
6750
4350
3150
1125
450
1050
1050
750
2250
1350
750
1050
7050
4050
2250
3150
1050
2550
4950
2250
750
1950
1050
7350
7350
450
4350
5175
4950
3750
4950
5250
4950
5850
1125
2850
4950
2325
2250
4050
975
1350
8850
1125
2850
1950
6150
9375
5250
4950
1050
1350
1350
100000
375
750
1950
2850
450
1725
6750
9450
450
5250
5550
5325
1350
2550
3750
450
1950
375
3750
3450
2550
2850
4950
100000
1725
1050
750
4350
5850
1650
3450
1875
8550
3975
6150
2250
9750
4650
750
4650
750
9750
1350
4050
450
2025
7950
9450
4350
450
7950
5550
1350
1350
1125
825
2850
750
2550
1050
1350
1950
100000
1650
4350
1050
3825
450
375
1650
2025
3450
1950
2250
2250
1950
2250
1950
750
750
750
3150
7650
1350
1050
100000
4725
6150
3225
375
8025
4950
750
525
450
1050
4350
2850
450
3750
750
2250
375
100000
2775
450
6675
750
1950
4875
3450
8775
3375
375
3675
1050
4575
3675
2175
8850
375
1650
675
3375
2550
1650
5475
3150
675
1050
675
6975
7425
450
4875
1950
7650
2475
450
675
675
7650
450
1350
7350
1950
4575
675
4950
1875
1575
8475
2850
975
2775
1350
675
3750
2175
375
675
750
750
5550
5775
2175
4275
450
4050
5775
2850
375
1050
2850
450
5175
450
3750
7950
5475
675
750
2550
1950
100000
375
3975
100000
1275
1350
450
750
4275
4875
3150
750
450
2175
6075
2550
975
375
1050
750
750
750
2850
375
100000
2250
1350
675
1575
450
750
1650
2475
2775
1275
1650
975
1350
1650
2175
3750
7650
4275
1050
975
450
2850
1575
2475
450
100000
2850
1575
6075
2250
2475
4350
2550
3975
2475
3675
2175
750
375
375
5550
4875
8775
5475
2250
375
975
1050
8250
750
1050
1050
6150
2175
1275
5850
9450
7950
1050
100000
8475
450
1050
450
5850
4875
4575
7950
100000
2850
5550
5550
5550
750
750
4650
450
7725
1425
450
3750
2850
4050
5925
1650
2250
1350
675
4050
7050
1950
1650
750
1950
2850
1050
6750
975
2250
1650
1650
1050
750
3750
1650
8850
2250
750
2250
4650
1950
750
750
1350
1950
8550
3150
750
450
2175
1575
450
2775
1350
4650
3150
5250
7050
3450
2325
7950
525
525
750
1650
5850
4050
2775
1050
100000
1650
4125
1050
450
7050
2475
1950
1050
2550
1050
5475
3975
3150
750
1350
3450
100000
4650
1050
9750
4950
4950
5850
1050
1350
1650
3750
2850
4050
4050
1650
3150
675
9150
750
2850
1050
7350
450
750
1650
1350
7650
750
4050
1350
1350
1350
4725
975
3750
1950
4350
1425
2850
2850
1350
1350
750
2550
1350
1950
100000
2475
750
450
4350
1350
375
750
450
3750
1650
2850
2475
525
450
1125
8550
100000
2250
450
9450
3450
5250
100000
3375
1575
5550
750
750
375
750
7050
8250
6750
1575
450
6450
100000
1350
2025
825
750
375
4725
7650
525
2250
1425
2025
2625
1125
4125
1725
3525
2550
2550
825
1050
2325
2025
3450
2250
525
1650
6150
1725
3450
7950
3750
2625
1950
6450
450
450
6150
1650
100000
525
1425
1950
3825
5250
6225
6450
2925
5850
1425
2850
2250
1125
1425
9150
4050
825
1950
525
1125
2550
1050
1725
100000
9450
825
4650
4650
10150
1350
2925
4425
1425
750
2625
3450
1950
5550
5250
2550
450
5625
5325
2250
3450
750
6825
3450
8550
1050
1425
1050
6525
3225
1950
825
450
1425
1950
7650
1050
1125
825
1950
975
2850
1725
2925
1350
450
525
2625
4725
1650
10150
3825
450
525
525
1425
3225
3450
6825
4350
750
525
8025
7425
450
450
1350
3450
825
525
1725
2325
2325
1050
1425
1350
4050
2250
3525
750
450
4650
2250
825
2925
2250
6150
7650
3150
5025
825
450
525
1050
3750
525
2850
4950
4050
2025
1350
5850
450
1650
1650
750
2250
2625
2550
2550
2550
3225
5250
825
525
825
5325
750
450
2850
375
2325
3750
4050
450
2850
450
750
1950
1650
100000
3450
6975
1950
4050
3975
2850
750
3075
2850
5850
4350
1350
6975
2250
1725
1350
2250
10150
3150
450
4350
7950
6450
1350
675
5550
450
1950
7650
450
2175
750
1650
2250
1650
1950
2175
1950
7350
675
3750
2850
4275
375
1050
1050
1350
375
450
2850
2250
1050
2550
975
1050
3150
1650
3075
3450
1425
750
450
1350
5250
1350
9450
5850
3450
750
5925
4950
750
450
1050
4050
4350
4650
100000
4050
6450
750
4350
1050
750
1950
450
6150
1050
450
8625
1050
1050
1950
8550
1350
1950
450
1950
2850
6150
3150
2850
5250
450
450
450
2925
100000
1650
8025
450
2550
2850
975
1725
2850
6150
3675
6675
2850
9450
2250
450
1350
1875
2550
1050
1350
3150
1050
100000
3450
1650
4350
450
5850
5250
2850
450
1050
1950
2250
1050
4650
3450
2850
750
3450
10150
4125
750
750
7650
2925
5250
1725
750
2550
450
2250
1650
1950
450
2625
1950
2775
975
4050
3525
1950
6075
3450
7650
3150
3150
4350
100000
8850
750
5850
1350
600
1875
3075
5475
2850
5175
975
1050
7050
975
4650
1050
4650
450
375
5250
675
2850
3675
1575
4350
7050
450
7575
5550
4350
450
5250
1050
750
2250
3450
1275
450
3675
1575
3750
1050
3975
1875
75
1650
4650
7575
750
1350
3375
1650
2250
7650
100000
2550
3450
3375
100000
3675
1875
6675
1950
4575
1050
1350
5250
1275
3150
4050
5250
1650
375
4650
1950
1650
2250
450
1575
2850
5475
1050
100000
3450
2175
5550
7950
750
100000
1875
750
3750
750
2775
1050
1350
6450
7950
750
1275
975
450
2550
375
1350
2775
1350
1950
1875
75
900
3075
7875
2850
4050
1575
2850
2250
3675
1950
675
375
1650
1050
6075
1050
100000
3750
1275
2475
1050
8550
3150
1050
75
375
450
750
3450
3375
450
2775
975
750
5550
6150
5175
1875
100000
1950
975
4575
375
1050
2250
4350
2850
7575
6675
1050
3150
1275
4050
3150
8550
1350
1275
1275
1350
675
1950
75
375
2250
750
75
5475
375
7350
100000
1275
3450
7950
1650
1575
1425
3750
4650
1950
1950
3750
1650
450
4650
1650
100000
2850
3450
4050
450
4050
2850
6150
1350
450
3225
975
2850
3975
7350
1575
450
1050
4050
675
450
450
3375
375
7950
4650
1950
1050
1950
1350
3450
450
2550
3750
8025
4050
750
1950
8250
1050
2850
1050
100000
4650
2550
2850
2775
1050
6150
1050
1650
4050
3450
4950
1050
1050
2850
2550
2550
7650
4050
3150
5175
4650
1950
2250
7350
2250
100000
2550
750
6450
4650
2250
750
1650
675
2550
1650
1350
1650
1650
2250
1650
3150
1050
3150
4950
1050
8250
3750
9450
7050
1350
6825
450
450
3150
4350
3750
450
675
5850
750
1350
1050
3450
1350
3150
7350
3450
975
4350
3750
750
1050
1950
1350
1575
1950
1575
1350
100000
6150
2850
1650
1275
450
1050
1350
4050
2250
1050
4950
975
2250
6375
2250
750
750
2550
375
2550
3150
4350
5550
750
450
100000
750
5250
3075
1950
5325
750
100000
4650
750
4650
1950
5550
6450
450
2550
1050
3225
1350
525
2025
1050
750
1425
1650
1950
1350
4650
1125
4350
1950
750
100000
1050
1650
2850
2025
4950
450
1350
450
750
2250
4650
1650
750
1650
1650
1350
1350
1050
5925
375
3150
2250
4350
4650
6150
750
1125
1350
1050
2625
1650
6225
4425
2850
2850
4950
1050
1725
525
2850
100000
7725
7350
750
750
8025
450
4650
450
1350
1050
4650
450
1125
1125
750
2625
3525
6750
4350
2775
450
2325
2550
6450
3150
5850
7725
1650
6150
3525
1050
1350
5850
450
1050
4350
450
100000
525
450
1125
1050
1425
1950
4050
9525
450
1950
750
5250
3750
4650
4950
2250
1050
6225
2325
2850
4950
2625
100000
4050
4650
9150
2550
450
6075
8850
4950
750
1350
2550
2850
2250
750
1350
6150
1650
3450
2850
2625
8550
2325
450
450
4950
525
525
1125
1050
1050
5850
525
1050
1050
2550
375
3450
2325
1050
2325
5325
1650
3150
6450
5850
1950
5325
2250
2025
4425
750
2550
3750
5625
1650
100000
1050
750
1050
2550
1425
3150
2850
4950
1125
2550
3225
1350
5250
2625
1950
1350
2850
450
3150
1050
750
3375
3150
1725
6450
100000
3450
1950
4650
3750
2250
1050
750
450
450
1050
3150
1950
2250
6150
1725
9750
6450
2550
450
3525
1725
2550
1650
100000
1050
1350
3675
5250
2250
675
1950
3150
1350
7650
1050
1650
1050
3750
6750
3450
6225
3750
750
1425
2550
3450
1650
375
750
6150
2850
4650
100000
450
2850
1650
750
450
675
2250
450
750
3450
2850
450
2250
2550
450
2250
7725
750
5550
5550
2250
3750
1875
2250
1650
675
5250
450
375
750
450
2250
2850
1650
3075
450
825
1050
750
1125
1875
2250
450
2250
1350
3150
4050
825
3225
4950
450
3750
100000
1650
7050
4650
525
450
1125
3450
750
1050
1050
2475
3750
750
450
2550
2250
750
6450
1650
4650
5250
7350
1050
450
100000
100000
450
450
525
1125
5250
10150
450
9750
1350
2775
750
1350
3825
4950
1950
1350
2025
5250
10150
750
3450
100000
9150
975
3450
2550
2250
3450
2550
3750
450
3450
3375
2250
3450
3450
450
1950
6750
2550
2550
675
3750
1050
4350
450
675
6750
2550
1050
450
1650
1275
375
2850
3150
4350
5850
2250
6450
1650
1950
1650
5250
2250
675
1050
1650
100000
3450
100000
6975
1050
750
3375
2250
450
450
1575
4650
2025
1275
5250
6150
375
2250
975
3675
4650
4650
4050
3150
2250
6450
750
2175
2550
5250
1050
4350
2250
3450
6450
1650
1350
2850
4125
2250
450
6375
4875
450
4875
8775
450
1650
1575
2550
6375
2475
2250
1950
750
1050
750
4050
2475
375
1050
3375
1275
3150
2175
450
1950
3450
1950
3150
3825
6150
3450
1350
2550
375
1050
2850
750
2550
5925
8025
450
4050
450
7350
750
2550
3450
8850
1350
1350
450
3150
4350
750
5250
100000
1050
1275
3375
1350
1650
4050
2850
1050
1575
375
3750
750
4950
2250
6150
6150
3750
2850
1350
6075
1275
2550
1650
2250
450
6450
2550
2250
1575
1050
4575
975
2250
4350
3750
2175
2475
100000
1575
750
4950
750
750
1650
975
450
3150
1950
4050
375
2250
2850
5925
2550
1950
2475
1350
1650
1950
1650
1950
3450
2850
100000
2850
1350
2850
1275
2250
3450
3150
3075
3450
4875
100000
2175
4650
2250
3075
1350
4050
2175
2775
1275
2250
2775
1875
1350
975
1050
1050
675
1575
1050
675
1875
8250
4050
2850
5850
1050
3150
675
9150
4650
3150
750
2175
975
7050
3450
1050
375
675
1950
1350
1650
3075
1200
2775
675
675
1275
1650
450
3000
1650
2550
4650
4950
5850
2250
5550
450
3975
975
450
6450
750
1950
3450
3750
2850
5550
2475
375
3000
1650
450
2550
6450
450
1350
2250
7050
1875
1575
100000
4350
1050
2475
4350
1650
675
1650
2025
3225
1350
4050
1050
675
7575
2475
6975
8475
1275
450
450
4050
4275
1950
1050
4050
375
2100
1875
7575
750
750
4875
3375
375
4575
1050
1575
1350
975
3150
4875
450
2850
5475
675
2850
1050
6075
4575
2250
750
675
2850
2850
4650
2250
2850
2850
1050
9450
450
3375
5175
3150
75
1800
450
750
375
7950
750
750
7950
4650
1050
4425
1950
4425
3075
525
450
4350
4950
525
1725
1875
4650
1950
450
750
1350
3075
1650
1650
4350
4050
450
1050
10150
100000
1050
5850
3075
3150
450
3225
4350
1125
750
1350
2775
2550
8550
750
1350
1350
2850
375
4350
1650
750
6450
450
2925
450
6825
2250
1950
750
5850
7650
750
1650
750
2550
7350
2550
2550
7050
675
3450
4950
1050
1950
750
3450
1650
2325
1050
1050
3150
750
750
2175
4125
3450
6750
4350
8025
1050
450
2250
4350
6150
1350
5850
3750
1650
1950
750
1350
750
4050
100000
4650
675
3825
8850
2550
2250
3750
1650
1950
750
1050
5250
1650
1050
4050
8550
3450
1050
4050
2550
8550
1125
4350
1950
5850
2250
2550
3450
1650
1350
1050
4650
675
4275
3150
1050
2850
2550
5250
1050
3075
5025
6450
2175
5250
10150
1125
1650
3750
4050
2625
1425
2250
1050
6450
1650
375
750
750
2625
8625
6675
4050
7950
1950
2850
450
1725
7350
5550
750
3450
1125
1050
6375
1050
975
975
2550
3675
7725
2175
1650
2250
1950
975
8850
450
1350
6150
4650
2850
450
3375
2250
3075
2475
975
1650
975
1050
375
750
4050
5925
3075
100000
975
100000
4650
2550
750
7050
4350
1050
1650
450
7050
750
1650
450
4650
1350
375
2850
8550
1650
5850
5550
1050
450
4350
1650
9150
750
3150
450
1275
4275
450
1050
1350
1275
2850
1350
450
450
1350
1350
5550
1050
1650
1950
6750
4050
9975
450
4950
1050
1050
750
1875
4650
750
1125
4275
100000
1425
3750
750
1350
750
2925
1050
1050
750
6375
675
3975
1875
6750
1650
2175
2775
100000
2850
1350
4275
675
450
1350
1950
975
375
6825
1950
750
2550
2850
4650
100000
2775
3525
7350
2175
1050
1350
1575
675
2250
2550
6450
2850
675
5850
2850
1050
3750
1125
3075
675
1350
1050
450
750
5550
4950
2175
1050
4350
7350
2850
2550
1350
6150
2850
3825
1950
1050
2175
5850
750
4050
1050
100000
3150
5775
1800
1050
450
1950
1950
750
3150
2250
1050
675
6150
2550
7425
450
2250
450
750
8550
1275
7950
2250
3450
8550
1575
2850
675
450
3750
2850
4050
1950
750
7050
2550
450
7650
450
2250
1650
525
450
525
1350
4650
5250
3075
750
750
450
2250
3975
4350
2250
4875
1050
2250
3825
1425
675
5250
750
2250
1350
3150
2250
1575
6150
3150
1950
1050
1950
6450
4050
3750
8250
450
1950
4350
1350
750
5250
3150
4050
100000
1950
2625
100000
525
2250
2550
2850
9750
750
3525
3750
6450
750
4350
1875
450
1350
975
450
3075
3750
3150
1350
4050
2550
750
1125
3150
450
5550
100000
2850
2625
1650
6450
8025
450
1950
1350
4950
4050
1650
525
975
1350
4050
450
750
4350
750
750
2550
1350
3375
375
1050
4050
7350
3750
4275
2250
8550
7650
6150
6750
8550
4350
450
450
1950
3450
1650
450
2850
450
3150
1050
450
450
1050
1350
975
2550
3450
1350
3675
4350
6750
6975
2175
4050
450
2850
7950
1650
5850
5175
1650
4350
750
150
2250
4350
1650
2550
750
750
1350
75
675
75
3750
1050
4050
1650
750
2550
2250
75
3750
750
7050
1350
1950
375
750
1650
3750
750
3750
750
75
1950
3150
750
2250
2250
1650
450
3150
1350
7650
525
100000
4350
75
750
3150
5325
1350
1650
100000
8550
750
3150
2550
1650
75
3075
2625
3975
2250
3450
1950
1950
2550
1650
450
6450
1725
1950
1950
75
375
2250
750
1350
8625
2250
1050
75
1875
4950
6450
1050
1350
2850
1050
450
1050
9450
450
1050
75
3375
1650
3150
1575
1650
6450
825
5550
1650
750
5550
2850
5850
4950
2850
2925
3450
1050
750
450
3150
750
4050
450
9750
3150
3150
2550
1950
1650
6750
2175
1050
750
2550
2250
150
5850
1275
750
1350
450
5025
2025
675
6975
4650
2850
4050
3750
450
450
3750
2850
1650
750
450
1050
450
2550
1575
675
8850
1050
750
1650
2250
4350
1725
2625
1050
1950
75
1575
7350
1125
4050
3750
1950
6450
1950
5850
8550
4950
2550
450
450
2250
450
1950
2175
1650
100000
450
1050
750
1350
750
675
1050
1350
450
4650
75
750
8550
5250
3075
75
1650
2850
3750
3450
450
450
4650
1050
75
5625
1350
3150
1950
2625
1050
6750
3825
4125
750
2250
525
3450
450
1650
100000
100000
4425
1950
2550
5925
5850
2925
3525
1950
5325
3525
3450
6450
2625
1425
2325
6225
3225
5625
4350
4650
1950
4425
2025
525
1050
1050
2625
3225
2025
2325
825
3225
1350
1125
750
1050
825
3750
1650
7725
825
450
4350
10150
8250
1725
5325
1725
525
1125
3450
1950
525
4725
4125
1650
2850
1050
1125
525
2250
6150
2025
1425
3525
2250
3225
450
7050
1350
3225
2250
2250
1950
825
2025
1725
3225
5025
2325
450
450
1350
1425
8550
4425
450
2550
5325
4425
2025
1050
750
525
1125
2325
525
3450
100000
1950
525
2025
1650
7425
100000
2625
2325
6225
1425
2850
825
1650
3825
4350
1725
2925
1050
4425
4350
2025
1650
3750
3450
4125
2250
1125
3225
1200
8025
525
100000
3150
4725
450
2250
2025
1125
450
1950
5625
100000
1725
1425
1350
825
4950
3825
1425
450
4725
4050
2025
5625
3750
525
1425
7125
450
5250
1050
2550
4425
1125
9150
1650
2850
1350
4350
2850
1125
3450
1950
525
1950
825
1275
1650
1950
1050
100000
450
3450
3450
525
1125
3150
1050
750
750
6825
4950
4650
750
9450
8250
2025
2850
1950
2025
2025
1950
2250
825
1050
7950
3150
2925
2250
2550
1650
1350
450
5850
1050
1950
3450
825
3150
3525
1125
7350
1950
3450
825
1650
2550
1050
2250
525
8925
525
750
6450
3150
2850
2850
3450
4350
2250
450
450
5325
3525
10150
450
2550
1050
2850
1950
3450
1050
1275
5550
4050
100000
2550
1350
1950
1650
3150
2550
750
3825
1725
1650
750
7050
1950
825
450
2625
525
3225
750
525
2250
2550
1350
9150
750
3450
525
1275
3225
3450
1725
6225
2250
4350
3225
5925
6450
6450
2325
750
2250
750
1725
5925
5550
1425
2850
450
1950
450
3750
450
2625
6750
1350
4725
825
4050
3225
4950
1950
4950
2550
5250
750
750
5250
450
2850
1350
1350
525
8250
1650
750
8850
3750
2550
1350
1350
750
4050
6150
1950
450
7425
1425
1050
450
4050
1875
100000
750
3150
450
525
2025
100000
1125
5550
3450
1650
4425
5250
825
5850
525
825
5925
375
525
2325
975
3750
450
1050
975
5925
5850
2625
9450
4350
2250
450
3150
7125
525
5250
450
6450
3525
1650
1725
9150
750
4350
5850
2625
1050
1875
4725
3450
3450
6150
5925
1350
3525
525
6525
450
2850
5250
450
1725
450
825
1950
3225
2850
5325
1125
1350
2850
1725
1725
450
6750
1050
1125
825
825
525
5250
1425
525
4350
825
5850
450
4950
750
3150
9750
3825
3450
1050
2325
2925
2625
3150
2550
7950
4350
1350
2250
9750
1425
1125
4125
450
2250
1650
4725
1050
2850
2550
2625
8550
8625
2550
1350
5850
4650
5325
1725
6750
1650
5250
5625
525
2625
2325
4650
4125
5250
1125
525
7125
525
450
2325
4125
3825
3150
2025
1125
4950
525
5250
1275
1125
1725
750
6150
4725
2025
2325
2025
2625
825
450
1125
600
2625
1050
1650
4650
6525
1350
5325
7050
8550
3750
450
450
2025
825
2625
525
6450
450
100000
5550
4575
1350
1650
2775
100000
4050
1275
5850
1950
975
3525
3450
1275
5850
750
450
750
3450
4350
2550
5475
7950
100000
750
100000
1575
2550
3450
975
2775
3525
2325
2475
6750
4650
6450
7050
1050
3450
1350
1575
2250
2250
2475
450
1050
1050
3750
450
750
1275
5475
2550
825
1950
1050
1950
750
3825
3150
2775
4050
450
750
1650
1650
3150
8850
525
3150
2775
6375
750
1650
2175
1650
1050
8850
750
1350
3075
2475
375
100000
2625
5850
2250
1950
1650
1575
1950
975
975
450
1650
1350
5175
2550
1275
3150
3825
5250
3750
6750
100000
7350
5250
3750
3450
4050
4350
2550
8175
8850
3975
9450
1275
1650
1350
2850
5250
1950
5850
4650
1350
1950
4650
1050
4275
100000
1050
1350
1650
2850
5850
450
450
375
2625
6525
2850
4650
3075
2550
750
450
1050
2475
6450
2250
5250
2550
1050
1650
2325
2850
100000
1950
450
450
975
3075
375
4350
1050
6150
100000
1650
2550
750
1350
450
450
4050
4050
3825
1350
4650
2550
1575
1050
450
6150
7650
1350
6150
3150
100000
7650
100000
7050
1950
1050
375
2250
1050
450
6750
7050
1350
5550
5250
3450
6450
5250
450
750
7350
2625
1125
1950
750
2250
2550
1650
3825
3750
1050
1650
5250
4950
5850
450
100000
3750
3150
450
750
1350
1950
1950
1350
3750
750
450
1350
4275
750
1950
8850
4650
1350
1050
2250
1875
1425
2250
1050
1650
4425
1050
1950
4650
1350
2250
1350
1425
1350
750
9150
2550
1050
450
1050
10150
1350
6450
4875
1350
2850
4950
450
9825
1950
3150
1350
1650
450
1650
4050
1050
450
4050
2550
1350
1275
675
1050
4650
450
2250
1950
975
1650
6750
1425
1950
3525
1050
675
1950
450
1050
3750
1950
1950
100000
3150
2475
450
4650
1575
3150
100000
450
4950
3450
4350
1950
2550
1950
1650
2550
750
3225
750
4725
2250
6750
3150
100000
450
3000
450
2250
1350
8250
1575
2250
675
1650
675
9750
2250
2250
1050
2850
975
7950
1050
2550
100000
750
4650
3750
1725
4050
450
1050
4050
450
2550
2250
1050
1575
1950
100000
1650
2475
100000
1575
2250
3450
1050
2550
750
3750
450
750
3150
2850
375
2850
1650
1650
450
375
2175
4650
750
1350
450
2550
1350
2250
5250
2175
1875
1125
5850
5550
2850
1650
1275
5550
1350
750
6450
675
1050
8850
2250
1650
5250
1050
750
4950
750
675
1350
3750
1050
450
5250
1050
1275
5550
1050
6450
750
450
3975
100000
5550
1350
1350
1950
750
4050
3150
450
1350
8550
450
1350
7950
2250
4350
3450
450
3450
1350
1650
8850
1350
2850
2250
450
6750
2250
1650
4050
1350
750
3150
750
7350
750
6150
750
2250
750
1950
2775
1125
4650
675
450
1275
975
1950
1950
450
4950
1950
8250
450
2850
2250
750
3150
6375
5175
975
5850
1350
3750
2850
9150
4125
750
450
3075
750
4650
1350
1350
100000
5550
2175
2850
2250
1275
750
3075
2850
750
6450
375
2850
3375
750
450
7575
5775
750
5850
1650
1650
450
450
4050
1350
675
1650
9750
7950
1125
3150
3450
2850
5250
525
450
2250
100000
750
1125
450
5550
6450
4050
1725
2850
825
1350
3750
2925
1725
1350
1350
4050
1650
525
1650
1950
1650
2250
375
5850
4050
6150
1725
3450
1350
1050
1350
750
1950
1650
750
450
6450
1650
8250
1050
375
3750
6675
750
1650
1125
2850
1425
450
1950
2250
8550
7125
1650
7275
1950
3750
100000
1725
450
1950
4125
1650
3750
3450
8550
2550
750
750
2850
6150
3150
100000
2550
1650
2250
3750
3150
3450
3375
3150
1350
750
1050
450
2550
2850
450
525
1125
5925
1425
1050
2250
1350
3450
9675
675
675
2850
525
100000
1050
9150
450
750
7950
5250
2850
8025
2475
1650
1650
5175
1650
750
3750
825
4950
1050
3150
3150
2550
3825
2550
2250
7950
750
3150
750
7125
675
525
450
1350
1725
3750
375
750
4350
450
1650
1350
1050
1725
450
9450
5250
450
1350
2250
1350
2550
450
3450
1350
1350
4650
1650
1125
450
450
10150
3150
2025
450
2025
2850
1050
1950
100000
1725
450
450
5550
2850
750
1050
450
450
2550
1350
1650
2025
750
750
825
5250
1725
2850
1650
2475
4050
1950
4950
4650
375
450
1050
3150
750
4350
1350
7350
4650
5250
1275
5250
750
4050
750
1350
1350
2475
825
1575
6750
2850
750
750
750
1425
5250
4350
4950
4650
1650
100000
9450
3750
750
2025
1350
750
5850
450
8850
2250
3150
1950
2250
4425
1350
450
450
4650
1350
2550
750
2250
2250
3150
4050
9750
3825
750
4125
4950
3750
750
450
750
2550
6225
4950
450
4950
2250
2550
1950
2850
750
750
2850
7950
2250
100000
1950
2025
2550
6150
1050
2625
5550
525
525
3525
2550
750
5850
1350
5850
4950
1650
6150
1650
1125
750
3150
1650
750
2850
2250
2250
5850
4650
2850
825
8850
1050
1950
1650
4350
5325
450
2550
1125
450
1425
825
6750
525
1125
1050
6150
750
100000
5850
1425
1725
750
450
375
4650
750
1050
5850
2850
975
6150
825
1050
1875
1950
9750
4050
1350
1050
1050
2250
6450
7125
750
525
4650
100000
4350
1350
675
450
1650
5250
750
2625
1350
2550
1050
450
1350
1575
8250
6750
2250
375
3750
2250
6750
675
2850
5025
2550
450
750
1350
2250
3750
4050
3150
1650
450
750
525
825
2025
7950
7350
3750
3150
8550
450
1275
9150
3450
5550
1650
100000
5025
3150
5325
5025
3825
450
450
4650
3750
1050
1050
450
1275
5175
1050
2550
2250
2550
4050
100000
450
2625
750
2250
750
9750
5550
8250
3450
1650
6225
750
750
450
450
100000
3750
8025
5250
1350
3750
1650
1575
450
1950
6150
1650
450
1350
5550
525
825
1950
1350
4650
450
2925
1050
450
4050
1650
825
1725
3150
1650
2325
750
450
1350
525
3450
5850
1350
7650
8550
450
1350
1650
1650
750
4050
1050
2250
2550
4050
1275
1950
100000
1950
750
5325
750
1650
4950
1650
2850
2550
450
2250
2550
3450
6075
1950
1575
1650
4425
450
3450
4350
100000
2550
5850
1425
1050
5250
8550
100000
4050
1650
750
4650
6450
5550
3750
750
1950
1050
4050
6075
1950
1950
450
4950
2925
4050
1350
750
750
1125
9750
450
4350
1050
2550
975
450
1350
1050
1950
2850
1050
4050
3150
3150
1050
825
525
1350
100000
8250
3150
750
2850
2850
750
450
5250
1350
1950
2325
750
4050
3750
4050
4050
1350
2550
1950
2250
5250
750
8250
6750
7650
5625
1950
6825
6750
7950
3150
4950
5250
1350
1350
6150
675
1050
1350
750
450
1950
2550
6750
4050
4650
2850
3450
5250
450
1950
750
1050
1350
3750
1425
1350
2550
6750
450
1650
2550
2250
1950
450
1650
750
4950
750
375
750
4350
1350
2250
4125
1950
5250
2250
750
4350
2850
5925
3150
1650
1650
9750
4725
6450
2250
3150
2250
825
1050
2550
1350
3150
1350
2175
750
1425
2850
4050
2250
2175
2850
675
450
2250
3450
450
3075
2550
2250
450
8550
3150
2625
750
2550
3150
3150
750
2850
2775
7950
750
1650
1350
1650
450
9750
1350
7350
2250
2850
1350
4650
6150
1350
3150
1950
1125
1950
3525
9450
7050
3525
450
5550
450
675
1575
100000
975
1425
2475
450
450
450
100000
3150
9150
1950
2775
3750
4050
3975
5550
1350
675
6375
1650
1050
1050
1950
2550
1050
450
7050
675
1050
450
1350
7950
450
100000
975
1050
2550
8850
3150
4950
4350
1950
1650
5850
2550
4650
2175
450
2850
2550
3750
6750
750
450
1950
5550
750
1875
2175
2250
3975
375
450
2250
1050
3075
1275
8850
450
5775
1050
750
2250
4350
7350
4650
750
2250
2850
1050
1950
1050
1950
750
2250
1950
4875
6150
750
1050
75
975
4050
1650
2850
1275
1350
3150
750
6150
2250
8250
5325
3750
1050
450
2475
450
1050
5550
7050
750
1950
4650
1650
7350
3750
975
1950
750
1350
3450
4950
1650
4350
3375
3450
750
1950
675
100000
375
1650
2850
1050
8550
6150
3150
5250
1875
450
1050
2475
4650
1650
9150
2550
1350
1650
1950
4275
750
1350
4350
9075
4050
100000
3450
1950
450
1950
675
2850
1650
750
1950
450
675
4050
4350
2250
1350
750
1350
1425
1125
825
1050
750
7950
525
2850
750
1875
1350
6375
1875
