=============================================================================================================== 
LARREA_VANILLA_LG_CONSENSUS_RATE.result	          <->	          LARREA_EPOCH_LG_CONSENSUS_RATE.result
=============================================================================================================== 

LARREA_VANILLA_LG_CONSENSUS_RATE.result mean: 0.00 
LARREA_EPOCH_LG_CONSENSUS_RATE.result mean: 0.00 

Observed difference of two means: -0.00 
15641 out of 100000 experiments had a difference of two means less than or equal to -0.00.
The chance of getting a difference of two means less than or equal to -0.00 is 0.15641.

=============================================================================================================== 
LARREA_VANILLA_LG_CONSENSUS_RATE.result	          <->	          AGUILERA_LG_CONSENSUS_RATE.result
=============================================================================================================== 

LARREA_VANILLA_LG_CONSENSUS_RATE.result mean: 0.00 
AGUILERA_LG_CONSENSUS_RATE.result mean: 0.01 

Observed difference of two means: 0.01 
0 out of 100000 experiments had a difference of two means greater than or equal to 0.01.
The chance of getting a difference of two means greater than or equal to 0.01 is 0.0.

=============================================================================================================== 
LARREA_VANILLA_LG_CONSENSUS_RATE.result	          <->	          CHEN_LG_CONSENSUS_RATE.result
=============================================================================================================== 

LARREA_VANILLA_LG_CONSENSUS_RATE.result mean: 0.00 
CHEN_LG_CONSENSUS_RATE.result mean: 6.43 

Observed difference of two means: 6.43 
0 out of 100000 experiments had a difference of two means greater than or equal to 6.43.
The chance of getting a difference of two means greater than or equal to 6.43 is 0.0.

=============================================================================================================== 
LARREA_EPOCH_LG_CONSENSUS_RATE.result	          <->	          AGUILERA_LG_CONSENSUS_RATE.result
=============================================================================================================== 

LARREA_EPOCH_LG_CONSENSUS_RATE.result mean: 0.00 
AGUILERA_LG_CONSENSUS_RATE.result mean: 0.01 

Observed difference of two means: 0.01 
0 out of 100000 experiments had a difference of two means greater than or equal to 0.01.
The chance of getting a difference of two means greater than or equal to 0.01 is 0.0.

=============================================================================================================== 
LARREA_EPOCH_LG_CONSENSUS_RATE.result	          <->	          CHEN_LG_CONSENSUS_RATE.result
=============================================================================================================== 

LARREA_EPOCH_LG_CONSENSUS_RATE.result mean: 0.00 
CHEN_LG_CONSENSUS_RATE.result mean: 6.43 

Observed difference of two means: 6.43 
0 out of 100000 experiments had a difference of two means greater than or equal to 6.43.
The chance of getting a difference of two means greater than or equal to 6.43 is 0.0.

=============================================================================================================== 
AGUILERA_LG_CONSENSUS_RATE.result	          <->	          CHEN_LG_CONSENSUS_RATE.result
=============================================================================================================== 

AGUILERA_LG_CONSENSUS_RATE.result mean: 0.01 
CHEN_LG_CONSENSUS_RATE.result mean: 6.43 

Observed difference of two means: 6.42 
0 out of 100000 experiments had a difference of two means greater than or equal to 6.42.
The chance of getting a difference of two means greater than or equal to 6.42 is 0.0.

=============================================================================================================== 
LARREA_VANILLA_FD_AVG_MISTAKE_RATE.result	          <->	          LARREA_EPOCH_FD_AVG_MISTAKE_RATE.result
=============================================================================================================== 

LARREA_VANILLA_FD_AVG_MISTAKE_RATE.result mean: 6.53 
LARREA_EPOCH_FD_AVG_MISTAKE_RATE.result mean: 6.20 

Observed difference of two means: -0.33 
9819 out of 100000 experiments had a difference of two means less than or equal to -0.33.
The chance of getting a difference of two means less than or equal to -0.33 is 0.09819.

=============================================================================================================== 
LARREA_VANILLA_FD_AVG_MISTAKE_RATE.result	          <->	          AGUILERA_FD_AVG_MISTAKE_RATE.result
=============================================================================================================== 

LARREA_VANILLA_FD_AVG_MISTAKE_RATE.result mean: 6.53 
AGUILERA_FD_AVG_MISTAKE_RATE.result mean: 14.41 

Observed difference of two means: 7.87 
0 out of 100000 experiments had a difference of two means greater than or equal to 7.87.
The chance of getting a difference of two means greater than or equal to 7.87 is 0.0.

=============================================================================================================== 
LARREA_VANILLA_FD_AVG_MISTAKE_RATE.result	          <->	          CHEN_FD_AVG_MISTAKE_RATE.result
=============================================================================================================== 

LARREA_VANILLA_FD_AVG_MISTAKE_RATE.result mean: 6.53 
CHEN_FD_AVG_MISTAKE_RATE.result mean: 0.05 

Observed difference of two means: -6.49 
0 out of 100000 experiments had a difference of two means less than or equal to -6.49.
The chance of getting a difference of two means less than or equal to -6.49 is 0.0.

=============================================================================================================== 
LARREA_EPOCH_FD_AVG_MISTAKE_RATE.result	          <->	          AGUILERA_FD_AVG_MISTAKE_RATE.result
=============================================================================================================== 

LARREA_EPOCH_FD_AVG_MISTAKE_RATE.result mean: 6.20 
AGUILERA_FD_AVG_MISTAKE_RATE.result mean: 14.41 

Observed difference of two means: 8.21 
0 out of 100000 experiments had a difference of two means greater than or equal to 8.21.
The chance of getting a difference of two means greater than or equal to 8.21 is 0.0.

=============================================================================================================== 
LARREA_EPOCH_FD_AVG_MISTAKE_RATE.result	          <->	          CHEN_FD_AVG_MISTAKE_RATE.result
=============================================================================================================== 

LARREA_EPOCH_FD_AVG_MISTAKE_RATE.result mean: 6.20 
CHEN_FD_AVG_MISTAKE_RATE.result mean: 0.05 

Observed difference of two means: -6.15 
0 out of 100000 experiments had a difference of two means less than or equal to -6.15.
The chance of getting a difference of two means less than or equal to -6.15 is 0.0.

=============================================================================================================== 
AGUILERA_FD_AVG_MISTAKE_RATE.result	          <->	          CHEN_FD_AVG_MISTAKE_RATE.result
=============================================================================================================== 

AGUILERA_FD_AVG_MISTAKE_RATE.result mean: 14.41 
CHEN_FD_AVG_MISTAKE_RATE.result mean: 0.05 

Observed difference of two means: -14.36 
0 out of 100000 experiments had a difference of two means less than or equal to -14.36.
The chance of getting a difference of two means less than or equal to -14.36 is 0.0.

=============================================================================================================== 
LARREA_VANILLA_FD_TG_SUM.result	          <->	          LARREA_EPOCH_FD_TG_SUM.result
=============================================================================================================== 

LARREA_VANILLA_FD_TG_SUM.result mean: 563939.23 
LARREA_EPOCH_FD_TG_SUM.result mean: 568030.60 

Observed difference of two means: 4091.37 
3035 out of 100000 experiments had a difference of two means greater than or equal to 4091.37.
The chance of getting a difference of two means greater than or equal to 4091.37 is 0.03035.

=============================================================================================================== 
LARREA_VANILLA_FD_TG_SUM.result	          <->	          AGUILERA_FD_TG_SUM.result
=============================================================================================================== 

LARREA_VANILLA_FD_TG_SUM.result mean: 563939.23 
AGUILERA_FD_TG_SUM.result mean: 497794.55 

Observed difference of two means: -66144.68 
0 out of 100000 experiments had a difference of two means less than or equal to -66144.68.
The chance of getting a difference of two means less than or equal to -66144.68 is 0.0.

=============================================================================================================== 
LARREA_VANILLA_FD_TG_SUM.result	          <->	          CHEN_FD_TG_SUM.result
=============================================================================================================== 

LARREA_VANILLA_FD_TG_SUM.result mean: 563939.23 
CHEN_FD_TG_SUM.result mean: 599612.65 

Observed difference of two means: 35673.42 
0 out of 100000 experiments had a difference of two means greater than or equal to 35673.42.
The chance of getting a difference of two means greater than or equal to 35673.42 is 0.0.

=============================================================================================================== 
LARREA_EPOCH_FD_TG_SUM.result	          <->	          AGUILERA_FD_TG_SUM.result
=============================================================================================================== 

LARREA_EPOCH_FD_TG_SUM.result mean: 568030.60 
AGUILERA_FD_TG_SUM.result mean: 497794.55 

Observed difference of two means: -70236.05 
0 out of 100000 experiments had a difference of two means less than or equal to -70236.05.
The chance of getting a difference of two means less than or equal to -70236.05 is 0.0.

=============================================================================================================== 
LARREA_EPOCH_FD_TG_SUM.result	          <->	          CHEN_FD_TG_SUM.result
=============================================================================================================== 

LARREA_EPOCH_FD_TG_SUM.result mean: 568030.60 
CHEN_FD_TG_SUM.result mean: 599612.65 

Observed difference of two means: 31582.05 
0 out of 100000 experiments had a difference of two means greater than or equal to 31582.05.
The chance of getting a difference of two means greater than or equal to 31582.05 is 0.0.

=============================================================================================================== 
AGUILERA_FD_TG_SUM.result	          <->	          CHEN_FD_TG_SUM.result
=============================================================================================================== 

AGUILERA_FD_TG_SUM.result mean: 497794.55 
CHEN_FD_TG_SUM.result mean: 599612.65 

Observed difference of two means: 101818.10 
0 out of 100000 experiments had a difference of two means greater than or equal to 101818.10.
The chance of getting a difference of two means greater than or equal to 101818.10 is 0.0.

