227617
83176
289124
57376
94010
77144
2318
61980
73383
185028
48639
32667
52831
6049
12671
25317
33688
124833
26547
2
276746
8506
46315
1013
908
260072
2
1173
553
430
1
156
22222
56186
210815
463072
67397
54573
14850
90619
3268
116866
65618
98250
7912
102
974
5155
211112
54238
9694
49783
98869
93252
161011
7804
39021
86202
88362
291674
54228
1
38445
1429
125724
40254
103041
26305
112397
57919
53945
50201
137559
18245
274137
65252
260536
236896
46080
54408
67483
14
2380
115166
77421
78100
60692
28496
3669
170226
96855
161848
179867
134701
1508
90500
33614
39307
59710
60620
178666
87786
12023
300435
21003
207620
392304
80215
82060
3613
59259
54616
178813
20832
120445
181716
15688
21179
36964
76565
76230
53418
76848
2316
171
23478
35215
269576
129568
22763
146349
31626
203020
9613
7984
92040
136804
150428
203471
43825
32411
2
2980
131130
62290
16771
22246
3
4102
80598
302145
131788
34912
1
14831
86172
30044
35067
192683
173952
75460
34104
28636
59989
114020
2224
15152
52280
122074
294148
217474
48426
48248
25280
241152
19324
101723
93007
71669
18330
179756
18108
117323
64661
127360
223091
184787
222704
16876
34316
84994
5
8255
69762
806
65760
2
96383
256249
11346
1219
35920
19889
5831
5931
132212
131250
163680
24493
150062
66974
18560
176105
159283
16624
4454
146278
16392
123943
42546
90339
173440
56560
26282
57088
252507
34000
120509
97807
4221
40236
337106
365608
3
27093
207142
61219
25265
275811
96276
15626
21613
23098
80929
39224
86616
474087
479261
3
15517
3032
1
102040
169857
194736
235317
69035
358310
31800
51412
17207
72111
32514
36889
523753
6738
171290
5127
16152
2058
50769
49421
57848
74336
125504
47339
69412
23275
62237
991
2647
1792
40452
65348
25668
940
110377
38064
64100
31100
6125
54112
3125
230324
136850
232747
452930
146981
133528
48124
354744
63448
138286
167311
258276
36032
130566
190812
52036
35948
34230
90622
46821
16
8824
404
12
9550
37501
180836
58484
70475
88708
163883
67378
9576
106666
80589
129561
82252
36334
18869
16725
26573
25335
43593
29497
14771
58392
23127
430542
140564
270272
24296
164784
38106
8195
17892
1882
37030
87499
58488
3176
53090
45490
68
15764
30577
72850
61317
44048
1768
22513
42184
2142
68135
333756
9596
28316
2233
27593
1257
84595
120669
130760
78333
29733
101630
138784
45723
523
35565
22
101366
72122
85726
73102
96933
53504
28368
6912
374875
11
97220
48521
79273
134574
32536
156803
236785
39177
175720
278348
145839
333071
18232
63332
145863
39407
285842
169346
45145
84673
14915
201889
163765
234241
