=============================================================================================================== 
LARREA_VANILLA_LG_CONSENSUS_RATE.result	          <->	          LARREA_EPOCH_LG_CONSENSUS_RATE.result
=============================================================================================================== 

LARREA_VANILLA_LG_CONSENSUS_RATE.result mean: 0.00 
LARREA_EPOCH_LG_CONSENSUS_RATE.result mean: 0.00 

Observed difference of two means: -0.00 
45159 out of 100000 experiments had a difference of two means less than or equal to -0.00.
The chance of getting a difference of two means less than or equal to -0.00 is 0.45159.

=============================================================================================================== 
LARREA_VANILLA_LG_CONSENSUS_RATE.result	          <->	          AGUILERA_LG_CONSENSUS_RATE.result
=============================================================================================================== 

LARREA_VANILLA_LG_CONSENSUS_RATE.result mean: 0.00 
AGUILERA_LG_CONSENSUS_RATE.result mean: 0.04 

Observed difference of two means: 0.04 
0 out of 100000 experiments had a difference of two means greater than or equal to 0.04.
The chance of getting a difference of two means greater than or equal to 0.04 is 0.0.

=============================================================================================================== 
LARREA_VANILLA_LG_CONSENSUS_RATE.result	          <->	          CHEN_LG_CONSENSUS_RATE.result
=============================================================================================================== 

LARREA_VANILLA_LG_CONSENSUS_RATE.result mean: 0.00 
CHEN_LG_CONSENSUS_RATE.result mean: 9.56 

Observed difference of two means: 9.56 
0 out of 100000 experiments had a difference of two means greater than or equal to 9.56.
The chance of getting a difference of two means greater than or equal to 9.56 is 0.0.

=============================================================================================================== 
LARREA_EPOCH_LG_CONSENSUS_RATE.result	          <->	          AGUILERA_LG_CONSENSUS_RATE.result
=============================================================================================================== 

LARREA_EPOCH_LG_CONSENSUS_RATE.result mean: 0.00 
AGUILERA_LG_CONSENSUS_RATE.result mean: 0.04 

Observed difference of two means: 0.04 
0 out of 100000 experiments had a difference of two means greater than or equal to 0.04.
The chance of getting a difference of two means greater than or equal to 0.04 is 0.0.

=============================================================================================================== 
LARREA_EPOCH_LG_CONSENSUS_RATE.result	          <->	          CHEN_LG_CONSENSUS_RATE.result
=============================================================================================================== 

LARREA_EPOCH_LG_CONSENSUS_RATE.result mean: 0.00 
CHEN_LG_CONSENSUS_RATE.result mean: 9.56 

Observed difference of two means: 9.56 
0 out of 100000 experiments had a difference of two means greater than or equal to 9.56.
The chance of getting a difference of two means greater than or equal to 9.56 is 0.0.

=============================================================================================================== 
AGUILERA_LG_CONSENSUS_RATE.result	          <->	          CHEN_LG_CONSENSUS_RATE.result
=============================================================================================================== 

AGUILERA_LG_CONSENSUS_RATE.result mean: 0.04 
CHEN_LG_CONSENSUS_RATE.result mean: 9.56 

Observed difference of two means: 9.52 
0 out of 100000 experiments had a difference of two means greater than or equal to 9.52.
The chance of getting a difference of two means greater than or equal to 9.52 is 0.0.

=============================================================================================================== 
LARREA_VANILLA_FD_AVG_MISTAKE_RATE.result	          <->	          LARREA_EPOCH_FD_AVG_MISTAKE_RATE.result
=============================================================================================================== 

LARREA_VANILLA_FD_AVG_MISTAKE_RATE.result mean: 6.50 
LARREA_EPOCH_FD_AVG_MISTAKE_RATE.result mean: 5.09 

Observed difference of two means: -1.41 
3999 out of 100000 experiments had a difference of two means less than or equal to -1.41.
The chance of getting a difference of two means less than or equal to -1.41 is 0.03999.

=============================================================================================================== 
LARREA_VANILLA_FD_AVG_MISTAKE_RATE.result	          <->	          AGUILERA_FD_AVG_MISTAKE_RATE.result
=============================================================================================================== 

LARREA_VANILLA_FD_AVG_MISTAKE_RATE.result mean: 6.50 
AGUILERA_FD_AVG_MISTAKE_RATE.result mean: 12.36 

Observed difference of two means: 5.86 
0 out of 100000 experiments had a difference of two means greater than or equal to 5.86.
The chance of getting a difference of two means greater than or equal to 5.86 is 0.0.

=============================================================================================================== 
LARREA_VANILLA_FD_AVG_MISTAKE_RATE.result	          <->	          CHEN_FD_AVG_MISTAKE_RATE.result
=============================================================================================================== 

LARREA_VANILLA_FD_AVG_MISTAKE_RATE.result mean: 6.50 
CHEN_FD_AVG_MISTAKE_RATE.result mean: 0.00 

Observed difference of two means: -6.50 
0 out of 100000 experiments had a difference of two means less than or equal to -6.50.
The chance of getting a difference of two means less than or equal to -6.50 is 0.0.

=============================================================================================================== 
LARREA_EPOCH_FD_AVG_MISTAKE_RATE.result	          <->	          AGUILERA_FD_AVG_MISTAKE_RATE.result
=============================================================================================================== 

LARREA_EPOCH_FD_AVG_MISTAKE_RATE.result mean: 5.09 
AGUILERA_FD_AVG_MISTAKE_RATE.result mean: 12.36 

Observed difference of two means: 7.26 
0 out of 100000 experiments had a difference of two means greater than or equal to 7.26.
The chance of getting a difference of two means greater than or equal to 7.26 is 0.0.

=============================================================================================================== 
LARREA_EPOCH_FD_AVG_MISTAKE_RATE.result	          <->	          CHEN_FD_AVG_MISTAKE_RATE.result
=============================================================================================================== 

LARREA_EPOCH_FD_AVG_MISTAKE_RATE.result mean: 5.09 
CHEN_FD_AVG_MISTAKE_RATE.result mean: 0.00 

Observed difference of two means: -5.09 
0 out of 100000 experiments had a difference of two means less than or equal to -5.09.
The chance of getting a difference of two means less than or equal to -5.09 is 0.0.

=============================================================================================================== 
AGUILERA_FD_AVG_MISTAKE_RATE.result	          <->	          CHEN_FD_AVG_MISTAKE_RATE.result
=============================================================================================================== 

AGUILERA_FD_AVG_MISTAKE_RATE.result mean: 12.36 
CHEN_FD_AVG_MISTAKE_RATE.result mean: 0.00 

Observed difference of two means: -12.36 
0 out of 100000 experiments had a difference of two means less than or equal to -12.36.
The chance of getting a difference of two means less than or equal to -12.36 is 0.0.

=============================================================================================================== 
LARREA_VANILLA_FD_TG_SUM.result	          <->	          LARREA_EPOCH_FD_TG_SUM.result
=============================================================================================================== 

LARREA_VANILLA_FD_TG_SUM.result mean: 578778.28 
LARREA_EPOCH_FD_TG_SUM.result mean: 588093.88 

Observed difference of two means: 9315.60 
1133 out of 100000 experiments had a difference of two means greater than or equal to 9315.60.
The chance of getting a difference of two means greater than or equal to 9315.60 is 0.01133.

=============================================================================================================== 
LARREA_VANILLA_FD_TG_SUM.result	          <->	          AGUILERA_FD_TG_SUM.result
=============================================================================================================== 

LARREA_VANILLA_FD_TG_SUM.result mean: 578778.28 
AGUILERA_FD_TG_SUM.result mean: 574918.92 

Observed difference of two means: -3859.37 
19045 out of 100000 experiments had a difference of two means less than or equal to -3859.37.
The chance of getting a difference of two means less than or equal to -3859.37 is 0.19045.

=============================================================================================================== 
LARREA_VANILLA_FD_TG_SUM.result	          <->	          CHEN_FD_TG_SUM.result
=============================================================================================================== 

LARREA_VANILLA_FD_TG_SUM.result mean: 578778.28 
CHEN_FD_TG_SUM.result mean: 599932.05 

Observed difference of two means: 21153.77 
0 out of 100000 experiments had a difference of two means greater than or equal to 21153.77.
The chance of getting a difference of two means greater than or equal to 21153.77 is 0.0.

=============================================================================================================== 
LARREA_EPOCH_FD_TG_SUM.result	          <->	          AGUILERA_FD_TG_SUM.result
=============================================================================================================== 

LARREA_EPOCH_FD_TG_SUM.result mean: 588093.88 
AGUILERA_FD_TG_SUM.result mean: 574918.92 

Observed difference of two means: -13174.97 
0 out of 100000 experiments had a difference of two means less than or equal to -13174.97.
The chance of getting a difference of two means less than or equal to -13174.97 is 0.0.

=============================================================================================================== 
LARREA_EPOCH_FD_TG_SUM.result	          <->	          CHEN_FD_TG_SUM.result
=============================================================================================================== 

LARREA_EPOCH_FD_TG_SUM.result mean: 588093.88 
CHEN_FD_TG_SUM.result mean: 599932.05 

Observed difference of two means: 11838.17 
0 out of 100000 experiments had a difference of two means greater than or equal to 11838.17.
The chance of getting a difference of two means greater than or equal to 11838.17 is 0.0.

=============================================================================================================== 
AGUILERA_FD_TG_SUM.result	          <->	          CHEN_FD_TG_SUM.result
=============================================================================================================== 

AGUILERA_FD_TG_SUM.result mean: 574918.92 
CHEN_FD_TG_SUM.result mean: 599932.05 

Observed difference of two means: 25013.13 
0 out of 100000 experiments had a difference of two means greater than or equal to 25013.13.
The chance of getting a difference of two means greater than or equal to 25013.13 is 0.0.

