29901
9046
7
8361
2977
6377
8563
11797
12396
20195
13
18560
19394
17796
101198
18
2564
26585
2399
35572
19794
36598
68792
993
43190
12793
8589
20192
4783
23395
3592
2594
19
14765
5591
45609
7599
30759
1185
58232
46141
25195
144974
9184
47628
44754
593
1185
4796
23577
69634
8536
29871
52476
26591
26181
387
6397
6588
38598
12793
7387
1799
599
15381
33784
2394
78999
15175
11793
10988
29993
789
30790
38596
4788
4186
38570
16196
4595
3187
22195
955
1570
1182
7
23396
157
29881
9772
5982
1398
35776
8999
1988
1970
585
10599
10991
10411
1737
585
11196
2196
8779
17397
11798
598
1184
7384
9396
1377
15381
4391
9181
3188
595
9995
13373
3388
6587
2192
16192
1592
22973
12398
2791
1188
15579
10994
14597
1970
6595
3578
1997
2381
1966
1188
4369
399
9389
7382
393
4197
16184
1392
7591
20596
18196
974
7794
576
45193
11567
2590
10992
18188
7183
7389
7968
29849
34021
62597
2195
16775
6978
62591
11
7976
1172
33209
5198
7988
30582
31986
6608
34789
29792
32396
11383
43397
12185
5581
795
3411
34783
12987
10809
1350
25929
2037
10
2380
7199
796
54386
12611
4586
4597
2362
385
2799
1608
22793
25388
1379
2799
7780
6
4787
4406
11376
2208
4795
986
1
1587
7597
4
2577
13601
5781
1589
1977
21397
4196
22185
20596
6189
1980
14364
36000
7204
1163
2
2787
2381
399
579
9203
1183
9782
10811
1384
2585
6196
2798
9998
4571
5604
9586
5
2978
6604
2964
4192
11186
27394
1187
1809
1985
11980
9381
6790
28799
5792
6179
5
5554
29846
60399
28771
22796
21942
611
49397
40751
113443
63746
56620
12594
61582
36929
29847
419602
150170
29810
6048
5986
7787
21599
19792
5599
52998
19574
19997
5364
8394
1786
7395
1789
2585
4564
5981
9593
8567
5981
10401
781
7995
16198
1194
20182
10987
12397
12196
1795
9196
10994
1998
17570
4378
10358
10776
4985
5577
2183
13359
23374
1994
18798
7377
3194
8365
6388
3996
14198
1596
4590
23769
25991
9192
9354
29825
12397
10947
2771
10598
35387
9773
36339
17344
4959
17989
17779
14783
4403
31598
27394
16196
25987
41363
14194
12554
8767
19991
27174
7387
59395
37799
41799
2109
3441
6161
1554
19196
20193
2412
5967
2791
13591
1583
2200
1369
2993
15191
8393
4599
1336
18
10761
15167
7400
1148
26196
3416
3370
3382
3019
5969
795
14419
14397
10569
2991
20390
6189
3018
3772
1015
3972
13986
2385
12987
371
1790
5213
1794
4191
2974
17797
7355
1152
1381
6599
2771
9
3796
4974
4547
1811
5174
30820
6575
3810
6571
21423
7775
1193
13754
5018
2385
1749
7995
4596
13611
2364
10417
5398
7348
11414
12990
11373
2773
27251
590
2190
10193
15
8180
2596
6010
37981
8196
5596
2598
27998
4179
14994
33411
3781
8
1385
6197
20587
6981
32209
6779
31385
10
2375
14784
4197
13973
7999
22197
590
6392
6981
5195
16792
5198
1005
5972
4999
12199
10
2583
3996
4009
1998
5742
17799
1383
7197
13190
5605
1369
789
4981
12
2178
10576
24599
6
1162
992
9
20999
5957
29852
6367
9640
10546
6199
15
13756
16
32597
17383
11546
14191
3567
2587
3781
793
32
15396
24554
24198
10598
6774
12429
17750
16791
17223
544
14378
1191
8740
15024
5797
19944
27396
28771
35223
2147
8037
7553
9596
26569
7999
3190
997
5756
11153
432
2756
3789
18241
3183
7553
1588
9787
2976
29878
6206
597
6198
1999
11774
5814
13400
35787
10797
11374
5360
3391
5369
9365
373
2591
970
975
23790
8173
17773
773
2618
586
5999
4395
6993
5580
13357
10971
7
3794
10399
2569
27580
29791
15615
2577
4018
1378
3585
4
24197
20183
2396
2393
1397
369
616
793
1799
1369
3597
780
6589
2170
8
28763
11589
7594
4391
1395
31977
3178
28617
7194
10777
6
1179
386
2176
1557
771
1165
582
16
973
384
382
408
797
362
391
384
587
375
387
391
972
801
1190
780
1185
375
977
2163
1192
789
1957
3538
29859
11232
8996
4157
4201
21989
10999
25368
33798
598
4384
1791
3599
7184
2185
10388
766
1983
9
2197
20183
1196
2392
4966
3186
6583
4812
1797
5970
5784
13
1591
8592
7155
10991
4798
9398
1786
5389
382
14378
2405
12996
2593
8398
798
14570
1970
7
3169
19197
12194
4984
4811
3782
5190
10780
1959
789
3566
726
6
4988
2574
12796
3981
4597
3994
585
3177
1612
2988
1381
2214
577
992
1013
4581
3196
12590
4599
4364
3
373
3383
362
8191
5998
5597
765
1
8185
15183
1193
1397
3178
3988
3190
583
14584
12
796
3556
2398
1390
8184
3389
3766
29891
123606
133178
16197
1984
115199
65390
6380
70393
34991
2359
3808
581
2793
5777
4002
1996
582
977
5970
10388
5185
1764
3983
606
783
1
1197
6763
9176
5001
4188
5765
775
3
1380
2
590
2983
5786
1792
586
1381
4171
17784
1972
2403
1799
19797
5376
13761
1394
1587
1573
9163
5
3399
968
6178
2587
6
7573
775
2
573
3190
2783
1209
10183
4784
7399
378
3
21593
4971
6988
22969
1579
8192
7383
16579
369
4385
3187
6394
2179
5
1165
15590
8192
1184
2410
9359
2
1375
586
2548
5
546
3200
2977
3565
3757
10587
6375
393
369
13192
3172
1
3783
1584
10794
6172
11575
10
384
6183
4994
1993
3378
4376
387
998
5386
3010
984
2587
4765
2963
2786
3576
999
2985
774
3585
2991
7775
6367
8792
5397
3379
2372
782
792
5592
4371
1352
29844
3857
982
3379
5
1988
23156
28391
9795
12183
592
7579
989
7198
5371
9776
9992
1776
2992
15174
2769
9406
19387
1376
4196
11367
21194
1194
21992
3590
2786
5791
2793
16390
18754
391
3165
39389
385
16999
8992
6790
4979
14399
6798
767
7781
8791
9998
10576
10800
2375
6189
7352
20373
4009
6588
9188
15184
7
2576
963
4186
777
375
402
2985
21008
12384
12743
29880
17455
81759
156591
66189
247735
29905
41448
82997
4994
56398
44824
129598
4771
10189
32985
13775
45005
55596
47162
29843
793
1165
9754
582
6195
6409
15367
360
1
8771
4377
10172
2595
6008
573
7210
4993
3198
1377
19214
5771
28794
8
5993
20583
36574
11784
16409
5569
21194
16
18393
7574
9579
57399
16991
7199
7176
26992
360
556
6579
20187
1011
38772
15375
973
2390
5598
10820
794
4798
2577
28782
1413
2395
8778
3751
29809
136363
1
1538
130563
41423
86982
66193
40340
17
25341
40786
29860
79609
117190
8185
19794
150963
193982
29885
3005
2396
1174
9986
5589
11195
7575
9396
7998
563
18789
386
374
1956
10197
36998
1393
13398
25389
14188
29583
9182
23597
1993
50799
28368
13386
21175
18799
382
24373
396
23584
2184
5794
39180
6393
21395
6795
4985
8397
36198
10388
1861
2977
5197
2195
25399
4585
1
5796
789
4586
987
2394
1384
15391
7
18794
11986
3574
7587
6987
1987
7393
15990
3399
2188
5390
2205
4191
7
594
5195
1788
7
4984
5
34193
5372
6796
2191
1193
2366
5
13398
8361
989
4777
10181
1789
4795
8589
3199
2385
585
15581
1780
8789
10394
1195
3941
6193
4380
1372
785
4585
16403
6388
7776
399
2995
1385
798
1198
2587
4
4798
17591
4189
1779
3990
2004
5779
9558
7
2598
1586
1793
18980
1169
597
3191
398
5997
797
13792
6396
2188
4
14383
1
8777
604
9571
1790
8992
4177
8994
1983
3595
8777
3233
1387
4943
5212
1597
5179
739
7600
5967
12779
360
1191
1175
803
5774
5592
10975
1804
3780
8771
1
2388
1982
11
6373
1569
573
12
1195
592
1779
3
8380
6773
9
4793
781
5779
12
340
9566
1148
341
9182
2186
4987
2179
10187
7990
1398
6578
1574
10193
4976
11389
3399
780
1992
2781
5215
9958
990
1777
394
2187
2358
2
595
3157
979
7
1597
13188
1195
371
1410
5399
4797
3355
20408
1380
2
4996
8976
1594
2213
7180
2592
2378
8173
9969
1199
11380
6995
1195
2595
598
6943
3779
784
6364
7195
6798
9
2392
1390
2565
8599
1
4567
3143
996
14
2794
3982
7996
1390
4373
15
3979
1611
2995
3987
1394
2174
1398
1194
2592
1969
2394
785
2794
6979
2164
3585
22185
1582
7181
1012
4996
7995
6964
3387
1586
1
9585
1382
3558
365
29824
93725
188195
119593
168119
5410
399
1985
2396
791
577
1399
14599
5606
17580
794
16394
2981
21975
593
1
4361
4591
407
31577
2568
13207
53577
798
4
10581
584
16
5581
12587
22783
4377
1995
9966
14793
5965
10798
2193
2406
41995
25160
15397
31199
13
13772
14
12571
11793
14798
212
17578
17
36973
5367
17209
4379
3199
8387
29811
8796
777
136591
47541
137798
30987
85197
14791
6194
31234
8360
3391
7785
2787
25435
755
21178
5212
29182
1799
7159
782
944
957
1794
796
3799
766
11206
4795
3171
5179
1774
5
2565
4793
1189
6591
2565
997
9970
11197
8991
5777
2977
13
776
3409
6572
6210
767
1788
1006
8176
11390
4968
991
3395
2184
3192
1412
1369
2369
19366
3168
6799
10994
15
1191
382
8748
8009
369
413
998
1576
6773
1592
6
15595
1571
8964
980
5352
5
784
1397
5391
6760
15
5385
2362
3818
3978
19220
3597
974
1614
797
972
2779
5570
15184
811
2182
8995
19
15347
16615
12776
3757
4994
13994
1998
2771
14
770
18990
1602
4397
1398
1382
398
2397
777
419
10378
8
14984
2592
1778
7599
993
2998
1999
9
1570
7394
18
952
11
8166
398
374
620
5169
581
11
1568
769
29845
1371
19172
2387
27187
8
20747
6
30952
1194
5020
6923
8792
12182
2576
6598
10758
3591
29189
5997
13970
4392
6157
5580
21
30354
789
8370
594
6997
4041
4355
7772
9397
7587
13765
6393
8598
2392
10799
14388
7198
18772
1389
11786
17782
10792
3796
17152
9190
3187
7384
10394
37786
8983
1766
3986
15591
20551
29840
41575
11576
14984
14179
11995
20986
18585
4174
3979
75387
27381
4984
12795
3996
11598
19573
69590
18558
30181
3797
14373
23397
8753
398
25795
45960
13773
7791
8799
330
29808
9441
77952
6166
18408
134042
323701
16632
36579
14
977
579
368
1371
2561
2357
3214
31591
6797
3796
1390
6594
1389
16195
9966
8611
20394
8796
5799
11182
6812
8189
6992
30575
4589
1363
5210
4009
20591
49998
16999
9192
2578
12
10394
11980
10
15791
2389
18168
414
6396
9199
2371
8013
12569
18612
3584
10197
14589
797
2588
798
18783
598
574
14610
10197
6382
4969
29884
17616
7999
27794
8592
86596
26941
10996
23189
2984
795
40781
12362
4788
21977
13989
42798
25
15356
10998
19797
24185
1979
55987
7396
10187
7598
13996
20595
2170
8989
3594
5585
5776
4963
2256
990
68792
14
88791
107770
85792
32999
398
999
33610
29176
25775
92368
29867
17596
7794
13199
1391
3360
15991
1772
2599
32398
7999
3988
27189
3391
4992
5999
775
7382
26764
2992
11383
2581
1381
2399
7581
3592
2584
6392
18772
5195
10149
399
28194
7780
2591
3191
12793
25390
4782
790
6777
7597
2978
10584
4370
4590
20391
11586
26596
8191
1191
989
6793
2999
15993
795
17397
4566
12197
3996
14988
10996
8986
11165
2783
1584
2360
10429
30584
4998
8187
34192
136594
4020
1148
1188
30795
28996
57588
8025
38163
104799
44195
22225
3536
29903
17817
6595
11797
51997
30194
88597
3987
5994
35587
4428
59970
25988
59171
25419
9363
48586
24190
27596
13399
16996
1954
29832
417
1184
793
9
380
959
576
1180
2175
2572
2578
1193
1151
754
772
584
1356
796
13
1199
588
1786
1371
790
395
810
2196
798
773
770
556
1178
1180
799
977
2996
397
769
2394
1387
358
3969
785
1996
1781
1189
593
2942
970
2376
3
377
788
382
372
1571
1378
1394
971
798
979
3183
381
978
1950
2013
1189
1180
1196
389
2178
389
1795
766
1184
375
390
392
149
3788
996
1197
385
1137
1576
1787
395
969
359
1146
1985
582
1198
1370
2388
2375
572
401
356
12
3367
2364
1571
4
579
361
1552
186
381
983
1370
786
559
388
1195
3
985
189
542
602
2960
602
3179
1179
1784
3173
11
4190
1377
990
5591
30389
5799
1194
4792
2399
2788
4795
5394
20379
7398
5572
1799
3598
13994
1191
1183
1785
7781
11582
399
4196
4186
8397
6582
4392
8192
4591
16993
10998
1599
597
7983
6183
15754
13184
392
14985
5197
22799
5186
2379
1797
3780
2185
6196
2193
2797
10976
1977
3793
1197
11185
1796
7393
13380
6392
1797
986
1369
5381
8792
3591
2583
1997
6557
29863
20803
14216
56580
37995
15393
9594
66980
15614
15978
51987
17409
968
19988
23389
32612
53375
29189
11208
18575
7770
14
11559
23188
2164
1195
7610
4143
29918
83262
80990
242204
20592
102774
1
8769
31180
245
6193
6190
1782
4377
7
2755
598
2583
12
3376
1999
11786
7590
5167
402
1788
4372
20006
785
7410
796
2391
5387
3783
10
1569
8
22385
2179
5386
10
8184
7195
4996
3997
4178
8191
38376
3991
2612
794
6593
1146
980
6792
10599
6798
1780
6373
6608
7396
585
2979
379
13
16192
2573
390
2174
12984
1364
4768
12211
2561
1
4179
12967
8596
2384
10737
580
11194
790
14592
12791
1785
964
8
2979
3593
3
3172
6988
10982
996
2773
6175
6986
9410
582
5184
4772
779
787
384
771
3809
7583
4976
1598
5400
595
372
5994
4
34184
1184
6995
8981
5367
561
1757
29876
277
1788
1988
1192
2790
1784
8377
605
9590
1183
799
1392
1781
3779
7535
1996
3962
2197
5990
786
4573
2980
6
11984
1178
6589
4399
3566
9604
1188
2384
976
10597
3584
10975
594
6594
2399
4580
379
5576
1568
772
4790
5990
3765
990
6772
8193
772
3998
559
585
1167
4400
1996
770
579
1785
2382
3392
6393
2999
8367
8990
4794
787
2793
388
3590
990
2197
8395
3387
5786
2579
576
789
1789
5797
2569
6184
17591
10392
4978
5987
1385
995
4176
1988
1993
11183
10397
382
783
1805
1592
1
1594
991
6587
1396
2393
3399
2371
7564
2806
15197
1588
381
984
1786
1797
4392
4574
3
5580
804
3572
3994
1
1190
2752
4599
397
3396
6193
378
2794
799
7781
9398
4776
594
2194
4377
7159
597
3
11774
2383
6186
3399
7187
4991
7383
1192
2806
3581
2367
1392
1174
5001
8381
5984
19388
6772
384
10781
9385
957
3983
988
1998
7975
3971
984
1532
2378
8135
18770
376
3398
5574
16193
968
13161
567
14597
3586
12382
19981
6795
12348
14377
2791
1758
2158
3560
31195
5388
1593
4171
22768
3781
18358
4764
1598
1745
1563
7188
338
3929
22995
7580
3789
7558
13571
789
34984
2181
375
7574
789
2976
1791
9352
17776
4169
3800
767
6756
1785
4167
1763
12586
1170
6589
19196
6393
3373
13990
29878
3009
3573
3393
3196
1993
1998
4192
3192
1387
1393
3374
11988
7383
398
2988
6187
7574
2
1584
1584
3993
5396
10394
2399
7382
8185
3984
1385
5983
10591
2782
596
789
1
10179
11169
6195
2192
788
988
3792
4792
804
2581
3183
1196
1189
1182
3592
10196
2196
399
2999
10793
398
2187
19776
382
4797
4575
3189
3
5598
1384
9192
368
1591
591
1196
4192
9995
2397
1591
2774
6389
2594
4795
982
393
3797
9394
3187
399
8999
376
796
2382
599
4785
5596
1188
2197
6576
6991
5990
1585
394
2190
1794
4796
1783
588
1797
7789
1586
2997
587
2357
7990
1394
782
798
5779
3
997
796
5194
2
9372
6189
6788
3389
17381
2590
5777
3394
1392
4995
1394
9196
5175
21386
994
1197
2182
9598
594
2582
2788
2395
6390
1382
4199
5597
791
4797
1171
29828
48789
1397
6362
91233
69599
88185
15758
8400
10358
31230
28793
6592
12798
150109
29924
76679
284515
182048
26499
5018
2389
4190
3201
6191
1604
3192
9189
2385
3599
22797
4399
11993
7990
590
3800
7987
12770
4775
1596
2797
6389
2
3992
12596
6773
2810
1
9574
3780
793
2186
3573
3588
9387
1992
1998
590
1579
5987
2161
6590
3196
8996
4985
9779
1193
11793
11401
6787
5375
9585
8999
4192
12376
3
9996
995
2196
4203
999
1995
2993
1187
10395
10395
14192
12989
8773
13601
4590
992
2603
8190
10192
10191
4
3993
1794
4194
3181
1800
1788
4184
14399
12185
4183
2398
11794
563
1984
9794
8376
3784
3380
12774
593
18403
4158
93242
62185
1560
32030
23392
100158
1368
255771
29878
35645
9190
3392
10385
18200
46193
50998
10990
8598
15797
1576
9187
50184
12198
44987
19798
8582
58602
20586
18196
19196
13398
8586
2007
13596
9199
39987
10355
3230
998
4161
20586
3782
2589
1203
397
971
7172
3362
14975
4791
3785
1398
3388
9375
31791
26575
6582
3399
3596
9182
15576
3996
3180
2407
3176
2398
798
3375
4
2390
5575
4779
7960
13387
1794
6594
9585
4764
26759
775
584
8393
1186
9
3365
388
8575
12983
10197
1187
4207
6178
1172
985
4999
3984
1389
4776
7996
4178
4396
3946
12569
11192
6185
6010
986
810
389
787
1009
3169
10
3798
2598
595
2799
780
5976
575
2410
1951
7591
993
2557
573
2381
5177
1780
5780
6
4379
5179
4580
9599
6389
5186
1989
8560
2406
4187
7392
12979
1
6371
8583
3384
3951
29883
1006
6396
4574
20595
7397
20580
3806
57181
10
42364
66166
26199
23599
8197
7
12780
3787
8611
1769
21999
61386
3762
14193
5771
5193
1190
10012
8774
1999
12590
398
8599
16592
17
9365
5799
2785
23799
4805
774
2
26560
7968
2350
4543
1186
11774
1177
2782
1185
6393
5796
6167
1996
2958
2994
8963
2980
10
381
6389
18598
3179
791
4778
2154
5213
1996
8178
787
13960
1357
5979
4560
10982
814
28555
15
15197
2969
3360
6
4595
2755
8372
761
1964
14367
4173
2165
7
5353
4366
1379
9
2981
9772
14763
2188
1371
1959
4554
3612
750
8755
6795
1991
2136
1183
3811
10788
8189
8346
13171
2395
1573
588
6392
6998
5182
1368
3980
3970
4166
7578
16983
3997
8569
1169
4968
3386
7580
3015
2795
786
2552
781
5406
3598
4378
11181
4997
9204
7385
10966
1414
5771
3391
968
1784
550
388
3343
1575
7580
3395
2573
5409
9763
730
29807
74407
1398
94588
36596
2393
2986
4177
5383
386
996
2364
2580
1587
1184
1791
1587
1194
2594
520
393
1593
5968
4574
1196
398
394
25777
90582
8995
66393
124359
29879
21096
63598
56967
29799
7
45135
16235
63573
43389
72998
156956
17246
752
4772
11770
33195
9384
3031
50757
10235
24358
45185
3433
12346
36389
9198
74798
22578
5594
11
14959
9789
15
33158
8623
16532
3818
58574
13197
2388
10186
11992
11167
29866
12016
195598
1192
29193
33980
9797
24163
7989
34997
2982
33589
6791
4
97954
12983
45987
20371
27433
38561
744
30999
47946
15773
41229
14362
1395
1181
796
1981
3231
2559
1189
11187
10761
9574
31786
7621
12962
9387
796
17393
19157
38627
4195
2755
2769
743
3192
2975
794
582
931
43816
2398
7757
9013
23753
2013
6598
4965
5
1964
5030
18172
4590
11785
959
4608
3956
4185
796
10
2771
15785
6966
9383
14598
3407
10369
4613
1396
2190
15554
19025
20755
1
9163
6581
19789
8182
16582
20972
16398
4592
18189
3997
18398
2571
387
5594
12169
20797
7789
5821
1370
790
6185
4221
4157
10599
219
1134
1194
3990
2599
23
24154
22425
364
11592
23
10398
13392
7373
8187
989
9164
27596
14998
4217
12570
30992
4381
