27276
1982
30584
21177
8
5965
583
31598
608
21596
21585
5392
37199
18793
46198
14371
20799
17785
46958
45805
2399
2592
42395
3790
2173
2392
1357
1
789
5193
15581
6608
768
5409
27966
2399
1790
9995
11408
8156
2637
53197
12174
44386
32969
10
13394
33339
13969
23211
39161
8
20577
32402
56394
23997
390
5368
77163
5211
41167
38351
16425
4994
962
363
810
6981
17996
792
25965
5994
15590
29391
1595
33794
1368
15605
1597
19169
3015
14353
25806
4983
12980
20779
2011
1382
1193
4765
3214
1196
26580
15187
10578
17991
49578
4196
31194
6582
10
10183
64792
3376
7
1182
5
15980
16723
29876
15985
41597
27597
30194
593
21
934
1588
2577
796
1194
2193
1998
44176
3799
17982
356
13796
45996
3196
12168
4984
965
46580
42566
23780
16576
3397
31988
46398
23999
6986
35176
17174
29877
22023
3396
2397
2395
10586
1180
990
8594
23997
2193
10199
23399
14393
6590
6589
2398
3596
22991
2587
10993
5995
14398
5999
16797
1789
9786
1992
15182
795
9
10953
23784
2388
38390
4578
3631
3150
788
13777
2987
12183
8982
6993
10797
2170
9564
15588
3366
999
2397
2798
7585
6198
11799
5194
5392
4993
4599
7997
34189
26192
2995
3381
1186
12979
29879
3603
12792
44178
5191
3594
11791
10590
5993
10789
5365
85799
4199
13786
9979
15991
14795
14194
19983
6381
7586
3958
23997
34181
10794
9396
6790
20196
23199
21595
988
8779
3781
37
947
28
4158
2785
32777
12395
13993
27975
29860
225074
260319
84379
414
9777
12397
7197
54595
5783
5186
974
8442
39551
4796
3390
15793
1388
17599
1379
9787
9392
19798
798
4
1559
6971
15349
11196
47783
5192
4357
4992
23991
24793
773
991
14979
1192
798
5398
32385
16198
592
9197
8799
2577
76573
5178
18988
7222
3998
22592
13390
1973
17213
4798
9581
1562
22998
7188
21997
20580
1176
6219
6393
11976
594
1768
4199
9568
5791
31545
1378
1213
40187
4379
2188
3594
13
12785
22570
4391
995
1
6996
5579
10
3598
9769
789
28572
33762
6395
6366
7
789
8180
12179
25784
7373
5804
580
8393
8178
12197
9572
368
3786
5
2179
590
11
1578
397
20011
4381
415
6374
29883
8051
3155
33353
3975
813
11362
18594
4
2768
8789
1972
2185
798
15
21396
38594
8992
10174
391
12185
18
8976
3599
10
6572
11799
5804
7979
18
23197
959
385
7597
5169
9
5593
770
1015
3799
1199
19374
10
11978
15414
21577
393
11198
5211
1399
8579
982
6589
13585
3418
4965
5970
3994
1973
6218
5994
2979
1616
3576
989
3163
417
6166
3169
23395
2795
12794
1219
14977
16395
19606
8979
392
1195
11391
2981
29863
2204
5194
973
23617
16190
8773
11802
9598
1589
19571
19197
17
4995
3998
3799
8176
2790
26797
38774
5190
595
3969
3793
1362
390
22961
789
2781
1378
26783
4993
1192
1396
10197
10159
6597
1387
13790
27987
11399
6394
25193
10779
11183
6983
6599
7998
31194
3594
9183
8788
13594
9599
11974
13380
25564
2601
6387
6617
12390
3391
9190
2386
14587
7593
3396
1981
3374
2392
995
6788
12808
4798
22382
1980
5571
2
2596
4960
588
5782
7979
2366
774
1605
391
14370
2375
767
13552
11413
4765
373
988
4198
22157
4395
2768
413
13373
21602
15772
20176
6193
11361
1198
1989
5777
2586
10197
7394
7375
20
10164
3966
8999
14375
7993
1776
572
797
1990
1411
8196
1374
2204
6567
2778
5997
7392
3358
5363
2581
5413
790
14193
578
3810
374
2795
15193
4171
38813
4995
4978
569
4186
1395
1799
358
30197
22563
11168
44389
20192
22594
7596
1794
1596
3789
1996
41990
6
3790
3198
14198
7378
20767
10580
7791
597
399
2
1179
4206
989
4
5574
4795
1785
3797
10186
6
4182
23390
3986
5193
2986
2995
6365
17186
5372
7390
57798
11799
2994
11194
3390
19996
4595
1795
1978
1986
592
33975
10387
8190
1797
3399
3170
29886
11213
6795
1399
20570
16572
13198
3795
955
973
405
2991
5994
15793
9
2180
21407
1781
3
1396
7198
40582
4189
2982
18586
6967
2188
14023
6972
17195
9016
1975
6202
3598
1801
9968
2199
12390
579
19386
3390
1011
1782
7166
3192
17987
16012
1764
8575
16
9767
1177
2399
12598
27591
7
29579
29570
19994
2994
12207
5167
14978
8396
388
15954
12243
2
57783
1999
16213
3371
961
2403
3565
7182
11
1390
19193
1977
14
775
12
399
20782
23995
7
23570
7
2591
6798
398
1791
1192
14394
6568
402
4992
5176
32410
21585
329
1192
11827
3412
1398
19399
2183
9176
571
6778
23809
13380
15965
18790
11396
9799
11966
30782
4
4998
3991
22979
11597
4983
3
23366
5353
3506
29869
4003
2582
13197
5985
2585
2190
4797
1192
398
5396
4775
2795
7777
3384
1389
2791
4186
13799
3178
7365
1386
1590
10186
6184
6382
15399
1787
7995
7581
1595
1777
2390
9789
5168
781
794
4800
4995
1374
11175
4990
4379
4209
15399
7181
7994
4369
3585
18369
11399
12178
1012
6583
12199
9789
29569
17989
5180
17998
4779
8406
3792
1599
1997
16784
13999
4997
2379
21789
2983
11771
9374
588
5759
1995
5196
564
3198
5784
6611
1993
2361
770
10398
7795
13588
2777
585
2773
29858
36232
2
20323
20791
36
554
1381
5781
9990
15576
1382
6
32359
47192
33
2760
11389
19959
31597
1795
16594
34390
31
1761
2176
26
3560
1389
32395
2366
41593
4558
780
1397
33982
21
32561
34994
15381
7197
8532
6177
12583
1392
14168
14284
11375
314
653
47384
2996
2968
4788
47399
27782
9587
2168
17982
2
36799
3780
38786
22982
4384
578
37188
20997
4996
2189
25598
594
3191
1
6986
2798
7385
2992
15999
2978
2995
19591
3599
3399
27587
27387
12797
22395
6598
5399
6777
29805
2198
5197
2389
776
8398
10396
4794
4369
5397
11997
17778
19180
11394
795
2197
4782
2185
782
1392
812
982
754
388
3179
8814
7399
3388
8397
3389
5392
3597
18584
15199
2598
2569
8786
11186
1183
1197
11397
11183
5379
7582
2771
7594
11773
14
7774
3191
25792
2579
3
4387
787
5582
1590
5992
2342
3392
8392
6595
1198
7568
6208
8590
7593
7770
11
4195
787
2794
4780
176
774
572
1608
965
2413
754
576
11013
11182
12598
2789
9762
779
11592
27180
5582
5583
7191
10370
8816
3984
597
14380
1995
1194
1395
964
29853
14809
31194
126383
31586
144185
101561
12810
107165
29817
101873
62984
1555
18040
53396
40793
5597
12596
556
8822
77789
43594
3576
61151
4241
68199
4938
29874
23433
19996
29571
4196
6369
47014
6399
39173
2612
7774
13965
13
357
1571
12779
17396
23593
30971
2006
105222
16770
22421
106772
29164
2642
125987
70783
108611
91197
116999
52974
579
29926
536252
33557
29811
8014
8592
1789
11161
44198
3194
1192
5370
9377
4358
14382
21595
2393
387
1394
1181
1195
795
2179
2397
980
799
3190
10391
3391
17180
20585
579
1362
2012
9384
20781
2580
7566
1786
396
9589
5592
6582
21578
1779
30550
2375
3182
6988
5967
2385
7574
11385
15399
12181
11584
1799
7373
8779
1781
6184
8985
3181
9788
589
9994
1190
13990
19387
584
23398
6985
12193
4790
5798
13798
5344
12424
579
3979
87822
32569
21820
42951
80195
3600
159192
29
1996
11966
5556
27987
17191
15790
5386
11567
8586
18378
29863
2819
63383
9998
7196
28
24769
10384
16027
14968
2791
29218
2969
22771
26204
56370
25796
377
27815
35169
2184
2215
1366
52614
38571
21
4161
43195
24397
21738
29863
95968
1797
28044
10147
33996
26199
990
10586
53787
23191
14586
49190
7586
7587
1790
35379
20999
997
32732
16194
55992
9590
32145
29860
14020
50998
51992
36775
1588
3792
9595
4399
3167
4
799
985
1784
9593
9576
2182
998
16166
5
8382
1772
15377
15
3383
2
6384
589
15190
5568
12
6791
22597
7768
12988
17994
1198
28576
10780
3212
14782
1774
3611
576
4779
43791
6
23592
28189
12183
6012
26986
8
2188
13730
29813
3595
5770
589
794
3370
2178
9985
793
8794
2985
2185
394
11174
5199
2788
5191
5995
12397
1393
23390
10797
4195
4397
7596
1399
3171
584
9594
10787
8788
3583
13399
11590
7992
753
369
1390
2187
5193
1198
17586
1393
3797
3382
2385
15596
3198
1399
6995
4397
980
4799
5157
10999
32356
5770
1600
3595
798
1197
2195
2371
978
1582
1999
759
740
1398
7592
8787
2980
4395
4194
1587
5193
11199
3796
1391
4995
5987
14799
6378
3991
2379
13990
366
383
10797
2973
4985
9796
7790
782
9987
2197
2397
1588
2799
1998
8998
387
2586
4799
8796
11796
5191
1582
4562
1442
8997
1765
1
597
5981
6983
5372
5981
9588
5997
4787
24786
392
3797
2384
13397
19990
605
5174
11202
767
2394
10594
7599
18198
12996
3593
1587
7
1170
1395
25202
1591
4801
583
780
3397
3581
6777
7
763
32396
1378
1396
2
5388
18786
5375
10801
999
7389
7
2785
3598
806
1188
1606
10972
9998
13191
992
11577
13376
1985
12583
4775
1173
1587
21557
41597
2385
1994
1799
6007
3788
13602
3399
3773
5795
5391
7407
12164
3979
571
3609
5382
1586
29882
41667
15741
31618
52966
9421
18399
6156
29814
17765
1387
11598
75979
16618
12771
84596
43975
10766
819
10768
9010
10374
27818
975
27196
1391
29861
3056
1362
387
975
396
2593
979
1380
797
6407
1170
12395
7614
1973
5572
4978
1753
1166
12
779
402
10398
364
950
1197
6193
5186
2972
1813
1972
10613
1543
5009
1974
12012
8190
3968
791
7191
4190
1975
3214
2782
6981
1783
7
1377
2749
5972
11772
792
2162
1
6572
9
2578
3
4393
2990
558
193
2571
2808
8166
4770
797
7781
3597
7582
13789
974
1176
3181
2796
1400
797
1355
2194
5970
3589
4006
782
16198
11
774
2008
1598
3183
5183
559
1135
2996
3356
6177
2180
2400
976
3763
566
6594
1206
2163
801
980
583
7
1368
1598
8413
376
395
4572
9774
765
5158
568
4207
2
1992
945
799
560
2596
1763
786
1758
409
1998
397
1397
4777
14
596
5362
1149
5582
9384
1364
3169
6
1396
1596
3364
1797
2782
1
4194
5962
6
773
380
7164
12792
5581
2590
13
3375
2
4978
3999
2
3371
1584
4374
774
798
10795
8347
6582
2771
795
8214
3355
11975
7606
758
386
399
359
6617
6958
4190
5987
5
5975
3
10173
8379
5393
2985
7188
391
2759
4600
778
2405
8769
9382
3
4605
3792
5601
6395
10992
593
1192
2185
798
1598
2399
797
9387
17975
5792
2969
7388
596
2396
6190
1190
2198
15167
4588
2390
582
4807
6
4569
399
3591
997
13991
395
11179
8386
5172
6978
4807
2
1191
7962
595
4992
3
7599
7379
4190
977
3197
1389
10983
1801
34388
3973
1588
379
1185
5971
2
6982
1158
1803
7197
777
987
6
16597
13794
3996
1179
1
7195
7982
1791
7581
15386
3390
2
2572
3
4572
4195
774
804
2790
5782
1783
973
11592
3794
2589
2792
2
3787
5172
3187
5
4580
11997
5991
6202
6971
29854
4175
8779
1
13781
30568
403
15386
785
5190
3599
4392
14988
2200
6999
10964
38402
3389
990
995
1387
15799
3572
9584
7997
11597
2380
4191
11976
15406
6163
2419
4986
3
4397
24788
5599
4390
2
576
1603
6597
29387
792
2397
3990
2400
6398
8784
10991
2800
16996
12786
14781
5
21591
1000
11798
1592
1988
8588
11198
13997
19790
511
599
4417
19399
5981
2199
13594
3193
2581
1136
837
386
571
3
2985
383
2
11399
9384
1392
1966
20402
7583
16945
7784
14387
5397
2782
2775
3980
2990
3592
6200
3383
8
381
6796
21006
4375
7
7385
1
1785
970
1586
5
2975
15183
12793
6
990
4
796
17790
24984
5194
1195
16587
8391
7597
5179
9783
6968
3765
4605
592
1993
2388
1582
8782
19181
3196
1980
13376
7791
11186
12980
21186
11606
4789
3380
7
1598
4990
44398
957
2394
9195
578
10599
1383
13586
16399
787
19361
29804
9240
4997
11572
49760
30798
8989
51999
10985
40756
8184
34787
70188
51565
19416
1368
54825
9398
82364
18361
29880
2840
2180
3799
12396
44797
5995
15391
7778
19
10784
10798
16157
30970
17388
3398
7
1968
6594
11997
35550
13
7571
30991
4
32169
3423
7966
382
386
799
4178
22980
15168
16
7572
25799
1595
10590
1625
17960
5398
11790
10424
8335
396
2783
10420
4360
7595
6383
15590
19188
4174
2792
8997
1393
2970
14169
6792
4197
6398
47769
12563
7785
33555
19796
12032
5732
1975
17412
12185
8934
1763
35173
9386
27387
13600
13358
1386
366
13956
68579
2031
1945
763
3018
4758
3188
3178
6596
4194
1418
1360
597
6
24955
34199
1561
5155
2770
2995
825
2560
2939
1792
1986
782
598
4150
1184
10589
8429
2554
4184
18622
560
20170
29910
37044
21998
593
33590
28993
13196
17399
20782
22369
36798
5800
2194
1398
9597
32598
43397
11387
38793
21386
2584
29004
8391
14801
31787
787
588
506
1334
32660
1594
9597
36587
29871
4394
5806
8591
997
15589
13199
19394
32587
2981
9
16995
2789
7199
6749
4580
4372
7798
2396
3199
24183
6394
8977
994
584
4779
786
9996
17580
7802
5989
5373
11183
2583
7
3593
10572
2151
19198
36986
1788
1779
1965
2396
3397
10383
10206
2387
598
1570
18394
597
8398
3997
4799
7983
5369
1174
399
963
7599
14189
393
1597
1595
7796
1196
1792
387
10380
33174
9187
1788
1996
7970
1382
977
1573
11195
2004
22765
2043
3397
11197
3591
14588
27180
4380
5203
797
3187
5
9576
2
593
2186
405
21962
13799
3390
24586
985
755
12995
21398
21206
5593
5788
1788
20595
9388
4755
26175
10796
1795
16787
783
6162
7981
3782
398
17798
10787
6993
7
12199
7987
2588
5601
9589
596
16803
6385
10196
16396
5999
9
3981
5581
7970
2190
17376
7588
1404
10174
1176
3194
8207
14784
10198
2
2366
1596
1797
7586
2430
1195
3797
592
17783
2197
795
5002
2592
10367
9167
1201
1997
1582
19590
1197
3797
31994
3996
5986
3793
7555
13
4597
20599
1786
8793
3791
14392
577
1381
794
11371
4398
6385
3993
3785
1183
4788
6993
761
1020
5195
3784
10191
21379
592
14598
588
4994
3167
984
2216
3770
20585
4183
3586
3593
3402
11398
1599
361
1795
1428
1986
6998
3364
3418
963
392
28
11377
1596
3996
14164
2187
1142
24
4592
2594
769
3419
596
766
4
9187
4381
385
11932
594
2194
1213
568
23
1576
1194
2988
3191
12182
6998
4372
1592
2991
5990
5195
8196
998
5994
9798
6596
8186
3977
3596
5598
9156
29906
154244
75986
20186
15399
15992
109759
37417
38156
7997
94592
29847
10602
15
9198
2578
1572
385
1147
48369
370
13199
5775
993
7987
4596
6191
10195
7391
3165
989
792
977
4940
1988
1570
19577
41781
19993
1389
19598
2995
6363
19
4398
5597
2597
13975
8588
2192
4584
800
975
6
20391
4751
374
776
579
7
1172
6183
15539
8212
7999
7179
7775
3998
371
576
13521
4217
5561
6
48998
14778
11170
19757
416
1758
4808
15799
10192
5968
1396
4156
1560
11191
780
4565
1563
29857
27851
215190
2176
212982
21009
90526
29848
2176
6614
7755
2128
11021
11
21155
5192
9625
22564
22398
45792
4993
6193
21379
585
21795
7783
10196
22371
6398
3981
11597
15424
366
32616
3796
5740
2592
43584
37230
4186
29371
791
961
47198
25429
4568
23
21766
13799
6158
29840
65622
1750
8810
14785
963
11780
33572
23992
6925
4423
582
1141
792
996
14
3767
5608
3962
786
1163
16413
3985
3990
41192
1384
16181
18785
25199
38381
22567
7993
1010
966
3027
1352
3223
787
17146
11
2755
3802
958
2016
366
1967
3
1951
396
1138
1195
1739
359
1569
3533
3170
4958
3544
27795
9596
12980
4591
1763
15775
22963
22543
29838
25031
7
4772
10
6180
403
38580
395
4392
15574
7992
804
9996
23379
4779
12617
13795
28390
13579
4
1376
7793
1588
6588
32996
28777
18791
15197
2966
33577
21996
12015
7569
30395
15376
599
13208
10377
2409
1980
14210
15178
3777
13998
7798
5614
14580
11194
6771
6376
21793
795
40395
10382
10992
5785
78154
60799
94591
29395
6423
60958
4390
592
28398
790
46199
16790
23596
21195
746
29854
11658
5790
8398
19949
838
16987
8997
17994
9989
22998
7594
3993
1995
23190
22802
1996
2599
31195
9589
9532
5436
33797
23389
2198
2199
3771
1398
4388
38598
29598
8552
8777
793
40772
6799
3598
10192
37790
59997
2346
6933
29837
409
21999
10590
11796
25578
785
1185
30961
1983
765
5430
4394
26782
11790
22998
10789
9379
15598
20174
7399
10789
1187
33994
17596
2198
582
17180
26358
965
26792
7597
2792
51385
9793
997
38390
3199
6583
25788
27360
6830
10151
29884
13808
2046
747
9981
399
12399
790
4388
15999
1396
981
9386
24176
23969
16591
10587
995
1793
1583
6999
13999
19195
21983
6990
591
12367
8994
7777
393
2596
7794
1792
6236
3145
799
13990
396
594
18189
9585
20596
4992
14789
14977
4579
9591
788
6996
5173
12390
1583
10575
4596
4186
797
6794
12186
997
8778
6978
5170
7990
4787
2587
6592
2992
5578
7387
6994
5441
28342
7785
5597
2984
29886
22246
19999
24579
6197
8399
8999
24984
7973
594
12386
589
16589
2398
17784
26988
1598
36990
16395
3579
12789
2784
47190
14995
6592
8792
4184
1189
39383
2582
175
1178
17789
24996
64783
3994
10600
30390
15780
34440
81595
10197
149798
20197
18598
114987
139949
29888
23617
9780
5387
39230
335
11592
2192
1793
23375
1596
2795
791
17196
3392
22196
398
6380
4584
596
24188
3993
4185
10599
2197
1189
1385
8194
8786
6995
10364
10389
10989
6189
5781
7395
3388
12197
26569
3789
22782
8981
2999
598
1381
23798
1596
1991
20
525
5966
8397
1792
4991
20985
9197
384
30189
10597
986
17797
2782
8594
3195
22762
2797
3376
1769
1788
6407
7398
6782
937
61589
43581
1777
8197
25368
17198
125191
29173
15781
9930
2838
26798
3180
15175
3592
52998
10187
37587
5382
5992
11768
16984
17523
9598
3
2595
17392
3590
11590
1196
1592
595
350
8628
2185
11372
3191
131779
10589
10399
7589
7190
16585
785
2394
7587
8599
37999
19372
4791
15989
5193
14187
29388
1597
15387
4592
35793
1196
583
14382
12390
8390
564
7783
14188
3590
10788
6783
26921
29811
57620
27139
40990
3594
46421
15940
61399
58390
39839
12922
761
792
5
344
3
2344
14239
69598
21950
11780
21596
12187
16986
8970
23566
29885
2210
53833
4561
57394
793
60188
4197
12189
1584
10388
17199
66797
6595
20799
5572
22595
108791
991
3034
24958
31168
421
51364
1992
