100000
2025
100000
100000
75
6000
600
100000
675
100000
100000
5400
100000
100000
100000
100000
100000
100000
100000
100000
2400
2625
100000
3825
2175
2400
1425
75
825
5250
100000
6675
825
5475
100000
2400
1800
10150
100000
8175
2700
100000
100000
100000
100000
75
100000
100000
100000
100000
100000
75
100000
100000
100000
100000
450
5400
100000
5250
100000
100000
100000
5025
975
375
825
7050
100000
825
100000
6000
100000
100000
1650
100000
1425
100000
1650
100000
3075
100000
100000
5025
100000
100000
2025
1425
1200
4800
3225
1200
100000
100000
100000
100000
100000
4200
100000
6600
75
100000
100000
3450
75
1200
75
100000
100000
100000
100000
100000
100000
100000
600
75
975
1650
2625
825
1200
2250
2025
100000
3825
100000
375
100000
100000
3225
100000
5025
975
100000
100000
100000
100000
3450
100000
100000
100000
7050
100000
100000
100000
100000
3450
2400
2400
100000
1200
1050
8625
100000
2250
100000
100000
100000
6600
6600
2400
3600
100000
2625
100000
6000
100000
6000
100000
1800
9825
2025
100000
825
75
100000
100000
2400
100000
4650
3675
3150
825
100000
3000
100000
9000
7050
100000
2175
9600
100000
3375
1050
2400
2850
7650
6225
100000
5250
5400
5025
4650
8025
100000
100000
3000
3450
1200
100000
100000
3675
100000
100000
5250
3600
100000
100000
6000
100000
5400
100000
4200
100000
10150
100000
100000
100000
100000
6450
7650
3975
100000
100000
100000
9450
6825
100000
100000
100000
1050
8850
3825
75
975
75
4200
2850
100000
100000
100000
100000
100000
300000
300000
100000
450
9825
100000
7200
100000
5850
5250
975
8475
100000
4800
3450
100000
1425
100000
1425
9825
9450
100000
825
75
1575
6975
100000
100000
100000
5250
4425
5025
100000
100000
825
1050
100000
1200
825
5400
100000
100000
600
9225
8850
2625
100000
5250
100000
7275
4050
100000
100000
2025
100000
4800
9600
1575
100000
7200
100000
100000
1200
6225
6450
100000
600
1800
4200
9600
5850
100000
1425
1275
100000
4425
2250
3600
75
100000
100000
4425
1050
75
7050
5625
75
3600
9825
825
100000
100000
6450
6375
75
825
8250
100000
100000
7425
5850
600
8400
8250
100000
9600
375
3825
75
2250
600
75
1650
450
100000
4425
450
6375
100000
8100
3225
100000
3975
825
100000
100000
75
2775
8850
2025
2250
825
75
100000
100000
9000
100000
450
100000
75
9000
3600
75
6600
100000
5850
8025
75
100000
975
450
7650
5175
75
5625
825
1050
3825
1200
100000
75
100000
100000
100000
450
100000
5250
1425
8625
1050
6600
100000
3450
5025
6000
4050
2025
6225
6000
3000
1650
3600
1050
3225
450
6225
3225
100000
2850
100000
1275
100000
100000
100000
9000
450
1200
100000
3000
100000
2250
5250
975
100000
100000
8775
100000
9600
1650
100000
100000
75
5025
4050
3825
8250
2850
100000
100000
5250
600
3975
3825
1425
450
100000
825
2850
1425
100000
5025
1200
1425
100000
100000
6600
1425
100000
100000
100000
6450
100000
100000
100000
7050
6600
8025
100000
3600
9225
8850
100000
9600
100000
100000
100000
2625
6450
6675
100000
3450
9225
2400
100000
7650
3450
2025
3375
2400
1050
6825
100000
4800
100000
2025
5625
75
2625
5025
600
5850
8025
2400
825
1650
450
100000
2400
825
100000
100000
4800
375
1050
4200
100000
4425
2775
450
100000
100000
100000
100000
6225
100000
1200
2025
5850
2625
100000
7425
7425
75
100000
3975
9000
100000
8025
1800
600
825
2025
1425
8250
1425
2250
6600
2850
6000
7425
3375
5400
2625
5475
825
100000
600
3825
375
2850
100000
4200
100000
5025
5025
600
4200
1425
1800
375
100000
100000
100000
100000
100000
100000
7650
1800
1650
3825
2025
100000
75
3825
3225
100000
7425
100000
100000
7800
600
450
75
1200
4275
1050
75
5625
4800
1800
3825
100000
75
4200
100000
4050
5250
3000
3000
6375
100000
5400
7425
100000
100000
3000
100000
3450
100000
4650
1800
2025
2025
600
100000
100000
8250
1800
3450
3225
100000
100000
6825
1425
100000
100000
100000
3825
975
975
450
3000
6000
100000
75
2250
100000
1800
75
1425
7200
100000
4200
3000
100000
6975
2250
100000
6975
100000
9075
2025
6225
3600
1875
9975
2250
100000
600
100000
3450
1050
1800
7200
3225
100000
100000
1800
8625
75
9825
1200
2400
100000
100000
75
100000
100000
100000
3000
100000
5175
100000
8400
450
100000
100000
75
100000
2025
100000
3375
975
2475
3600
7200
75
1425
100000
2025
75
825
75
450
100000
100000
75
100000
75
2625
6825
450
1800
1200
100000
6600
450
5025
5250
100000
100000
375
1200
100000
3450
1425
100000
2250
9225
600
6825
100000
100000
100000
100000
100000
9825
100000
100000
75
5025
4050
100000
100000
5025
75
100000
5400
3525
100000
4050
2625
100000
6000
2625
2250
4800
1200
450
5400
4800
2850
7800
3450
1425
2850
4200
100000
3225
7425
1425
1650
100000
6225
6450
100000
1800
8025
7650
1650
1800
2400
9825
5175
825
825
4800
5025
1425
100000
5025
4425
4275
100000
7200
8025
4425
3600
100000
100000
100000
1050
6600
100000
9825
100000
100000
5250
100000
4800
8475
3825
1650
2025
100000
100000
5025
2400
100000
3000
100000
9375
600
5775
2025
5250
600
3225
5850
6675
2025
2400
825
100000
7800
100000
2850
600
2775
100000
100000
75
100000
100000
75
600
1425
5850
10150
100000
1425
75
100000
100000
75
2775
100000
100000
100000
1800
100000
100000
75
1800
2250
75
3600
1425
100000
2400
100000
4575
825
1425
100000
75
100000
100000
100000
7200
8550
6225
100000
1425
100000
100000
100000
375
675
100000
3000
3000
4800
100000
100000
9600
2175
100000
75
100000
3825
100000
100000
4425
600
100000
100000
5025
2250
100000
600
3225
75
7050
2850
7425
3000
100000
3000
3000
100000
3600
3450
100000
100000
100000
100000
6600
5400
6825
100000
2250
5250
2400
825
8400
100000
4800
4425
5400
100000
100000
100000
100000
825
2250
4800
2250
825
1425
825
1050
825
450
3225
8850
7425
3450
8400
3450
5400
3600
100000
100000
2625
2625
8850
100000
1200
1200
100000
100000
5400
7650
2775
7650
100000
75
7800
3225
100000
2625
75
4425
825
5625
1650
6000
2400
3450
8400
6600
1200
7575
6225
8625
7650
7800
75
4200
825
2850
4800
225
825
600
1650
975
2475
825
600
100000
100000
100000
2850
9825
825
100000
100000
5625
5625
7200
100000
8850
4050
600
100000
2025
1200
1425
975
100000
100000
100000
200000
100000
200000
200000
100000
200000
100000
200000
100000
1575
100000
100000
100000
5625
100000
600
8850
100000
100000
3600
100000
4275
100000
4950
100000
100000
100000
100000
4200
6375
100000
6450
100000
2625
7800
100000
75
375
1575
100000
100000
100000
100000
2025
200000
100000
100000
200000
100000
2700
200000
100000
200000
100000
200000
100000
600
100000
600000
100000
100000
8025
8625
1800
100000
100000
3225
1200
5400
9450
4425
100000
100000
2400
450
1425
1200
1200
825
2250
2400
1050
825
3225
100000
3450
100000
100000
600
1425
2025
9450
100000
2625
7575
1800
450
9600
5625
6600
100000
1800
100000
2400
3225
7050
6000
2400
7575
100000
100000
100000
100000
1800
7425
8850
1800
6225
9000
3225
9825
600
10150
1200
100000
100000
600
100000
7050
100000
4800
5850
100000
5400
100000
600
4050
100000
100000
100000
100000
100000
3600
200000
75
2025
100000
5625
100000
100000
100000
5400
100000
8625
100000
100000
2850
100000
10150
7200
75
100000
100000
100000
100000
2850
100000
3000
100000
100000
100000
100000
450
100000
100000
2250
2250
1425
100000
100000
75
4200
100000
100000
100000
100000
100000
1800
100000
10150
100000
100000
1050
100000
100000
100000
100000
100000
7650
7650
1800
100000
100000
1050
100000
100000
100000
9600
100000
100000
100000
100000
100000
100000
1650
3825
9600
4425
3225
75
825
1050
1800
9600
9600
2250
1050
100000
75
8400
1800
100000
75
3450
75
6450
600
100000
5625
75
6825
100000
7800
100000
100000
1200
100000
100000
3225
100000
1800
3675
600
4800
100000
75
100000
100000
100000
6075
100000
75
2250
100000
100000
3600
5775
600
825
3375
2250
10150
825
8850
3000
2250
450
100000
5250
2850
5250
6000
100000
1425
100000
100000
4200
4425
7650
1425
3225
600
9600
100000
8850
3600
100000
100000
8025
825
375
1425
2250
5250
1200
100000
1425
3825
3450
2400
100000
3225
1425
7050
4425
1050
4800
5175
100000
100000
5775
1650
3600
825
1200
2250
2400
1050
1650
2025
825
750
1425
7650
8850
3000
4425
4200
1650
5250
100000
3825
1425
5025
6000
100000
6450
4050
2400
100000
375
450
100000
3000
5025
9825
7800
825
10150
2250
2400
1650
2850
2025
9000
450
2625
4800
8850
100000
5250
1650
4575
1500
9000
1800
75
600
6000
7050
5400
6000
9600
6000
4800
100000
450
3825
2400
100000
100000
675
5175
100000
825
2400
100000
7650
100000
100000
3600
1650
75
1200
1425
100000
1650
4875
600
825
3450
3600
6825
75
825
100000
1425
1425
75
5400
100000
5400
100000
1050
7425
75
2850
3600
825
1200
1650
100000
10150
100000
1050
100000
100000
2025
100000
4800
1200
1650
100000
100000
2400
2025
1800
6075
3825
100000
3450
3825
5850
5400
7425
100000
4050
600
3675
5400
1650
100000
100000
100000
100000
100000
9450
100000
6225
100000
100000
1425
100000
100000
100000
100000
100000
100000
100000
825
100000
9075
100000
100000
975
100000
1425
100000
3075
1425
450
975
450
2625
1050
1425
825
6450
1200
100000
7650
2025
5625
5025
1800
1200
75
825
450
100000
375
975
1200
6225
5250
3000
1875
2025
100000
1575
5025
2025
100000
8250
3975
825
7200
4200
2025
3225
2850
7050
1800
75
1425
2775
6000
100000
825
2175
75
6600
75
2625
75
4425
3000
600
225
2625
2850
8175
4800
825
7800
3600
7650
100000
975
1200
3225
2850
1425
825
1425
2250
6000
3600
4050
825
100000
75
825
2025
1650
3225
5250
600
1200
3000
3375
6225
2250
2400
1050
3825
600
6600
1275
2175
825
1050
600
75
1425
1650
8475
450
450
4575
9825
825
5175
600
4275
75
2025
975
825
600
2625
1800
825
1800
450
2025
450
1425
4800
75
600
5400
1200
5625
9450
1425
3225
75
1425
1650
3375
1800
2850
75
4200
6000
75
825
450
7200
100000
5625
2625
75
3375
75
5025
4050
75
3375
1650
4425
825
825
100000
8400
6600
2775
825
8250
3375
100000
7650
825
450
450
375
6675
6975
4200
6000
75
6000
75
100000
8400
5400
3000
7200
450
2775
4650
825
2475
8775
9450
75
4650
3825
5625
6450
100000
600
1200
2250
825
1650
2400
825
9450
100000
5850
3000
7425
600
2400
6225
1200
2250
100000
4650
2400
600
4875
75
4575
450
3600
1050
100000
450
100000
8400
5175
7050
4875
75
1200
8025
600
5025
75
7650
7425
4200
1050
3225
1425
100000
1875
100000
3975
1650
450
1200
6000
75
7050
1200
1875
7200
825
1050
75
100000
100000
4050
1200
75
7200
8025
1800
7650
100000
3450
75
2625
75
4575
4200
825
825
2850
5850
1800
975
100000
3825
2625
2850
75
3825
5175
3225
75
4650
100000
6000
6225
6975
100000
4200
8850
75
100000
100000
450
100000
825
5250
3600
4425
100000
2250
7050
100000
100000
3450
1050
1050
1425
100000
3600
9600
8025
100000
2400
4200
100000
100000
6225
2475
5025
75
4425
100000
5625
4425
75
600
1650
6600
100000
825
2400
4050
2400
6450
8850
100000
2850
100000
100000
100000
75
100000
1050
100000
1650
2025
8625
100000
100000
100000
525
600
4425
100000
6000
2250
100000
3225
2625
1200
900
450
600
75
3000
450
75
100000
9450
1425
2025
100000
7650
100000
7800
100000
5400
2850
2775
4050
3000
3600
6225
3450
75
450
6825
100000
4425
75
7425
75
1800
975
1650
75
3000
100000
100000
75
1050
75
825
100000
100000
5250
1200
100000
8400
7650
5250
9825
6975
3825
4650
600
2025
2400
1650
8850
100000
3225
2025
100000
7800
100000
100000
100000
100000
4800
3450
75
1650
5025
100000
975
2400
9225
600
100000
1425
100000
100000
825
100000
100000
9300
5025
100000
100000
100000
9000
100000
100000
100000
8250
100000
100000
100000
100000
1425
100000
9450
100000
100000
100000
2850
2250
3825
100000
100000
6000
100000
7800
75
100000
100000
100000
100000
100000
3450
75
2025
6600
100000
100000
75
7575
100000
75
100000
3450
8025
450
450
825
4200
100000
100000
75
7575
100000
1650
100000
1650
100000
5400
100000
100000
8400
450
2850
100000
4425
7650
6450
100000
100000
4200
2850
9000
1425
3000
100000
6825
4200
6450
100000
100000
7800
100000
100000
100000
5775
2025
100000
100000
9000
1800
100000
9450
100000
100000
100000
1425
375
100000
100000
2100
1950
825
3075
4800
3225
3225
6600
4200
1425
1425
600
75
100000
100000
1575
5175
2775
3000
825
2625
3000
1800
2025
825
600
4200
1200
100000
8475
2625
4200
100000
600
100000
100000
100000
100000
600
100000
100000
100000
100000
100000
100000
100000
5850
2250
1425
9600
100000
100000
100000
100000
100000
2625
100000
8400
100000
100000
825
600
525
1350
100000
1650
9600
100000
100000
4425
5850
8625
1050
100000
100000
100000
100000
3000
75
100000
2850
7200
6750
4650
4425
7800
2400
3225
100000
6450
9000
1050
600
4800
825
10150
100000
7875
6000
5400
100000
2625
75
3600
100000
2175
100000
100000
1800
1800
2025
2400
3450
100000
100000
2400
600
1575
100000
600
8400
4050
4800
8025
5400
1200
450
975
7650
100000
450
1650
1650
7800
1200
1800
450
100000
100000
9225
1800
2025
8025
1425
1050
1575
100000
2025
100000
2100
3450
100000
3600
100000
100000
4425
5250
825
3225
75
9600
75
600
2250
450
100000
100000
3450
100000
1050
825
100000
100000
100000
5625
5850
1800
100000
9450
4800
100000
100000
1800
100000
825
6225
8025
3825
450
100000
100000
7050
75
100000
8025
2625
5625
9600
600
100000
6450
100000
100000
6000
75
4050
5625
8025
2250
100000
7650
1425
100000
1200
3225
8250
100000
100000
75
2400
1650
1800
7650
2475
1200
3825
600
100000
2250
825
5025
2625
100000
9225
1275
2025
1650
100000
1200
3825
100000
4050
6000
3825
7575
75
4650
100000
1800
8850
3825
100000
600
1425
825
100000
4425
6450
4050
3825
1200
4800
7050
825
1050
5250
3825
100000
100000
600
100000
600
5025
3225
1050
2250
3825
100000
4200
3600
3600
3450
100000
1650
375
1800
1500
2025
7050
3375
3450
975
450
75
100000
1650
4050
100000
2250
1200
75
4650
2625
825
3450
600
825
75
9225
4425
450
100000
600
2250
1275
600
75
1650
1200
3000
3225
100000
7050
4425
1650
3000
6000
5250
8250
1050
6000
9825
6600
8250
4050
3600
5625
9225
100000
200000
100000
100000
100000
100000
200000
100000
100000
8025
100000
100000
100000
75
9225
2625
1575
450
1200
100000
375
100000
5775
1050
8025
4650
6225
100000
7425
3225
1050
825
1050
4950
2025
1575
100000
100000
100000
1425
100000
3000
6375
75
4425
5625
2625
100000
8625
2250
4650
825
975
75
100000
4800
375
825
600
75
1200
6225
100000
8250
8025
7200
7800
4050
375
600
100000
4275
5625
75
100000
100000
100000
100000
450
1800
4875
100000
100000
6000
1425
4200
1575
100000
825
4575
1575
100000
100000
300000
2250
300000
100000
100000
100000
2250
6675
7800
2175
100000
75
100000
5250
9675
100000
100000
100000
5025
6225
100000
600
100000
7800
100000
100000
6450
4050
100000
100000
375
100000
3825
5775
2625
100000
100000
4200
100000
825
975
100000
100000
4575
75
100000
100000
6225
100000
100000
1800
8850
100000
975
100000
100000
100000
6975
4425
600
1200
825
1050
75
3825
5625
3975
825
1200
100000
4050
4050
100000
1425
100000
100000
100000
100000
100000
8025
1050
975
3075
1425
3225
825
100000
75
2775
3825
975
2025
375
2025
75
2025
450
1200
1200
1800
375
1575
3600
3225
5025
3600
100000
9600
100000
4650
1800
100000
100000
100000
100000
100000
75
4800
75
6225
450
100000
450
4425
100000
8025
825
10150
100000
4800
100000
100000
100000
100000
75
1425
7800
1650
6600
100000
100000
100000
100000
3000
100000
100000
100000
7575
100000
100000
600
100000
100000
2475
2025
100000
100000
3825
100000
7800
5625
100000
100000
6825
6450
100000
825
100000
100000
100000
5850
100000
100000
100000
100000
6450
100000
4425
600
100000
825
100000
100000
100000
100000
750
100000
100000
5850
8400
100000
900
100000
9000
100000
10150
100000
7650
4050
2025
100000
100000
2025
2625
100000
9600
9600
5475
100000
100000
2250
2250
3825
1425
4425
100000
100000
8625
8850
825
100000
6825
3600
100000
100000
100000
2400
6975
100000
450
100000
100000
100000
100000
825
1200
100000
2025
825
5475
4425
100000
100000
100000
100000
9450
100000
100000
7425
100000
1200
100000
100000
2250
600
100000
100000
975
100000
7650
2850
100000
9825
1050
100000
3225
6600
100000
100000
6900
100000
100000
100000
2100
750
10150
450
100000
825
4425
100000
1425
1050
9450
100000
100000
100000
100000
1050
1800
1650
7050
100000
100000
100000
7050
600
100000
9000
7800
450
2625
7800
1800
6300
3150
825
100000
450
600
100000
9600
100000
5025
100000
100000
4650
9600
825
7050
5175
100000
1650
100000
4650
4200
825
6825
100000
1050
8850
7050
5175
8025
4800
2625
6600
3000
5625
7425
7050
5475
100000
7800
5625
3000
100000
100000
100000
100000
6225
8400
9000
100000
8025
600
100000
600
100000
2400
100000
100000
1650
100000
100000
3600
100000
2850
100000
100000
6600
8850
4200
1200
100000
2625
225
1200
100000
100000
100000
4050
100000
100000
100000
100000
100000
100000
200000
100000
100000
200000
200000
100000
100000
9825
5400
100000
375
100000
2250
1800
100000
1650
2850
825
100000
3450
100000
450
6450
4650
600
100000
4050
4200
100000
2250
1200
1425
8250
8850
7050
100000
100000
100000
6225
5850
7425
3450
100000
100000
3825
100000
9000
3000
600
1425
100000
1650
2025
75
525
6000
8400
1800
5025
100000
9225
450
100000
100000
1050
100000
2850
8625
3225
100000
2850
3450
1800
1800
6450
7425
6825
975
100000
100000
1800
8250
100000
100000
200000
100000
100000
9975
2850
100000
3225
100000
3600
100000
100000
100000
5400
6000
100000
100000
100000
9600
75
2625
100000
3600
100000
1200
1650
600
375
8700
2250
100000
3225
200000
100000
100000
7650
7200
100000
825
2400
7650
8625
100000
100000
4800
100000
5250
100000
100000
1650
100000
4650
100000
1200
600
100000
100000
8400
600
7800
100000
3600
100000
6825
100000
100000
100000
100000
100000
3600
100000
100000
100000
100000
100000
100000
825
825
75
375
75
2400
100000
100000
100000
100000
100000
100000
100000
9000
100000
100000
2250
100000
4575
100000
825
100000
4200
100000
1650
100000
100000
100000
6600
100000
5625
100000
200000
1050
3075
100000
100000
450
100000
2025
