599892
599890
599892
30626
200
347
150
700
1350
2950
201
4150
851
1504
1104
503
103
2504
804
304
550
50
4650
249
1053
354
1300
900
100
854
251
50
200
954
801
1001
900
800
400
650
200
3547
300
2353
1504
604
1854
854
800
1403
954
1596
1099
603
50
300
3501
500
1554
104
651
50
53
554
2504
51
546
2396
553
1250
951
104
4654
104
1054
504
150
404
1004
1104
700
450
154
954
900
851
1553
601
50
604
1849
153
503
1004
99
1050
596
197
1900
400
3750
550
2404
754
354
304
404
2750
2103
1004
1754
1454
1203
2000
1304
254
1954
401
1454
750
104
704
404
1554
951
150
854
199
150
3004
4950
103
754
100
254
2904
53
304
700
2203
1804
1754
401
2804
851
150
754
1100
53
1249
803
3101
1196
50
350
2904
104
1853
1004
300
249
300
2050
404
954
50
1000
1704
1654
2400
303
954
1254
550
1100
404
654
1304
1604
51
654
1800
150
1653
2150
1000
1000
53
1001
954
4303
50
404
154
300
199
650
654
250
4550
1599
1100
254
1154
149
1053
454
253
54
2704
53
2050
800
1701
150
51
554
450
599
1151
103
5603
104
1454
1051
4354
1050
550
953
1504
603
503
250
346
354
2500
1951
950
753
804
501
3150
500
801
204
1504
2400
704
546
750
1804
154
350
1450
204
351
1600
403
446
1249
453
499
1753
1651
2447
550
604
3250
701
1547
704
454
1454
451
1754
400
953
951
254
1901
301
200
350
1200
1304
950
400
1353
303
754
3300
149
103
1300
3753
303
997
100
701
1647
1204
354
254
454
399
197
1000
754
1951
150
450
354
400
1904
254
101
146
203
204
150
353
347
1646
953
704
1304
7951
53
1054
1753
354
404
704
250
6050
151
246
153
404
900
2300
753
2304
1200
1450
601
104
1500
1049
450
100
804
804
1550
999
503
250
500
104
1504
600
103
1300
1000
601
800
1199
1650
153
404
100
3446
900
50
153
1647
897
200
800
2004
1153
2054
153
600
547
1397
1300
804
653
3200
653
354
503
3454
554
1954
601
1647
1650
350
200
1751
451
1304
304
104
550
1153
51
1600
2454
1500
300
299
149
350
1699
199
50
2654
246
103
150
3499
2050
954
3903
303
951
1200
1903
1154
304
254
800
750
100
1200
1553
650
750
950
1600
51
650
154
100
1104
904
1154
303
903
703
250
1250
751
3250
51
1000
97
653
1704
101
1200
97
750
401
2196
1599
649
703
549
2303
400
100
3247
2950
499
496
1103
954
50
3000
554
2000
50
747
2200
5150
203
2049
403
1204
204
246
1700
150
151
1697
1350
101
50
350
603
1504
2004
554
704
603
1504
354
353
596
553
251
50
404
149
2103
2604
850
1500
54
650
404
1554
1104
154
351
1050
500
499
803
204
2300
554
1803
254
1154
2153
453
351
3946
153
2054
501
1100
2100
50
2001
612
599892
599901
31601
500
1302
1100
52
2352
291
1100
1291
291
249
3857
2409
2300
207
559
1757
1209
5057
700
750
143
1150
402
1591
2198
107
959
400
1509
1909
1959
2559
207
5643
191
348
398
200
50
907
1159
500
657
1800
102
557
902
750
1459
1641
207
648
1457
2309
598
507
50
57
709
4202
1202
3359
2559
950
1402
209
509
409
559
850
157
443
991
507
2100
850
50
609
109
1600
1057
659
2707
159
1359
1659
51
792
2007
557
1050
207
1659
309
708
559
209
950
150
150
309
1391
50
3150
150
2352
509
3348
348
1549
207
459
1759
557
1302
1350
98
57
357
2559
400
859
1057
2150
407
259
700
2100
399
357
2359
2457
1009
150
150
1641
107
1657
991
1791
207
950
698
1859
559
659
1409
959
848
100
1550
152
1250
57
1759
159
959
748
1957
409
1502
250
2300
4200
502
809
102
50
709
159
441
1048
59
107
1709
350
1941
450
557
852
1443
1043
2550
859
1859
50
548
2307
650
907
300
2557
2098
102
207
400
1207
359
50
1693
209
907
1700
1002
350
141
3359
1092
407
1058
1859
607
809
1498
50
200
409
1009
200
3008
307
1750
507
1950
757
1907
309
959
441
858
58
200
1602
2059
159
309
51
243
3793
3259
59
2700
58
2409
359
409
7652
141
2209
993
1109
1200
909
459
3407
5707
250
1749
450
98
1859
59
609
157
1759
1007
350
600
593
150
550
702
300
191
1400
93
1250
1600
450
2150
2450
359
401
145
241
900
1407
2258
2659
1059
957
857
1707
200
893
341
448
1900
250
750
50
501
450
300
91
50
1459
609
650
250
250
1998
1143
1459
450
557
2400
100
1050
1300
202
259
1991
1257
357
209
1200
1107
649
1400
49
1200
250
250
307
1400
409
2100
1101
2293
1150
850
2600
1950
1757
1509
359
700
659
350
148
1308
809
500
50
1007
802
409
2109
509
1502
1000
891
1998
1543
950
1250
157
459
902
791
1249
748
1607
1059
1059
899
2400
2159
609
1709
707
458
509
108
2007
352
359
459
1657
1643
1359
948
158
559
809
250
1150
1450
657
50
107
200
100
1502
509
1702
941
457
98
1000
52
291
1000
50
407
209
109
52
1109
1350
157
200
550
3698
1050
459
1200
300
659
198
600
259
409
2407
2243
400
1209
3400
1157
250
1900
3807
1300
500
157
3259
509
2859
902
2050
459
159
759
1157
1641
908
559
2659
3259
3850
509
152
1700
2102
509
2650
57
658
502
309
52
250
200
448
850
209
1750
2009
6198
1143
500
1450
408
159
1550
450
2552
500
1707
1600
1157
750
59
2009
1150
1909
207
1259
1100
600
51
200
52
641
2459
91
50
209
2159
2459
1150
750
998
358
1459
209
200
1807
1457
857
2852
100
249
307
1309
559
402
152
2500
407
957
201
209
402
1443
1109
550
1000
93
599906
599893
599890
599897
599891
599891
599892
599890
599892
599893
599892
599891
599891
599893
599898
599900
599891
599892
599895
599895
63800
536041
599904
599891
599896
30366
1058
364
464
150
550
742
364
806
108
5814
664
1386
64
965
257
1550
1149
1108
2207
114
792
100
406
50
950
1300
2150
50
1600
86
2636
150
1150
1157
151
1150
256
4350
194
58
58
1514
901
108
294
908
1200
350
1700
306
200
508
1408
814
108
515
1858
1243
608
714
1464
2344
700
1414
1400
742
5736
1458
550
1858
315
3350
714
1058
4315
114
915
315
94
200
1758
1658
500
308
64
1800
386
1358
56
1835
1058
200
950
158
514
56
844
486
1258
150
1886
86
392
192
64
208
150
208
1000
250
956
1100
1706
2300
1314
4315
164
50
258
306
636
585
64
1592
150
408
250
50
2349
2714
101
3585
758
400
392
1250
1450
499
715
3050
536
6408
306
2458
600
158
51
250
1564
414
1364
264
2664
750
458
150
451
93
1236
50
615
650
200
1300
50
2414
157
914
300
1486
1558
1108
800
464
1056
465
656
1400
914
1356
450
806
1764
1600
458
192
50
964
106
1706
750
3606
492
50
250
258
1850
50
1506
4550
2056
1050
3094
4514
2614
750
508
550
4000
1250
758
608
1251
2808
850
544
350
264
1158
292
4700
264
415
850
1800
150
1908
1158
1750
4008
364
258
1950
556
114
1408
3056
1950
750
2158
2114
664
1856
64
114
3906
250
400
900
758
2356
50
1608
56
386
350
2000
157
2456
250
665
115
1601
2964
1949
108
199
544
1344
650
394
643
4350
1208
1114
814
2607
336
2858
2608
414
464
1006
1250
414
250
1500
400
849
800
1300
508
956
450
58
1058
915
1864
1601
458
1164
650
92
2600
614
994
1994
308
208
114
50
936
100
1350
164
2000
636
1736
2794
3558
565
814
1064
1164
1257
256
2486
350
3542
456
4700
58
1464
2464
814
900
558
2601
408
350
714
914
415
1364
342
50
950
1350
842
314
150
2458
514
3500
3006
92
350
414
358
2214
864
1164
206
1256
542
600
2114
50
500
1365
365
1700
294
208
300
700
814
508
1808
1406
314
1556
2314
564
94
94
186
1608
442
800
364
2500
4256
1300
56
150
1465
2714
350
1258
1064
650
400
1250
1664
364
414
599
1050
557
614
164
1192
100
500
3664
108
114
515
750
458
300
808
858
556
50
1358
714
64
1950
1500
5114
958
51
85
308
914
1406
1914
1156
414
356
164
264
244
1858
1414
993
844
58
600
199
286
1758
465
415
815
614
1606
686
400
500
886
964
1356
1165
244
899
2215
614
50
836
92
186
300
258
664
414
1656
515
850
208
2464
258
164
1364
2100
608
336
408
900
108
750
100
3114
200
150
2958
564
1358
264
814
1006
4700
165
1150
594
464
164
1000
150
164
808
100
543
1144
1858
1308
2300
158
356
1200
2394
850
850
256
400
1114
714
350
450
843
1842
2236
2758
50
1036
2000
2814
911
599893
599918
599894
599892
599903
599891
599892
32308
550
1004
3108
496
354
58
54
300
1250
1304
458
1654
150
1196
350
2096
658
1996
1250
258
100
300
50
708
250
2346
108
300
1900
192
404
342
108
1104
1504
358
1200
1300
792
100
604
2200
3196
1404
450
450
858
204
358
392
154
1900
504
708
308
650
854
5958
58
2758
250
100
1096
804
1450
1258
1004
408
308
2408
58
50
808
3900
1050
2208
96
1658
1258
3250
704
192
196
654
646
1608
1404
742
604
1600
158
1742
3696
646
950
650
1258
208
108
1108
554
1050
708
108
1550
250
1350
604
700
654
58
1400
700
1404
1454
604
458
2008
1954
1604
1996
850
2658
1608
350
304
1254
308
204
1150
1108
954
50
1908
158
58
408
408
404
50
108
3808
708
2258
708
542
196
504
996
304
804
700
458
458
1804
608
1558
2100
692
200
3046
400
2558
1204
2200
650
3150
400
1008
904
1450
304
1458
408
1408
54
1258
808
100
204
50
446
1550
400
154
2258
2004
1696
4808
208
1308
58
1458
900
200
1942
104
750
646
2908
158
858
50
1396
150
704
300
250
996
454
2242
50
104
1608
892
196
950
358
50
754
1008
158
892
2046
100
1004
1050
358
504
1154
2250
1946
2600
450
358
1304
358
158
458
1808
1658
504
358
2154
1262
1300
150
1550
554
1700
354
2050
1746
58
604
650
400
904
2704
1104
1258
2504
800
904
1350
450
96
558
596
1608
304
50
700
708
1158
854
4908
246
50
2004
396
1758
550
608
1208
1158
346
50
2004
150
1208
308
100
2250
1100
1096
504
150
2454
2196
142
1654
500
204
758
50
358
958
358
1796
646
250
4000
950
1708
1508
1658
758
800
1592
304
508
1504
454
208
100
1204
750
1950
1346
1200
704
1858
396
250
196
50
950
1558
608
904
350
4054
800
250
846
196
1854
454
308
1900
54
554
308
400
50
4004
450
1654
1396
800
296
1142
550
146
554
700
1792
700
1604
458
3358
1800
2400
2658
54
1858
50
300
2958
1108
1354
142
554
1604
1758
1304
1100
204
1708
2608
50
1900
342
1996
150
1000
54
700
458
50
50
250
258
858
650
1342
954
50
1500
104
1350
2604
100
754
442
208
600
258
4208
3308
850
596
900
58
1158
2604
108
1354
1154
1100
254
50
1204
1142
1754
208
158
308
700
804
704
854
804
1392
558
58
3350
1396
2208
658
146
6058
2500
1204
254
4200
296
1650
1354
400
500
554
700
1000
1954
258
1254
96
450
150
2146
1496
500
1250
1196
146
1500
546
1592
496
2292
50
500
1750
1500
750
1404
508
550
600
546
758
1558
100
1800
1442
558
542
846
2108
358
1146
200
850
1308
1250
404
808
1408
208
2458
4008
508
404
300
196
1050
400
2296
450
1300
100
154
1758
250
604
608
908
550
1500
508
1354
654
392
246
1450
2054
496
3350
150
158
1804
958
358
504
2550
450
50
208
754
685
30155
450
2450
50
605
2294
1550
461
305
1761
845
211
161
955
61
511
305
195
1006
1411
339
111
511
1706
805
3150
3300
1395
200
600
2206
2561
1111
261
700
200
1911
2355
650
344
200
3689
200
95
2255
200
2255
700
2755
50
1450
4556
2095
695
1806
305
239
50
55
194
2289
206
306
961
1205
750
989
106
600
100
1761
244
500
450
1856
2506
2150
495
1106
611
456
1561
645
1106
161
655
450
7061
61
461
906
111
1306
50
2950
545
1395
656
361
161
505
1050
89
450
261
855
761
255
2200
145
456
1555
439
806
161
2411
3305
300
3361
150
1806
250
100
550
1261
2305
2400
1461
2150
2400
1011
1205
350
945
3350
1795
1695
3056
1105
89
656
2811
205
250
456
56
1061
1061
61
250
1756
1511
1161
161
2461
255
750
61
1011
56
161
150
100
100
1106
1655
1044
350
50
206
4000
55
800
50
600
594
350
261
361
206
606
311
361
1006
311
611
200
1105
1505
3739
400
3311
461
961
761
4155
300
650
500
4605
150
800
2250
1311
1211
1300
2361
161
939
2800
3700
1195
3494
150
1111
461
861
656
461
2411
1861
1006
105
600
1756
2156
961
900
961
261
1111
1906
311
1111
50
1750
2106
256
1161
144
900
3011
1105
1695
361
1150
406
311
250
50
50
1711
661
50
400
1300
2056
350
50
250
650
656
361
200
756
961
706
855
311
1811
461
150
1805
411
1111
1805
555
1000
361
1411
1511
3711
55
789
1095
1150
611
1045
2550
456
1161
1750
195
700
2745
2106
50
656
311
3261
111
61
95
1400
950
261
2050
656
150
861
55
300
461
155
4356
100
206
2950
1456
395
1550
1955
2689
650
2094
689
655
400
1161
761
261
4161
111
350
806
261
689
900
461
2361
911
1111
756
61
350
1100
1800
106
100
3145
750
1850
150
606
61
705
4950
1344
1200
850
800
500
745
206
1261
161
300
306
806
211
1811
1206
2611
2505
2150
561
100
56
706
2061
1050
1345
295
200
339
800
1611
950
295
245
650
155
139
406
700
195
1039
2100
3011
161
2611
500
2250
405
1700
756
50
2206
600
2550
2500
656
95
2056
244
1350
94
800
1161
1411
844
1350
211
2761
861
100
956
700
1155
650
500
2656
1311
1395
2545
194
300
261
2061
600
861
3006
1211
111
2705
89
106
1705
1961
655
794
250
2150
450
50
261
950
700
56
711
850
211
311
611
1650
344
2100
1700
950
255
600
1600
50
1305
200
556
550
161
911
1961
5511
1611
400
3100
945
1545
956
1061
811
561
1250
261
400
2495
400
750
1511
405
350
250
900
1900
1011
1394
550
2206
206
155
200
4261
1161
2256
361
350
355
2356
1061
1255
1762
956
661
2700
456
261
2844
606
50
494
300
1595
856
187
599892
599895
599925
599877
599895
32100
1852
153
1297
1300
2
150
101
2253
1952
203
703
1150
151
50
102
351
250
1449
550
50
2203
350
150
497
2
152
502
400
302
800
501
600
152
197
552
150
1900
2203
1702
199
100
953
1153
699
152
250
603
1153
1400
200
1803
1400
1047
51
1252
950
550
399
103
150
149
200
251
203
403
503
553
303
250
1052
249
1453
350
652
503
353
1203
103
101
3
102
653
451
700
100
149
2
251
850
2
203
700
3148
200
1303
203
150
700
50
2
50
51
199
452
1349
51
701
100
647
299
1703
103
1450
2
753
1302
453
50
650
349
50
1153
1352
502
103
53
603
103
600
200
300
51
100
552
100
53
350
2202
100
352
650
850
1049
449
2
151
349
403
51
1299
49
301
2499
847
52
202
450
203
3
99
1000
2503
601
1100
200
649
53
653
453
103
102
303
203
153
103
900
4253
2597
99
453
48
251
250
300
353
402
201
250
298
400
701
97
652
53
1003
299
302
1001
253
51
97
1350
47
52
97
353
50
2
50
150
1303
153
1
403
50
1799
499
152
1099
51
353
300
302
100
253
1
750
900
303
200
47
452
253
900
200
102
553
453
1503
702
51
300
4102
1751
1548
797
50
403
403
48
1203
101
153
250
1202
851
850
1902
400
1097
153
1
997
101
2
1
797
1303
402
50
250
753
1900
103
2503
3353
602
600
198
1503
1203
203
349
350
1903
500
249
2
901
250
1953
1650
247
50
501
47
2
350
1002
1200
652
853
650
199
2
1103
101
250
151
547
752
53
2300
52
50
1051
647
50
152
2452
2453
301
1353
652
153
203
903
152
301
398
348
803
600
2
753
103
300
1
400
2402
49
399
552
1
448
300
2497
253
1353
303
1550
200
600
2
1
47
2
147
1399
247
50
50
1650
2
203
2103
253
150
250
1452
550
152
1003
751
450
52
1703
97
1302
197
500
801
353
49
250
50
250
101
553
150
53
102
303
53
650
298
52
1
950
1450
502
1
200
53
902
1003
100
450
1053
200
2753
150
50
1353
400
249
50
153
399
102
850
200
1149
650
300
1202
400
150
301
401
151
150
400
3
102
751
447
100
400
498
50
748
900
350
2050
353
701
1000
200
950
251
52
153
100
452
1752
247
501
149
2253
2403
1153
603
148
1401
350
752
453
1103
203
353
503
500
452
700
752
300
100
350
450
1500
1
1647
348
1903
103
1700
247
1497
100
153
353
801
350
801
449
50
803
350
147
148
353
1
1650
900
248
147
50
1203
1800
48
300
1352
750
153
303
1553
451
150
1600
149
400
152
249
1152
553
402
200
52
202
800
1100
1403
199
399
103
3103
900
1
197
101
152
702
1249
100
300
50
3
198
1350
200
450
1
103
153
848
1597
352
801
3
702
653
753
253
150
103
603
603
50
250
653
900
2902
1252
402
751
503
850
1003
351
348
101
200
652
500
603
3
203
353
502
49
1
450
2950
200
300
252
1150
497
752
603
600
603
902
300
1
199
250
400
52
151
99
3
350
1600
47
102
151
152
400
352
803
800
1048
399
49
100
50
51
453
903
453
200
848
403
550
400
199
1350
1397
1202
350
401
101
498
52
1
50
450
302
949
252
1400
347
100
1350
403
402
50
3052
903
2803
949
248
953
400
2
53
150
1
500
300
1300
649
602
1152
800
903
202
1247
297
198
53
601
548
1248
451
553
200
1003
47
700
498
1252
850
1400
298
53
1103
50
51
253
553
3203
1749
2703
1303
353
1100
1452
203
53
153
2152
50
349
51
47
200
1199
3
1197
799
347
902
353
153
1603
1150
248
49
650
753
1700
3747
200
650
2
1
1300
3253
1351
1250
101
1053
2053
850
1103
453
100
50
1203
2850
502
348
800
50
53
803
503
599
1400
553
500
1402
450
1349
249
802
151
752
150
47
50
201
447
302
1203
253
1403
303
950
450
50
100
50
2
550
1153
153
147
51
3
52
1803
2103
153
103
602
51
700
402
703
2400
103
150
100
51
50
552
503
202
803
151
699
103
1150
400
853
98
500
1951
1250
151
353
1200
50
3102
903
1053
800
453
453
151
50
952
1650
253
1250
49
448
50
2201
1250
750
250
150
1803
2203
1100
899
1002
751
903
203
1101
752
150
201
598
347
502
300
950
903
52
700
1503
1201
350
1
47
999
253
298
153
302
399
1
552
600
248
42
599893
599974
599893
599892
31354
358
358
1708
150
200
750
7196
200
350
858
292
358
358
850
2350
1650
50
1550
254
1850
854
854
1058
458
708
150
700
642
204
1592
304
208
54
1358
708
3700
2204
1250
396
2650
2108
508
350
950
2658
954
254
758
2500
1192
954
500
704
4454
1804
758
704
508
250
1200
158
1808
2646
1000
758
604
1458
600
404
404
808
500
254
204
1600
958
358
308
1004
1158
250
658
446
700
1400
700
1300
350
454
1208
1700
50
1258
808
458
700
454
454
558
104
1108
808
254
200
50
946
1454
1458
554
96
900
558
900
650
1254
3358
646
1654
1508
4258
3200
446
596
154
2058
2558
708
200
3004
1154
204
50
896
450
1808
896
1446
1096
1000
258
200
654
658
650
1142
1004
300
1296
942
1000
158
900
196
100
1754
1804
650
1400
604
950
754
1208
1050
346
3608
1650
300
50
1642
554
150
2046
1196
600
608
1700
96
800
600
1400
2700
1050
3554
600
1246
200
1104
400
1004
308
508
504
1150
550
2200
658
358
300
6958
604
1158
4300
50
454
92
1704
3450
354
304
50
958
2758
50
500
2250
158
258
596
900
2300
654
296
3650
408
358
558
300
458
558
2796
104
804
700
3100
258
558
1758
408
2842
300
96
50
350
150
808
858
750
1554
900
1654
296
250
54
300
1308
408
2800
750
404
508
108
750
1050
454
1608
2196
904
350
4250
200
750
346
804
2096
604
846
2254
250
850
1250
2858
450
1900
408
150
2254
358
108
2300
496
96
896
196
1558
54
1708
150
1500
92
1508
200
350
208
1150
100
200
908
300
54
4658
354
400
446
1300
2050
1854
50
50
50
104
850
1000
700
2608
108
304
1304
250
1658
2208
150
54
1408
750
3004
3354
850
1308
304
608
154
108
1204
196
196
700
258
7246
600
1054
1204
108
846
3296
500
3708
754
50
408
608
1458
958
800
50
242
5150
1600
458
2458
1054
858
1554
2058
4654
108
3300
896
104
1504
308
1050
1258
1250
250
154
1796
354
1150
1500
308
704
204
458
858
3254
454
250
458
300
792
792
54
508
3858
404
1358
1050
504
592
450
308
2704
50
2704
1504
1808
54
600
1546
1946
200
696
100
658
550
1754
308
54
700
1104
658
1658
704
1250
1508
958
254
858
158
346
396
1042
558
50
596
592
954
292
1450
854
658
1608
2254
808
92
50
108
58
108
1150
196
1596
404
96
2558
200
100
246
2142
1596
846
50
50
1954
1592
1696
2754
2150
758
1608
58
300
50
2196
1550
200
704
904
200
258
758
2358
104
450
1000
1450
554
954
2250
708
146
1400
2700
200
1104
808
158
700
2250
96
708
1908
2458
1058
2100
50
792
696
1850
604
208
858
254
1400
1146
242
904
900
1004
108
558
1400
596
158
400
650
250
1108
1946
1246
250
354
2900
1754
500
358
2004
58
2354
150
158
708
195
599892
599892
599891
599893
599892
599910
599891
599892
